1	Manuel	692,536	1:39
2	Domingos	518,022	1:52
3	Francisco	500,472	1:54
4	António	455,906	1:59
5	da Silva	421,989	1:64
6	Pedro	409,764	1:66
7	dos Santos	382,551	1:71
8	Neto	326,549	1:83
9	Miguel	306,633	1:88
10	da Costa	270,941	1:100
11	Gomes	259,504	1:104
12	Paulo	243,531	1:111
13	João	241,165	1:112
14	Fernandes	240,376	1:112
15	Mateus	230,714	1:117
16	Ferreira	222,432	1:121
17	Sántos	216,122	1:125
18	Afonso	186,346	1:145
19	Antonio	184,965	1:146
20	Gonçalves	184,177	1:147
21	Lopes	179,247	1:151
22	José	177,669	1:152
23	Pereira	171,951	1:157
24	Martins	165,838	1:163
25	Pinto	162,880	1:166
26	Gaspar	159,331	1:169
27	André	157,359	1:172
28	Sebastião	155,781	1:173
29	Joaquim	146,119	1:185
30	Mendes	145,330	1:186
31	Dias	143,950	1:187
32	Agostinho	143,161	1:189
33	Correia	136,654	1:198
34	Baptista	133,893	1:202
35	Bernardo	133,696	1:202
36	Pascoal	131,527	1:205
37	Cardoso	129,752	1:208
38	Joao	129,160	1:209
39	Almeida	126,991	1:213
40	Fernando	124,428	1:217
41	Augusto	121,864	1:221
42	Oliveira	117,920	1:229
43	Alberto	115,949	1:233
44	Lourenço	115,751	1:233
45	Teixeira	112,399	1:240
46	Monteiro	111,413	1:242
47	Jorge	107,666	1:251
48	Diogo	106,878	1:253
49	Simão	102,145	1:264
50	de Almeida	98,596	1:274
51	Filipe	96,624	1:279
52	Morais	95,638	1:282
52	Rodriguês	95,638	1:282
54	Carlos	93,469	1:289
55	de Sousa	91,694	1:294
56	de Carvalho	90,708	1:298
57	Sebastiao	89,130	1:303
58	Dala	82,426	1:327
59	Eduardo	81,637	1:331
60	Luís	81,046	1:333
61	Alexandre	79,665	1:339
62	de Oliveira	74,341	1:363
63	Bento	72,764	1:371
64	Nunes	72,566	1:372
65	Alfredo	71,580	1:377
65	Tavares	71,580	1:377
67	Miranda	69,806	1:387
68	Simao	69,214	1:390
69	Panzo	68,820	1:392
70	Luis	67,834	1:398
71	Machado	66,848	1:404
72	Barros	65,270	1:414
73	Neves	62,707	1:430
74	Lima	61,918	1:436
75	Salvador	60,143	1:449
76	Bartolomeu	59,552	1:453
77	Junior	59,157	1:456
78	Marquês	57,580	1:469
78	Nascimento	57,580	1:469
80	Andre	56,791	1:475
81	Paulino	56,594	1:477
82	Cunha	56,002	1:482
83	Andrade	55,411	1:487
83	Lemos	55,411	1:487
83	Matias	55,411	1:487
86	Samuel	55,214	1:489
87	Alves	54,425	1:496
87	Gonga	54,425	1:496
89	Gabriel	51,861	1:520
90	Adão	51,270	1:526
91	Caetano	50,875	1:531
92	Jamba	50,678	1:533
93	Ventura	50,284	1:537
94	Fonsêca	49,495	1:545
95	Vunge	49,298	1:547
95	da Cruz	49,298	1:547
97	Bumba	48,903	1:552
98	Henriques	48,706	1:554
99	Coelho	47,917	1:563
100	Borges	47,523	1:568
101	Faria	46,537	1:580
101	Jacinto	46,537	1:580
103	Xavier	45,354	1:595
104	Pires	44,762	1:603
105	Armando	44,565	1:606
106	Ngola	44,171	1:611
107	Ernesto	43,579	1:619
107	Rocha	43,579	1:619
109	Inácio	43,185	1:625
110	Muhongo	42,988	1:628
111	Bunga	42,396	1:637
111	Tomás	42,396	1:637
113	Figueiredo	42,199	1:640
114	da Conceição	41,016	1:658
115	Matos	39,833	1:678
116	Cassule	39,635	1:681
117	Simões	38,650	1:698
118	Fortunato	38,452	1:702
119	Casimiro	38,058	1:709
120	Freitas	37,466	1:720
121	Adriano	37,269	1:724
121	Duarte	37,269	1:724
123	Cabral	36,480	1:740
124	Araújo	36,283	1:744
124	Brito	36,283	1:744
124	Gouveia	36,283	1:744
127	Victor	35,692	1:756
127	Zua	35,692	1:756
129	Nicolau	35,494	1:760
129	Reis	35,494	1:760
131	Tomas	34,311	1:787
132	Faustino	33,523	1:805
133	Ferraz	32,734	1:825
133	Figueira	32,734	1:825
133	Júnior	32,734	1:825
136	Kiala	32,537	1:829
137	Maria	32,339	1:835
138	Amaral	32,142	1:840
138	Viegas	32,142	1:840
140	Bastos	31,748	1:850
141	Moreira	31,353	1:861
142	Segunda	31,156	1:866
143	Cassoma	30,959	1:872
143	Guimarães	30,959	1:872
143	da Cunha	30,959	1:872
146	Albino	30,762	1:877
147	Baltazar	30,565	1:883
147	Pacheco	30,565	1:883
149	Jaime	30,367	1:889
150	Sampaio	30,170	1:895
150	Vaz	30,170	1:895
152	Raimundo	29,973	1:900
152	Rosa	29,973	1:900
154	Avelino	29,776	1:906
154	Felix	29,776	1:906
156	Marques	29,579	1:912