1	Grigoryan	83,746	1:35
2	Sargsyan	81,392	1:36
3	Harutyunyan	78,655	1:37
4	Hovhannisyan	74,952	1:39
5	Khachatryan	71,734	1:41
6	Hakobyan	67,509	1:43
7	Petrosyan	50,313	1:58
8	Vardanyan	49,771	1:59
9	Gevorgyan	49,538	1:59
10	Karapetyan	48,755	1:60
11	Mkrtchyan	44,728	1:66
12	Manukyan	43,136	1:68
13	Ghazaryan	41,714	1:70
14	Avetisyan	41,469	1:71
15	Martirosyan	35,920	1:82
16	Poghosyan	35,782	1:82
17	Sahakyan	33,663	1:87
18	Margaryan	28,987	1:101
19	Arakelyan	28,735	1:102
20	Davtyan	26,775	1:109
21	Simonyan	26,320	1:111
22	Stepanyan	26,268	1:112
23	Galstyan	25,742	1:114
24	Hayrapetyan	24,764	1:118
25	Muradyan	24,571	1:119
26	Gasparyan	24,240	1:121
27	Avagyan	22,781	1:129
28	Baghdasaryan	22,632	1:129
29	Abrahamyan	20,694	1:142
30	Asatryan	19,810	1:148
31	Hovsepyan	18,930	1:155
32	Melkonyan	18,262	1:160
33	Minasyan	16,582	1:177
34	Kirakosyan	15,887	1:184
35	Mkhitaryan	15,798	1:185
36	Babayan	15,590	1:188
37	Aleksanyan	15,301	1:192
38	Barseghyan	14,937	1:196
39	Tadevosyan	14,841	1:197
40	Yeghiazaryan	13,451	1:218
41	Zakaryan	13,384	1:219
42	Ohanyan	13,334	1:220
43	Mnacakanyan	13,301	1:220
44	Movsisyan	12,953	1:226
45	Hambardzumyan	12,940	1:226
46	Danielyan	12,493	1:235
47	Badalyan	12,491	1:235
48	Ayvazyan	12,392	1:236
49	Torosyan	11,635	1:252
50	Tovmasyan	11,310	1:259
51	Nersisyan	11,135	1:263
52	Nazaryan	11,063	1:265
53	Mirzoyan	10,961	1:267
54	Antonyan	10,626	1:276
55	Gabrielyan	10,333	1:284
56	Safaryan	10,174	1:288
57	Matevosyan	10,063	1:291
58	Kocharyan	9,409	1:311
59	Ghukasyan	9,326	1:314
60	Melikyan	8,656	1:339
61	Adamyan	8,620	1:340
62	Mikayelyan	8,564	1:342
63	Aslanyan	8,513	1:344
64	Oskanyan	8,501	1:345
65	Gharibyan	8,142	1:360
66	Hovakimyan	8,008	1:366
67	Sukiasyan	7,887	1:372
68	Aghajanyan	7,676	1:382
69	Arzumanyan	7,546	1:388
70	Tonoyan	7,228	1:405
71	Nikoghosyan	7,075	1:414
72	Markosyan	6,873	1:426
73	Shahbazyan	6,201	1:473
74	Arshakyan	6,149	1:477
75	Shahinyan	5,737	1:511
76	Soghomonyan	5,477	1:535
77	Yesayan	5,221	1:561
78	Abgaryan	5,219	1:561
79	Hunanyan	5,033	1:582
80	Saribekyan	4,991	1:587
81	Darbinyan	4,952	1:592
82	Aloyan	4,815	1:609
83	Makaryan	4,699	1:624
84	Alaverdyan	4,647	1:631
85	Tumanyan	4,583	1:639
86	Nahapetyan	4,563	1:642
87	Shahnazaryan	4,416	1:664
88	Nalbandyan	4,409	1:665
89	Manucharyan	4,356	1:673
90	Navasardyan	4,324	1:678
91	Dallakyan	4,304	1:681
92	Andreasyan	4,280	1:685
93	Malkhasyan	4,240	1:691
94	Avdalyan	4,234	1:692
95	Serobyan	4,153	1:706
96	Beglaryan	4,136	1:708
97	Avanesyan	4,062	1:721
98	Amirkhanyan	4,031	1:727
99	Movsesyan	3,975	1:737
100	Melkumyan	3,959	1:740
101	Atoyan	3,872	1:757
102	Galoyan	3,862	1:759
103	Papikyan	3,833	1:764
104	Mesropyan	3,802	1:771
105	Sardaryan	3,747	1:782
106	Kostanyan	3,740	1:783
107	Sedrakyan	3,669	1:799
108	Khachikyan	3,551	1:825
109	Amiryan	3,539	1:828
110	Avetyan	3,532	1:830
111	Papoyan	3,523	1:832
112	Khalatyan	3,422	1:856
113	Caturyan	3,416	1:858
114	Papyan	3,369	1:870
115	Khudoyan	3,274	1:895
116	Ananyan	3,244	1:903
117	Meliksetyan	3,221	1:910
118	Smbatyan	3,218	1:911
119	Cobanyan	3,196	1:917
120	Yeghoyan	3,161	1:927
121	Israyelyan	3,155	1:929
122	Xachatryan	3,133	1:935
123	Zohrabyan	3,130	1:936
124	Virabyan	3,072	1:954
125	Arustamyan	3,066	1:956
126	Azatyan	3,029	1:967
127	Azizyan	3,000	1:977
128	Yenokyan	2,998	1:977
129	Saroyan	2,995	1:978
130	Nersesyan	2,936	1:998
131	Yericyan	2,879	1:1,018
132	Khachaturyan	2,823	1:1,038
133	Saghatelyan	2,810	1:1,043
134	Zargaryan	2,695	1:1,087
135	Sarukhanyan	2,671	1:1,097
136	Yepremyan	2,652	1:1,105
137	Iskandaryan	2,650	1:1,106
138	Tigranyan	2,637	1:1,111
139	Babajanyan	2,628	1:1,115
140	Mkrtumyan	2,601	1:1,127
141	Hambaryan	2,581	1:1,135
142	Mikaelyan	2,580	1:1,136
143	Azaryan	2,571	1:1,140
144	Asryan	2,551	1:1,149
145	Balayan	2,543	1:1,152
146	Aghabekyan	2,521	1:1,162
147	Hakhverdyan	2,504	1:1,170
148	Kharatyan	2,499	1:1,173
149	Haroyan	2,485	1:1,179
150	Meloyan	2,469	1:1,187
151	Manasyan	2,465	1:1,189
152	Sarkisyan	2,456	1:1,193
153	Sayadyan	2,441	1:1,200
154	Madoyan	2,427	1:1,207
155	Ghevondyan	2,403	1:1,219
156	Aramyan	2,376	1:1,233
157	Aghababyan	2,333	1:1,256
158	Kazaryan	2,316	1:1,265
159	Ispiryan	2,312	1:1,267
160	Cilingaryan	2,307	1:1,270
161	Tamrazyan	2,299	1:1,275
162	Zakharyan	2,294	1:1,277
163	Arsenyan	2,288	1:1,281
164	Yeganyan	2,272	1:1,290
165	Karamyan	2,270	1:1,291
166	Mehrabyan	2,264	1:1,294
167	Khurshudyan	2,260	1:1,297
168	Pogosyan	2,225	1:1,317
169	Balasanyan	2,200	1:1,332
170	Yengibaryan	2,158	1:1,358
171	Baghramyan	2,154	1:1,360
172	Abovyan	2,150	1:1,363
173	Arutyunyan	2,138	1:1,371
174	Geghamyan	2,118	1:1,383
175	Kalashyan	2,111	1:1,388
176	Matinyan	2,095	1:1,399
177	Khlghatyan	2,077	1:1,411
178	Asoyan	2,069	1:1,416
179	Panosyan	2,051	1:1,429
180	Yeremyan	2,023	1:1,448
181	Manvelyan	1,993	1:1,470
182	Alikhanyan	1,984	1:1,477
183	Balyan	1,981	1:1,479
184	Terteryan	1,961	1:1,494
185	Hakobjanyan	1,932	1:1,517
186	Shahverdyan	1,913	1:1,532
187	Lalayan	1,864	1:1,572
188	Mayilyan	1,848	1:1,586
189	Knyazyan	1,833	1:1,599
190	Soghoyan	1,831	1:1,600
191	Israelyan	1,818	1:1,612
192	Ohanjanyan	1,803	1:1,625
193	Akopyan	1,778	1:1,648
194	Yeranosyan	1,772	1:1,654
195	Nazaretyan	1,769	1:1,656
196	Mkhoyan	1,754	1:1,671
197	Ghambaryan	1,753	1:1,672
197	Misakyan	1,753	1:1,672
199	Mirzakhanyan	1,705	1:1,719
200	Mamikonyan	1,695	1:1,729
201	Samvelyan	1,653	1:1,773
201	Vanyan	1,653	1:1,773
203	Tamoyan	1,635	1:1,792
204	Kamalyan	1,634	1:1,793
205	Tumasyan	1,627	1:1,801
206	Apresyan	1,608	1:1,822
207	Ginosyan	1,602	1:1,829
208	Musheghyan	1,586	1:1,848
209	Varosyan	1,584	1:1,850
210	Vardazaryan	1,576	1:1,859
211	Najaryan	1,575	1:1,860
212	Araqelyan	1,570	1:1,866
213	Avoyan	1,548	1:1,893
214	Ghahramanyan	1,536	1:1,908
215	Aghekyan	1,523	1:1,924
216	Piloyan	1,516	1:1,933
217	Dilanyan	1,513	1:1,937
218	Bagdasaryan	1,484	1:1,975
219	Tamazyan	1,478	1:1,983
220	Kostandyan	1,467	1:1,997
221	Yeghikyan	1,465	1:2,000
222	Ozmanyan	1,463	1:2,003
223	Arushanyan	1,461	1:2,006
224	Levonyan	1,459	1:2,008
225	Avalyan	1,451	1:2,019
226	Igityan	1,450	1:2,021
227	Osipyan	1,431	1:2,048
228	Mkoyan	1,429	1:2,051
229	Abelyan	1,424	1:2,058
230	Atabekyan	1,421	1:2,062
231	Eloyan	1,415	1:2,071
232	Navoyan	1,411	1:2,077
233	Nikolyan	1,403	1:2,089
234	Ivanyan	1,393	1:2,104
234	Matosyan	1,393	1:2,104
236	Keshishyan	1,389	1:2,110
237	Ghandilyan	1,382	1:2,120
238	Aharonyan	1,380	1:2,123
239	Mardoyan	1,370	1:2,139
240	Marutyan	1,356	1:2,161
241	Shaboyan	1,355	1:2,162
242	Cagharyan	1,340	1:2,187
243	Isakhanyan	1,338	1:2,190
244	Mheryan	1,330	1:2,203
245	Shirinyan	1,329	1:2,205
246	Buniatyan	1,322	1:2,216
247	Brutyan	1,313	1:2,232
248	Vanesyan	1,312	1:2,233
249	Aghayan	1,306	1:2,244
249	Vasilyan	1,306	1:2,244
251	Maghakyan	1,282	1:2,286
252	Tarverdyan	1,278	1:2,293
253	Sevoyan	1,269	1:2,309
254	Karakhanyan	1,268	1:2,311
255	Yengoyan	1,266	1:2,315
256	Carukyan	1,262	1:2,322
257	Aydinyan	1,258	1:2,329
258	Vardumyan	1,252	1:2,340
259	Madatyan	1,250	1:2,344
259	Vahanyan	1,250	1:2,344
261	Sadoyan	1,240	1:2,363
262	Davoyan	1,232	1:2,378
263	Fahradyan	1,229	1:2,384
264	Yegoryan	1,220	1:2,402
265	Ghulyan	1,218	1:2,406
266	Mazmanyan	1,198	1:2,446
267	Boyajyan	1,196	1:2,450
268	Budaghyan	1,190	1:2,462
269	Shamoyan	1,189	1:2,464
270	Tevosyan	1,177	1:2,490
271	Amirjanyan	1,175	1:2,494
272	Samsonyan	1,174	1:2,496
273	Kerobyan	1,169	1:2,507
274	Kyureghyan	1,167	1:2,511
275	Parsadanyan	1,166	1:2,513
276	Galustyan	1,157	1:2,533
277	Afrikyan	1,155	1:2,537
278	Marukyan	1,151	1:2,546
279	Hoveyan	1,150	1:2,548
279	Yedigaryan	1,150	1:2,548
281	Musayelyan	1,140	1:2,570
282	Tunyan	1,137	1:2,577
283	Kurghinyan	1,130	1:2,593
284	Rostomyan	1,129	1:2,595
285	Gyurjyan	1,128	1:2,598
286	Babakhanyan	1,123	1:2,609
287	Mamyan	1,122	1:2,612
288	Avetikyan	1,116	1:2,626
289	Gharagyozyan	1,107	1:2,647
290	Gyozalyan	1,102	1:2,659
291	Hovhannesyan	1,096	1:2,674
292	Atanesyan	1,091	1:2,686
293	Barkhudaryan	1,079	1:2,716
294	Yeghyan	1,067	1:2,746
295	Badoyan	1,064	1:2,754
296	Abajyan	1,058	1:2,770
297	Ziroyan	1,046	1:2,801
298	Julhakyan	1,045	1:2,804
299	Kalantaryan	1,038	1:2,823
300	Tatoyan	1,032	1:2,839
301	Bejanyan	1,018	1:2,878
302	Sahradyan	1,017	1:2,881
303	Voskanyan	1,008	1:2,907
304	Sharoyan	1,004	1:2,919
305	Nikoyan	1,003	1:2,921
306	Aghasyan	983	1:2,981
307	Sirekanyan	980	1:2,990
308	Mirakyan	977	1:2,999
309	Shakaryan	976	1:3,002
310	Alekyan	973	1:3,011
311	Mangasaryan	970	1:3,021
312	Mejlumyan	965	1:3,036
313	Sakanyan	963	1:3,043
314	Atayan	958	1:3,059
315	Oganesyan	955	1:3,068
316	Rustamyan	947	1:3,094
317	Hasoyan	945	1:3,101
318	Gaboyan	938	1:3,124
319	Abazyan	934	1:3,137
319	Melqonyan	934	1:3,137
321	Saakyan	933	1:3,141
322	Martoyan	929	1:3,154
323	Broyan	925	1:3,168
323	Mosinyan	925	1:3,168
325	Mailyan	923	1:3,175
326	Mnoyan	917	1:3,195
327	Khudaverdyan	913	1:3,209
328	Ghalechyan	911	1:3,216
328	Mardanyan	911	1:3,216
330	Mamoyan	906	1:3,234
330	Shmavonyan	906	1:3,234
332	Piliposyan	901	1:3,252
333	Sirunyan	898	1:3,263
334	Avdoyan	897	1:3,267
334	Catinyan	897	1:3,267
336	Hasratyan	889	1:3,296
336	Sirakanyan	889	1:3,296
338	Zamharyan	878	1:3,337
339	Balabekyan	864	1:3,391
339	Paronyan	864	1:3,391
341	Amoyan	863	1:3,395
342	Nerkararyan	859	1:3,411
343	Mezlumyan	856	1:3,423
344	Arevshatyan	854	1:3,431
345	Kochinyan	853	1:3,435
346	Mstoyan	852	1:3,439
347	Seyranyan	847	1:3,459
348	Zeynalyan	846	1:3,464
349	Aghamalyan	840	1:3,488
350	Kosyan	834	1:3,513
351	Baroyan	826	1:3,547
352	Armenakyan	824	1:3,556
353	Papazyan	820	1:3,573
353	Zurabyan	820	1:3,573
355	Aroyan	819	1:3,578
356	Baloyan	817	1:3,587
357	Zatikyan	813	1:3,604
358	Dovlatyan	811	1:3,613
358	Elbakyan	811	1:3,613
360	Tatosyan	809	1:3,622
361	Mantashyan	805	1:3,640
361	Tevanyan	805	1:3,640
363	Abramyan	804	1:3,645
363	Khojayan	804	1:3,645
365	Demircyan	803	1:3,649
366	Rafayelyan	799	1:3,667
367	Andriasyan	796	1:3,681
367	Mkheyan	796	1:3,681
369	Kaloyan	790	1:3,709
370	Barsegyan	787	1:3,723
370	Hovasapyan	787	1:3,723
372	Amiraghyan	778	1:3,766
373	Ordyan	775	1:3,781
373	Tamamyan	775	1:3,781
375	Lazaryan	774	1:3,786
375	Mxitaryan	774	1:3,786
377	Aristakesyan	766	1:3,825
378	Bareghamyan	762	1:3,845
379	Isahakyan	757	1:3,871
380	Parsamyan	755	1:3,881
381	Nurijanyan	750	1:3,907
381	Sloyan	750	1:3,907
383	Gishyan	749	1:3,912
384	Badeyan	746	1:3,928
385	Revazyan	744	1:3,938
386	Zaqaryan	743	1:3,944
387	Bakoyan	742	1:3,949
388	Janoyan	741	1:3,954
389	Karyan	740	1:3,960
390	Catryan	738	1:3,970
391	Davidyan	733	1:3,998
391	Tashchyan	733	1:3,998
393	Taroyan	732	1:4,003
394	Cakhoyan	731	1:4,008
395	Harutunyan	727	1:4,031
396	Manaseryan	724	1:4,047
397	Ghazanchyan	722	1:4,058
398	Bozoyan	721	1:4,064
399	Varderesyan	720	1:4,070
400	Gyulnazaryan	719	1:4,075
401	Gyulumyan	715	1:4,098
401	Karoyan	715	1:4,098
403	Jilavyan	714	1:4,104
403	Petoyan	714	1:4,104
405	Hartenyan	713	1:4,110
406	Acemyan	712	1:4,115
406	Shushanyan	712	1:4,115
408	Bakhshyan	711	1:4,121
409	Danelyan	707	1:4,145
410	Paytyan	706	1:4,150
411	Ishkhanyan	705	1:4,156
412	Musaelyan	704	1:4,162
413	Khanoyan	700	1:4,186
414	Mnatsakanyan	699	1:4,192
415	Siradeghyan	698	1:4,198
415	Verdyan	698	1:4,198
417	Santrosyan	696	1:4,210
418	Iricyan	689	1:4,253
418	Khechumyan	689	1:4,253
420	Egiazaryan	684	1:4,284
421	Bagratyan	682	1:4,296
422	Evoyan	680	1:4,309
423	Bayramyan	679	1:4,315
424	Mackalyan	677	1:4,328
425	Pilosyan	672	1:4,360
425	Smoyan	672	1:4,360
427	Boyakhchyan	668	1:4,386
428	Gharakhanyan	667	1:4,393
429	Shekoyan	666	1:4,400
430	Ghumashyan	665	1:4,406
431	Mkrtichyan	664	1:4,413
432	Aperyan	661	1:4,433
432	Apinyan	661	1:4,433
434	Aghasaryan	657	1:4,460
435	Parsyan	656	1:4,467
436	Nasibyan	649	1:4,515
437	Toroyan	648	1:4,522
438	Gevorkyan	647	1:4,529
438	Palyan	647	1:4,529
440	Rubenyan	645	1:4,543
441	Isoyan	644	1:4,550
442	Vardapetyan	643	1:4,557
442	Veranyan	643	1:4,557
444	Arabyan	642	1:4,564
445	Altunyan	641	1:4,571
445	Ogannisyan	641	1:4,571
447	Amaryan	638	1:4,593
447	Beybutyan	638	1:4,593
449	Ayrapetyan	636	1:4,607
450	Ghalachyan	634	1:4,622
450	Khechoyan	634	1:4,622
452	Kartashyan	633	1:4,629
453	Militonyan	629	1:4,658
454	Yervandyan	628	1:4,666
455	Javadyan	627	1:4,673
455	Pirumyan	627	1:4,673
455	Usoyan	627	1:4,673
458	Martikyan	624	1:4,696
459	Kakoyan	623	1:4,703
460	Badasyan	618	1:4,741
461	Hayrumyan	615	1:4,765
461	Pashinyan	615	1:4,765
463	Gapoyan	614	1:4,772
463	Melikbekyan	614	1:4,772
465	Apoyan	612	1:4,788
465	Macakyan	612	1:4,788
467	Miskaryan	608	1:4,819
468	Zurnachyan	605	1:4,843
469	Berberyan	604	1:4,851
470	Pahlevanyan	603	1:4,859
471	Zalinyan	600	1:4,884
472	Ghushchyan	597	1:4,908
473	Babasyan	596	1:4,916
474	Khojoyan	595	1:4,925
475	Mikoyan	593	1:4,941
476	Daveyan	590	1:4,966
476	Vardevanyan	590	1:4,966
478	Khosrovyan	586	1:5,000
478	Uzunyan	586	1:5,000
480	Abroyan	581	1:5,043
481	Zakoyan	577	1:5,078
482	Nadaryan	576	1:5,087
483	Otaryan	575	1:5,096
484	Baghumyan	574	1:5,105
485	Aslikyan	573	1:5,114
486	Kotanjyan	572	1:5,123
487	Isayan	571	1:5,132
488	Aleqsanyan	567	1:5,168
488	Rushanyan	567	1:5,168
490	Kosakyan	562	1:5,214
491	Avakyan	559	1:5,242
492	Gazaryan	558	1:5,251
493	Artenyan	555	1:5,280
494	Frangulyan	554	1:5,289
495	Miroyan	551	1:5,318
496	Harutyunova	550	1:5,328
497	Cibukhchyan	548	1:5,347
498	Aghakhanyan	546	1:5,367
499	Alexanyan	544	1:5,386
500	Pepanyan	542	1:5,406
501	Marikyan	540	1:5,426
502	Ghasabyan	539	1:5,436
503	Melikjanyan	538	1:5,446
504	Bezanyan	535	1:5,477
505	Mosoyan	534	1:5,487
506	Feroyan	533	1:5,498
507	Mirumyan	529	1:5,539
508	Cakhalyan	527	1:5,560
508	Sarhatyan	527	1:5,560
508	Yayloyan	527	1:5,560
511	Srapyan	525	1:5,581
512	Mhoyan	524	1:5,592
512	Zamkochyan	524	1:5,592
514	Khloyan	522	1:5,613
515	Fidanyan	521	1:5,624
516	Tonyan	520	1:5,635
517	Barsamyan	519	1:5,646
518	Asiryan	517	1:5,668
519	Marabyan	516	1:5,679
520	Dilbaryan	512	1:5,723
521	Dadoyan	510	1:5,745
521	Durgaryan	510	1:5,745
521	Katvalyan	510	1:5,745
521	Zadoyan	510	1:5,745
525	Tarkhanyan	509	1:5,757
526	Esayan	508	1:5,768
527	Mesrobyan	507	1:5,779
528	Bayatyan	505	1:5,802
528	Kochoyan	505	1:5,802
528	Pashayan	505	1:5,802
531	Dadayan	504	1:5,814
532	Gukasyan	503	1:5,825
533	Nadoyan	501	1:5,849
534	Bdoyan	499	1:5,872
534	Gulanyan	499	1:5,872
534	Shahumyan	499	1:5,872
534	Yolchyan	499	1:5,872
534	Yuzbashyan	499	1:5,872
539	Begoyan	498	1:5,884
540	Azoyan	495	1:5,920
541	Khumaryan	493	1:5,944
541	Miribyan	493	1:5,944
543	Sanosyan	491	1:5,968
544	Shirvanyan	490	1:5,980
545	Ramazyan	489	1:5,992
546	Khnkoyan	487	1:6,017
547	Markaryan	483	1:6,067
548	Khanaghyan	482	1:6,079
548	Mneyan	482	1:6,079
550	Melyan	480	1:6,105
551	Ivanov	478	1:6,130
552	Adilkhanyan	477	1:6,143
552	Farmanyan	477	1:6,143
552	Khanamiryan	477	1:6,143
552	Rashoyan	477	1:6,143
556	Zazyan	476	1:6,156
557	Meliqyan	475	1:6,169
558	Basencyan	474	1:6,182
559	Dabaghyan	473	1:6,195
560	Poxosyan	471	1:6,221
561	Bulghadaryan	468	1:6,261
562	Malakyan	467	1:6,274
563	Saghoyan	466	1:6,288
563	Ulikhanyan	466	1:6,288
565	Mirijanyan	465	1:6,301
566	Sinanyan	463	1:6,329
567	Nazlukhanyan	460	1:6,370
568	Ghalumyan	458	1:6,398
569	Bakunc	457	1:6,412
569	Qocharyan	457	1:6,412
571	Khanzadyan	456	1:6,426
571	Temuryan	456	1:6,426
571	Tonapetyan	456	1:6,426
574	Hajoyan	455	1:6,440
575	Sergoyan	453	1:6,468
576	Boshyan	450	1:6,512
576	Isajanyan	450	1:6,512
578	Carchyan	449	1:6,526
579	Gulinyan	448	1:6,541
579	Ovsepyan	448	1:6,541
579	Udumyan	448	1:6,541
582	Afyan	447	1:6,555
583	Greyan	446	1:6,570
583	Pinachyan	446	1:6,570
585	Baveyan	445	1:6,585
585	Javoyan	445	1:6,585
587	Barbaryan	444	1:6,600
588	Kareyan	443	1:6,614
588	Mamajanyan	443	1:6,614
590	Suqiasyan	440	1:6,660
591	Dumanyan	439	1:6,675
591	Musinyan	439	1:6,675
593	Vanoyan	437	1:6,705
594	Shakhbazyan	436	1:6,721
595	Kroyan	435	1:6,736
595	Shiroyan	435	1:6,736
597	Bazikyan	434	1:6,752
597	Papanyan	434	1:6,752
599	Demirchyan	431	1:6,799
600	Narinyan	429	1:6,830
601	Hakhnazaryan	428	1:6,846
602	Avagimyan	427	1:6,862
602	Dokholyan	427	1:6,862
604	Dashyan	425	1:6,895
604	Niazyan	425	1:6,895
606	Makinyan	424	1:6,911
606	Oseyan	424	1:6,911
606	Tamaryan	424	1:6,911
609	Baghoyan	421	1:6,960
610	Gulyan	420	1:6,977
610	Jamalyan	420	1:6,977
612	Kishmiryan	419	1:6,993
613	Tavakalyan	417	1:7,027
613	Tonakanyan	417	1:7,027
615	Tosunyan	416	1:7,044
616	Sharyan	413	1:7,095
617	Saryan	411	1:7,129
618	Hasanyan	410	1:7,147
618	Sanamyan	410	1:7,147
620	Coloyan	408	1:7,182
621	Kesoyan	406	1:7,217
622	Oganyan	404	1:7,253
623	Citchyan	403	1:7,271
623	Garibyan	403	1:7,271
623	Musikyan	403	1:7,271
623	Rafaelyan	403	1:7,271
623	Sakeyan	403	1:7,271
623	Sargisyan	403	1:7,271
629	Baboyan	402	1:7,289
630	Aghamyan	400	1:7,325
631	Tananyan	399	1:7,344
632	Ajamyan	398	1:7,362
632	Dunamalyan	398	1:7,362
632	Sultanyan	398	1:7,362
635	Titanyan	396	1:7,399
636	Babloyan	395	1:7,418
637	Adibekyan	394	1:7,437
638	Copikyan	393	1:7,456
639	Davityan	392	1:7,475
639	Naghdalyan	392	1:7,475
641	Dovlatbekyan	390	1:7,513
641	Mashuryan	390	1:7,513
643	Adyan	389	1:7,533
643	Usubyan	389	1:7,533
645	Akulyan	388	1:7,552
645	Asaturyan	388	1:7,552
645	Atanyan	388	1:7,552
645	Gyurjinyan	388	1:7,552
645	Hambarcumyan	388	1:7,552
645	Jhangiryan	388	1:7,552
651	Vartanyan	387	1:7,572
651	Yavryan	387	1:7,572
653	Avanesova	386	1:7,591
653	Vermishyan	386	1:7,591
655	Ghaltakhchyan	384	1:7,631
655	Hayriyan	384	1:7,631
657	Babujyan	383	1:7,651
657	Sarkisova	383	1:7,651
659	Baghmanyan	380	1:7,711
659	Malincyan	380	1:7,711
661	Akobyan	379	1:7,731
661	Amyan	379	1:7,731
661	Vagharshakyan	379	1:7,731
664	Aghinyan	376	1:7,793
664	Elizbaryan	376	1:7,793
664	Maloyan	376	1:7,793
664	Terzyan	376	1:7,793
668	Darchinyan	375	1:7,814
668	Halajyan	375	1:7,814
668	Sanasaryan	375	1:7,814
671	Asriyan	374	1:7,835
671	Bznuni	374	1:7,835
673	Khachyan	373	1:7,856
673	Makyan	373	1:7,856
673	Yepiskoposyan	373	1:7,856
676	Azizbekyan	372	1:7,877
677	Injighulyan	370	1:7,919
678	Miqayelyan	367	1:7,984
678	Paloyan	367	1:7,984
680	Khalafyan	366	1:8,006
680	Prazyan	366	1:8,006
682	Lalazaryan	365	1:8,028
683	Gharakeshishyan	364	1:8,050
683	Shamiryan	364	1:8,050
685	Parvanyan	363	1:8,072
686	Bazoyan	362	1:8,094
686	Ordinyan	362	1:8,094
688	Stambolcyan	361	1:8,117
689	Blbulyan	359	1:8,162
690	Aghbalyan	358	1:8,185
691	Tirabyan	355	1:8,254
692	Aghazaryan	354	1:8,277
692	Dumikyan	354	1:8,277
692	Varzapetyan	354	1:8,277
695	Yeghishyan	349	1:8,396
696	Amroyan	348	1:8,420
696	Soloyan	348	1:8,420
696	Unanyan	348	1:8,420
699	Danoyan	347	1:8,444
699	Kharazyan	347	1:8,444
701	Antinyan	346	1:8,469
701	Sanoyan	346	1:8,469
703	Khamoyan	344	1:8,518
704	Derdzyan	343	1:8,543
705	Nshanyan	340	1:8,618
706	Ellaryan	338	1:8,669
706	Petikyan	338	1:8,669
708	Aghavelyan	337	1:8,695
708	Aleyan	337	1:8,695
708	Klekchyan	337	1:8,695
708	Papinyan	337	1:8,695
712	Goroyan	336	1:8,721
712	Torgomyan	336	1:8,721
714	Makhsudyan	335	1:8,747
715	Aghoyan	334	1:8,773
715	Poladyan	334	1:8,773
717	Cughuryan	333	1:8,799
717	Jraghacpanyan	333	1:8,799
717	Kolozyan	333	1:8,799
720	Bichakhchyan	332	1:8,826
720	Cakanyan	332	1:8,826
720	Catoyan	332	1:8,826
720	Chobanyan	332	1:8,826
720	Guloyan	332	1:8,826
725	Bareyan	331	1:8,853
725	Sukasyan	331	1:8,853
727	Sogomonyan	330	1:8,879
727	Suvaryan	330	1:8,879
729	Dashtoyan	328	1:8,933
730	Dokhoyan	326	1:8,988
730	Jndoyan	326	1:8,988
730	Oganisyan	326	1:8,988
733	Janvelyan	325	1:9,016
733	Osipova	325	1:9,016
733	Yeghiyan	325	1:9,016
736	Babinyan	324	1:9,044
737	Khudinyan	323	1:9,072
737	Nikolayan	323	1:9,072
737	Yavrumyan	323	1:9,072
740	Shalunc	322	1:9,100
741	Mamulyan	321	1:9,128
742	Ghavalyan	320	1:9,157
742	Tatincyan	320	1:9,157
744	Khachaturova	319	1:9,186
744	Nikogosyan	319	1:9,186
744	Tahmazyan	319	1:9,186
747	Amirbekyan	318	1:9,214
747	Ivanova	318	1:9,214
747	Paravyan	318	1:9,214
750	Baldryan	317	1:9,243
750	Gareginyan	317	1:9,243
750	Yaralyan	317	1:9,243
753	Khchoyan	316	1:9,273
753	Patvakanyan	316	1:9,273
755	Ashughyan	313	1:9,362
755	Hamazaspyan	313	1:9,362
755	Shakhnazaryan	313	1:9,362
758	Gharabaghcyan	311	1:9,422
759	Aghvanyan	310	1:9,452
759	Ambartsumyan	310	1:9,452
759	Balasyan	310	1:9,452
759	Janazyan	310	1:9,452
759	Nanyan	310	1:9,452
764	Tarzyan	309	1:9,483
764	Umrshatyan	309	1:9,483
766	Begyan	308	1:9,514
767	Hayroyan	307	1:9,545
768	Anakhasyan	306	1:9,576
769	Hakopyan	304	1:9,639
769	Kolyan	304	1:9,639
771	Ananikyan	303	1:9,671
771	Kakosyan	303	1:9,671
771	Ter-Hovhannisyan	303	1:9,671
774	Asilbekyan	302	1:9,703
774	Saharyan	302	1:9,703
776	Sarikyan	300	1:9,767
777	Tsaturyan	299	1:9,800
778	Muradkhanyan	298	1:9,833
778	Pashikyan	298	1:9,833
778	Tangyan	298	1:9,833
781	Baxdasaryan	297	1:9,866
781	Solomonyan	297	1:9,866
781	Tandilyan	297	1:9,866
784	Iboyan	296	1:9,899
784	Ordoyan	296	1:9,899
784	Shakhkyan	296	1:9,899
784	Torchyan	296	1:9,899
788	Badikyan	295	1:9,933
789	Simikyan	294	1:9,967
790	Mshecyan	293	1:10,001
790	Sisakyan	293	1:10,001
790	Tataryan	293	1:10,001
790	Yeranyan	293	1:10,001
794	Calikyan	292	1:10,035
794	Copuryan	292	1:10,035
794	Hovhanisyan	292	1:10,035
794	Podosyan	292	1:10,035
794	Sumbatyan	292	1:10,035
799	Edilyan	290	1:10,104
800	Aliyan	288	1:10,174
800	Papeyan	288	1:10,174
800	Rasoyan	288	1:10,174
800	Safoyan	288	1:10,174
804	Bayanduryan	287	1:10,210
804	Frangyan	287	1:10,210
806	Dalakyan	285	1:10,281
806	Manasaryan	285	1:10,281
806	Shahmuradyan	285	1:10,281
809	Eghiazaryan	284	1:10,318
809	Tonikyan	284	1:10,318
809	Torozyan	284	1:10,318
812	Purtoyan	283	1:10,354
813	Hovnanyan	282	1:10,391
813	Paremuzyan	282	1:10,391
813	Snkhchyan	282	1:10,391
813	Ustyan	282	1:10,391
817	Bekchyan	281	1:10,428
817	Makichyan	281	1:10,428
819	Gizlaryan	280	1:10,465
819	Msryan	280	1:10,465
821	Khandanyan	279	1:10,502
822	Mahtesyan	278	1:10,540
823	Azibekyan	277	1:10,578
823	Bazeyan	277	1:10,578
823	Unusyan	277	1:10,578
826	Catyan	276	1:10,617
827	Atyan	275	1:10,655
828	Beknazaryan	273	1:10,733
828	Ordukhanyan	273	1:10,733
828	Vahramyan	273	1:10,733
831	Khanumyan	272	1:10,773
831	Varagyan	272	1:10,773
833	Aghabalyan	271	1:10,812
833	Gulkanyan	271	1:10,812
833	Harutyunov	271	1:10,812
836	Asilyan	270	1:10,853
837	Diloyan	269	1:10,893
837	Kocinyan	269	1:10,893
837	Meltonyan	269	1:10,893
837	Mnacyan	269	1:10,893
841	Sarafyan	268	1:10,934
842	Abraamyan	267	1:10,974
842	Topchyan	267	1:10,974
842	Vardikyan	267	1:10,974
845	Abasyan	266	1:11,016
845	Gasoyan	266	1:11,016
845	Hajatyan	266	1:11,016
845	Militosyan	266	1:11,016
845	Zalyan	266	1:11,016
850	Janinyan	265	1:11,057
850	Suchyan	265	1:11,057
852	Begjanyan	264	1:11,099
852	Dolmazyan	264	1:11,099
852	Ghonyan	264	1:11,099
855	Aghanyan	263	1:11,141
855	Hekimyan	263	1:11,141
855	Nazinyan	263	1:11,141
855	Yeghshatyan	263	1:11,141
859	Hovagimyan	262	1:11,184
859	Lorecyan	262	1:11,184
861	Ghazinyan	261	1:11,227
861	Petrova	261	1:11,227
863	Hakhinyan	260	1:11,270
863	Nigoyan	260	1:11,270
865	Avanesov	259	1:11,313
865	Baghyan	259	1:11,313
867	Khanjyan	258	1:11,357
867	Yaghubyan	258	1:11,357
869	Mihranyan	257	1:11,401
869	Yeroyan	257	1:11,401
871	Bablumyan	256	1:11,446
871	Jeyranyan	256	1:11,446
871	Khangeldyan	256	1:11,446
871	Sarajyan	256	1:11,446
875	Tatevosyan	255	1:11,491
876	Crikyan	254	1:11,536
877	Arzoyan	253	1:11,582
877	Aveyan	253	1:11,582
877	Marukhyan	253	1:11,582
877	Mukuchyan	253	1:11,582
881	Goginyan	252	1:11,628
881	Gorginyan	252	1:11,628
881	Petrov	252	1:11,628
881	Vahradyan	252	1:11,628
885	Barikyan	251	1:11,674
885	Tumoyan	251	1:11,674
887	Aghamiryan	250	1:11,721
887	Deghoyan	250	1:11,721
887	Hovhanyan	250	1:11,721
890	Hareyan	248	1:11,815
890	Srapionyan	248	1:11,815
890	Ter-Grigoryan	248	1:11,815
890	Veziryan	248	1:11,815
894	Bilyan	247	1:11,863
894	Jaghinyan	247	1:11,863
896	Gurgenyan	246	1:11,911
896	Karhanyan	246	1:11,911
898	Arstamyan	245	1:11,960
898	Evinyan	245	1:11,960
898	Rstakyan	245	1:11,960
901	Armenyan	244	1:12,009
901	Brsoyan	244	1:12,009
901	Cerunyan	244	1:12,009
901	Gyulamiryan	244	1:12,009
901	Musoyan	244	1:12,009
906	Ginoyan	243	1:12,058
906	Jangoyan	243	1:12,058
908	Astvacatryan	242	1:12,108
908	Cichoyan	242	1:12,108
910	Hayryan	241	1:12,158
911	Mardyan	240	1:12,209
911	Paranyan	240	1:12,209
913	Avtandilyan	239	1:12,260
913	Gulakyan	239	1:12,260
915	Malxasyan	238	1:12,312
915	Namoyan	238	1:12,312
915	Sakoyan	238	1:12,312
918	Baghinyan	237	1:12,364
919	Artemyan	236	1:12,416
919	Jaghacpanyan	236	1:12,416
919	Panoyan	236	1:12,416
919	Vatyan	236	1:12,416
923	Makvecyan	235	1:12,469
923	Shamamyan	235	1:12,469
923	Vlasyan	235	1:12,469
926	Chilingaryan	234	1:12,522
926	Ghazakhecyan	234	1:12,522
926	Mekhakyan	234	1:12,522
926	Zakevosyan	234	1:12,522
930	Semerjyan	233	1:12,576
930	Shaghoyan	233	1:12,576
932	Gzoghyan	232	1:12,630
932	Papakhchyan	232	1:12,630
934	Alvandyan	231	1:12,685
934	Ikilikyan	231	1:12,685
934	Jarahyan	231	1:12,685
934	Vancyan	231	1:12,685
938	Hokhikyan	230	1:12,740
938	Khaloyan	230	1:12,740
940	Hobosyan	229	1:12,796
940	Shegunc	229	1:12,796
942	Bojukyan	228	1:12,852
942	Gyulzadyan	228	1:12,852
944	Giloyan	227	1:12,908
945	Duryan	226	1:12,965
945	Magtaghyan	226	1:12,965
945	Musakhanyan	226	1:12,965
945	Toneyan	226	1:12,965
949	Ghalayan	225	1:13,023
950	Aprikyan	224	1:13,081
950	Calabyan	224	1:13,081
950	Haykyan	224	1:13,081
950	Soghbatyan	224	1:13,081
950	Zaroyan	224	1:13,081
955	Badiryan	223	1:13,140
955	Demurchyan	223	1:13,140
955	Gharsayan	223	1:13,140
955	Pashoyan	223	1:13,140
959	Sumbulyan	222	1:13,199
960	Avanyan	221	1:13,259
960	Javakhyan	221	1:13,259
960	Kalajyan	221	1:13,259
960	Koninyan	221	1:13,259
960	Mukhsyan	221	1:13,259
960	Sarkisov	221	1:13,259
960	Sosyan	221	1:13,259
967	Batikyan	220	1:13,319
967	Hmayakyan	220	1:13,319
969	Buduryan	218	1:13,441
969	Konjoryan	218	1:13,441
969	Topalyan	218	1:13,441
972	Barsexyan	217	1:13,503
972	Gomcyan	217	1:13,503
972	Jalalyan	217	1:13,503
975	Ghulijanyan	216	1:13,566
975	Hokhanyan	216	1:13,566
975	Mirabyan	216	1:13,566
975	Saneyan	216	1:13,566
979	Baburyan	215	1:13,629
979	Bernecyan	215	1:13,629
979	Ghapancyan	215	1:13,629
979	Magoyan	215	1:13,629
983	Hajyan	214	1:13,692
983	Hovnikyan	214	1:13,692
983	Khalapyan	214	1:13,692
986	Apikyan	213	1:13,757
986	Dadyan	213	1:13,757
986	Hanisyan	213	1:13,757
986	Shahgeldyan	213	1:13,757
990	Bagiryan	212	1:13,822
990	Cichakyan	212	1:13,822
990	Ghaplanyan	212	1:13,822
990	Khansanamyan	212	1:13,822
990	Maryanyan	212	1:13,822
995	Amirxanyan	211	1:13,887
995	Cerkezyan	211	1:13,887
995	Odabashyan	211	1:13,887
995	Piruzyan	211	1:13,887
999	Piroyan	210	1:13,953
1000	Poloyan	208	1:14,087
1000	Shagoyan	208	1:14,087
1000	Xazaryan	208	1:14,087