1	Gruber	39,157	1:217
2	Huber	37,825	1:225
3	Bauer	32,415	1:263
4	Wagner	30,232	1:282
5	Müller	29,465	1:289
6	Pichler	26,841	1:317
7	Steiner	26,655	1:319
8	Mayer	26,533	1:321
9	Moser	25,861	1:329
10	Hofer	24,034	1:354
11	Berger	23,707	1:359
12	Leitner	23,133	1:368
13	Fuchs	22,438	1:380
14	Eder	21,030	1:405
15	Fischer	20,959	1:406
16	Schmid	20,408	1:417
17	Weber	19,761	1:431
18	Schneider	19,164	1:444
19	Schwarz	18,989	1:448
20	Winkler	18,973	1:449
21	Maier	17,967	1:474
22	Reiter	16,939	1:503
23	Schmidt	16,867	1:505
24	Mayr	16,844	1:506
25	Lang	16,115	1:528
26	Baumgartner	15,781	1:540
27	Brunner	15,523	1:549
28	Wimmer	15,453	1:551
29	Auer	15,253	1:558
30	Egger	15,117	1:563
31	Wolf	15,094	1:564
32	Lechner	14,170	1:601
33	Wallner	14,023	1:607
34	Aigner	13,185	1:646
35	Binder	13,140	1:648
36	Ebner	12,863	1:662
37	Haas	12,455	1:684
38	Koller	12,421	1:686
39	Lehner	12,236	1:696
40	Schuster	11,584	1:735
41	Graf	11,065	1:770
42	Holzer	10,922	1:780
43	Haider	10,767	1:791
44	Lackner	10,313	1:826
45	Wieser	10,293	1:827
46	Strasser	10,127	1:841
47	Koch	10,104	1:843
48	Weiss	10,069	1:846
49	Stadler	9,625	1:885
50	Böhm	9,464	1:900
51	König	9,328	1:913
52	Krenn	9,317	1:914
53	Kaiser	9,162	1:929
54	Kaufmann	8,934	1:953
55	Fink	8,868	1:960
56	Winter	8,788	1:969
57	Hofbauer	8,711	1:978
58	Kern	8,695	1:979
59	Hauser	8,600	1:990
60	Mair	8,589	1:991
61	Maurer	8,462	1:1,006
62	Hofmann	8,459	1:1,007
63	Seidl	8,451	1:1,008
64	Fritz	8,446	1:1,008
65	Karner	8,425	1:1,011
66	Hackl	8,409	1:1,013
67	Riegler	8,371	1:1,017
68	Resch	8,305	1:1,025
69	Strobl	8,229	1:1,035
70	Ortner	8,194	1:1,039
71	Posch	8,147	1:1,045
72	Reisinger	7,980	1:1,067
73	Schober	7,934	1:1,073
74	Mayrhofer	7,931	1:1,074
75	Riedl	7,852	1:1,084
76	Kogler	7,705	1:1,105
77	Rainer	7,629	1:1,116
78	Friedl	7,550	1:1,128
79	Neubauer	7,469	1:1,140
80	Klein	7,455	1:1,142
81	Schwaiger	7,453	1:1,143
82	Jäger	7,160	1:1,189
83	Frank	7,060	1:1,206
84	Grabner	7,048	1:1,208
85	Horvath	7,041	1:1,209
86	Unger	6,992	1:1,218
87	Müllner	6,889	1:1,236
88	Brandstätter	6,750	1:1,262
89	Hartl	6,646	1:1,281
90	Zimmermann	6,548	1:1,300
91	Kainz	6,545	1:1,301
92	Hoffmann	6,379	1:1,335
93	Sommer	6,303	1:1,351
94	Hager	6,299	1:1,352
95	Lindner	6,262	1:1,360
96	Weiß	6,233	1:1,366
97	Schweiger	6,121	1:1,391
98	Wiesinger	5,993	1:1,421
99	Thaler	5,917	1:1,439
100	Höller	5,862	1:1,453
101	Richter	5,798	1:1,469
102	Haslinger	5,742	1:1,483
103	Steininger	5,732	1:1,486
104	Pirker	5,680	1:1,499
105	Baumann	5,668	1:1,502
106	Pfeiffer	5,662	1:1,504
107	Herzog	5,660	1:1,504
108	Walter	5,645	1:1,508
109	Mandl	5,631	1:1,512
110	Krammer	5,615	1:1,517
111	Kofler	5,543	1:1,536
111	Rauch	5,543	1:1,536
113	Huemer	5,478	1:1,554
114	Jovanovic	5,470	1:1,557
115	Hammer	5,460	1:1,560
116	Zauner	5,454	1:1,561
117	Hahn	5,347	1:1,593
118	Ecker	5,296	1:1,608
119	Brandstetter	5,282	1:1,612
120	Angerer	5,242	1:1,624
121	Köck	5,214	1:1,633
122	Novak	5,206	1:1,636
123	Konrad	5,204	1:1,636
124	Schwab	5,165	1:1,649
125	Stangl	5,098	1:1,670
126	Hauer	5,050	1:1,686
127	Fellner	5,013	1:1,699
128	Brandl	4,995	1:1,705
129	Kurz	4,975	1:1,712
129	Putz	4,975	1:1,712
131	Holzinger	4,929	1:1,728
132	Mayerhofer	4,869	1:1,749
133	Braun	4,866	1:1,750
134	Bruckner	4,865	1:1,750
135	Mader	4,838	1:1,760
136	Grill	4,830	1:1,763
137	Zach	4,800	1:1,774
138	Plank	4,756	1:1,790
139	Ertl	4,733	1:1,799
140	Steindl	4,713	1:1,807
141	Hartmann	4,644	1:1,834
142	Wurm	4,600	1:1,851
143	Rieder	4,575	1:1,861
144	Hafner	4,567	1:1,865
145	Rath	4,559	1:1,868
146	Langer	4,542	1:1,875
147	Kraus	4,528	1:1,881
148	Schauer	4,465	1:1,907
149	Stocker	4,403	1:1,934
150	Neumann	4,380	1:1,944
151	Knapp	4,309	1:1,976
152	Platzer	4,296	1:1,982
153	Singer	4,252	1:2,003
154	Rieger	4,241	1:2,008
155	Stockinger	4,227	1:2,015
156	Fasching	4,194	1:2,030
157	Gassner	4,175	1:2,040
158	Bayer	4,173	1:2,041
159	Oswald	4,169	1:2,043
160	Neuhold	4,161	1:2,046
161	Haller	4,142	1:2,056
162	Pfeifer	4,137	1:2,058
163	Stöckl	4,135	1:2,059
164	Kastner	4,131	1:2,061
165	Prinz	4,128	1:2,063
166	Hutter	4,116	1:2,069
167	Schlager	4,115	1:2,069
168	Sturm	4,097	1:2,078
169	Roth	4,073	1:2,091
170	Rauscher	4,071	1:2,092
171	Stöger	4,028	1:2,114
172	Gasser	4,023	1:2,117
173	Fröhlich	3,991	1:2,134
174	Petrovic	3,973	1:2,143
175	Knoll	3,953	1:2,154
176	Burgstaller	3,951	1:2,155
177	Haberl	3,943	1:2,160
178	Schreiner	3,927	1:2,168
179	Hölzl	3,924	1:2,170
180	Lorenz	3,916	1:2,175
181	Feichtinger	3,890	1:2,189
182	Pucher	3,875	1:2,198
183	Windisch	3,862	1:2,205
184	Bischof	3,858	1:2,207
185	Vogl	3,813	1:2,233
186	Schütz	3,811	1:2,234
187	Deutsch	3,779	1:2,253
188	Bacher	3,764	1:2,262
189	Ziegler	3,755	1:2,268
190	Peter	3,740	1:2,277
191	Weinberger	3,728	1:2,284
192	Kerschbaumer	3,712	1:2,294
193	Trummer	3,704	1:2,299
193	Zechner	3,704	1:2,299
195	Karl	3,686	1:2,310
196	Burger	3,674	1:2,318
197	Pilz	3,670	1:2,320
198	Gabriel	3,666	1:2,323
199	Thurner	3,663	1:2,325
200	Hödl	3,651	1:2,332
201	Hermann	3,640	1:2,339
202	Frühwirth	3,620	1:2,352
203	Bichler	3,619	1:2,353
204	Lenz	3,604	1:2,363
205	Ofner	3,585	1:2,375
206	Brugger	3,584	1:2,376
207	Raab	3,582	1:2,377
208	Nowak	3,574	1:2,383
209	Schlögl	3,556	1:2,395
210	Schreiber	3,535	1:2,409
211	Schuh	3,528	1:2,414
212	Leitgeb	3,527	1:2,414
213	Ernst	3,518	1:2,421
214	Wurzer	3,515	1:2,423
215	Leeb	3,506	1:2,429
216	Aichinger	3,477	1:2,449
217	Ritter	3,471	1:2,453
218	Edlinger	3,457	1:2,463
218	Nagl	3,457	1:2,463
220	Friedrich	3,445	1:2,472
221	Schweighofer	3,426	1:2,486
222	Nikolic	3,425	1:2,486
223	Schindler	3,415	1:2,494
224	Beck	3,408	1:2,499
225	Schaffer	3,393	1:2,510
226	Kreuzer	3,388	1:2,513
227	Maierhofer	3,380	1:2,519
228	Pühringer	3,365	1:2,531
229	Humer	3,319	1:2,566
230	Fürst	3,310	1:2,573
231	Scheiber	3,303	1:2,578
232	Neuwirth	3,298	1:2,582
233	Kellner	3,290	1:2,588
234	Denk	3,281	1:2,595
235	Eichinger	3,279	1:2,597
236	Werner	3,266	1:2,607
237	Unterberger	3,261	1:2,611
238	Reiterer	3,259	1:2,613
239	Schubert	3,238	1:2,630
240	Hirsch	3,231	1:2,636
241	Brenner	3,212	1:2,651
242	Sattler	3,208	1:2,654
243	Brandner	3,203	1:2,659
244	Artner	3,202	1:2,659
245	Sailer	3,190	1:2,669
246	Siegl	3,189	1:2,670
247	Luger	3,172	1:2,685
248	Wachter	3,131	1:2,720
249	Traxler	3,128	1:2,722
250	Walch	3,123	1:2,727
251	Schulz	3,114	1:2,735
252	Höfler	3,100	1:2,747
253	Renner	3,097	1:2,750
254	Wittmann	3,090	1:2,756
255	Rauter	3,088	1:2,758
256	Mühlbacher	3,064	1:2,779
257	Swoboda	3,054	1:2,788
258	Glaser	3,050	1:2,792
259	Redl	3,042	1:2,799
260	Dorner	3,041	1:2,800
261	Steger	3,035	1:2,806
262	Staudinger	3,034	1:2,807
263	Simon	3,032	1:2,809
264	Holzmann	3,031	1:2,809
265	Reichl	3,030	1:2,810
266	Meyer	3,023	1:2,817
267	Kröll	3,014	1:2,825
268	Messner	3,012	1:2,827
269	Spitzer	3,001	1:2,838
270	Schmied	2,990	1:2,848
271	Urban	2,984	1:2,854
272	Geiger	2,968	1:2,869
273	Reindl	2,960	1:2,877
274	Schöpf	2,945	1:2,891
274	Zehetner	2,945	1:2,891
276	Baier	2,938	1:2,898
277	Löffler	2,934	1:2,902
278	Harrer	2,931	1:2,905
279	Steurer	2,927	1:2,909
280	Schachinger	2,918	1:2,918
281	Peer	2,905	1:2,931
282	Klinger	2,901	1:2,935
283	Schön	2,898	1:2,938
284	Sonnleitner	2,892	1:2,944
285	Schiller	2,884	1:2,953
286	Burtscher	2,870	1:2,967
287	Hämmerle	2,868	1:2,969
288	Doppler	2,859	1:2,978
289	Weidinger	2,845	1:2,993
290	Albrecht	2,842	1:2,996
291	Gmeiner	2,837	1:3,002
292	Amann	2,831	1:3,008
293	Gross	2,816	1:3,024
294	Loidl	2,809	1:3,031
295	Forster	2,806	1:3,035
296	Markovic	2,800	1:3,041
297	Pointner	2,788	1:3,054
298	Bader	2,784	1:3,059
299	Dietrich	2,781	1:3,062
300	Meier	2,779	1:3,064
301	Schatz	2,778	1:3,065
302	Hofstätter	2,775	1:3,069
303	Franz	2,768	1:3,076
304	Zeilinger	2,748	1:3,099
305	Pinter	2,742	1:3,106
306	Gartner	2,726	1:3,124
307	Gangl	2,713	1:3,139
308	Heinrich	2,709	1:3,143
309	Plattner	2,708	1:3,145
309	Schranz	2,708	1:3,145
311	Buchegger	2,694	1:3,161
312	Amon	2,691	1:3,164
313	Handler	2,690	1:3,166
314	Hörmann	2,682	1:3,175
315	Meixner	2,678	1:3,180
316	Neuhauser	2,672	1:3,187
317	Böck	2,656	1:3,206
318	Weninger	2,644	1:3,221
319	Sauer	2,624	1:3,245
320	Bogner	2,623	1:3,246
321	Ott	2,616	1:3,255
322	Pölzl	2,615	1:3,256
323	Aschauer	2,613	1:3,259
324	Lamprecht	2,610	1:3,263
325	Rechberger	2,585	1:3,294
326	Herbst	2,573	1:3,310
327	Kopp	2,570	1:3,313
328	Neuner	2,558	1:3,329
329	Kramer	2,548	1:3,342
330	Schuller	2,545	1:3,346
331	Schiefer	2,541	1:3,351
332	Schneeberger	2,521	1:3,378
333	Kollmann	2,509	1:3,394
334	Lutz	2,491	1:3,418
335	Nemeth	2,486	1:3,425
336	Bergmann	2,482	1:3,431
337	Penz	2,479	1:3,435
338	Lederer	2,470	1:3,448
339	Hütter	2,467	1:3,452
340	Bernhard	2,462	1:3,459
340	Forstner	2,462	1:3,459
342	Köberl	2,460	1:3,462
343	Buchinger	2,459	1:3,463
343	Probst	2,459	1:3,463
345	Lettner	2,456	1:3,467
346	Schachner	2,453	1:3,471
347	Steinkellner	2,452	1:3,473
348	Erhart	2,451	1:3,474
349	Buchner	2,442	1:3,487
350	Zeller	2,436	1:3,496
351	Pfeffer	2,432	1:3,501
352	Wegscheider	2,427	1:3,509
353	Seebacher	2,425	1:3,512
354	Stark	2,422	1:3,516
355	Steinberger	2,416	1:3,525
356	Jungwirth	2,403	1:3,544
357	Trimmel	2,392	1:3,560
358	Pokorny	2,389	1:3,564
359	Klug	2,379	1:3,579
360	Thaller	2,372	1:3,590
361	Moosbrugger	2,364	1:3,602
362	Lengauer	2,359	1:3,610
363	Falkner	2,358	1:3,611
364	Beer	2,349	1:3,625
365	Kapeller	2,332	1:3,652
366	Führer	2,328	1:3,658
367	Reiner	2,324	1:3,664
368	Eberl	2,321	1:3,669
369	Geisler	2,317	1:3,675
370	Kugler	2,313	1:3,682
370	Paul	2,313	1:3,682
372	Wilhelm	2,312	1:3,683
373	Heindl	2,307	1:3,691
374	Kovacs	2,306	1:3,693
375	Rupp	2,304	1:3,696
376	Pacher	2,303	1:3,698
377	Weigl	2,302	1:3,699
378	Martin	2,296	1:3,709
379	Greiner	2,289	1:3,720
379	Riedler	2,289	1:3,720
381	Janisch	2,286	1:3,725
382	Wechselberger	2,274	1:3,745
383	Pollak	2,254	1:3,778
384	Kremser	2,242	1:3,798
385	Grünwald	2,240	1:3,802
386	Walcher	2,239	1:3,803
387	Bachmann	2,229	1:3,820
388	Steinwender	2,228	1:3,822
389	Nussbaumer	2,217	1:3,841
390	Kummer	2,205	1:3,862
391	Ludwig	2,204	1:3,864
391	Wieland	2,204	1:3,864
393	Jung	2,199	1:3,872
394	Fleischhacker	2,198	1:3,874
395	Eberharter	2,192	1:3,885
396	Djordjevic	2,186	1:3,895
396	Ilic	2,186	1:3,895
398	Kargl	2,184	1:3,899
399	Hinteregger	2,180	1:3,906
399	Wild	2,180	1:3,906
401	Steinbauer	2,176	1:3,913
401	Yilmaz	2,176	1:3,913
403	Barth	2,173	1:3,919
404	Szabo	2,166	1:3,931
405	Scholz	2,164	1:3,935
406	Achleitner	2,158	1:3,946
407	Vogel	2,147	1:3,966
408	Hagen	2,146	1:3,968
409	Suppan	2,139	1:3,981
410	Rabl	2,136	1:3,987
411	Nagy	2,133	1:3,992
411	Toth	2,133	1:3,992
413	Kohl	2,129	1:4,000
414	Rosenberger	2,128	1:4,002
415	Bartl	2,123	1:4,011
415	Kraft	2,123	1:4,011
417	Krainer	2,118	1:4,021
418	Groß	2,108	1:4,040
419	Zöhrer	2,103	1:4,049
420	Wirth	2,100	1:4,055
421	Geyer	2,096	1:4,063
422	Fiala	2,092	1:4,070
423	Fiedler	2,090	1:4,074
424	Haidinger	2,088	1:4,078
425	Fritsch	2,082	1:4,090
425	Metzler	2,082	1:4,090
425	Nußbaumer	2,082	1:4,090
428	Schaller	2,074	1:4,106
429	Götz	2,071	1:4,112
429	Ulrich	2,071	1:4,112
431	Draxler	2,068	1:4,118
431	Gratzer	2,068	1:4,118
433	Reinisch	2,066	1:4,122
434	Altmann	2,063	1:4,128
435	Rausch	2,060	1:4,134
436	Gutmann	2,054	1:4,146
437	Schenk	2,052	1:4,150
438	Mitterer	2,051	1:4,152
439	Mairhofer	2,050	1:4,154
440	Payer	2,045	1:4,164
441	Hinterberger	2,041	1:4,172
442	Stelzer	2,040	1:4,174
443	Eigner	2,039	1:4,176
444	Glatz	2,036	1:4,182
445	Svoboda	2,035	1:4,184
446	Bucher	2,033	1:4,189
447	Pammer	2,032	1:4,191
448	Handl	2,028	1:4,199
449	Schnabl	2,027	1:4,201
450	Prem	2,025	1:4,205
451	Varga	2,023	1:4,209
452	Köhler	2,016	1:4,224
453	Petz	2,014	1:4,228
454	Arnold	2,012	1:4,232
455	Novotny	2,008	1:4,241
456	Scharf	2,006	1:4,245
457	Gschwandtner	2,003	1:4,251
458	Vasic	1,999	1:4,260
459	Pöschl	1,997	1:4,264
460	Kronberger	1,996	1:4,266
461	Becker	1,993	1:4,273
461	Unterweger	1,993	1:4,273
463	Heigl	1,991	1:4,277
464	Pfister	1,985	1:4,290
465	Adam	1,984	1:4,292
466	Eibl	1,977	1:4,307
467	Kirchmair	1,971	1:4,320
468	Kaltenbrunner	1,970	1:4,323
469	Muhr	1,966	1:4,331
470	Kasper	1,963	1:4,338
470	Reich	1,963	1:4,338
472	Pfleger	1,960	1:4,345
473	Springer	1,958	1:4,349
474	Juen	1,945	1:4,378
475	Klammer	1,940	1:4,389
476	Stummer	1,939	1:4,392
477	Strauss	1,934	1:4,403
478	List	1,930	1:4,412
479	Lukas	1,925	1:4,424
480	Hinterleitner	1,924	1:4,426
481	Neumayer	1,921	1:4,433
482	Engel	1,918	1:4,440
483	Tischler	1,914	1:4,449
484	Frey	1,912	1:4,454
485	Augustin	1,911	1:4,456
485	Dobler	1,911	1:4,456
485	Zangerl	1,911	1:4,456
488	Rettenbacher	1,907	1:4,465
489	Koppensteiner	1,900	1:4,482
489	Stern	1,900	1:4,482
491	Paar	1,898	1:4,487
492	Hammerl	1,893	1:4,498
493	Kolar	1,889	1:4,508
494	Strauß	1,886	1:4,515
495	Bock	1,882	1:4,525
496	Wurzinger	1,875	1:4,542
497	Thalhammer	1,870	1:4,554
498	Fichtinger	1,865	1:4,566
499	Jelinek	1,862	1:4,573
500	Mathis	1,861	1:4,576
501	Buchberger	1,859	1:4,581
502	Bachler	1,856	1:4,588
502	Hochreiter	1,856	1:4,588
504	Hufnagl	1,854	1:4,593
505	Schwaighofer	1,853	1:4,595
506	Eisl	1,852	1:4,598
507	Kirchner	1,851	1:4,600
508	Kohler	1,848	1:4,608
509	Zenz	1,842	1:4,623
510	Rotter	1,841	1:4,625
511	Waldner	1,836	1:4,638
512	Hummer	1,832	1:4,648
513	Fröschl	1,830	1:4,653
514	Guggenberger	1,826	1:4,663
514	Mitrovic	1,826	1:4,663
514	Scheucher	1,826	1:4,663
517	Gritsch	1,825	1:4,666
518	Reischl	1,824	1:4,669
519	Tiefenbacher	1,821	1:4,676
520	Salzmann	1,812	1:4,699
521	Höfer	1,809	1:4,707
522	Hemetsberger	1,806	1:4,715
523	Hacker	1,805	1:4,718
524	Kiss	1,804	1:4,720
525	Schrammel	1,803	1:4,723
525	Steinlechner	1,803	1:4,723
527	Jandl	1,795	1:4,744
528	Fankhauser	1,793	1:4,749
529	Schwarzl	1,791	1:4,755
530	Kral	1,788	1:4,763
531	Jahn	1,787	1:4,765
532	Schäfer	1,785	1:4,771
533	Walser	1,783	1:4,776
534	Horak	1,780	1:4,784
535	Popp	1,774	1:4,800
536	Meusburger	1,767	1:4,819
537	Tanzer	1,766	1:4,822
538	Fleck	1,763	1:4,830
539	Pöll	1,762	1:4,833
540	Hofinger	1,760	1:4,838
541	Perner	1,758	1:4,844
541	Stiegler	1,758	1:4,844
543	Marx	1,756	1:4,849
544	Danner	1,754	1:4,855
545	Kolb	1,751	1:4,863
546	Margreiter	1,750	1:4,866
547	Lipp	1,749	1:4,869
548	Taferner	1,748	1:4,872
549	Bösch	1,747	1:4,874
549	Pohl	1,747	1:4,874
551	Pavlovic	1,746	1:4,877
552	Kopf	1,737	1:4,902
553	Jordan	1,736	1:4,905
554	Cerny	1,734	1:4,911
554	Gattringer	1,734	1:4,911
554	Jost	1,734	1:4,911
557	Freudenthaler	1,729	1:4,925
558	Heinz	1,727	1:4,931
559	Haring	1,722	1:4,945
560	Klement	1,720	1:4,951
560	Oberhauser	1,720	1:4,951
562	Matt	1,719	1:4,954
562	Scheidl	1,719	1:4,954
564	Glück	1,718	1:4,957
565	Kirschner	1,715	1:4,965
566	Loibl	1,714	1:4,968
567	Siller	1,708	1:4,986
568	Stadlbauer	1,707	1:4,989
569	Kager	1,706	1:4,991
569	Prantl	1,706	1:4,991
571	Rieser	1,703	1:5,000
572	Pils	1,702	1:5,003
573	Eisner	1,699	1:5,012
573	Scherzer	1,699	1:5,012
575	Sammer	1,695	1:5,024
576	Mitteregger	1,694	1:5,027
577	Marinkovic	1,690	1:5,039
578	Auinger	1,688	1:5,045
578	Hubmann	1,688	1:5,045
580	Klotz	1,686	1:5,051
581	Lichtenegger	1,685	1:5,054
582	Schantl	1,673	1:5,090
583	Oberndorfer	1,659	1:5,133
583	Reisner	1,659	1:5,133
583	Scherer	1,659	1:5,133
586	Scherz	1,658	1:5,136
587	Hajek	1,654	1:5,148
587	Keller	1,654	1:5,148
589	Heim	1,653	1:5,152
590	Heiss	1,649	1:5,164
591	Wenzl	1,645	1:5,177
592	Zechmeister	1,644	1:5,180
593	Gärtner	1,640	1:5,192
593	Schmidl	1,640	1:5,192
595	Kahr	1,639	1:5,196
596	Böhler	1,634	1:5,211
597	Sagmeister	1,633	1:5,215
598	Kaspar	1,626	1:5,237
599	Grabher	1,625	1:5,240
599	Stefan	1,625	1:5,240
601	Schlosser	1,622	1:5,250
602	Fellinger	1,621	1:5,253
603	Walder	1,620	1:5,256
604	Stankovic	1,617	1:5,266
605	Kostic	1,615	1:5,273
606	Mühlberger	1,614	1:5,276
607	Jankovic	1,611	1:5,286
608	Rohrmoser	1,610	1:5,289
608	Sigl	1,610	1:5,289
610	Sperl	1,608	1:5,296
611	Fleischmann	1,607	1:5,299
612	Kaindl	1,601	1:5,319
613	Jauk	1,600	1:5,322
613	Schinnerl	1,600	1:5,322
615	Kober	1,599	1:5,325
616	Rohrer	1,594	1:5,342
617	Deutschmann	1,593	1:5,346
617	Leopold	1,593	1:5,346
619	Helm	1,586	1:5,369
619	Kammerer	1,586	1:5,369
621	Dangl	1,585	1:5,373
621	Dengg	1,585	1:5,373
621	Moritz	1,585	1:5,373
624	Mann	1,578	1:5,396
625	Eller	1,573	1:5,413
625	Gstrein	1,573	1:5,413
627	Schrenk	1,568	1:5,431
628	Blaha	1,567	1:5,434
629	Adler	1,565	1:5,441
630	Riepl	1,563	1:5,448
631	Lintner	1,561	1:5,455
632	Meister	1,559	1:5,462
633	Galler	1,557	1:5,469
634	Öztürk	1,554	1:5,480
635	Klocker	1,550	1:5,494
636	Fitz	1,549	1:5,497
636	Käfer	1,549	1:5,497
638	Wiener	1,547	1:5,504
639	Dorn	1,544	1:5,515
640	Mitter	1,540	1:5,530
641	Prohaska	1,535	1:5,548
642	Zotter	1,530	1:5,566
643	Dirnberger	1,528	1:5,573
644	Heger	1,527	1:5,577
644	Radl	1,527	1:5,577
646	Steidl	1,525	1:5,584
647	Seifert	1,524	1:5,588
648	Nowotny	1,523	1:5,591
649	Wiesner	1,522	1:5,595
650	Niederl	1,521	1:5,599
650	Strohmaier	1,521	1:5,599
652	Felber	1,519	1:5,606
652	Freitag	1,519	1:5,606
654	Pieber	1,517	1:5,613
655	Seiwald	1,515	1:5,621
656	Berthold	1,513	1:5,628
657	Macher	1,512	1:5,632
657	Nemec	1,512	1:5,632
659	Molnar	1,511	1:5,636
660	Stock	1,506	1:5,654
661	Haindl	1,505	1:5,658
662	Stojanovic	1,504	1:5,662
663	Ramsauer	1,503	1:5,666
664	Dvorak	1,500	1:5,677
664	Kloiber	1,500	1:5,677
666	Krug	1,498	1:5,685
666	Summer	1,498	1:5,685
668	Scharinger	1,491	1:5,711
669	Schilcher	1,483	1:5,742
670	Marek	1,481	1:5,750
671	Laimer	1,480	1:5,754
672	Meindl	1,479	1:5,758
672	Mittermayr	1,479	1:5,758
672	Spindler	1,479	1:5,758
675	Wessely	1,476	1:5,769
676	Bürger	1,473	1:5,781
676	Santner	1,473	1:5,781
678	Klaus	1,468	1:5,801
679	Hollaus	1,467	1:5,805
680	Pesendorfer	1,465	1:5,813
681	Klingler	1,464	1:5,817
681	Lammer	1,464	1:5,817
681	Reitbauer	1,464	1:5,817
684	Lagler	1,463	1:5,821
685	Simic	1,462	1:5,825
686	Grüner	1,461	1:5,828
687	Mörth	1,460	1:5,832
687	Singh	1,460	1:5,832
689	Dallinger	1,459	1:5,836
689	Marte	1,459	1:5,836
689	Neumeister	1,459	1:5,836
692	Bräuer	1,458	1:5,840
692	Postl	1,458	1:5,840
694	Leutgeb	1,457	1:5,844
695	Reithofer	1,455	1:5,853
696	Enzinger	1,454	1:5,857
696	Pertl	1,454	1:5,857
698	Erlacher	1,446	1:5,889
699	Obermayr	1,441	1:5,909
700	Breuer	1,436	1:5,930