1	Mammadova	324,436	1:30
2	Mammadov	293,754	1:33
3	Aliyeva	261,311	1:37
4	Aliyev	245,797	1:39
5	Hüseynova	157,591	1:61
6	Hüseynov	140,367	1:69
7	Hasanova	125,323	1:77
8	Hasanov	115,252	1:84
9	Quliyeva	111,304	1:87
10	Quliyev	107,623	1:90
11	Ismayilova	92,378	1:104
12	Ismayilov	88,013	1:110
13	Ahmadova	87,961	1:110
14	Ahmadov	79,644	1:121
15	Abdullayeva	77,842	1:124
16	Abdullayev	75,693	1:127
17	Abbasova	68,765	1:140
18	Abbasov	68,527	1:141
19	Cafarova	67,632	1:143
20	Ağayeva	66,695	1:145
21	Karimova	65,934	1:146
22	Qasimova	63,702	1:151
23	Cafarov	62,393	1:155
24	Babayeva	61,859	1:156
25	Qasimov	60,901	1:158
26	Ağayev	60,850	1:159
27	Karimov	59,924	1:161
28	Babayev	59,363	1:163
29	Ibrahimova	56,708	1:170
30	Ibrahimov	55,090	1:175
31	Haciyeva	51,978	1:186
32	Haciyev	50,112	1:193
33	Qurbanova	48,278	1:200
34	Bayramov	47,794	1:202
35	Bayramova	47,232	1:204
36	Qurbanov	46,852	1:206
37	Mustafayeva	43,824	1:220
38	Mustafayev	42,555	1:227
39	Mirzayeva	40,899	1:236
40	Rzayeva	40,390	1:239
41	Valiyeva	40,269	1:240
42	Musayeva	39,374	1:245
43	Rzayev	39,297	1:246
44	Mirzayev	38,423	1:251
45	Musayev	38,143	1:253
46	Zeynalova	37,669	1:256
47	Zeynalov	37,633	1:256
48	Asgarova	37,295	1:259
49	Valiyev	37,007	1:261
50	Süleymanova	35,880	1:269
51	Safarova	35,871	1:269
52	Rahimova	34,087	1:283
53	Safarov	34,083	1:283
54	Asgarov	33,606	1:287
55	Rüstamova	33,029	1:292
56	Süleymanov	32,655	1:295
57	Tağiyeva	31,824	1:303
58	Bağirova	31,736	1:304
59	Xalilova	31,621	1:305
60	Rahimov	30,706	1:314
61	Xalilov	29,616	1:326
62	Rüstamov	29,351	1:329
63	Maharramova	28,753	1:336
64	Bağirov	28,722	1:336
65	Tağiyev	28,514	1:338
66	Allahverdiyeva	28,004	1:345
67	Sadiqova	27,724	1:348
68	Muradova	27,655	1:349
69	Allahverdiyev	27,645	1:349
70	Muradov	26,895	1:359
71	Maharramov	26,747	1:361
72	Mehdiyeva	26,740	1:361
73	Asadova	26,421	1:365
74	Mehdiyev	26,085	1:370
75	Sadiqov	25,878	1:373
76	Mamedov	25,562	1:377
77	Mahmudova	25,558	1:378
78	Asadov	25,517	1:378
79	Mahmudov	25,042	1:385
80	Alakbarova	25,020	1:386
81	Azizova	24,925	1:387
82	Azizov	24,210	1:399
83	Orucova	23,561	1:410
84	Orucov	23,403	1:412
85	Yusifova	23,136	1:417
86	Yusifov	22,784	1:424
87	Alakbarov	22,663	1:426
88	Aslanova	22,337	1:432
89	Aslanov	22,020	1:438
90	Kazimova	21,963	1:439
91	Samadova	21,896	1:441
92	Qarayeva	21,533	1:448
93	Novruzov	21,452	1:450
94	Novruzova	21,275	1:454
95	Kazimov	20,893	1:462
96	Qarayev	20,716	1:466
97	Samadov	19,952	1:484
98	Isayeva	19,810	1:487
99	Isayev	19,619	1:492
100	Nabiyeva	19,209	1:502
101	Şirinova	19,032	1:507
102	Nasirova	18,999	1:508
103	Dadaşova	18,941	1:509
104	Isgandarova	18,831	1:512
105	Nacafova	18,306	1:527
106	Nağiyeva	18,217	1:530
107	Nasirov	17,825	1:541
108	Dadaşov	17,610	1:548
109	Nabiyev	17,581	1:549
110	Şirinov	17,351	1:556
111	Nacafov	17,322	1:557
112	Isgandarov	17,191	1:561
113	Imanov	16,962	1:569
114	Şükürova	16,868	1:572
115	Nuriyeva	16,662	1:579
116	Imanova	16,652	1:579
117	Akbarova	16,611	1:581
118	Nağiyev	16,473	1:586
119	Rasulova	16,408	1:588
120	Paşayeva	16,296	1:592
121	Nuriyev	16,230	1:595
122	Şükürov	15,845	1:609
123	Cavadova	15,579	1:619
124	Akbarov	15,381	1:627
125	Heydarova	15,291	1:631
126	Rasulov	15,245	1:633
127	Cavadov	14,851	1:650
128	Paşayev	14,632	1:659
129	Heydarov	14,283	1:676
130	Cabbarova	14,270	1:676
131	Cabbarov	13,780	1:700
132	Seyidova	13,710	1:704
133	Seyidov	13,247	1:728
134	Hamidova	13,237	1:729
135	Qahramanova	13,203	1:731
136	Malikova	13,063	1:739
137	Salimova	13,003	1:742
138	Mamedova	12,731	1:758
139	Qahramanov	12,356	1:781
140	Hamidov	12,273	1:786
141	Salimov	12,253	1:787
142	Malikov	12,189	1:792
143	Qafarova	12,051	1:801
143	Salmanova	12,051	1:801
145	Qadirova	11,919	1:810
146	Haşimova	11,892	1:811
147	Salmanov	11,737	1:822
148	Alizadeh	11,646	1:829
149	Qafarov	11,606	1:831
150	Memmedov	11,391	1:847
151	Amirova	11,336	1:851
152	Mikayilova	11,259	1:857
153	Qadirov	11,248	1:858
154	Osmanova	11,226	1:860
155	Eyvazova	11,207	1:861
156	Haşimov	11,150	1:865
157	Nasibova	11,059	1:873
158	Osmanov	11,056	1:873
159	Mikayilov	11,022	1:875
160	Amirov	10,937	1:882
161	Sultanova	10,852	1:889
162	Ramazanov	10,809	1:893
163	Hümbatova	10,802	1:893
164	Eyvazov	10,797	1:894
165	Alasgarova	10,786	1:895
166	Namazova	10,785	1:895
167	Sultanov	10,688	1:903
168	Ramazanova	10,684	1:903
169	Namazov	10,636	1:907
170	Nasibov	10,593	1:911
171	Cabrayilova	10,548	1:915
172	Nazarova	10,514	1:918
173	Axundova	10,298	1:937
174	Azimova	10,261	1:940
175	Cabrayilov	10,128	1:953
176	Nazarov	10,113	1:954
177	Azimov	10,071	1:958
178	Hümbatov	9,947	1:970
179	Faracova	9,762	1:988
180	Alasgarov	9,707	1:994
181	Aliev	9,700	1:995
182	Abasov	9,690	1:996
183	Huseynov	9,655	1:999
184	Farzaliyeva	9,537	1:1,012
185	Talibov	9,384	1:1,028
186	Talibova	9,315	1:1,036
187	Calilova	9,252	1:1,043
188	Axundov	9,211	1:1,048
189	Badalova	9,105	1:1,060
190	Başirova	9,059	1:1,065
191	Abasova	9,033	1:1,068
192	Farzaliyev	8,967	1:1,076
193	Badalov	8,942	1:1,079
194	Faracov	8,875	1:1,087
195	Calilov	8,606	1:1,121
196	Quluyeva	8,486	1:1,137
197	Başirov	8,291	1:1,164
198	Mammadli	8,131	1:1,187
199	Şahbazova	7,978	1:1,209
200	Mehtiyeva	7,894	1:1,222
201	Ibadova	7,880	1:1,225
202	Verdiyev	7,818	1:1,234
203	Mehtiyev	7,816	1:1,235
204	Verdiyeva	7,749	1:1,245
205	Ibadov	7,709	1:1,252
206	Qanbarova	7,693	1:1,254
207	Soltanova	7,671	1:1,258
208	Qocayeva	7,585	1:1,272
209	Soltanov	7,545	1:1,279
210	Eliyev	7,539	1:1,280
211	Şahbazov	7,499	1:1,287
212	Quluyev	7,478	1:1,290
213	Racabova	7,407	1:1,303
214	Qocayev	7,402	1:1,304
215	Şarifova	7,186	1:1,343
216	Tahirova	7,144	1:1,351
217	Yaqubov	7,120	1:1,355
218	Yaqubova	7,068	1:1,365
219	Qanbarov	6,832	1:1,412
220	Tahirov	6,816	1:1,416
221	Salahov	6,789	1:1,421
222	Zamanov	6,724	1:1,435
223	Zamanova	6,687	1:1,443
224	Salahova	6,667	1:1,447
225	Israfilov	6,657	1:1,449
226	Manafov	6,597	1:1,463
227	Şixaliyeva	6,589	1:1,464
228	Racabov	6,534	1:1,477
229	Macidova	6,468	1:1,492
230	Israfilova	6,453	1:1,495
231	Manafova	6,414	1:1,504
232	Şarifov	6,412	1:1,505
233	Şabanova	6,302	1:1,531
234	Şixaliyev	6,181	1:1,561
235	Atakişiyeva	6,102	1:1,581
236	Baxşiyeva	6,050	1:1,595
237	Muxtarova	6,049	1:1,595
238	Ahadov	5,998	1:1,609
239	Muxtarov	5,980	1:1,614
240	Macidov	5,973	1:1,615
241	Ahadova	5,970	1:1,616
242	Abişova	5,897	1:1,636
243	Teymurov	5,836	1:1,653
244	Hesenov	5,776	1:1,671
245	Baxişova	5,758	1:1,676
246	Amiraslanova	5,728	1:1,685
247	Fatullayeva	5,683	1:1,698
248	Niftaliyev	5,663	1:1,704
249	Piriyeva	5,662	1:1,704
250	Teymurova	5,659	1:1,705
251	Baxşiyev	5,652	1:1,707
252	Piriyev	5,648	1:1,708
253	Atakişiyev	5,611	1:1,720
254	Amiraslanov	5,598	1:1,724
255	Abişov	5,597	1:1,724
256	Niftaliyeva	5,554	1:1,737
257	Baxişov	5,535	1:1,743
258	Fataliyeva	5,528	1:1,745
259	Damirova	5,502	1:1,754
260	Abilova	5,472	1:1,763
261	Alieva	5,450	1:1,770
262	Baxşaliyeva	5,435	1:1,775
263	Şabanov	5,414	1:1,782
264	Damirov	5,397	1:1,788
265	Fatullayev	5,345	1:1,805
266	Abilov	5,315	1:1,815
267	Islamov	5,273	1:1,830
268	Şiraliyeva	5,257	1:1,835
269	Kerimov	5,243	1:1,840
270	Haqverdiyeva	5,234	1:1,844
271	Afandiyeva	5,211	1:1,852
272	Fataliyev	5,179	1:1,863
273	Qaribova	5,165	1:1,868
274	Hamzayeva	5,152	1:1,873
274	Islamova	5,152	1:1,873
276	Qaribov	5,132	1:1,880
277	Adigözalova	5,122	1:1,884
278	Amrahova	5,091	1:1,895
279	Haqverdiyev	5,058	1:1,908
280	Habibova	5,052	1:1,910
281	Askarov	5,050	1:1,911
282	Zülfüqarova	5,033	1:1,917
283	Baxşaliyev	4,920	1:1,961
284	Askarova	4,915	1:1,963
285	Mammadzadeh	4,901	1:1,969
286	Şiraliyev	4,861	1:1,985
287	Mürsalova	4,827	1:1,999
288	Hamzayev	4,800	1:2,010
289	Habibov	4,794	1:2,013
290	Cabiyeva	4,791	1:2,014
291	Amrahov	4,778	1:2,019
292	Yusubov	4,708	1:2,050
293	Adigözalov	4,698	1:2,054
294	Cabiyev	4,691	1:2,057
295	Mürsalov	4,665	1:2,068
296	Mirzaliyeva	4,657	1:2,072
297	Qadimova	4,655	1:2,073
298	Yusibova	4,645	1:2,077
299	Gözalova	4,635	1:2,082
300	Yusibov	4,632	1:2,083
301	Zülfüqarov	4,591	1:2,102
302	Mehraliyeva	4,546	1:2,123
303	Mirzaliyev	4,529	1:2,131
304	Balayeva	4,525	1:2,132
305	Abdurahmanov	4,524	1:2,133
306	Abdurahmanova	4,519	1:2,135
307	Ömarova	4,508	1:2,140
308	Camalova	4,476	1:2,156
309	Eminova	4,451	1:2,168
310	Bakirova	4,444	1:2,171
311	Iskandarova	4,431	1:2,178
311	Yusubova	4,431	1:2,178
313	Mehraliyev	4,377	1:2,205
314	Iskandarov	4,372	1:2,207
315	Eminov	4,367	1:2,210
316	Ilyasov	4,366	1:2,210
317	Afandiyev	4,347	1:2,220
318	Ömarov	4,335	1:2,226
319	Ilyasova	4,308	1:2,240
320	Sariyeva	4,304	1:2,242
321	Panahova	4,288	1:2,250
322	Xankişiyeva	4,283	1:2,253
323	Qadimov	4,273	1:2,258
324	Camalov	4,269	1:2,260
325	Bakirov	4,247	1:2,272
326	Tahmazova	4,242	1:2,275
327	Xankişiyev	4,185	1:2,306
328	Gözalov	4,152	1:2,324
329	Şahverdiyeva	4,145	1:2,328
330	Panahov	4,136	1:2,333
331	Sariyev	4,133	1:2,335
332	Alişova	4,124	1:2,340
333	Tahmazov	4,096	1:2,356
334	Balayev	4,081	1:2,364
335	Xudiyev	4,045	1:2,385
336	Masimova	4,028	1:2,396
337	Alişov	3,996	1:2,415
338	Masimov	3,969	1:2,431
339	Agayev	3,962	1:2,435
340	Feyzullayeva	3,957	1:2,438
341	Latifova	3,953	1:2,441
342	Xudiyeva	3,952	1:2,442
343	Latifov	3,904	1:2,472
344	Şahverdiyev	3,823	1:2,524
345	Cahangirova	3,820	1:2,526
346	Guseynov	3,799	1:2,540
347	Cahangirov	3,796	1:2,542
348	Hasanli	3,790	1:2,546
349	Adilov	3,750	1:2,573
350	Şafiyeva	3,745	1:2,577
351	Suleymanov	3,735	1:2,583
352	Mamişova	3,732	1:2,586
353	Nadirov	3,697	1:2,610
354	Gülmammadova	3,687	1:2,617
355	Feyzullayev	3,659	1:2,637
355	Sadixov	3,659	1:2,637
357	Nadirova	3,651	1:2,643
358	Adilova	3,626	1:2,661
359	Qaniyeva	3,609	1:2,674
360	Gasanov	3,578	1:2,697
361	Hüseynli	3,567	1:2,705
362	Abiyeva	3,560	1:2,710
363	Abiyev	3,549	1:2,719
364	Rahmanova	3,548	1:2,720
365	Mamişov	3,544	1:2,723
366	Sadixova	3,539	1:2,727
367	Gülmammadov	3,521	1:2,740
368	Hüseynzadeh	3,497	1:2,759
369	Qambarova	3,487	1:2,767
370	Rahmanov	3,479	1:2,774
371	Karimli	3,424	1:2,818
372	Raşidova	3,412	1:2,828
373	Qaniyev	3,408	1:2,831
374	Dünyamaliyeva	3,396	1:2,841
375	Behbudov	3,371	1:2,862
376	Tarverdiyev	3,360	1:2,872
377	Tarverdiyeva	3,355	1:2,876
378	Rafiyeva	3,319	1:2,907
379	Şafiyev	3,316	1:2,910
380	Ağamaliyeva	3,278	1:2,944
381	Yahyayeva	3,260	1:2,960
382	Dünyamaliyev	3,241	1:2,977
383	Balakişiyeva	3,230	1:2,987
384	Behbudova	3,227	1:2,990
385	Daşdamirova	3,222	1:2,995
386	Zarbaliyeva	3,207	1:3,009
387	Qambarov	3,199	1:3,016
388	Raşidov	3,185	1:3,030
389	Balakişiyev	3,166	1:3,048
390	Abdulov	3,153	1:3,060
391	Yahyayev	3,151	1:3,062
392	Ceferov	3,129	1:3,084
393	Rafiyev	3,081	1:3,132
394	Bagirov	3,058	1:3,155
395	Daşdamirov	3,035	1:3,179
396	Salayeva	3,022	1:3,193
397	Eyyubov	3,011	1:3,205
398	Ağakişiyeva	2,998	1:3,219
399	Zarbaliyev	2,995	1:3,222
400	Ağalarova	2,985	1:3,233
401	Ibişova	2,955	1:3,265
402	Hüseyinova	2,950	1:3,271
403	Eyyubova	2,945	1:3,276
404	Yunusov	2,944	1:3,278
405	Abdulova	2,938	1:3,284
406	Ağamaliyev	2,922	1:3,302
407	Atayev	2,918	1:3,307
408	Quluzadeh	2,884	1:3,346
409	Ismailov	2,865	1:3,368
410	Ibişov	2,864	1:3,369
411	Babaşova	2,861	1:3,373
412	Amanov	2,860	1:3,374
413	Ağazadeh	2,858	1:3,376
414	Yunusova	2,843	1:3,394
415	Amanova	2,834	1:3,405
416	Hüseyinov	2,833	1:3,406
417	Safaraliyev	2,832	1:3,407
418	Ağakişiyev	2,826	1:3,414
419	Mansimova	2,821	1:3,420
420	Veliyev	2,820	1:3,422
421	Salamova	2,810	1:3,434
422	Atayeva	2,809	1:3,435
423	Salayev	2,807	1:3,438
424	Safaraliyeva	2,797	1:3,450
425	Ağalarov	2,777	1:3,475
425	Salamov	2,777	1:3,475
427	Asadullayeva	2,762	1:3,494
428	Xudaverdiyev	2,761	1:3,495
429	Hümmatov	2,757	1:3,500
430	Babaşov	2,753	1:3,505
431	Allahyarov	2,739	1:3,523
432	Xudaverdiyeva	2,738	1:3,524
433	Hümmatova	2,734	1:3,529
434	Madatov	2,717	1:3,551
435	Mansimov	2,716	1:3,553
436	Hatamov	2,701	1:3,572
437	Mardanova	2,696	1:3,579
438	Hatamova	2,687	1:3,591
439	Şamilova	2,675	1:3,607
440	Madatova	2,670	1:3,614
441	Ibrahimli	2,661	1:3,626
442	Hasanzadeh	2,654	1:3,636
443	Seyfullayeva	2,647	1:3,645
444	Haziyeva	2,645	1:3,648
445	Asadullayev	2,635	1:3,662
446	Alizade	2,620	1:3,683
447	Şixiyeva	2,608	1:3,700
448	Allahyarova	2,603	1:3,707
449	Seyfullayev	2,596	1:3,717
450	Abuşova	2,579	1:3,741
451	Haziyev	2,554	1:3,778
452	Şixiyev	2,551	1:3,782
453	Mardanov	2,550	1:3,784
454	Askerov	2,542	1:3,796
455	Umudov	2,507	1:3,849
456	Gülaliyeva	2,497	1:3,864
457	Umudova	2,496	1:3,866
458	Axmedov	2,495	1:3,867
459	Mansurov	2,493	1:3,870
460	Şamilov	2,478	1:3,894
461	Mammadaliyev	2,477	1:3,895
462	Gülaliyev	2,476	1:3,897
463	Ahmadli	2,449	1:3,940
464	Mammadaliyeva	2,441	1:3,953
465	Poladov	2,439	1:3,956
466	Farhadova	2,432	1:3,968
467	Mütallimova	2,426	1:3,977
468	Mansurova	2,415	1:3,995
469	Abuşov	2,403	1:4,015
470	Miriyeva	2,395	1:4,029
471	Poladova	2,377	1:4,059
472	Nahmatova	2,330	1:4,141
473	Mayilova	2,328	1:4,145
474	Abdiyev	2,325	1:4,150
475	Farhadov	2,319	1:4,161
476	Miriyev	2,316	1:4,166
476	Vahabova	2,316	1:4,166
478	Heybatova	2,291	1:4,212
479	Heybatov	2,275	1:4,241
480	Rahimli	2,265	1:4,260
481	Rustamov	2,263	1:4,264
482	Ismayilzadeh	2,253	1:4,283
483	Yusifli	2,245	1:4,298
484	Mütallimov	2,242	1:4,304
485	Yolçuyeva	2,240	1:4,308
486	Davudova	2,228	1:4,331
487	Akhmedov	2,220	1:4,346
488	Davudov	2,218	1:4,350
489	Mürşüdova	2,217	1:4,352
490	Nahmatov	2,205	1:4,376
491	Narimanova	2,193	1:4,400
492	Mayilov	2,187	1:4,412
492	Nurullayeva	2,187	1:4,412
494	Müslümova	2,169	1:4,449
495	Aşrafova	2,167	1:4,453
496	Xidirov	2,165	1:4,457
497	Yolçuyev	2,130	1:4,530
498	Nuraliyeva	2,128	1:4,534
498	Xaliqova	2,128	1:4,534
500	Nuraliyev	2,127	1:4,536
501	Narimanov	2,121	1:4,549
502	Qulamova	2,111	1:4,571
503	Cafarli	2,106	1:4,582
504	Vahabov	2,099	1:4,597
505	Xaliqov	2,088	1:4,621
505	Xidirova	2,088	1:4,621
507	Abdiyeva	2,073	1:4,655
508	Mamiyev	2,060	1:4,684
509	Baylarova	2,047	1:4,714
510	Memmedli	2,045	1:4,718
511	Müslümov	2,029	1:4,756
512	Aşrafov	2,019	1:4,779
513	Abdullaev	2,015	1:4,789
514	Safarli	2,010	1:4,801
515	Qulamov	1,999	1:4,827
516	Tanriverdiyeva	1,996	1:4,834
517	Babazadeh	1,988	1:4,854
517	Ehmedov	1,988	1:4,854
519	Mürşüdov	1,985	1:4,861
520	Mövsümova	1,983	1:4,866
521	Qubadov	1,979	1:4,876
522	Mamiyeva	1,971	1:4,896
523	Ibayeva	1,969	1:4,901
524	Nuruyeva	1,961	1:4,921
525	Almammadova	1,959	1:4,926
526	Tanriverdiyev	1,945	1:4,961
527	Ibayev	1,942	1:4,969
528	Nurullayev	1,925	1:5,013
529	Imamaliyev	1,899	1:5,081
530	Xalafova	1,887	1:5,113
531	Feyziyev	1,886	1:5,116
532	Guliev	1,874	1:5,149
533	Ibragimov	1,864	1:5,177
534	Almammadov	1,861	1:5,185
535	Baylarov	1,860	1:5,188
536	Ağasiyeva	1,856	1:5,199
537	Usubov	1,853	1:5,207
538	Hidayatova	1,843	1:5,236
539	Imamaliyeva	1,840	1:5,244
540	Mövsümov	1,834	1:5,261
541	Tağizadeh	1,830	1:5,273
542	Umarov	1,825	1:5,287
543	Xalafov	1,818	1:5,308
544	Alirzayeva	1,815	1:5,316
545	Feyziyeva	1,813	1:5,322
546	Nazirov	1,811	1:5,328
546	Niyazov	1,811	1:5,328
548	Tagiyev	1,808	1:5,337
549	Qubadova	1,807	1:5,340
550	Ağasiyev	1,805	1:5,346
551	Zalov	1,800	1:5,361
552	Alirzayev	1,797	1:5,370
553	Usubova	1,796	1:5,373
554	Omarov	1,792	1:5,385
555	Hacizadeh	1,787	1:5,400
556	Agaev	1,782	1:5,415
557	Nazirova	1,773	1:5,442
558	Qaziyeva	1,769	1:5,455
559	Vahidova	1,764	1:5,470
560	Nuruyev	1,757	1:5,492
561	Niyazova	1,747	1:5,523
562	Budaqov	1,744	1:5,533
563	Safiyeva	1,738	1:5,552
564	Babaev	1,737	1:5,555
565	Eliyeva	1,721	1:5,607
565	Vahidov	1,721	1:5,607
567	Hidayatov	1,720	1:5,610
568	Şamiyeva	1,718	1:5,616
569	Badirova	1,717	1:5,620
570	Huseynova	1,713	1:5,633
571	Eynullayeva	1,710	1:5,643
572	Nasrullayeva	1,705	1:5,659
572	Umarova	1,705	1:5,659
574	Mammedov	1,698	1:5,683
575	Budaqova	1,692	1:5,703
576	Zalova	1,683	1:5,733
577	Memmedova	1,673	1:5,768
578	Abuzarov	1,672	1:5,771
579	Eynullayev	1,668	1:5,785
580	Qaraşova	1,654	1:5,834
581	Göyüşova	1,636	1:5,898
582	Nasrullayev	1,634	1:5,905
583	Zakiyeva	1,632	1:5,912
584	Qaziyev	1,629	1:5,923
585	Mirzeyev	1,628	1:5,927
586	Ağabalayeva	1,625	1:5,938
587	Ahmadzadeh	1,622	1:5,949
588	Safiyev	1,619	1:5,960
589	Şamiyev	1,614	1:5,978
590	Badirov	1,612	1:5,986
591	Abuzarova	1,607	1:6,004
592	Imamverdiyev	1,601	1:6,027
593	Bilalova	1,598	1:6,038
594	Ağabalayev	1,597	1:6,042
595	Calalova	1,575	1:6,126
596	Hadiyeva	1,574	1:6,130
597	Calalov	1,568	1:6,154
598	Qardaşova	1,559	1:6,189
599	Abbaszadeh	1,558	1:6,193
599	Hadiyev	1,558	1:6,193
601	Farziyeva	1,555	1:6,205
602	Zeynalli	1,554	1:6,209
603	Bilalov	1,543	1:6,253
604	Rufullayeva	1,531	1:6,302
605	Şeydayeva	1,518	1:6,356
606	Valizadeh	1,514	1:6,373
607	Alxasova	1,512	1:6,382
608	Zakiyev	1,510	1:6,390
609	Imamverdiyeva	1,505	1:6,411
610	Abbasli	1,502	1:6,424
611	Xasiyev	1,501	1:6,428
612	Bayramli	1,495	1:6,454
613	Alxasov	1,492	1:6,467
614	Eldarov	1,485	1:6,498
615	Farziyev	1,484	1:6,502
616	Göyüşov	1,482	1:6,511
617	Nurmammadova	1,481	1:6,515
618	Mahammadov	1,476	1:6,537
618	Xasiyeva	1,476	1:6,537
620	Azayeva	1,470	1:6,564
621	Idrisov	1,469	1:6,568
621	Idrisova	1,469	1:6,568
623	Gadzhiev	1,463	1:6,595
623	Tapdiqova	1,463	1:6,595
625	Qaraşov	1,462	1:6,600
626	Kamalova	1,445	1:6,678
627	Aşurova	1,438	1:6,710
628	Omarova	1,432	1:6,738
629	Mahammadova	1,430	1:6,748
629	Tapdiqov	1,430	1:6,748
631	Qardaşov	1,419	1:6,800
632	Eldarova	1,413	1:6,829
633	Nurmammadov	1,411	1:6,838
634	Rufullayev	1,407	1:6,858
635	Rehimov	1,400	1:6,892
636	Azayev	1,390	1:6,942
636	Şeydayev	1,390	1:6,942
638	Ahmedov	1,388	1:6,952
639	Hasanaliyeva	1,386	1:6,962
640	Qayibova	1,381	1:6,987
641	Kamalov	1,379	1:6,997
642	Bağiyeva	1,374	1:7,023
643	Ov	1,371	1:7,038
644	Xanaliyeva	1,366	1:7,064
645	Bandaliyeva	1,364	1:7,074
645	Sardarova	1,364	1:7,074
647	Xanaliyev	1,359	1:7,100
648	Sardarov	1,358	1:7,105
649	Huseynli	1,356	1:7,116
650	Gülmaliyev	1,352	1:7,137
651	Müzaffarova	1,349	1:7,153
652	Alixanov	1,346	1:7,169
653	Zahidov	1,338	1:7,212
654	Qurbanli	1,335	1:7,228
655	Alixanova	1,334	1:7,233
655	Bandaliyev	1,334	1:7,233
655	Zahidova	1,334	1:7,233
655	Şiriyeva	1,334	1:7,233
659	Dzhafarov	1,332	1:7,244
660	Qasimzadeh	1,329	1:7,260
661	Qayibov	1,326	1:7,277
662	Lalayeva	1,320	1:7,310
663	Hesenli	1,314	1:7,343
664	Seferov	1,307	1:7,383
664	Çalabiyeva	1,307	1:7,383
666	Baxtiyarova	1,304	1:7,400
667	Aydinov	1,299	1:7,428
668	Abdullazadeh	1,291	1:7,474
669	Bağiyev	1,288	1:7,492
669	Gülmaliyeva	1,288	1:7,492
671	Xuduyeva	1,279	1:7,544
672	Rustemov	1,278	1:7,550
673	Abdinova	1,276	1:7,562
674	Gasanova	1,275	1:7,568
675	Elizade	1,271	1:7,592
676	Hasanaliyev	1,267	1:7,616
677	Bahramova	1,265	1:7,628
678	Aydinova	1,262	1:7,646
679	Abdinov	1,261	1:7,652
680	Kerimli	1,260	1:7,658
681	Müzaffarov	1,259	1:7,664
682	Guseynova	1,257	1:7,676
683	Ayyubov	1,256	1:7,682
683	Hasratova	1,256	1:7,682
685	Babirova	1,255	1:7,689
685	Lalayev	1,255	1:7,689
687	Mustafazadeh	1,250	1:7,719
688	Qalandarova	1,247	1:7,738
689	Alaskarova	1,246	1:7,744
690	Aşurov	1,243	1:7,763
691	Aliyarov	1,240	1:7,782
692	Xanlarov	1,239	1:7,788
693	Cumayeva	1,233	1:7,826
694	Alaskarov	1,232	1:7,832
694	Qalandarov	1,232	1:7,832
696	Farzullayeva	1,231	1:7,838
697	Nagiyev	1,228	1:7,858
698	Babirov	1,225	1:7,877
699	Çalabiyev	1,218	1:7,922
700	Adgözalova	1,217	1:7,929
701	Cumayev	1,211	1:7,968
701	Gurbanov	1,211	1:7,968
701	Samedov	1,211	1:7,968
704	Kerimova	1,209	1:7,981
705	Kamilov	1,203	1:8,021
706	Rzaev	1,202	1:8,028
707	Hasratov	1,200	1:8,041
708	Dövlatova	1,199	1:8,048
709	Ayyubova	1,193	1:8,088
710	Meherremov	1,186	1:8,136
711	Cabbarli	1,183	1:8,156
712	Melikov	1,178	1:8,191
713	Mustafaev	1,173	1:8,226
714	Kamilova	1,172	1:8,233
715	Bahramov	1,167	1:8,268
715	Mirzazadeh	1,167	1:8,268
717	Bünyatov	1,166	1:8,275
717	Xanlarova	1,166	1:8,275
719	Qasimli	1,161	1:8,311
720	Şakarova	1,158	1:8,333
721	Bünyatova	1,153	1:8,369
722	Sadiyev	1,151	1:8,383
723	Farzullayev	1,145	1:8,427
723	Sadiyeva	1,145	1:8,427
725	Baloğlanov	1,144	1:8,435
726	Aliyarova	1,143	1:8,442
727	Ismailova	1,141	1:8,457
727	Suleymanova	1,141	1:8,457
729	Şammadova	1,140	1:8,464
730	Baxtiyarov	1,136	1:8,494
731	Cümşüdov	1,135	1:8,501
732	Şiriyev	1,134	1:8,509
733	Şahmarova	1,133	1:8,516
734	Şammadov	1,130	1:8,539
735	Cümşüdova	1,125	1:8,577
735	Dövlatov	1,125	1:8,577
737	Ağacanova	1,119	1:8,623
737	Qaçayeva	1,119	1:8,623
739	Xuduyev	1,118	1:8,631
740	Baloğlanova	1,117	1:8,638
741	Kişiyeva	1,115	1:8,654
741	Sarkarov	1,115	1:8,654
741	Xelilov	1,115	1:8,654
744	Qaçayev	1,102	1:8,756
745	Binnatova	1,101	1:8,764
746	Qaffarova	1,098	1:8,788
747	Alekberov	1,096	1:8,804
747	Cafarzadeh	1,096	1:8,804
749	Asgarli	1,091	1:8,844
749	Çobanova	1,091	1:8,844
751	Imranov	1,089	1:8,861
752	Niftiyeva	1,087	1:8,877
753	Aydamirova	1,086	1:8,885
753	Farmanov	1,086	1:8,885
755	Salehov	1,084	1:8,901
756	Salehova	1,074	1:8,984
756	Şakarov	1,074	1:8,984
758	Ismaylov	1,070	1:9,018
759	Farmanova	1,067	1:9,043
760	Gasymov	1,064	1:9,069
761	Qaffarov	1,062	1:9,086
762	Nasirli	1,061	1:9,094
762	Xasmammadova	1,061	1:9,094
764	Ismiyeva	1,059	1:9,112
765	Niftiyev	1,053	1:9,163
766	Musaev	1,046	1:9,225
767	Aydamirov	1,045	1:9,234
768	Ismiyev	1,044	1:9,242
769	Şahmarov	1,042	1:9,260
770	Sarkarova	1,041	1:9,269
771	Şahmuradov	1,040	1:9,278
772	Adgözalov	1,039	1:9,287
773	Şahmuradova	1,038	1:9,296
774	Mirzoev	1,037	1:9,305
775	Binyatov	1,034	1:9,332
776	Qadirli	1,031	1:9,359
777	Imamquliyev	1,029	1:9,377
778	Beydullayeva	1,027	1:9,395
778	Sattarov	1,027	1:9,395
780	Sattarova	1,023	1:9,432
781	Binnatov	1,022	1:9,441
782	Binyatova	1,021	1:9,451
783	Dadashov	1,014	1:9,516
783	Musazadeh	1,014	1:9,516
785	Beydullayev	1,011	1:9,544
785	Ismayilli	1,011	1:9,544
787	Nematova	1,008	1:9,573
788	Çobanov	999	1:9,659
789	Mehdizadeh	995	1:9,698
789	Süleymanli	995	1:9,698
791	Veliev	991	1:9,737
792	Yusifzadeh	990	1:9,747
793	Imamquliyeva	987	1:9,776
793	Kazimli	987	1:9,776
795	Azizli	985	1:9,796
795	Rüstamli	985	1:9,796
797	Khalilov	984	1:9,806
798	Azadov	983	1:9,816
798	Bağişova	983	1:9,816
798	Esgerov	983	1:9,816
798	Rzazadeh	983	1:9,816
798	Xammadova	983	1:9,816
803	Alibayova	982	1:9,826
803	Xammadov	982	1:9,826
805	Alişanova	979	1:9,856
806	Imranova	978	1:9,866
807	Nematov	976	1:9,886
807	Xasmammadov	976	1:9,886
809	Bağişov	975	1:9,897
810	Kişiyev	973	1:9,917
810	Mammadrzayeva	973	1:9,917
812	Ağammadov	971	1:9,937
813	Ragimov	969	1:9,958
814	Ibrahimxalilova	968	1:9,968
815	Ibrahimxalilov	966	1:9,989
816	Ağamirzayeva	961	1:10,041
816	Ağammadova	961	1:10,041
818	Zakirova	959	1:10,062
819	Mammadrzayev	957	1:10,083
820	Alişanov	954	1:10,114
821	Aslanli	949	1:10,168
822	Xancanova	948	1:10,178
823	Ağamirzayev	944	1:10,222
824	Astanova	937	1:10,298
825	Ağabayova	936	1:10,309
825	Ziyadova	936	1:10,309
827	Arabova	932	1:10,353
828	Murtuzov	928	1:10,398
829	Gancaliyeva	927	1:10,409
830	Ali	923	1:10,454
831	Guliyev	921	1:10,477
832	Pirverdiyeva	918	1:10,511
833	Aliquliyeva	917	1:10,522
834	Balabayov	914	1:10,557
834	Şabiyeva	914	1:10,557
836	Balabayova	913	1:10,569
836	Maqsudova	913	1:10,569
838	Xancanov	912	1:10,580
839	Kalbiyeva	911	1:10,592
840	Ağamammadova	910	1:10,603
841	Veysalova	909	1:10,615
842	Ağacanov	908	1:10,627
842	Nebiyev	908	1:10,627
844	Azadova	907	1:10,639
845	Ibadullayev	906	1:10,650
845	Ziyadov	906	1:10,650
847	Alibayov	905	1:10,662
847	Ağaverdiyeva	905	1:10,662
849	Maqsudov	899	1:10,733
850	Isgenderov	898	1:10,745
851	Caniyeva	897	1:10,757
851	Şabiyev	897	1:10,757
853	Zakirov	896	1:10,769
854	Ivanov	895	1:10,781
855	Cabarova	894	1:10,793
856	Camilova	893	1:10,805
856	Shirinov	893	1:10,805
858	Azeri	892	1:10,817
859	Murtuzova	890	1:10,842
860	Ağabayov	878	1:10,990
861	Agazade	877	1:11,002
862	Agayeva	875	1:11,028
863	Kalbiyev	874	1:11,040
863	Xanmammadova	874	1:11,040
865	Laçinova	873	1:11,053
866	Arabov	872	1:11,066
867	Cabarov	870	1:11,091
867	Mammadyarova	870	1:11,091
869	Camilov	868	1:11,116
870	Qiyasov	867	1:11,129
871	Müseyibov	866	1:11,142
872	Astanov	865	1:11,155
873	Aliquliyev	863	1:11,181
874	Zaidov	862	1:11,194
875	Aşirova	859	1:11,233
875	Muradli	859	1:11,233
877	Garayev	857	1:11,259
877	Niftullayeva	857	1:11,259
879	Novruzlu	854	1:11,299
880	Hüseynaliyeva	852	1:11,325
880	Pirverdiyev	852	1:11,325
882	Qiyasova	851	1:11,339
883	Huseynzade	850	1:11,352
884	Mollayeva	849	1:11,365
885	Veysalov	848	1:11,379
886	Müseyibova	847	1:11,392
887	Mammadyarov	846	1:11,406
888	Alimova	843	1:11,446
888	Huseyinov	843	1:11,446
890	Murtuzayev	841	1:11,473
891	Alimov	839	1:11,501
892	Abdulkarimova	838	1:11,514
893	Almasova	836	1:11,542
893	Dibirova	836	1:11,542
895	Bagirova	835	1:11,556
895	Tagiev	835	1:11,556
897	Ibadullayeva	834	1:11,570
898	Mamadova	831	1:11,611
899	Eyubov	829	1:11,639
899	Mehbaliyeva	829	1:11,639
901	Mollayev	828	1:11,654
901	Nahmadova	828	1:11,654
903	Almasov	827	1:11,668
903	Mecidov	827	1:11,668
905	Ağamammadov	825	1:11,696
905	Aşirov	825	1:11,696
907	Abdulkarimov	822	1:11,739
908	Isaqov	819	1:11,782
909	Hüseynaliyev	818	1:11,796
910	Garayeva	814	1:11,854
910	Niftullayev	814	1:11,854
912	Laçinov	813	1:11,869
912	Xanmammadov	813	1:11,869
914	Aqayev	812	1:11,883
914	Hacaliyev	812	1:11,883
914	Surxayev	812	1:11,883
917	Surxayeva	809	1:11,927
917	Şarbatova	809	1:11,927
919	Nazarli	808	1:11,942
919	Vazirova	808	1:11,942
921	Samadzadeh	807	1:11,957
922	Caniyev	803	1:12,016
923	Isazadeh	800	1:12,061
923	Mürsaliyeva	800	1:12,061
925	Miraliyeva	798	1:12,092
926	Gancaliyev	795	1:12,137
926	Ibragimova	795	1:12,137
928	Zaidova	794	1:12,153
929	Nahmadov	792	1:12,183
930	Murtuzayeva	791	1:12,199
930	Valixanova	791	1:12,199
932	Akbarli	790	1:12,214
933	Ağaverdiyev	788	1:12,245
934	Fatiyev	786	1:12,276
935	Hesenova	782	1:12,339
936	Alimammadov	780	1:12,371
936	Hacaliyeva	780	1:12,371
938	Balaşova	779	1:12,387
939	Mehbaliyev	776	1:12,434
940	Karamov	775	1:12,450
940	Qasanov	775	1:12,450
940	Yariyev	775	1:12,450
943	Amirxanova	774	1:12,467
944	Davidov	770	1:12,531
944	Memmedzade	770	1:12,531
944	Yariyeva	770	1:12,531
947	Fatiyeva	768	1:12,564
947	Miraliyev	768	1:12,564
949	Isaqova	765	1:12,613
950	Qubatova	764	1:12,630
951	Maharramli	762	1:12,663
952	Sayilov	760	1:12,696
953	Necefov	759	1:12,713
953	Qubatov	759	1:12,713
955	Qadimaliyeva	758	1:12,730
956	Arzumanova	756	1:12,763
956	Karamova	756	1:12,763
958	Heydarli	755	1:12,780
959	Bağirzadeh	753	1:12,814
959	Yunisov	753	1:12,814
961	Misirov	751	1:12,848
962	Maliyeva	750	1:12,865
963	Akhmedova	746	1:12,934
964	Mirişov	745	1:12,952
965	Mastanova	744	1:12,969
966	Pirmammadov	739	1:13,057
967	Zöhrabova	738	1:13,075
968	Yaraliyeva	737	1:13,092
969	Rustamova	736	1:13,110
970	Misirova	735	1:13,128
970	Qurbanaliyeva	735	1:13,128
972	Alakbarli	733	1:13,164
972	Amirxanov	733	1:13,164
974	Rasulzadeh	731	1:13,200
975	Şahmammadova	730	1:13,218
976	Şarbatov	728	1:13,254
977	Maliyev	727	1:13,273
977	Mirişova	727	1:13,273
979	Davidova	724	1:13,328
980	Fattayeva	723	1:13,346
981	Alicanov	722	1:13,364
981	Kuliev	722	1:13,364
983	Alicanova	721	1:13,383
983	Sayilova	721	1:13,383
983	Şixmammadov	721	1:13,383
983	Şixmammadova	721	1:13,383
987	Elekberov	720	1:13,402
987	Eyubova	720	1:13,402
987	Hacibalayeva	720	1:13,402
987	Qurbanzadeh	720	1:13,402
987	Tanirverdiyeva	720	1:13,402
992	Iskenderov	719	1:13,420
993	Balacayev	718	1:13,439
993	Balacayeva	718	1:13,439
995	Ağarzayeva	717	1:13,458
995	Mürsaliyev	717	1:13,458
995	Yaraliyev	717	1:13,458
998	Valixanov	715	1:13,495
999	Alimammadova	714	1:13,514
1000	Arzumanov	711	1:13,571
1000	Paren	711	1:13,571
1000	Quluzade	711	1:13,571
