1	Bio	110,623	1:93
2	Orou	105,572	1:98
3	Sabi	84,640	1:122
4	Amadou	61,222	1:169
5	Dossou	59,152	1:175
6	Moussa	46,801	1:221
7	Adamou	46,425	1:223
8	Amoussou	45,642	1:226
9	Assogba	43,568	1:237
10	Bani	42,048	1:246
11	Chabi	38,081	1:271
12	Mama	36,336	1:284
13	Tossou	35,789	1:289
14	Sossou	34,932	1:296
15	Boni	34,699	1:298
16	Houessou	33,284	1:311
17	Zannou	32,021	1:323
18	Idrissou	31,629	1:327
19	Oumarou	31,323	1:330
20	Worou	31,237	1:331
21	Agossou	30,525	1:339
22	Djossou	28,625	1:361
23	Adam	28,464	1:363
24	Dansou	28,201	1:366
25	Kakpo	27,688	1:373
26	Abdoulaye	27,638	1:374
27	Kouagou	27,377	1:378
28	Boukari	27,374	1:378
29	Sanni	27,253	1:379
30	Salifou	26,930	1:384
31	Yacoubou	26,416	1:391
32	Sambieni	26,095	1:396
33	N'Tcha	26,030	1:397
34	Alassane	25,481	1:406
35	Issa	25,250	1:409
36	Lokossou	24,544	1:421
37	Zinsou	24,377	1:424
38	Yarou	24,186	1:427
39	Dossa	23,719	1:436
40	Gounou	22,989	1:450
41	Kora	22,717	1:455
42	Imorou	22,608	1:457
43	Kassa	21,996	1:470
44	Ibrahim	21,861	1:473
45	Soumanou	21,801	1:474
46	M'Po	19,632	1:526
47	Ali	19,532	1:529
48	Hounkpe	19,331	1:535
49	Issifou	19,314	1:535
50	Soule	18,564	1:557
51	Hounsou	18,380	1:562
52	Boko	17,566	1:588
53	Hounkpatin	17,163	1:602
54	Zakari	17,103	1:604
55	Houssou	16,956	1:610
56	Akakpo	16,894	1:612
57	Kpadonou	16,794	1:615
58	Garba	16,533	1:625
59	Arouna	16,112	1:641
60	Sare	15,979	1:647
61	Mamadou	15,939	1:648
62	Sero	15,923	1:649
63	Seidou	15,878	1:651
64	Sidi	15,807	1:654
65	Lafia	15,677	1:659
66	Oke	15,592	1:663
67	Bonou	15,514	1:666
68	Alidou	15,417	1:670
69	Godonou	15,194	1:680
70	Edah	15,169	1:681
71	Moumouni	15,017	1:688
72	Bossou	14,102	1:733
73	Hounsa	14,054	1:735
74	Djobo	14,031	1:737
75	Sossa	13,989	1:739
76	Fanou	13,788	1:750
77	Saka	13,771	1:751
78	Ahouandjinou	13,633	1:758
79	Gado	13,570	1:762
80	Agbo	13,460	1:768
81	Demon	13,342	1:775
82	Loko	13,295	1:777
83	N'Dah	12,885	1:802
84	Bah	12,780	1:809
85	Montcho	12,747	1:811
86	Gbaguidi	12,634	1:818
87	Sagbo	12,616	1:819
88	Alou	12,596	1:821
89	Gnonlonfoun	12,584	1:821
90	Tamou	12,514	1:826
91	Assouma	12,507	1:826
92	Houenou	12,489	1:828
93	Dohou	12,411	1:833
94	Akpo	12,372	1:835
95	Biaou	12,320	1:839
96	Hessou	12,101	1:854
97	Aboudou	11,923	1:867
98	Koto	11,860	1:871
99	Idohou	11,819	1:874
100	Hounnou	11,779	1:877
101	Houngue	11,760	1:879
102	Fassinou	11,464	1:902
103	Karim	11,223	1:921
104	Togbe	11,167	1:926
105	Zime	11,123	1:929
106	Abdou	11,068	1:934
107	Houngbo	10,878	1:950
108	Anato	10,845	1:953
109	Lokonon	10,565	1:978
110	Tossa	10,537	1:981
111	Houndjo	10,459	1:988
112	Quenum	10,442	1:990
113	Kombetto	10,379	1:996
114	Gbenou	10,270	1:1,006
115	Mora	10,047	1:1,029
116	Hodonou	10,029	1:1,031
117	Adjovi	10,004	1:1,033
118	Mamoudou	9,905	1:1,043
119	Hountondji	9,642	1:1,072
120	Gnammi	9,566	1:1,080
121	Gandonou	9,542	1:1,083
122	Hamadou	9,487	1:1,089
123	Djodi	9,446	1:1,094
124	Houngbedji	9,429	1:1,096
125	Hounkanrin	9,394	1:1,100
126	Anagonou	9,329	1:1,108
127	Bouraima	9,280	1:1,114
128	Sambo	9,189	1:1,125
129	Abou	9,161	1:1,128
130	Issaka	9,114	1:1,134
131	Odjo	9,074	1:1,139
132	Kpanou	8,944	1:1,156
133	Namboni	8,926	1:1,158
134	Karimou	8,842	1:1,169
135	Kiki	8,840	1:1,169
136	Ahissou	8,830	1:1,171
137	Tawema	8,825	1:1,171
138	Sonon	8,724	1:1,185
139	Ezin	8,710	1:1,187
140	Amidou	8,703	1:1,188
141	Kouton	8,696	1:1,189
142	Sounon	8,654	1:1,194
143	Oussou	8,644	1:1,196
144	Codjo	8,603	1:1,201
145	Sessou	8,536	1:1,211
146	Atchade	8,534	1:1,211
147	Bankole	8,482	1:1,219
148	Hounkponou	8,457	1:1,222
149	Mamam	8,422	1:1,227
150	Boton	8,375	1:1,234
151	Boco	8,294	1:1,246
152	Yaya	8,278	1:1,249
153	Hossou	8,162	1:1,266
154	Hounton	8,121	1:1,273
155	Fousseni	8,082	1:1,279
156	Savi	8,078	1:1,279
157	Djibril	8,044	1:1,285
158	Agossa	8,041	1:1,285
159	Ballo	8,023	1:1,288
160	Bello	7,959	1:1,299
161	Assou	7,953	1:1,300
162	Asso	7,660	1:1,349
163	Toumoudagou	7,647	1:1,352
164	Houeto	7,629	1:1,355
165	Gnarigo	7,615	1:1,357
166	Senou	7,592	1:1,361
167	Kodjo	7,531	1:1,372
168	Issiaka	7,440	1:1,389
169	Allagbe	7,428	1:1,391
170	Ahouansou	7,394	1:1,398
171	Elegbede	7,378	1:1,401
172	Dramane	7,336	1:1,409
173	Adande	7,330	1:1,410
174	Tairou	7,324	1:1,411
175	Cakpo	7,288	1:1,418
175	Ogou	7,288	1:1,418
177	Dari	7,276	1:1,421
178	Mouhamadou	7,259	1:1,424
179	Ada	7,246	1:1,426
180	Daouda	7,217	1:1,432
181	Sahgui	7,203	1:1,435
182	Dafia	7,195	1:1,436
183	Hounmenou	7,107	1:1,454
184	Boubakar	7,069	1:1,462
185	Aballo	7,058	1:1,464
186	Aliou	7,053	1:1,465
187	Hounye	7,050	1:1,466
188	Sodjinou	6,998	1:1,477
189	Lawani	6,989	1:1,479
190	Hounga	6,928	1:1,492
191	Affo	6,899	1:1,498
192	Houedanou	6,878	1:1,503
193	Deguenon	6,861	1:1,506
194	Matchou	6,842	1:1,511
195	Ahossi	6,801	1:1,520
196	Yessoufou	6,775	1:1,526
197	Salami	6,670	1:1,550
198	Wassou	6,665	1:1,551
199	Bodjrenou	6,656	1:1,553
200	Noumonvi	6,649	1:1,554
201	Mohamed	6,436	1:1,606
202	Idani	6,434	1:1,606
202	Inoussa	6,434	1:1,606
204	Nouanti	6,396	1:1,616
205	Hounkpevi	6,375	1:1,621
206	Ousmane	6,346	1:1,629
207	Salako	6,211	1:1,664
208	Avoce	6,190	1:1,670
209	Zossou	6,162	1:1,677
210	Osseni	6,148	1:1,681
211	Hounwanou	6,035	1:1,713
212	Baba	5,992	1:1,725
213	Doko	5,977	1:1,729
214	Honfo	5,940	1:1,740
214	Mere	5,940	1:1,740
216	Zibo	5,933	1:1,742
217	Balogoun	5,920	1:1,746
218	Agbessi	5,859	1:1,764
219	Bawa	5,842	1:1,769
220	Aboubakari	5,730	1:1,804
221	Gani	5,708	1:1,811
222	Djidonou	5,703	1:1,812
223	Tabe	5,676	1:1,821
224	Bessan	5,662	1:1,825
225	Sogbossi	5,658	1:1,827
226	Soglo	5,637	1:1,834
227	Fadonougbo	5,602	1:1,845
228	Gouda	5,566	1:1,857
229	Djossa	5,557	1:1,860
230	Yantekoua	5,548	1:1,863
231	Yorou	5,537	1:1,867
232	Edou	5,513	1:1,875
233	Yehouenou	5,508	1:1,876
234	Kouri	5,475	1:1,888
235	Seni	5,468	1:1,890
236	Samon	5,424	1:1,906
237	Dah	5,396	1:1,915
238	Tchoumon	5,391	1:1,917
239	Amouzoun	5,369	1:1,925
239	Tchando	5,369	1:1,925
241	Kounou	5,322	1:1,942
242	Dassi	5,319	1:1,943
243	Yerima	5,301	1:1,950
244	Ogoudele	5,296	1:1,952
245	Anani	5,223	1:1,979
246	Tchansi	5,112	1:2,022
247	Amoussa	5,101	1:2,026
248	Bognon	5,079	1:2,035
249	Seibou	5,060	1:2,043
250	Sanhongou	5,039	1:2,051
251	Kpossou	5,037	1:2,052
252	Vigan	5,034	1:2,053
253	Allou	5,032	1:2,054
253	Koffi	5,032	1:2,054
255	Codjia	5,011	1:2,063
256	Zoumarou	4,945	1:2,090
257	Ahlonsou	4,929	1:2,097
258	Soulemane	4,852	1:2,130
259	Adjaho	4,831	1:2,139
260	Sebo	4,802	1:2,152
261	Gnansounou	4,780	1:2,162
262	Ibrahima	4,760	1:2,171
263	Daga	4,748	1:2,177
264	Kossou	4,703	1:2,198
265	Assane	4,681	1:2,208
266	Tidjani	4,679	1:2,209
267	Degbe	4,668	1:2,214
268	Yokossi	4,616	1:2,239
269	Anago	4,602	1:2,246
270	Bossa	4,590	1:2,252
271	Hounsinou	4,565	1:2,264
272	Tchanate	4,539	1:2,277
273	Abalo	4,450	1:2,323
274	Akonde	4,447	1:2,324
275	Oga	4,445	1:2,325
276	Alfa	4,429	1:2,334
277	Agassounon	4,398	1:2,350
278	Hounsounou	4,383	1:2,358
279	Sime	4,381	1:2,359
280	Sanda	4,352	1:2,375
281	Monra	4,342	1:2,380
282	Olou	4,336	1:2,384
283	Dossou-Yovo	4,332	1:2,386
284	Segla	4,310	1:2,398
285	Dannon	4,300	1:2,404
286	Sani	4,287	1:2,411
287	Mohamadou	4,285	1:2,412
288	Dansi	4,274	1:2,418
289	Dahoue	4,248	1:2,433
290	Mensah	4,243	1:2,436
291	Fagbohoun	4,232	1:2,442
292	Maman	4,226	1:2,446
293	Agboton	4,218	1:2,450
294	Gandaho	4,206	1:2,457
295	Tossavi	4,174	1:2,476
296	Sekou	4,172	1:2,477
297	Avocetien	4,153	1:2,489
298	Aholou	4,149	1:2,491
299	Nouatin	4,140	1:2,497
300	Toko	4,138	1:2,498
301	Seko	4,107	1:2,517
302	Tchibozo	4,089	1:2,528
303	Salanon	4,079	1:2,534
304	Hounkonnou	4,078	1:2,534
305	Salou	4,077	1:2,535
306	Sourokou	4,067	1:2,541
307	Houndonougbo	4,064	1:2,543
308	Natta	4,040	1:2,558
309	Belko	4,024	1:2,568
310	Demo	4,004	1:2,581
311	Matchoudo	4,001	1:2,583
312	Boubaka	3,983	1:2,595
313	Sohou	3,978	1:2,598
314	Dotou	3,973	1:2,601
315	Dogo	3,963	1:2,608
316	Dovonou	3,961	1:2,609
317	Degbo	3,951	1:2,616
318	Aoudou	3,928	1:2,631
319	Gbadamassi	3,912	1:2,642
319	Yoro	3,912	1:2,642
321	Tchalla	3,904	1:2,647
322	Sagbohan	3,903	1:2,648
323	Moustapha	3,893	1:2,655
323	Yoa	3,893	1:2,655
325	Soumana	3,889	1:2,658
326	Lassissi	3,882	1:2,662
327	Adje	3,875	1:2,667
327	Moutouama	3,875	1:2,667
329	Gomina	3,850	1:2,685
330	Ahoton	3,805	1:2,716
331	Guera	3,790	1:2,727
332	Dhossou	3,789	1:2,728
333	Adou	3,762	1:2,747
334	Laleye	3,736	1:2,766
335	Vodounon	3,726	1:2,774
336	Padonou	3,720	1:2,778
337	Guerra	3,716	1:2,781
338	Dako	3,713	1:2,784
339	Dakou	3,707	1:2,788
340	Zato	3,706	1:2,789
341	Metonou	3,704	1:2,790
342	Sodji	3,672	1:2,815
343	Acakpo	3,659	1:2,825
343	N'Koue	3,659	1:2,825
345	Migan	3,636	1:2,843
346	Fagnon	3,632	1:2,846
347	Denakpo	3,628	1:2,849
348	Legba	3,625	1:2,851
349	Degbey	3,615	1:2,859
350	Behanzin	3,585	1:2,883
351	Hounnouvi	3,584	1:2,884
352	Vodounou	3,571	1:2,894
353	Dognon	3,548	1:2,913
354	Kouago	3,539	1:2,920
355	Kpera	3,532	1:2,926
356	Bouraïma	3,525	1:2,932
357	Glele	3,509	1:2,945
358	Dagba	3,476	1:2,973
359	Assani	3,471	1:2,978
360	Fiogbe	3,453	1:2,993
361	Boro	3,452	1:2,994
362	Winsou	3,436	1:3,008
363	Sokenou	3,420	1:3,022
364	Comlan	3,408	1:3,033
365	Tchetekoua	3,399	1:3,041
366	Aboubakar	3,397	1:3,043
367	Davo	3,395	1:3,044
367	Saliou	3,395	1:3,044
369	Degan	3,393	1:3,046
370	Ayena	3,384	1:3,054
371	Goudjo	3,378	1:3,060
372	Bara	3,341	1:3,094
373	Degboe	3,328	1:3,106
374	Sehonou	3,311	1:3,122
375	Gbedji	3,308	1:3,124
376	Soumaila	3,302	1:3,130
377	Hounguevou	3,291	1:3,141
378	N'Kouei	3,290	1:3,142
379	Kodo	3,288	1:3,143
380	Nekoua	3,281	1:3,150
381	Daoudou	3,276	1:3,155
382	Akotegnon	3,274	1:3,157
383	Essoun	3,272	1:3,159
384	Boube	3,253	1:3,177
385	Boubakari	3,249	1:3,181
386	Gossou	3,238	1:3,192
387	Ahounou	3,234	1:3,196
388	Keke	3,220	1:3,210
389	Bouko	3,211	1:3,219
390	Gohoungo	3,209	1:3,221
391	Esse	3,198	1:3,232
392	Fangnon	3,194	1:3,236
393	Hounhoui	3,183	1:3,247
394	Adoko	3,176	1:3,254
394	Yovo	3,176	1:3,254
396	Hassane	3,174	1:3,256
397	Gbegan	3,172	1:3,258
398	Tonoukouin	3,170	1:3,260
399	Biao	3,163	1:3,268
400	Assan	3,159	1:3,272
401	Tognon	3,157	1:3,274
402	Chitou	3,131	1:3,301
403	Doute	3,129	1:3,303
404	Kombieni	3,123	1:3,310
405	Gobi	3,121	1:3,312
406	Odjougbele	3,115	1:3,318
407	de Souza	3,107	1:3,327
408	Lawson	3,105	1:3,329
409	Fambo	3,079	1:3,357
409	Igue	3,079	1:3,357
411	Abiodoun	3,078	1:3,358
412	Yero	3,070	1:3,367
413	Bagoudou	3,061	1:3,377
414	Dovonon	3,059	1:3,379
415	Sognon	3,058	1:3,380
416	Suanon	3,047	1:3,392
417	Honvou	3,044	1:3,395
418	Banni	3,042	1:3,398
419	Amou	3,031	1:3,410
420	Gouton	3,021	1:3,421
421	Mahouchi	3,018	1:3,425
422	Kpoviessi	3,016	1:3,427
423	Aguemon	3,007	1:3,437
424	Kouakanou	3,000	1:3,445
425	Logbo	2,991	1:3,456
425	Mahoussi	2,991	1:3,456
427	Zanmenou	2,989	1:3,458
428	Alihonou	2,988	1:3,459
428	Tchari	2,988	1:3,459
430	Adimi	2,979	1:3,469
431	Kiatti	2,978	1:3,471
432	Noukpo	2,969	1:3,481
433	Adoukonou	2,965	1:3,486
434	Agbossou	2,962	1:3,489
434	Dangbenon	2,962	1:3,489
434	Gogan	2,962	1:3,489
437	Ago	2,958	1:3,494
438	Bada	2,956	1:3,496
439	Sagui	2,952	1:3,501
440	Mouzoun	2,925	1:3,534
441	Totin	2,923	1:3,536
442	Affanou	2,922	1:3,537
443	Avocevou	2,914	1:3,547
443	Hounkanlin	2,914	1:3,547
445	Todjinou	2,911	1:3,551
446	Yolou	2,908	1:3,554
447	Eke	2,903	1:3,560
448	Tohouegnon	2,900	1:3,564
449	Kokou	2,899	1:3,565
450	Bakari	2,889	1:3,578
451	Sanna	2,877	1:3,592
452	Bouba	2,873	1:3,597
453	Houdji	2,868	1:3,604
454	Kenou	2,860	1:3,614
455	Adjai	2,849	1:3,628
455	Babatounde	2,849	1:3,628
457	Bako	2,846	1:3,632
458	D'Almeida	2,843	1:3,635
459	Dembo	2,841	1:3,638
459	Zounon	2,841	1:3,638
461	Aho	2,840	1:3,639
461	Bagri	2,840	1:3,639
463	Akan	2,839	1:3,641
464	Sanwekoua	2,837	1:3,643
465	Gnanhoui	2,820	1:3,665
466	Madougou	2,816	1:3,670
467	Kponou	2,813	1:3,674
468	Gounon	2,811	1:3,677
469	Badou	2,808	1:3,681
470	Ague	2,804	1:3,686
471	Akplogan	2,793	1:3,701
472	Denon	2,790	1:3,705
473	Houinsou	2,789	1:3,706
474	Avohou	2,783	1:3,714
474	Kouessi	2,783	1:3,714
474	Seke	2,783	1:3,714
477	Koba	2,782	1:3,715
478	Daye	2,775	1:3,725
479	Akodjenou	2,767	1:3,735
480	Bokossa	2,755	1:3,752
481	Simbia	2,752	1:3,756
482	Tokpanou	2,750	1:3,758
483	Saidou	2,744	1:3,767
484	Hounza	2,737	1:3,776
485	Oumorou	2,727	1:3,790
486	Aminou	2,720	1:3,800
487	Kougblenou	2,710	1:3,814
488	Adekambi	2,692	1:3,839
489	Fatolou	2,686	1:3,848
490	Djogbenou	2,680	1:3,857
491	Donou	2,677	1:3,861
492	Boubacar	2,668	1:3,874
493	Hounyeme	2,665	1:3,878
494	Atcha	2,663	1:3,881
495	Ganni	2,661	1:3,884
496	Diko	2,658	1:3,888
497	Gande	2,655	1:3,893
498	Koura	2,654	1:3,894
498	Sina	2,654	1:3,894
500	Avlessi	2,647	1:3,905
501	Dedji	2,637	1:3,919
502	Kolani	2,616	1:3,951
503	Yarigo	2,607	1:3,965
504	Mouhamed	2,605	1:3,968
504	Tagali	2,605	1:3,968
506	Ouorou	2,603	1:3,971
507	Laly	2,600	1:3,975
508	Abiosse	2,596	1:3,981
509	Badarou	2,584	1:4,000
510	Okou	2,583	1:4,001
511	Saley	2,578	1:4,009
512	Batcho	2,576	1:4,012
513	Gbetoho	2,574	1:4,015
514	Houngbeme	2,569	1:4,023
515	Sewa	2,566	1:4,028
516	Boussari	2,557	1:4,042
517	Tchao	2,547	1:4,058
518	Radji	2,542	1:4,066
519	Soton	2,539	1:4,071
520	Oussa	2,530	1:4,085
521	Belco	2,524	1:4,095
522	Gbemenou	2,522	1:4,098
522	Singbo	2,522	1:4,098
524	Atindehou	2,520	1:4,101
525	Bocovo	2,519	1:4,103
526	Hounyo	2,516	1:4,108
527	Assongba	2,512	1:4,114
527	Houmenou	2,512	1:4,114
529	Baguiri	2,502	1:4,131
529	Biokou	2,502	1:4,131
529	Gnancadja	2,502	1:4,131
532	Sogbedji	2,499	1:4,136
533	Atchou	2,497	1:4,139
533	Sodegla	2,497	1:4,139
535	Gawe	2,496	1:4,141
536	Adeyemi	2,493	1:4,146
536	Noumon	2,493	1:4,146
538	Adadja	2,489	1:4,153
538	Kowe	2,489	1:4,153
540	Sossoukpe	2,469	1:4,186
540	Taïrou	2,469	1:4,186
542	Alaza	2,465	1:4,193
543	Tchabi	2,464	1:4,195
544	Akpovi	2,463	1:4,196
545	Tokpo	2,460	1:4,201
546	Monnou	2,459	1:4,203
547	Toudonou	2,458	1:4,205
548	Odah	2,454	1:4,212
549	Ousseni	2,447	1:4,224
550	Kounoudji	2,446	1:4,226
550	Tohouede	2,446	1:4,226
552	Goussi	2,442	1:4,232
553	Koudjo	2,439	1:4,238
554	Folly	2,431	1:4,252
555	Vodounnon	2,419	1:4,273
556	Bessanh	2,418	1:4,274
556	Namata	2,418	1:4,274
558	Faton	2,415	1:4,280
559	Sovi	2,411	1:4,287
560	Dada	2,408	1:4,292
560	Mehinto	2,408	1:4,292
560	Zounmenou	2,408	1:4,292
563	Fagbemi	2,407	1:4,294
563	Goro	2,407	1:4,294
565	Djato	2,402	1:4,303
566	Assoumanou	2,401	1:4,305
567	Dagan	2,400	1:4,307
567	Mahamadou	2,400	1:4,307
569	Mehou	2,397	1:4,312
570	Vlavonou	2,396	1:4,314
571	Edoun	2,395	1:4,315
572	Egbebi	2,391	1:4,323
573	Dotia	2,383	1:4,337
574	Guedegbe	2,374	1:4,354
575	Kouechi	2,370	1:4,361
576	Abiala	2,368	1:4,365
577	Idrissa	2,359	1:4,381
578	Dandjinou	2,356	1:4,387
579	Laourou	2,347	1:4,404
580	Souley	2,345	1:4,408
581	Adegbola	2,341	1:4,415
582	Tonou	2,330	1:4,436
583	Tchanati	2,329	1:4,438
584	Agani	2,316	1:4,463
585	Aboki	2,309	1:4,476
586	Ogouyomi	2,302	1:4,490
587	Moulero	2,301	1:4,492
588	Akpaki	2,298	1:4,498
589	Edoh	2,295	1:4,504
590	Bachabi	2,293	1:4,507
591	Davi	2,292	1:4,509
592	Vodounnou	2,286	1:4,521
593	Houessinon	2,284	1:4,525
594	Tchatti	2,282	1:4,529
595	Aholoukpe	2,280	1:4,533
596	Kassim	2,276	1:4,541
596	Samari	2,276	1:4,541
598	Ogoubiyi	2,269	1:4,555
599	Codo	2,268	1:4,557
599	Hounvenou	2,268	1:4,557
601	Nounagnon	2,261	1:4,571
602	Yabi	2,256	1:4,581
603	Tawe	2,249	1:4,596
604	Obossou	2,240	1:4,614
605	Degnon	2,234	1:4,627
606	Ntcha	2,233	1:4,629
606	Zohoun	2,233	1:4,629
608	Moukaila	2,231	1:4,633
609	Alpha	2,225	1:4,645
609	Sognigbe	2,225	1:4,645
611	Koudoro	2,224	1:4,647
612	Djima	2,216	1:4,664
613	Djaho	2,211	1:4,675
614	Akiyemi	2,209	1:4,679
615	Holonou	2,206	1:4,685
616	Gnammou	2,203	1:4,692
617	Goudou	2,201	1:4,696
618	Osse	2,197	1:4,704
619	Bamigbola	2,196	1:4,707
620	Adinsi	2,191	1:4,717
621	Yebou	2,189	1:4,722
622	Nonti	2,188	1:4,724
623	Egah	2,186	1:4,728
624	Koukoui	2,181	1:4,739
625	Azon	2,178	1:4,745
626	Tchokponhoue	2,177	1:4,748
627	Tchegnon	2,176	1:4,750
628	Kombienou	2,174	1:4,754
629	Guida	2,172	1:4,759
630	Azankpo	2,169	1:4,765
631	Gandji	2,167	1:4,770
631	Samba	2,167	1:4,770
633	Mare	2,166	1:4,772
634	Gbegnon	2,162	1:4,781
635	Falola	2,160	1:4,785
636	Harouna	2,150	1:4,807
636	Sotohou	2,150	1:4,807
638	Tosse	2,144	1:4,821
639	Dodo	2,132	1:4,848
639	Hotegni	2,132	1:4,848
641	Alao	2,131	1:4,850
641	Guedou	2,131	1:4,850
643	Adda	2,122	1:4,871
644	Affouda	2,119	1:4,878
645	Dossoumou	2,117	1:4,882
646	Ahouassou	2,110	1:4,898
647	Akpa	2,104	1:4,912
648	Matchi	2,103	1:4,915
649	Kedji	2,095	1:4,933
650	Takpara	2,094	1:4,936
651	Alagbe	2,090	1:4,945
652	Idossou	2,088	1:4,950
653	Sotodji	2,085	1:4,957
654	Adomou	2,076	1:4,979
655	N'Toua	2,071	1:4,991
656	Ogoutolou	2,068	1:4,998
657	Capo-Chichi	2,061	1:5,015
658	Boubakal	2,060	1:5,017
659	Kouassi	2,059	1:5,020
659	Yamoussa	2,059	1:5,020
661	Houndeton	2,051	1:5,039
662	M'Betti	2,049	1:5,044
663	Tassou	2,042	1:5,062
664	Amoussouvi	2,028	1:5,096
665	Torou	2,022	1:5,112
666	Noutai	2,020	1:5,117
667	Koudadjou	2,016	1:5,127
668	Atcho	2,014	1:5,132
669	Idji	2,008	1:5,147
669	Sika	2,008	1:5,147
671	Gomez	2,004	1:5,157
671	Vignon	2,004	1:5,157
673	Houansou	2,003	1:5,160
674	Issiako	1,999	1:5,170
675	Manou	1,998	1:5,173
675	Mpo	1,998	1:5,173
677	Okpe	1,991	1:5,191
678	Lokossi	1,990	1:5,194
678	Zocli	1,990	1:5,194
680	Tchiakpe	1,986	1:5,204
681	Guezo	1,984	1:5,209
682	Gboyou	1,982	1:5,215
682	Tessi	1,982	1:5,215
684	Johnson	1,978	1:5,225
685	Garouba	1,973	1:5,239
685	Seïdou	1,973	1:5,239
687	Ahouanse	1,971	1:5,244
687	Tonouewa	1,971	1:5,244
689	Kounasso	1,970	1:5,246
690	Salaou	1,967	1:5,255
691	Ogoudedji	1,966	1:5,257
692	Kassin	1,965	1:5,260
693	Sammo	1,964	1:5,263
694	Kakpovi	1,963	1:5,265
695	Aboudoulaye	1,958	1:5,279
695	Adoun	1,958	1:5,279
695	Yacouba	1,958	1:5,279
698	Guenin	1,956	1:5,284
698	Sogan	1,956	1:5,284
700	Sodokin	1,953	1:5,292
701	Hama	1,946	1:5,311
702	Manga	1,945	1:5,314
703	Tokou	1,938	1:5,333
704	Challa	1,935	1:5,341
705	Sowanou	1,932	1:5,350
706	Takou	1,930	1:5,355
707	Ganse	1,926	1:5,366
708	Kpade	1,918	1:5,389
709	Gnanvi	1,917	1:5,392
710	Dimon	1,916	1:5,394
711	N'Po	1,910	1:5,411
712	Tohoun	1,909	1:5,414
713	Kotin	1,908	1:5,417
714	Fatondji	1,907	1:5,420
715	Sacca	1,906	1:5,423
716	Koukpo	1,904	1:5,428
717	Bassaou	1,901	1:5,437
718	Adjaka	1,899	1:5,443
719	Sah	1,896	1:5,451
720	Kpatinvo	1,891	1:5,466
721	Assocle	1,890	1:5,469
722	Bakary	1,889	1:5,471
723	Koumagnon	1,887	1:5,477
724	Setondji	1,884	1:5,486
725	Togbedji	1,878	1:5,504
726	Okpeifa	1,874	1:5,515
727	Gahou	1,872	1:5,521
728	Houngninou	1,871	1:5,524
729	Gbede	1,869	1:5,530
730	Sebio	1,867	1:5,536
731	Akpadji	1,865	1:5,542
731	Sehou	1,865	1:5,542
733	Awo	1,860	1:5,557
734	Ode	1,855	1:5,572
735	Toviessi	1,854	1:5,575
736	Aniwanou	1,852	1:5,581
737	Santos	1,840	1:5,617
738	Kocou	1,836	1:5,629
739	Bouyagui	1,834	1:5,636
739	Danhossou	1,834	1:5,636
739	Houssa	1,834	1:5,636
742	Egbede	1,833	1:5,639
743	Chaffa	1,831	1:5,645
744	Kissira	1,827	1:5,657
745	Adja	1,826	1:5,660
746	Kouchoro	1,823	1:5,670
747	Akanni	1,819	1:5,682
747	Awe	1,819	1:5,682
749	Gbedo	1,818	1:5,685
749	Koko	1,818	1:5,685
751	Tougan	1,815	1:5,695
752	Gnanguenon	1,812	1:5,704
752	Segbedji	1,812	1:5,704
754	Tonon	1,810	1:5,710
755	Ahinon	1,808	1:5,717
756	Adandedjan	1,803	1:5,732
757	Fayomi	1,802	1:5,736
758	Adjalla	1,801	1:5,739
758	Alimi	1,801	1:5,739
760	Essou	1,799	1:5,745
761	Abikou	1,798	1:5,748
762	Houndjenoukon	1,796	1:5,755
763	Akobi	1,795	1:5,758
764	Agbahoungba	1,794	1:5,761
765	Agnide	1,792	1:5,768
766	Adjibade	1,789	1:5,777
766	Guedenon	1,789	1:5,777
768	Falade	1,788	1:5,781
769	Fachinan	1,787	1:5,784
770	Sadikou	1,784	1:5,793
770	Yakoubou	1,784	1:5,793
772	Bata	1,782	1:5,800
773	Bouka	1,779	1:5,810
774	Solevo	1,778	1:5,813
775	Bogninou	1,776	1:5,820
775	Tohou	1,776	1:5,820
777	Sidikou	1,772	1:5,833
778	Agbokou	1,771	1:5,836
779	Gbogbo	1,768	1:5,846
779	N'Da	1,768	1:5,846
781	Degue	1,766	1:5,853
782	Kombeto	1,764	1:5,859
783	Fantodji	1,753	1:5,896
783	Noanti	1,753	1:5,896
785	Domingo	1,749	1:5,909
785	Sama	1,749	1:5,909
787	Kinsou	1,748	1:5,913
788	Sokegbe	1,746	1:5,920
788	Tella	1,746	1:5,920
790	Fakambi	1,743	1:5,930
791	Ahouangan	1,742	1:5,933
791	Sowadan	1,742	1:5,933
793	Issiakou	1,741	1:5,937
794	Djibrila	1,739	1:5,943
794	Seydou	1,739	1:5,943
796	Nassara	1,736	1:5,954
797	Hamidou	1,731	1:5,971
798	Egue	1,729	1:5,978
799	Sale	1,728	1:5,981
799	Towanou	1,728	1:5,981
801	Houndji	1,727	1:5,985
802	Dedewanou	1,726	1:5,988
802	Gbeto	1,726	1:5,988
802	Kadri	1,726	1:5,988
805	Adeogou	1,719	1:6,013
806	Odou	1,718	1:6,016
807	Dovi	1,717	1:6,020
807	Guene	1,717	1:6,020
809	N'Sougan	1,716	1:6,023
810	Toure	1,714	1:6,030
811	Sourou	1,710	1:6,044
812	Tevoedjre	1,708	1:6,051
813	Degbogbahoun	1,706	1:6,058
813	Oloude	1,706	1:6,058
815	Ketounou	1,705	1:6,062
816	Babalola	1,703	1:6,069
817	Ogoudikpe	1,702	1:6,073
818	Djagoun	1,700	1:6,080
818	Gangbe	1,700	1:6,080
820	Gnimavo	1,699	1:6,083
821	Akadiri	1,698	1:6,087
821	Akowanou	1,698	1:6,087
821	Brisso	1,698	1:6,087
821	Yehouessi	1,698	1:6,087
825	Saizonou	1,696	1:6,094
826	Gnonlonfin	1,694	1:6,101
827	Amoule	1,693	1:6,105
828	Ado	1,692	1:6,109
828	Alabi	1,692	1:6,109
828	Gantin	1,692	1:6,109
831	Adossou	1,691	1:6,112
832	Bokpe	1,689	1:6,119
832	Zounnon	1,689	1:6,119
834	Kossi	1,687	1:6,127
835	Zossoungbo	1,684	1:6,138
836	Sanoussi	1,681	1:6,148
837	Seh	1,677	1:6,163
837	Yani	1,677	1:6,163
839	Ogoudjobi	1,675	1:6,171
840	Akoha	1,674	1:6,174
841	Gnacadja	1,673	1:6,178
842	Dadjo	1,672	1:6,182
843	Tiga	1,671	1:6,185
844	Ganiou	1,665	1:6,208
844	Houndenou	1,665	1:6,208
846	Ide	1,663	1:6,215
847	Kossoko	1,660	1:6,226
848	Agbede	1,658	1:6,234
848	Yekini	1,658	1:6,234
850	Agueh	1,656	1:6,241
850	Djakpo	1,656	1:6,241
850	Sogadji	1,656	1:6,241
853	Gnamou	1,648	1:6,272
853	Guidi	1,648	1:6,272
855	Zanou	1,646	1:6,279
856	Fachola	1,643	1:6,291
857	Agon	1,642	1:6,295
857	Yai	1,642	1:6,295
859	Marou	1,638	1:6,310
859	Nassirou	1,638	1:6,310
861	Toviho	1,637	1:6,314
862	Missihoun	1,636	1:6,318
863	Alohoutade	1,635	1:6,321
864	Koudenoukpo	1,633	1:6,329
865	Dayou	1,632	1:6,333
866	Degla	1,630	1:6,341
867	Barassounon	1,626	1:6,356
868	Amadji	1,625	1:6,360
869	Chango	1,620	1:6,380
870	Djivo	1,619	1:6,384
871	Akowe	1,618	1:6,388
872	Gnankadja	1,617	1:6,392
873	Noma	1,615	1:6,400
873	Yakpe	1,615	1:6,400
875	Allassane	1,612	1:6,412
876	Tankpinou	1,610	1:6,420
877	Gaou	1,609	1:6,424
878	Sedjro	1,606	1:6,436
879	Akotonou	1,604	1:6,444
879	Eriyomi	1,604	1:6,444
881	Djoi	1,603	1:6,448
882	Adjanohoun	1,602	1:6,452
882	Babio	1,602	1:6,452
884	Aboulaye	1,601	1:6,456
885	Abibou	1,600	1:6,460
885	Adeniyi	1,600	1:6,460
885	Adjakpa	1,600	1:6,460
888	Ogoubi	1,599	1:6,464
888	Tahirou	1,599	1:6,464
890	Sewade	1,597	1:6,472
891	Lissanon	1,596	1:6,476
891	Tete	1,596	1:6,476
893	Namboua	1,595	1:6,480
894	Adoulaye	1,592	1:6,492
895	Agassoussi	1,586	1:6,517
895	Ayadji	1,586	1:6,517
895	Djokpe	1,586	1:6,517
898	Zomahoun	1,584	1:6,525
899	Nobime	1,583	1:6,529
900	Ahonon	1,581	1:6,537
900	Fakeye	1,581	1:6,537
902	Adjibi	1,578	1:6,550
903	Dourossimi	1,575	1:6,562
903	Houngnibo	1,575	1:6,562
905	Toffa	1,573	1:6,571
906	Sessinou	1,570	1:6,583
907	Adechian	1,569	1:6,587
907	Bachirou	1,569	1:6,587
909	Allade	1,568	1:6,592
910	Kanlinsou	1,567	1:6,596
911	Aboubacar	1,563	1:6,613
911	Avocefohoun	1,563	1:6,613
913	Gbehou	1,562	1:6,617
914	Nonvide	1,561	1:6,621
915	Agbla	1,558	1:6,634
916	Djoude	1,549	1:6,672
916	Tore	1,549	1:6,672
918	Djissou	1,548	1:6,677
918	Fangbedji	1,548	1:6,677
920	Mahounou	1,546	1:6,685
920	Olodo	1,546	1:6,685
922	Bourai	1,545	1:6,690
922	Gaba	1,545	1:6,690
924	Amouda	1,541	1:6,707
925	Koumolou	1,540	1:6,711
925	Nambima	1,540	1:6,711
927	Ayenan	1,539	1:6,716
928	Adido	1,535	1:6,733
928	Gbodjinou	1,535	1:6,733
930	Hlannon	1,534	1:6,738
930	Honvo	1,534	1:6,738
932	Accrombessi	1,532	1:6,746
933	Gbessemehlan	1,531	1:6,751
934	Acclombessi	1,526	1:6,773
934	Attiogbe	1,526	1:6,773
936	Bagnan	1,520	1:6,800
936	Blenon	1,520	1:6,800
938	Djedji	1,518	1:6,809
938	Kindjinou	1,518	1:6,809
940	Adeleye	1,515	1:6,822
940	Sewanou	1,515	1:6,822
942	Goudi	1,513	1:6,831
943	Tchati	1,512	1:6,836
944	Wabi	1,511	1:6,840
945	Kpodo	1,508	1:6,854
946	Atta	1,502	1:6,881
947	Fade	1,498	1:6,900
948	Sokou	1,496	1:6,909
949	Adonon	1,495	1:6,913
950	Goussanou	1,491	1:6,932
950	Midingoyi	1,491	1:6,932
952	Hounto	1,489	1:6,941
953	Adjignon	1,488	1:6,946
953	Ahouanto	1,488	1:6,946
955	Djida	1,482	1:6,974
955	Lamidi	1,482	1:6,974
957	Ekpe	1,481	1:6,979
957	Kotchoni	1,481	1:6,979
959	Togboe	1,479	1:6,988
960	Eteka	1,477	1:6,998
961	Ahoussinou	1,476	1:7,002
961	Edikou	1,476	1:7,002
961	Godjo	1,476	1:7,002
964	Adoh	1,475	1:7,007
964	Affognon	1,475	1:7,007
964	Orobi	1,475	1:7,007
967	Tode	1,470	1:7,031
968	Amossou	1,467	1:7,045
969	Koukou	1,465	1:7,055
969	Tchedji	1,465	1:7,055
971	Aizannon	1,464	1:7,060
971	Dedo	1,464	1:7,060
971	Tchoumi	1,464	1:7,060
974	Hounguia	1,463	1:7,065
975	Tchogbe	1,462	1:7,069
976	Nato	1,458	1:7,089
977	Abiola	1,457	1:7,094
978	Monsia	1,455	1:7,104
979	Lokossa	1,453	1:7,113
979	Nata	1,453	1:7,113
981	Late	1,451	1:7,123
982	Amani	1,447	1:7,143
982	Guetido	1,447	1:7,143
984	Kegbe	1,445	1:7,153
985	Mounirou	1,443	1:7,163
986	Ogoudare	1,442	1:7,168
987	N'Bouke	1,441	1:7,173
988	Ayeko	1,436	1:7,197
988	Mehounou	1,436	1:7,197
990	Awali	1,431	1:7,223
991	Aguidi	1,430	1:7,228
991	Gnami	1,430	1:7,228
991	Idi	1,430	1:7,228
991	Owolabi	1,430	1:7,228
995	Coffi	1,429	1:7,233
996	Aplogan	1,428	1:7,238
996	Fangninou	1,428	1:7,238
996	Nagassi	1,428	1:7,238
999	Etchou	1,427	1:7,243
999	Houndagnon	1,427	1:7,243