1	Rolle	13,814	1:28
2	Johnson	10,134	1:39
3	Smith	9,876	1:40
4	Knowles	7,488	1:52
5	Pinder	7,437	1:53
6	Thompson	6,521	1:60
7	Williams	6,515	1:60
8	Ferguson	6,401	1:61
9	Russell	5,226	1:75
10	Roberts	5,090	1:77
11	Sands	4,678	1:84
12	Albury	4,527	1:87
13	Brown	4,469	1:88
14	Miller	4,435	1:88
15	Bethel	4,135	1:95
16	Taylor	3,731	1:105
17	Davis	3,506	1:112
18	Cooper	3,500	1:112
19	Saunders	3,492	1:112
20	Adderley	3,489	1:112
21	Burrows	3,270	1:120
22	Hanna	3,232	1:121
23	Cartwright	3,114	1:126
24	Major	3,107	1:126
25	Clarke	3,100	1:126
26	Bain	3,050	1:128
27	Sweeting	3,039	1:129
28	Forbes	3,010	1:130
29	Dean	2,947	1:133
30	Gibson	2,876	1:136
31	Carey	2,784	1:141
32	Moss	2,677	1:146
33	Higgs	2,388	1:164
34	Butler	2,260	1:173
35	McKenzie	2,244	1:175
36	Rahming	2,219	1:177
37	Sawyer	2,124	1:184
38	Turnquest	2,121	1:185
39	Jones	2,114	1:185
40	Hall	2,087	1:188
41	Bowe	2,043	1:192
42	Strachan	2,030	1:193
43	Pratt	2,000	1:196
44	Lowe	1,863	1:210
45	Kemp	1,835	1:213
46	Wilson	1,826	1:215
47	Stubbs	1,800	1:218
48	Wallace	1,748	1:224
49	McPhee	1,737	1:226
50	Seymour	1,719	1:228
51	Evans	1,709	1:229
51	Hepburn	1,709	1:229
53	Darville	1,674	1:234
54	Curry	1,658	1:236
55	Newbold	1,657	1:236
56	Grant	1,541	1:254
57	Campbell	1,522	1:257
58	Stuart	1,516	1:258
59	Culmer	1,501	1:261
60	Lightbourne	1,492	1:263
61	Lewis	1,479	1:265
62	MacKey	1,442	1:272
63	Deveaux	1,414	1:277
64	McIntosh	1,382	1:283
65	Munroe	1,363	1:287
66	Moxey	1,361	1:288
67	Lockhart	1,354	1:289
68	Symonette	1,322	1:296
69	McKinney	1,261	1:311
70	Fox	1,260	1:311
71	Cox	1,244	1:315
72	Wells	1,193	1:328
73	Farrington	1,191	1:329
74	Martin	1,182	1:331
75	Bullard	1,169	1:335
76	Munnings	1,166	1:336
77	Ingraham	1,154	1:339
78	Kelly	1,146	1:342
79	Francis	1,138	1:344
80	Carroll	1,067	1:367
81	Gardiner	1,056	1:371
81	Woodside	1,056	1:371
83	McDonald	1,030	1:380
83	Wright	1,030	1:380
85	Cleare	1,024	1:383
86	Duncombe	1,018	1:385
87	Green	1,006	1:389
88	King	982	1:399
89	Cash	981	1:399
90	Robinson	976	1:401
91	Storr	975	1:402
92	Armbrister	959	1:408
93	Simmons	952	1:412
94	Poitier	892	1:439
95	Young	891	1:440
96	Curtis	872	1:449
97	Lightbourn	849	1:461
98	Collie	845	1:464
99	Dames	840	1:466
100	Marshall	839	1:467
101	Fernander	821	1:477
102	Roker	818	1:479
103	Neely	815	1:481
104	Archer	811	1:483
104	Joseph	811	1:483
106	Allen	808	1:485
107	Laing	784	1:500
108	Bastian	750	1:522
109	Morley	748	1:524
110	Delancy	742	1:528
111	Coakley	739	1:530
112	Nottage	738	1:531
113	Demeritte	736	1:532
114	Bethell	727	1:539
115	Farquharson	725	1:540
116	Sears	721	1:543
117	Mortimer	699	1:560
118	Minnis	698	1:561
119	Glinton	693	1:565
119	Hamilton	693	1:565
121	Charlton	678	1:578
122	Dorsett	677	1:579
123	Edgecombe	668	1:586
124	Beneby	666	1:588
125	Greene	663	1:591
126	Thurston	651	1:602
127	Sturrup	647	1:605
128	Darling	642	1:610
129	Pierre	635	1:617
130	Nixon	630	1:622
131	Musgrove	625	1:627
131	Pyfrom	625	1:627
133	Gray	623	1:629
134	Morris	614	1:638
135	Missick	605	1:648
136	Malone	598	1:655
137	Humes	568	1:690
138	Minns	557	1:703
139	Bodie	556	1:705
140	Anderson	548	1:715
141	Simms	547	1:716
142	Deleveaux	536	1:731
143	Underwood	533	1:735
143	White	533	1:735
145	Edwards	531	1:738
146	Rodgers	529	1:741
146	Scott	529	1:741
148	Braynen	526	1:745
149	Barr	525	1:746
150	Walker	524	1:748
151	Bowleg	522	1:750
152	Gomez	521	1:752
153	Newton	520	1:753
154	Fowler	510	1:768
155	Dorsette	498	1:787
155	Lloyd	498	1:787
157	Mitchell	492	1:796
158	Ellis	489	1:801
159	Outten	484	1:809
160	Brice	479	1:818
161	Watson	477	1:821
162	Colebrooke	474	1:826
163	Sherman	470	1:834
164	Gilbert	464	1:844
164	Thomas	464	1:844
166	Reckley	463	1:846
167	Bartlett	462	1:848
168	Harris	457	1:857
169	Brennen	449	1:872
169	Pritchard	449	1:872
171	Cunningham	448	1:874
172	Murray	444	1:882
173	Rose	442	1:886
174	Tynes	437	1:896
175	Maycock	436	1:899
176	Rigby	428	1:915
176	Scavella	428	1:915
178	Hunt	427	1:917
179	Moore	419	1:935
180	Flowers	418	1:937
181	Moree	415	1:944
182	Swain	412	1:951
183	Charles	411	1:953
184	Moncur	409	1:958
185	Oliver	408	1:960
186	Williamson	407	1:963
187	Woods	404	1:970
188	Capron	403	1:972
188	Huyler	403	1:972
190	Andrews	399	1:982
190	Black	399	1:982
192	McCartney	397	1:987
193	Nesbitt	396	1:989
193	Parker	396	1:989
195	Gaitor	395	1:992
195	Key	395	1:992
197	Nairn	388	1:1,010
198	Turner	387	1:1,012
199	Douglas	380	1:1,031
199	Lee	380	1:1,031
201	Dawkins	376	1:1,042
202	Brooks	374	1:1,047
203	Ward	373	1:1,050
204	Henfield	370	1:1,059
205	Harding	365	1:1,073
205	Richardson	365	1:1,073
207	Stewart	359	1:1,091
208	Fountain	358	1:1,094
209	Kerr	356	1:1,100
209	Ritchie	356	1:1,100
211	Collins	354	1:1,107
212	Pearce	353	1:1,110
213	Paul	348	1:1,126
214	Bannister	346	1:1,132
215	Tucker	343	1:1,142
216	Phillips	341	1:1,149
217	Ramsey	339	1:1,156
218	Gordon	338	1:1,159
219	Murphy	337	1:1,162
220	Mills	333	1:1,176
220	Palmer	333	1:1,176
222	Watkins	329	1:1,191
223	Longley	320	1:1,224
224	Newman	319	1:1,228
225	Baker	317	1:1,236
226	Bridgewater	316	1:1,240
227	Colebrook	314	1:1,248
228	Barry	312	1:1,256
228	Eldon	312	1:1,256
230	Jean	310	1:1,264
231	Whylly	309	1:1,268
232	Louis	307	1:1,276
233	Wood	305	1:1,284
234	Wilkinson	297	1:1,319
235	Carter	294	1:1,332
236	Lopez	292	1:1,342
237	Weech	291	1:1,346
238	Bell	289	1:1,356
239	Isaacs	287	1:1,365
240	Hinsey	285	1:1,375
240	Wong	285	1:1,375
242	Wildgoose	281	1:1,394
243	Arthur	280	1:1,399
244	Neilly	279	1:1,404
245	Richards	278	1:1,409
246	Christie	277	1:1,414
246	Deal	277	1:1,414
248	Coleby	276	1:1,419
248	Tinker	276	1:1,419
250	Hutchinson	275	1:1,425
250	Romer	275	1:1,425
252	Burnside	272	1:1,440
252	Heastie	272	1:1,440
254	Griffin	271	1:1,446
255	Cates	268	1:1,462
256	James	267	1:1,467
257	Hudson	266	1:1,473
258	Cornish	262	1:1,495
259	Claridge	260	1:1,507
259	Swann	260	1:1,507
261	Aranha	259	1:1,513
261	Davies	259	1:1,513
263	Beckles	258	1:1,518
263	Fawkes	258	1:1,518
263	Levarity	258	1:1,518
263	Treco	258	1:1,518
267	McSweeney	251	1:1,561
268	Neymour	249	1:1,573
269	Minus	248	1:1,580
270	Duncanson	246	1:1,592
270	Hilton	246	1:1,592
270	Malcolm	246	1:1,592
273	Barnett	245	1:1,599
273	Basden	245	1:1,599
275	Curling	241	1:1,626
276	Bootle	240	1:1,632
276	Delancey	240	1:1,632
276	Godet	240	1:1,632
279	Horton	238	1:1,646
280	Hield	237	1:1,653
281	Riley	232	1:1,689
282	Penn	231	1:1,696
283	Klonaris	229	1:1,711
284	Bahama	228	1:1,718
284	O'Brien	228	1:1,718
286	Degregory	226	1:1,733
287	Cambridge	225	1:1,741
288	Beckford	224	1:1,749
288	Lunn	224	1:1,749
290	Goodman	217	1:1,805
291	Patton	215	1:1,822
292	Henderson	214	1:1,831
293	Jackson	213	1:1,839
293	Walkine	213	1:1,839
295	Pennerman	211	1:1,857
296	Austin	210	1:1,865
296	Charlow	210	1:1,865
298	Clare	209	1:1,874
298	Sargent	209	1:1,874
300	Maura	208	1:1,883
300	Shell	208	1:1,883
302	Robins	203	1:1,930
302	Winder	203	1:1,930
304	Laroda	199	1:1,969
304	Powell	199	1:1,969
306	Adams	197	1:1,989
307	Whitfield	195	1:2,009
308	Elliott	194	1:2,019
309	Gay	188	1:2,084
310	Harvey	187	1:2,095
311	Lindsay	186	1:2,106
312	George	184	1:2,129
313	Cole	183	1:2,141
313	Meadows	183	1:2,141
313	Rollins	183	1:2,141
316	Hart	182	1:2,152
317	Baillou	181	1:2,164
318	Gibbs	180	1:2,176
319	Dupuch	179	1:2,189
320	Jennings	178	1:2,201
320	John	178	1:2,201
322	Donaldson	177	1:2,213
322	Fraser	177	1:2,213
324	Chea	176	1:2,226
325	Bevans	175	1:2,239
326	Pickstock	173	1:2,264
326	Weatherford	173	1:2,264
328	Robertson	170	1:2,304
329	Petty	168	1:2,332
330	Arnett	166	1:2,360
330	Reid	166	1:2,360
332	Benjamin	165	1:2,374
332	Timothy	165	1:2,374
334	Rutherford	164	1:2,389
334	Winters	164	1:2,389
336	Maynard	163	1:2,403
336	Whyms	163	1:2,403
338	Cargill	162	1:2,418
338	Tate	162	1:2,418
340	Ford	161	1:2,433
340	Martinborough	161	1:2,433
340	Perpall	161	1:2,433
340	Toote	161	1:2,433
344	Bonimy	160	1:2,448
344	Braithwaite	160	1:2,448
344	Dillett	160	1:2,448
344	Finlayson	160	1:2,448
344	Foulkes	160	1:2,448
344	Roxbury	160	1:2,448
350	William	153	1:2,560
351	Warren	150	1:2,612
352	Graham	149	1:2,629
352	Porter	149	1:2,629
354	Armaly	148	1:2,647
354	Small	148	1:2,647
354	Stevenson	148	1:2,647
357	Bailey	146	1:2,683
357	Bonamy	146	1:2,683
357	Delaney	146	1:2,683
360	Daxon	145	1:2,702
360	Duvalier	145	1:2,702
362	Alleyne	144	1:2,720
362	Conliffe	144	1:2,720
362	Mosko	144	1:2,720
362	Newry	144	1:2,720
366	Ambrister	142	1:2,759
367	Gates	141	1:2,778
367	Gouthro	141	1:2,778
369	Edden	139	1:2,818
369	Ewing	139	1:2,818
369	McBride	139	1:2,818
372	Cooke	138	1:2,839
373	Emmanuel	137	1:2,859
373	Moultrie	137	1:2,859
375	Foster	134	1:2,924
375	McNeil	134	1:2,924
375	Rogers	134	1:2,924
378	Solomon	133	1:2,945
379	Butterfield	132	1:2,968
379	Peterson	132	1:2,968
381	Jordan	131	1:2,990
381	Patterson	131	1:2,990
383	Balfour	130	1:3,013
383	Bostwick	130	1:3,013
383	Lafleur	130	1:3,013
386	Armstrong	129	1:3,037
386	Henry	129	1:3,037
386	Hutcheson	129	1:3,037
386	Samuel	129	1:3,037
386	Strapp	129	1:3,037
386	Styles	129	1:3,037
392	Cumberbatch	128	1:3,061
392	Greenslade	128	1:3,061
392	Poiter	128	1:3,061
395	Brook	127	1:3,085
395	Stevens	127	1:3,085
397	Belle	126	1:3,109
398	Hill	125	1:3,134
399	Bonaby	124	1:3,159
400	Parks	123	1:3,185
400	Sullivan	123	1:3,185
400	Sutherland	123	1:3,185
403	Nelson	120	1:3,265
404	Callender	118	1:3,320
405	Leblanc	117	1:3,348
405	McCardy	117	1:3,348
407	Alexiou	116	1:3,377
407	Lubin	116	1:3,377
409	Blue	115	1:3,407
409	Constantakis	115	1:3,407
411	Bosfield	114	1:3,436
411	Daniels	114	1:3,436
411	Higgins	114	1:3,436
411	McKay	114	1:3,436
411	Roach	114	1:3,436
416	Holder	113	1:3,467
416	Holmes	113	1:3,467
416	Sealy	113	1:3,467
416	Swaby	113	1:3,467
420	Eneas	112	1:3,498
420	Glass	112	1:3,498
420	Gonzalez	112	1:3,498
420	Josey	112	1:3,498
420	Morrison	112	1:3,498
420	Moses	112	1:3,498
420	Perry	112	1:3,498
420	Whitehead	112	1:3,498
428	Benson	108	1:3,627
428	Leadon	108	1:3,627
430	McHardy	104	1:3,767
431	Barrett	102	1:3,841
431	Percentie	102	1:3,841
433	French	101	1:3,879
433	McGregor	101	1:3,879
433	Todd	101	1:3,879
436	Mason	100	1:3,918
436	Noel	100	1:3,918
436	Spence	100	1:3,918
436	Zonicle	100	1:3,918
440	Antonio	99	1:3,957
440	Knight	99	1:3,957
440	Maillis	99	1:3,957
443	Lynes	98	1:3,997
443	McCoy	98	1:3,997
443	Mott	98	1:3,997
443	Saint	98	1:3,997
447	Ash	97	1:4,039
447	Bryan	97	1:4,039
447	Cancino	97	1:4,039
447	Farmer	97	1:4,039
447	Franks	97	1:4,039
447	Neil	97	1:4,039
447	Rees	97	1:4,039
454	Astwood	96	1:4,081
454	Babbs	96	1:4,081
454	Burns	96	1:4,081
454	Deane	96	1:4,081
454	Dennis	96	1:4,081
454	Dillet	96	1:4,081
454	Hair	96	1:4,081
454	Jacques	96	1:4,081
454	Mortimore	96	1:4,081
454	Nicholls	96	1:4,081
454	North	96	1:4,081
454	Peet	96	1:4,081
454	Simons	96	1:4,081
467	Wilchcombe	95	1:4,124
468	Albert	94	1:4,168
468	Lawrence	94	1:4,168
470	Ross	93	1:4,212
471	Lightfoot	91	1:4,305
472	Dixon	89	1:4,402
473	Ryan	87	1:4,503
474	Parotti	86	1:4,555
475	Hanchell	85	1:4,609
475	Mullings	85	1:4,609
475	Simpson	85	1:4,609
478	Bennett	84	1:4,664
478	Chisholm	84	1:4,664
478	Holbert	84	1:4,664
481	Baptiste	83	1:4,720
481	FitzGerald	83	1:4,720
481	Frazier	83	1:4,720
481	Larrimore	83	1:4,720
481	Love	83	1:4,720
481	Price	83	1:4,720
487	Cummings	82	1:4,777
487	D'Arville	82	1:4,777
487	Fritz	82	1:4,777
487	Jolly	82	1:4,777
487	Matthews	82	1:4,777
487	Pearson	82	1:4,777
493	Anthony	81	1:4,836
493	Bazard	81	1:4,836
493	Chase	81	1:4,836
493	Elliot	81	1:4,836
493	Fisher	81	1:4,836
493	Fritzgerald	81	1:4,836
493	Glover	81	1:4,836
493	Goddard	81	1:4,836
493	Gooding	81	1:4,836
493	Grammatico	81	1:4,836
493	Granger	81	1:4,836
493	Lotmore	81	1:4,836
493	Myers	81	1:4,836
493	Ramsay	81	1:4,836
507	Bernard	80	1:4,897
507	Chipman	80	1:4,897
507	Collymore	80	1:4,897
507	Desir	80	1:4,897
507	Doyle	80	1:4,897
507	Fields	80	1:4,897
507	Frazer	80	1:4,897
507	Halkitis	80	1:4,897
507	Holowesko	80	1:4,897
507	Inniss	80	1:4,897
507	Kenny	80	1:4,897
507	Lamm	80	1:4,897
507	Mather	80	1:4,897
507	McClain	80	1:4,897
507	Michael	80	1:4,897
507	Palacious	80	1:4,897
507	Peter	80	1:4,897
507	Plakaris	80	1:4,897
507	St Louis	80	1:4,897
507	Symmonett	80	1:4,897
507	Wrinkle	80	1:4,897
528	Elden	79	1:4,959
528	Michel	79	1:4,959
530	Hull	78	1:5,022
530	Robert	78	1:5,022
532	Mallory	75	1:5,223
533	Hunter	74	1:5,294
533	Osborne	74	1:5,294
535	Waugh	73	1:5,366
536	Bradley	72	1:5,441
536	Garcia	72	1:5,441
536	Sanchez	72	1:5,441
539	Been	71	1:5,518
539	Feaster	71	1:5,518
539	Russo	71	1:5,518
542	Finley	70	1:5,596
542	Freeport	70	1:5,596
542	Leathen	70	1:5,596
542	Low	70	1:5,596
542	Mellor	70	1:5,596
542	Whan	70	1:5,596
548	Bates	69	1:5,678
548	Kennedy	69	1:5,678
548	Spencer	69	1:5,678
548	Wilmore	69	1:5,678
552	Jervis	68	1:5,761
552	Shearer	68	1:5,761
552	Silvera	68	1:5,761
555	D'aguilar	67	1:5,847
555	Dunn	67	1:5,847
555	Royal	67	1:5,847
555	Scriven	67	1:5,847
559	Burke	66	1:5,936
559	Etienne	66	1:5,936
559	Francois	66	1:5,936
559	Garland	66	1:5,936
559	Guy	66	1:5,936
559	Leonard	66	1:5,936
559	Paton	66	1:5,936
559	Webb	66	1:5,936
567	Atkinson	65	1:6,027
567	Craig	65	1:6,027
567	Crawford	65	1:6,027
567	Donald	65	1:6,027
567	Eugene	65	1:6,027
567	Frederick	65	1:6,027
567	Holden	65	1:6,027
567	Just	65	1:6,027
567	Lord	65	1:6,027
567	Millar	65	1:6,027
567	Nutt	65	1:6,027
567	Perez	65	1:6,027
567	Peters	65	1:6,027
567	Sherwin	65	1:6,027
567	Thomson	65	1:6,027
567	Wall	65	1:6,027
567	Whymms	65	1:6,027
584	Ageeb	64	1:6,121
584	Appleyard	64	1:6,121
584	Babb	64	1:6,121
584	Bacardi	64	1:6,121
584	Barton	64	1:6,121
584	Bascom	64	1:6,121
584	Berdanis	64	1:6,121
584	Bower	64	1:6,121
584	Carmichael	64	1:6,121
584	Charmat	64	1:6,121
584	Clark	64	1:6,121
584	Daley	64	1:6,121
584	Elie	64	1:6,121
584	Erdeg	64	1:6,121
584	Ferreira	64	1:6,121
584	Griffith	64	1:6,121
584	Grimes	64	1:6,121
584	Haven	64	1:6,121
584	Hinds	64	1:6,121
584	Kellman	64	1:6,121
584	Kelty	64	1:6,121
584	Kenneth	64	1:6,121
584	Laguerre	64	1:6,121
584	Liddell	64	1:6,121
584	Lleida	64	1:6,121
584	McCarroll	64	1:6,121
584	McQuay	64	1:6,121
584	Micklewhite	64	1:6,121
584	Mousis	64	1:6,121
584	Neeley	64	1:6,121
584	Perigord	64	1:6,121
584	Premock	64	1:6,121
584	Rae	64	1:6,121
584	Raine	64	1:6,121
584	Ranson	64	1:6,121
584	Richmond	64	1:6,121
584	Roldan	64	1:6,121
584	Sterling	64	1:6,121
584	Sumner	64	1:6,121
584	Tsakkos	64	1:6,121
584	Tsavoussis	64	1:6,121
584	Virgill	64	1:6,121
584	Wring	64	1:6,121
584	Zervos	64	1:6,121
628	Pedican	59	1:6,640
629	Bowles	56	1:6,996
630	David	55	1:7,123
630	Shepherd	55	1:7,123
632	Air	53	1:7,392
632	Bassett	53	1:7,392
632	Bellot	53	1:7,392
632	Butcher	53	1:7,392
632	Carpenter	53	1:7,392
632	Lundy	53	1:7,392
632	Ranger	53	1:7,392
632	Victor	53	1:7,392
640	Cadet	52	1:7,534
640	Gill	52	1:7,534
640	Hammond	52	1:7,534
640	Hanson	52	1:7,534
640	McFall	52	1:7,534
640	Moody	52	1:7,534
640	Rhodriquez	52	1:7,534
640	Simon	52	1:7,534
640	Tracey	52	1:7,534
640	Vincent	52	1:7,534
640	Walkes	52	1:7,534
651	Blake	51	1:7,681
651	Damianos	51	1:7,681
653	Avon	50	1:7,835
653	Decosta	50	1:7,835
653	Goodwin	50	1:7,835
653	Gregory	50	1:7,835
653	Guerrier	50	1:7,835
653	Kay	50	1:7,835
653	Laramore	50	1:7,835
653	MacKay	50	1:7,835
653	McQueen	50	1:7,835
653	Quant	50	1:7,835
653	Ralph	50	1:7,835
653	Stratton	50	1:7,835
653	Toussaint	50	1:7,835
653	Weir	50	1:7,835
667	Aberle	49	1:7,995
667	Boyd	49	1:7,995
667	Burnett	49	1:7,995
667	Clyde	49	1:7,995
667	Cove	49	1:7,995
667	Coverley	49	1:7,995
667	Fife	49	1:7,995
667	Forde	49	1:7,995
667	Forsythe	49	1:7,995
667	Galanis	49	1:7,995
667	Gonzales	49	1:7,995
667	Guerrero	49	1:7,995
667	Jenoure	49	1:7,995
667	Johnstone	49	1:7,995
667	Julien	49	1:7,995
667	Lady	49	1:7,995
667	Little	49	1:7,995
667	Maury	49	1:7,995
667	McIver	49	1:7,995
667	Moir	49	1:7,995
667	Moseley	49	1:7,995
667	Oakes	49	1:7,995
667	Ray	49	1:7,995
667	Samuels	49	1:7,995
667	Shoe	49	1:7,995
667	Silk	49	1:7,995
667	Swan	49	1:7,995
667	Walcott	49	1:7,995
667	Walton	49	1:7,995
696	Allan	48	1:8,161
696	Ambrose	48	1:8,161
696	Atherley	48	1:8,161
696	Beadle	48	1:8,161
696	Berlanda	48	1:8,161
696	Bloomfield	48	1:8,161
696	Blyden	48	1:8,161
696	Brady	48	1:8,161
696	Brownrigg	48	1:8,161
696	Burrell	48	1:8,161
696	Calixte	48	1:8,161
696	Carrera-Justiz	48	1:8,161
696	Cassar	48	1:8,161
696	Christofillis	48	1:8,161
696	Cloud	48	1:8,161
696	Coleman	48	1:8,161
696	Constantine	48	1:8,161
696	Cowderoy	48	1:8,161
696	Crawley	48	1:8,161
696	Cyril	48	1:8,161
696	Dana	48	1:8,161
696	Diggiss	48	1:8,161
696	Fernandes	48	1:8,161
696	Fort	48	1:8,161
696	Frey	48	1:8,161
696	Gardner	48	1:8,161
696	Garraway	48	1:8,161
696	Godfrey	48	1:8,161
696	Griffiths	48	1:8,161
696	Hayling	48	1:8,161
696	Hennis	48	1:8,161
696	Hermanns	48	1:8,161
696	Hoffer	48	1:8,161
696	Jack	48	1:8,161
696	Jimenez	48	1:8,161
696	Kelley	48	1:8,161
696	Kikivarakis	48	1:8,161
696	Kim	48	1:8,161
696	Lam	48	1:8,161
696	Leach	48	1:8,161
696	Ledee	48	1:8,161
696	Linden	48	1:8,161
696	Lobosky	48	1:8,161
696	Lorandos	48	1:8,161
696	Mabon	48	1:8,161
696	MacDonald	48	1:8,161
696	McCalla	48	1:8,161
696	McLeod	48	1:8,161
696	McMinns	48	1:8,161
696	Munro	48	1:8,161
696	Newland	48	1:8,161
696	Olssen	48	1:8,161
696	Pilcher	48	1:8,161
696	Ratcliffe	48	1:8,161
696	Rox	48	1:8,161
696	Ruckstuhl	48	1:8,161
696	Scates	48	1:8,161
696	Skandaliaris	48	1:8,161
696	St Fleur	48	1:8,161
696	St George	48	1:8,161
696	Stanley	48	1:8,161
696	Sun	48	1:8,161
696	Theophilus	48	1:8,161
696	Thornton	48	1:8,161
696	Toothe	48	1:8,161
696	Toppin	48	1:8,161
696	Tsavousis	48	1:8,161
696	Varga	48	1:8,161
696	Villa	48	1:8,161
696	Wagner	48	1:8,161
696	Wassitsch	48	1:8,161
696	Whymns	48	1:8,161
696	Wyman	48	1:8,161
769	Mingo	42	1:9,327
770	Laughlin	37	1:10,588
771	Cook	35	1:11,193
772	Johnston	34	1:11,522
773	Willert	33	1:11,871
774	Cephas	32	1:12,242
775	Hardy	30	1:13,058
776	Richard	29	1:13,509
776	Whyte	29	1:13,509
778	Morgan	28	1:13,991
779	Algreen	27	1:14,509
780	Edmond	26	1:15,067
780	Keating	26	1:15,067
780	Newell	26	1:15,067
780	Sams	26	1:15,067
784	Leboutillier	25	1:15,670
784	Yellow	25	1:15,670
786	Rankine	24	1:16,323
787	Leary	23	1:17,033
787	Robson	23	1:17,033
789	Western	16	1:24,484
790	António	14	1:27,982
790	Rich	14	1:27,982
790	Silva	14	1:27,982
793	Wisdom	13	1:30,135
794	Walters	12	1:32,646
795	Boo	11	1:35,614
796	Conyers	10	1:39,175
797	Blanc	9	1:43,528
797	Brathwaite	9	1:43,528
797	Church	9	1:43,528
797	Donovan	9	1:43,528
797	Hicks	9	1:43,528
797	Hoyte	9	1:43,528
797	Junior	9	1:43,528
797	Li	9	1:43,528
797	Lima	9	1:43,528
797	Long	9	1:43,528
797	McGrath	9	1:43,528
797	Null	9	1:43,528
797	Patrick	9	1:43,528
797	Roache	9	1:43,528
797	Wemyss	9	1:43,528
812	Alves	8	1:48,969
812	Ashe	8	1:48,969
812	Dickenson	8	1:48,969
812	Drakes	8	1:48,969
812	Feldman	8	1:48,969
812	Gottlieb	8	1:48,969
812	Hinzey	8	1:48,969
812	Martinez	8	1:48,969
812	Monroe	8	1:48,969
812	Murrell	8	1:48,969
812	Neily	8	1:48,969
812	Nicholson	8	1:48,969
812	Pickering	8	1:48,969
812	Pitter	8	1:48,969
812	Santillo	8	1:48,969
812	Southern	8	1:48,969
812	Wilchombe	8	1:48,969
829	Alexander	7	1:55,964
829	Allens	7	1:55,964
829	Blatch	7	1:55,964
829	Carlson	7	1:55,964
829	Daniel	7	1:55,964
829	Fernandez	7	1:55,964
829	Gayle	7	1:55,964
829	Heild	7	1:55,964
829	Hylton	7	1:55,964
829	Klein	7	1:55,964
829	Lang	7	1:55,964
829	Mac	7	1:55,964
829	March	7	1:55,964
829	Petit	7	1:55,964
829	Reynolds	7	1:55,964
829	Schroeder	7	1:55,964
829	Sea	7	1:55,964
829	Valentino	7	1:55,964
829	Virgil	7	1:55,964
848	Arnette	6	1:65,292
848	Augustin	6	1:65,292
848	Bowen	6	1:65,292
848	Canter	6	1:65,292
848	Chamberlain	6	1:65,292
848	Clement	6	1:65,292
848	D'Albenas	6	1:65,292
848	Duncan	6	1:65,292
848	Durham	6	1:65,292
848	Fine	6	1:65,292
848	Flores	6	1:65,292
848	Freeman	6	1:65,292
848	Frost	6	1:65,292
848	Gallagher	6	1:65,292
848	Gomes	6	1:65,292
848	Grey	6	1:65,292
848	Haley	6	1:65,292
848	Harbour	6	1:65,292
848	Harrison	6	1:65,292
848	Holland	6	1:65,292
848	Hope	6	1:65,292
848	Hughes	6	1:65,292
848	Lafrance	6	1:65,292
848	Lynch	6	1:65,292
848	McDowall	6	1:65,292
848	O'Hara	6	1:65,292
848	Oliveira	6	1:65,292
848	Philip	6	1:65,292
848	Rhodes	6	1:65,292
848	Rosen	6	1:65,292
848	Roth	6	1:65,292
848	Santana	6	1:65,292
848	Schmid	6	1:65,292
848	Shaw	6	1:65,292
848	Simeon	6	1:65,292
848	Telusma	6	1:65,292
848	Tomlinson	6	1:65,292
848	Turtle	6	1:65,292
848	Willis	6	1:65,292
887	Alcime	5	1:78,350
887	Alex	5	1:78,350
887	Arnold	5	1:78,350
887	Ballard	5	1:78,350
887	Banister	5	1:78,350
887	Banks	5	1:78,350
887	Barnes	5	1:78,350
887	Belizaire	5	1:78,350
887	Benn	5	1:78,350
887	Berry	5	1:78,350
887	Best	5	1:78,350
887	Bianchi	5	1:78,350
887	Biggs	5	1:78,350
887	Birch	5	1:78,350
887	Blair	5	1:78,350
887	Boodle	5	1:78,350
887	Boston	5	1:78,350
887	Britton	5	1:78,350
887	Bruce	5	1:78,350
887	Cenatus	5	1:78,350
887	Chambers	5	1:78,350
887	Chan	5	1:78,350
887	Chandler	5	1:78,350
887	Chaplin	5	1:78,350
887	Chapman	5	1:78,350
887	Chin	5	1:78,350
887	Cross	5	1:78,350
887	Davidson	5	1:78,350
887	Day	5	1:78,350
887	Delgado	5	1:78,350
887	Dell	5	1:78,350
887	Dempsey	5	1:78,350
887	Diamond	5	1:78,350
887	Fair	5	1:78,350
887	Feaste	5	1:78,350
887	Fielder	5	1:78,350
887	Flamingo	5	1:78,350
887	Fletcher	5	1:78,350
887	Fondas	5	1:78,350
887	Frank	5	1:78,350
887	Friesen	5	1:78,350
887	Frith	5	1:78,350
887	Fulford	5	1:78,350
887	Garner	5	1:78,350
887	Gelin	5	1:78,350
887	Golden	5	1:78,350
887	Good	5	1:78,350
887	Gould	5	1:78,350
887	Hasan	5	1:78,350
887	Hayes	5	1:78,350
887	Haynes	5	1:78,350
887	Hendfield	5	1:78,350
887	Henley	5	1:78,350
887	Hodgkins	5	1:78,350
887	Hoffman	5	1:78,350
887	Hollis	5	1:78,350
887	Hopkins	5	1:78,350
887	Huggins	5	1:78,350
887	Ijeoma	5	1:78,350
887	Illing	5	1:78,350
887	Jarrett	5	1:78,350
887	Johns	5	1:78,350
887	Kenyon	5	1:78,350
887	Khan	5	1:78,350
887	Kitchen	5	1:78,350
887	Korculanic	5	1:78,350
887	Lane	5	1:78,350
887	Lawson	5	1:78,350
887	Legros	5	1:78,350
887	Lesbott	5	1:78,350
887	Livingston	5	1:78,350
887	Longman	5	1:78,350
887	Lucayan	5	1:78,350
887	Manning	5	1:78,350
887	Marriott	5	1:78,350
887	Mathews	5	1:78,350
887	May	5	1:78,350
887	Mayer	5	1:78,350
887	McCarthy	5	1:78,350
887	McFarlane	5	1:78,350
887	McKie	5	1:78,350
887	McLean	5	1:78,350
887	McMullen	5	1:78,350
887	Meronard	5	1:78,350
887	Montgomery	5	1:78,350
887	Morales	5	1:78,350
887	Myles	5	1:78,350
887	Nair	5	1:78,350
887	Nestor	5	1:78,350
887	New	5	1:78,350
887	Nicholas	5	1:78,350
887	Nichols	5	1:78,350
887	Nicolls	5	1:78,350
887	Oscar	5	1:78,350
887	Osman	5	1:78,350
887	Owens	5	1:78,350
887	Paine	5	1:78,350
887	Phillipe	5	1:78,350
887	Pintard	5	1:78,350
887	Pople	5	1:78,350
887	Prabhu	5	1:78,350
887	Prince	5	1:78,350
887	Prosper	5	1:78,350
887	Pryce	5	1:78,350
887	Pyles	5	1:78,350
887	Rahaming	5	1:78,350
887	Ramos	5	1:78,350
887	Rodriguez	5	1:78,350
887	Saintil	5	1:78,350
887	Salvant	5	1:78,350
887	Save	5	1:78,350
887	Schneider	5	1:78,350
887	Seyfert	5	1:78,350
887	Shurland	5	1:78,350
887	Sims	5	1:78,350
887	Skinner	5	1:78,350
887	Smalley	5	1:78,350
887	Souza	5	1:78,350
887	Springer	5	1:78,350
887	Stitch	5	1:78,350
887	Strong	5	1:78,350
887	Sylvain	5	1:78,350
887	The	5	1:78,350
887	Toporowski	5	1:78,350
887	Tremblay	5	1:78,350
887	Ulrich	5	1:78,350
887	Urban	5	1:78,350
887	van Dyke	5	1:78,350
887	Vernon	5	1:78,350
887	Wallas	5	1:78,350
887	Wedderburn	5	1:78,350
887	Wellington	5	1:78,350
887	Wheeler	5	1:78,350
887	Whitney	5	1:78,350
887	Wilkins	5	1:78,350
887	Willie	5	1:78,350
887	Winter	5	1:78,350
887	Woodman	5	1:78,350
887	Worrell	5	1:78,350
887	Zimmerman	5	1:78,350