1	Mamani	331,923	1:32
2	Flores	224,761	1:47
3	Quispe	210,093	1:51
4	Choque	139,173	1:76
5	Vargas	138,458	1:77
6	Condori	126,205	1:84
7	Rodriguez	121,503	1:87
8	Rojas	111,606	1:95
9	Gutierrez	110,616	1:96
10	Lopez	102,486	1:104
11	Fernandez	93,816	1:113
12	Gonzales	80,685	1:132
13	Garcia	77,131	1:138
14	Cruz	75,450	1:141
15	Perez	72,529	1:146
16	Mendoza	66,470	1:160
17	Sanchez	62,592	1:170
18	Martinez	61,353	1:173
19	Chavez	61,261	1:173
20	Ramos	61,214	1:173
21	Apaza	58,999	1:180
22	Huanca	58,278	1:182
23	Vaca	57,745	1:184
24	Torrez	54,139	1:196
25	Guzman	53,189	1:200
26	Suarez	51,265	1:207
27	Aguilar	50,970	1:208
28	Justiniano	50,909	1:209
29	Romero	48,723	1:218
30	Colque	48,436	1:219
31	Cuellar	48,329	1:220
32	Ramirez	46,465	1:228
33	Vasquez	46,443	1:229
34	Soliz	45,012	1:236
35	Miranda	44,542	1:238
36	Villca	43,593	1:244
37	Morales	43,515	1:244
38	Alvarez	43,015	1:247
39	Ortiz	42,222	1:251
40	Espinoza	41,293	1:257
41	Ticona	39,850	1:266
42	Villarroel	39,427	1:269
43	Chambi	38,812	1:274
44	Castro	38,417	1:276
45	Calle	37,661	1:282
46	Duran	37,169	1:286
47	Mendez	36,952	1:287
48	Jimenez	36,854	1:288
49	Nina	36,369	1:292
50	Gomez	35,607	1:298
51	Rocha	35,294	1:301
52	Salazar	35,214	1:301
53	Cespedes	34,863	1:305
54	Hurtado	34,295	1:310
55	Torrico	34,036	1:312
56	Herrera	33,917	1:313
57	Camacho	33,692	1:315
58	Rios	32,179	1:330
59	Velasquez	31,569	1:336
60	Rivero	31,174	1:341
61	Mercado	31,025	1:342
62	Roca	30,961	1:343
63	Rivera	30,383	1:349
64	Poma	29,548	1:359
65	Limachi	29,000	1:366
66	Salvatierra	28,949	1:367
67	Ruiz	28,748	1:369
68	Escobar	28,134	1:377
69	Arias	27,933	1:380
70	Zambrana	27,899	1:381
71	Saavedra	27,459	1:387
72	Tapia	27,388	1:388
73	Orellana	27,370	1:388
74	Pinto	27,348	1:388
75	Paz	26,006	1:408
76	Padilla	25,855	1:411
77	Molina	25,838	1:411
78	Quisbert	25,501	1:416
79	Montaño	25,079	1:423
80	Ortega	24,545	1:433
81	Velasco	24,431	1:435
82	Laura	24,339	1:436
83	Ayala	23,915	1:444
84	Cabrera	23,854	1:445
85	Zurita	23,710	1:448
86	Callisaya	22,960	1:462
87	Zarate	22,863	1:464
88	Cortez	22,459	1:473
89	Medina	22,069	1:481
90	Leon	21,905	1:485
91	Terrazas	21,798	1:487
92	Quiroga	21,716	1:489
93	Calderon	21,546	1:493
94	Yucra	21,438	1:495
95	Claros	21,192	1:501
96	Montero	21,122	1:503
97	Aguilera	20,937	1:507
98	Zeballos	20,878	1:508
99	Mejia	20,798	1:510
100	Paredes	20,688	1:513
101	Soto	20,660	1:514
102	Yujra	20,600	1:515
103	Canaviri	20,510	1:518
104	Vallejos	20,286	1:523
105	Paco	20,266	1:524
106	Copa	20,211	1:525
107	Moreno	20,140	1:527
108	Llanos	20,034	1:530
109	Diaz	20,024	1:530
110	Castillo	19,857	1:535
111	Blanco	19,843	1:535
112	Sandoval	19,696	1:539
113	Arancibia	19,566	1:543
114	Hinojosa	19,207	1:553
115	Ribera	18,844	1:563
116	Arce	18,721	1:567
117	Arteaga	18,620	1:570
118	Melgar	18,487	1:574
119	Caceres	18,438	1:576
120	Maldonado	18,030	1:589
121	Bautista	17,947	1:592
122	Coca	17,911	1:593
123	Chura	17,878	1:594
124	Fuentes	17,855	1:595
125	Medrano	17,838	1:595
126	Luna	17,576	1:604
127	Campos	17,560	1:605
128	Parada	17,010	1:624
129	Marca	16,703	1:636
130	Menacho	15,942	1:666
131	Zenteno	15,916	1:667
132	Heredia	15,865	1:669
133	Alarcon	15,732	1:675
134	Aguirre	15,612	1:680
135	Aruquipa	15,570	1:682
136	Vega	15,482	1:686
137	Zabala	15,406	1:689
138	Daza	15,375	1:690
139	Aramayo	15,328	1:693
140	Calizaya	15,239	1:697
141	Huarachi	15,233	1:697
142	Franco	15,150	1:701
142	Valencia	15,150	1:701
144	Veizaga	14,994	1:708
145	Saucedo	14,983	1:709
146	Vera	14,648	1:725
147	Cardozo	14,643	1:725
148	Soria	14,562	1:729
149	Lima	14,349	1:740
150	Salinas	14,207	1:747
151	Santos	14,144	1:751
152	Machaca	14,140	1:751
153	Delgado	13,980	1:759
154	Pereira	13,976	1:760
155	Valdez	13,962	1:760
156	Mayta	13,954	1:761
157	Sejas	13,896	1:764
158	Quiroz	13,748	1:772
159	Siles	13,667	1:777
160	Vedia	13,638	1:778
161	Pacheco	13,618	1:780
162	Salas	13,380	1:793
163	Nuñez	13,357	1:795
164	Tola	13,320	1:797
165	Zapata	13,308	1:798
166	Peña	13,114	1:810
167	Villegas	12,992	1:817
168	Balderrama	12,919	1:822
169	Silva	12,822	1:828
170	Ledezma	12,797	1:830
171	Mollo	12,779	1:831
172	Alvarado	12,658	1:839
173	Paniagua	12,568	1:845
174	Delgadillo	12,538	1:847
175	Bejarano	12,367	1:858
176	Loza	12,342	1:860
177	Herbas	12,332	1:861
178	Barrios	12,312	1:862
179	Muñoz	12,127	1:875
180	Guarachi	12,073	1:879
181	Marquez	11,986	1:886
182	Eguez	11,903	1:892
183	Tarqui	11,809	1:899
184	Carrasco	11,755	1:903
185	Alanoca	11,751	1:903
186	Barrientos	11,738	1:904
187	Carvajal	11,709	1:907
188	Serrano	11,687	1:908
189	Conde	11,613	1:914
190	Pedraza	11,513	1:922
191	Vidal	11,455	1:927
192	Caballero	11,400	1:931
193	Montano	11,390	1:932
194	Antelo	11,333	1:937
195	Escalante	11,279	1:941
196	Torres	11,235	1:945
197	Beltran	11,206	1:947
198	Estrada	11,200	1:948
199	Loayza	11,132	1:954
200	Chuquimia	11,104	1:956
201	Andrade	11,090	1:957
202	Encinas	11,080	1:958
203	Teran	10,994	1:966
203	Vela	10,994	1:966
205	Antezana	10,970	1:968
206	Avila	10,967	1:968
207	Aliaga	10,945	1:970
208	Carrillo	10,877	1:976
209	Cardenas	10,856	1:978
210	Chipana	10,756	1:987
211	Trujillo	10,729	1:990
212	Robles	10,696	1:993
213	Pardo	10,666	1:995
214	Cordova	10,656	1:996
215	Villanueva	10,501	1:1,011
216	Roman	10,490	1:1,012
217	Nogales	10,447	1:1,016
218	Murillo	10,266	1:1,034
219	Mancilla	10,117	1:1,049
220	Arauz	9,989	1:1,063
221	Bravo	9,964	1:1,065
222	Velarde	9,930	1:1,069
223	Tito	9,815	1:1,082
224	Burgos	9,748	1:1,089
225	Rosales	9,688	1:1,096
226	Terceros	9,569	1:1,109
227	Contreras	9,542	1:1,113
228	Claure	9,436	1:1,125
229	Barba	9,332	1:1,138
230	Balcazar	9,238	1:1,149
231	Laime	9,234	1:1,150
232	Bustamante	9,222	1:1,151
233	Galarza	9,178	1:1,157
234	Peralta	9,162	1:1,159
235	Huallpa	9,103	1:1,166
236	Castellon	9,089	1:1,168
237	Crespo	9,063	1:1,171
238	Reyes	9,060	1:1,172
239	Añez	9,039	1:1,175
240	Olivera	8,968	1:1,184
241	Arroyo	8,826	1:1,203
242	Veliz	8,712	1:1,219
243	Ventura	8,633	1:1,230
244	Tejerina	8,584	1:1,237
245	Serrudo	8,561	1:1,240
246	Coronado	8,553	1:1,241
247	Dorado	8,523	1:1,246
248	Quinteros	8,457	1:1,255
249	Valverde	8,438	1:1,258
250	Callejas	8,420	1:1,261
251	Alba	8,400	1:1,264
252	Saravia	8,397	1:1,264
253	Dominguez	8,396	1:1,264
254	Becerra	8,331	1:1,274
255	Cayo	8,326	1:1,275
256	Toledo	8,299	1:1,279
257	Canaza	8,269	1:1,284
258	Ochoa	8,253	1:1,286
259	Sosa	8,185	1:1,297
260	Valdivia	8,165	1:1,300
261	Moya	8,163	1:1,301
262	Ibañez	8,161	1:1,301
263	Cartagena	8,142	1:1,304
264	Cossio	8,122	1:1,307
265	Rivas	8,108	1:1,309
266	Bernal	7,980	1:1,330
267	Magne	7,973	1:1,332
268	Peredo	7,939	1:1,337
269	Ibarra	7,879	1:1,347
270	Cabezas	7,761	1:1,368
271	Banegas	7,732	1:1,373
272	Jaldin	7,712	1:1,377
273	Montenegro	7,692	1:1,380
274	Ponce	7,639	1:1,390
275	Ferrufino	7,592	1:1,398
276	Navarro	7,546	1:1,407
277	Aranibar	7,524	1:1,411
278	Meneses	7,523	1:1,411
279	Quenta	7,478	1:1,420
280	Gallardo	7,466	1:1,422
281	Ovando	7,422	1:1,430
282	Rodas	7,392	1:1,436
283	Garnica	7,360	1:1,442
284	Puma	7,356	1:1,443
285	Almanza	7,221	1:1,470
286	Hidalgo	7,195	1:1,476
287	Arnez	7,160	1:1,483
287	Pena	7,160	1:1,483
289	Gareca	7,121	1:1,491
290	Cordero	7,104	1:1,494
291	Ugarte	7,080	1:1,499
292	Catari	7,055	1:1,505
293	Vidaurre	7,016	1:1,513
294	Callizaya	7,001	1:1,516
295	Revollo	6,965	1:1,524
296	Soruco	6,936	1:1,531
297	Aparicio	6,860	1:1,548
298	Chino	6,850	1:1,550
299	Cano	6,846	1:1,551
300	Cuba	6,844	1:1,551
301	Arispe	6,828	1:1,555
302	Aquino	6,826	1:1,555
303	Lara	6,825	1:1,556
304	Figueroa	6,810	1:1,559
305	Gil	6,734	1:1,577
306	Castedo	6,723	1:1,579
307	Machicado	6,678	1:1,590
308	Escalera	6,676	1:1,590
309	Chavarria	6,650	1:1,596
310	Roque	6,626	1:1,602
311	Zelada	6,603	1:1,608
312	Paucara	6,584	1:1,612
313	Angulo	6,528	1:1,626
314	Mita	6,524	1:1,627
315	Lazarte	6,517	1:1,629
316	Merida	6,464	1:1,642
317	Andia	6,458	1:1,644
318	Moscoso	6,445	1:1,647
319	Mariscal	6,439	1:1,649
320	Ali	6,428	1:1,652
321	Chacon	6,416	1:1,655
322	Solis	6,391	1:1,661
323	Segovia	6,349	1:1,672
324	Rosas	6,319	1:1,680
325	Alejo	6,306	1:1,684
326	Coimbra	6,299	1:1,685
327	Limpias	6,281	1:1,690
328	Illanes	6,222	1:1,706
329	Davila	6,211	1:1,709
330	Acosta	6,207	1:1,710
331	Avalos	6,120	1:1,735
332	Orosco	6,100	1:1,740
333	Zegarra	6,099	1:1,741
334	Ardaya	6,095	1:1,742
335	Candia	6,064	1:1,751
336	Davalos	6,061	1:1,752
337	Rueda	6,000	1:1,769
338	Alcon	5,997	1:1,770
339	Montecinos	5,975	1:1,777
340	Alfaro	5,954	1:1,783
341	Bazan	5,917	1:1,794
342	Pozo	5,916	1:1,795
343	Coronel	5,869	1:1,809
344	Silvestre	5,848	1:1,815
345	Prado	5,824	1:1,823
346	Peñaranda	5,786	1:1,835
347	Choquehuanca	5,784	1:1,835
348	Nunez	5,769	1:1,840
349	Camargo	5,717	1:1,857
350	Parra	5,707	1:1,860
351	Marin	5,673	1:1,871
352	Guerrero	5,633	1:1,885
353	Ojeda	5,535	1:1,918
354	Patzi	5,533	1:1,919
355	Borda	5,515	1:1,925
356	Villa	5,512	1:1,926
357	Aponte	5,498	1:1,931
358	Guardia	5,495	1:1,932
359	Baltazar	5,437	1:1,953
360	Zelaya	5,436	1:1,953
361	Guevara	5,432	1:1,954
362	Osinaga	5,416	1:1,960
363	Jurado	5,372	1:1,976
364	Farfan	5,363	1:1,980
365	Anez	5,345	1:1,986
366	Taborga	5,316	1:1,997
367	Landivar	5,308	1:2,000
368	Altamirano	5,300	1:2,003
369	Guerra	5,289	1:2,007
370	Plata	5,263	1:2,017
371	Calani	5,243	1:2,025
372	Carballo	5,198	1:2,042
373	Ayaviri	5,187	1:2,047
374	Corrales	5,175	1:2,051
375	Moron	5,165	1:2,055
376	Espejo	5,156	1:2,059
377	Rocabado	5,128	1:2,070
378	Michel	5,110	1:2,078
379	Coro	5,108	1:2,078
380	Pizarro	5,098	1:2,082
381	Navia	5,097	1:2,083
382	Tellez	5,076	1:2,091
383	Zubieta	5,012	1:2,118
384	Velez	5,009	1:2,119
385	Caba	5,005	1:2,121
386	Arandia	4,985	1:2,130
387	Cuevas	4,969	1:2,137
388	Ortuño	4,965	1:2,138
389	Aduviri	4,954	1:2,143
390	Palacios	4,869	1:2,180
391	Munoz	4,852	1:2,188
392	Siñani	4,806	1:2,209
393	Tomicha	4,772	1:2,225
394	Coaquira	4,763	1:2,229
395	Coria	4,762	1:2,229
396	Sirpa	4,758	1:2,231
396	Soleto	4,758	1:2,231
398	Oliva	4,739	1:2,240
399	Ordoñez	4,709	1:2,254
400	Chumacero	4,696	1:2,261
401	Almendras	4,692	1:2,263
402	Porcel	4,671	1:2,273
403	Janco	4,669	1:2,274
404	Olmos	4,650	1:2,283
405	Alcocer	4,612	1:2,302
406	Mendieta	4,601	1:2,307
407	Nava	4,598	1:2,309
408	Balboa	4,591	1:2,312
409	Lino	4,589	1:2,313
410	Cari	4,570	1:2,323
411	Oropeza	4,568	1:2,324
412	Sanabria	4,525	1:2,346
413	Layme	4,519	1:2,349
414	Sarmiento	4,503	1:2,358
415	Valda	4,488	1:2,366
416	Bustillos	4,487	1:2,366
417	Acuña	4,485	1:2,367
418	Ibanez	4,481	1:2,369
419	Valeriano	4,463	1:2,379
420	Solano	4,453	1:2,384
421	Patiño	4,423	1:2,400
422	Cadima	4,416	1:2,404
423	Acarapi	4,357	1:2,437
424	Viscarra	4,352	1:2,439
425	Llusco	4,351	1:2,440
426	Guillen	4,324	1:2,455
427	Yupanqui	4,320	1:2,458
428	Correa	4,312	1:2,462
429	Jordan	4,304	1:2,467
430	Montes	4,289	1:2,475
431	Taboada	4,286	1:2,477
432	Iriarte	4,275	1:2,483
433	Larico	4,261	1:2,492
434	Vicente	4,255	1:2,495
435	Yana	4,249	1:2,499
436	Luque	4,247	1:2,500
437	Ajhuacho	4,238	1:2,505
438	Sossa	4,216	1:2,518
439	Reynaga	4,213	1:2,520
440	Montoya	4,189	1:2,534
441	Tarifa	4,175	1:2,543
442	Espada	4,174	1:2,543
443	Lucana	4,164	1:2,550
444	Baldiviezo	4,159	1:2,553
445	Villagomez	4,149	1:2,559
446	Suxo	4,138	1:2,566
447	Hoyos	4,132	1:2,569
448	Aguayo	4,128	1:2,572
449	Solares	4,088	1:2,597
450	Llanque	4,057	1:2,617
451	Berrios	4,047	1:2,623
452	Moreira	4,043	1:2,626
453	Quintanilla	4,042	1:2,627
454	Viruez	4,033	1:2,632
455	Arredondo	4,020	1:2,641
455	Cusi	4,020	1:2,641
457	Campero	4,017	1:2,643
458	Lujan	4,015	1:2,644
459	Chuve	4,009	1:2,648
460	Lozano	3,957	1:2,683
461	Cerezo	3,951	1:2,687
462	Aldana	3,948	1:2,689
463	Aviles	3,939	1:2,695
464	Torrejon	3,921	1:2,708
465	Linares	3,920	1:2,708
466	Villalba	3,907	1:2,717
467	Ignacio	3,903	1:2,720
467	Pillco	3,903	1:2,720
469	Churqui	3,870	1:2,743
470	Huayta	3,868	1:2,745
471	Cervantes	3,861	1:2,750
472	Condo	3,858	1:2,752
473	Galindo	3,852	1:2,756
474	Pantoja	3,832	1:2,770
475	Quintana	3,830	1:2,772
476	Ayllon	3,809	1:2,787
477	Arenas	3,800	1:2,794
478	Ocampo	3,767	1:2,818
479	Cornejo	3,722	1:2,852
480	Quino	3,709	1:2,862
481	Santa Cruz	3,708	1:2,863
482	Avendaño	3,702	1:2,868
483	Macias	3,691	1:2,876
484	Tancara	3,685	1:2,881
485	Callau	3,659	1:2,901
486	Mamani Mamani	3,652	1:2,907
487	Tintaya	3,648	1:2,910
488	Cori	3,647	1:2,911
488	Montalvo	3,647	1:2,911
490	Bascope	3,640	1:2,917
491	Pinaya	3,635	1:2,921
492	Sarzuri	3,627	1:2,927
493	Alanes	3,605	1:2,945
494	Orozco	3,595	1:2,953
495	Acho	3,590	1:2,957
496	Mansilla	3,587	1:2,960
497	Rioja	3,586	1:2,961
498	Pari	3,585	1:2,961
499	Surubi	3,580	1:2,965
500	Panozo	3,576	1:2,969
501	Mollinedo	3,566	1:2,977
502	Huayhua	3,549	1:2,991
503	Gabriel	3,522	1:3,014
504	Caro	3,520	1:3,016
505	Gongora	3,512	1:3,023
506	Calcina	3,488	1:3,044
507	Humerez	3,485	1:3,046
508	Portillo	3,481	1:3,050
509	Enriquez	3,479	1:3,052
509	Moye	3,479	1:3,052
511	Burgoa	3,462	1:3,067
511	Paye	3,462	1:3,067
513	Alvis	3,444	1:3,083
514	Guachalla	3,438	1:3,088
515	Lizarazu	3,427	1:3,098
516	Mariaca	3,423	1:3,101
517	Segundo	3,406	1:3,117
518	Chiri	3,403	1:3,120
519	Bustos	3,384	1:3,137
520	Rea	3,378	1:3,143
521	Argote	3,367	1:3,153
522	Lovera	3,366	1:3,154
523	Portugal	3,344	1:3,175
524	Huanaco	3,340	1:3,179
525	Quispe Mamani	3,329	1:3,189
526	Cardona	3,320	1:3,198
527	Aranda	3,318	1:3,200
528	Churata	3,290	1:3,227
529	Barbery	3,275	1:3,242
530	Clemente	3,270	1:3,247
531	Valle	3,264	1:3,253
532	Galvez	3,257	1:3,260
533	Canedo	3,220	1:3,297
534	Monasterio	3,215	1:3,302
535	Alcoba	3,195	1:3,323
536	Azurduy	3,180	1:3,339
537	Palma	3,176	1:3,343
538	Zuñiga	3,137	1:3,384
539	Villavicencio	3,119	1:3,404
540	Saldaña	3,103	1:3,421
541	Clavijo	3,097	1:3,428
542	Challapa	3,077	1:3,450
543	Meneces	3,073	1:3,455
544	Surco	3,070	1:3,458
545	Mena	3,049	1:3,482
546	Jerez	3,024	1:3,511
547	Negrete	3,022	1:3,513
548	Llave	3,021	1:3,514
549	Santander	3,016	1:3,520
550	Espindola	3,014	1:3,522
551	Cachi	3,004	1:3,534
552	Barrera	3,000	1:3,539
553	Lobo	2,997	1:3,542
554	Benavides	2,989	1:3,552
555	Melendres	2,984	1:3,558
556	Leigue	2,967	1:3,578
557	Rada	2,962	1:3,584
558	Cazon	2,956	1:3,591
559	Abrego	2,951	1:3,598
560	Mojica	2,947	1:3,602
561	Chambilla	2,944	1:3,606
562	Acha	2,933	1:3,620
563	Monje	2,921	1:3,635
564	Ojopi	2,911	1:3,647
565	Cueto	2,905	1:3,655
566	Salguero	2,903	1:3,657
567	Algarañaz	2,894	1:3,668
568	Leaños	2,893	1:3,670
569	Cayoja	2,888	1:3,676
570	Barja	2,864	1:3,707
571	Peñaloza	2,858	1:3,715
572	Noza	2,857	1:3,716
573	Cutipa	2,856	1:3,717
574	Frias	2,855	1:3,719
575	Mamani Quispe	2,854	1:3,720
576	Butron	2,851	1:3,724
577	Baptista	2,846	1:3,730
578	Juaniquina	2,845	1:3,732
579	Ajata	2,840	1:3,738
580	Arana	2,830	1:3,751
580	Ramallo	2,830	1:3,751
582	Gamboa	2,829	1:3,753
583	Patty	2,825	1:3,758
584	Pereyra	2,817	1:3,769
585	Sarabia	2,815	1:3,771
586	Jaimes	2,810	1:3,778
587	Arze	2,807	1:3,782
588	Ballesteros	2,796	1:3,797
589	Antonio	2,781	1:3,817
590	Fajardo	2,777	1:3,823
591	Carbajal	2,772	1:3,830
592	Taquichiri	2,769	1:3,834
593	Barriga	2,763	1:3,842
594	Caero	2,748	1:3,863
595	Lafuente	2,737	1:3,879
596	Maturano	2,728	1:3,892
597	Sullca	2,727	1:3,893
598	Orihuela	2,725	1:3,896
598	Zuna	2,725	1:3,896
600	Maita	2,695	1:3,939
601	Verduguez	2,675	1:3,969
602	Tolaba	2,670	1:3,976
603	Casas	2,669	1:3,978
604	Muriel	2,656	1:3,997
605	Riveros	2,637	1:4,026
606	Arevalo	2,636	1:4,027
607	Calvimontes	2,634	1:4,031
607	Penaranda	2,634	1:4,031
609	Quezada	2,624	1:4,046
610	Toro	2,613	1:4,063
611	Calla	2,608	1:4,071
612	Felipe	2,600	1:4,083
613	Subirana	2,594	1:4,093
614	Cuentas	2,583	1:4,110
615	Cahuana	2,582	1:4,112
616	Arratia	2,574	1:4,124
617	Bolivar	2,568	1:4,134
618	Alegre	2,567	1:4,136
619	Ferreira	2,566	1:4,137
620	Godoy	2,557	1:4,152
621	Lijeron	2,553	1:4,158
622	Bellido	2,552	1:4,160
623	Lozada	2,543	1:4,175
624	Pesoa	2,540	1:4,180
625	Alpire	2,534	1:4,190
626	Lamas	2,527	1:4,201
627	Pimentel	2,516	1:4,220
628	Gonzalez	2,508	1:4,233
629	Llampa	2,499	1:4,248
630	Mora	2,474	1:4,291
631	Aro	2,473	1:4,293
631	Vergara	2,473	1:4,293
633	Cuenca	2,472	1:4,295
634	Mendizabal	2,469	1:4,300
634	Valenzuela	2,469	1:4,300
636	Centellas	2,459	1:4,317
637	Benitez	2,454	1:4,326
637	Cadena	2,454	1:4,326
639	Agreda	2,422	1:4,383
640	Almaraz	2,421	1:4,385
641	Paxi	2,420	1:4,387
642	Cala	2,413	1:4,400
643	Urquiza	2,405	1:4,414
644	Urquieta	2,402	1:4,420
645	Diez	2,401	1:4,422
646	Valero	2,391	1:4,440
647	Gamarra	2,389	1:4,444
648	Corani	2,385	1:4,451
649	Sanjinez	2,381	1:4,459
650	Luizaga	2,378	1:4,464
651	Monrroy	2,337	1:4,543
652	Rejas	2,336	1:4,545
653	Jorge	2,319	1:4,578
653	Sanjines	2,319	1:4,578
655	Alejandro	2,318	1:4,580
656	Jauregui	2,315	1:4,586
657	Lucas	2,306	1:4,604
657	Villarreal	2,306	1:4,604
659	Zamora	2,305	1:4,606
660	Ortuno	2,297	1:4,622
661	Figueredo	2,293	1:4,630
662	Tinta	2,291	1:4,634
663	Urzagaste	2,287	1:4,642
664	Sanguino	2,280	1:4,656
665	Lazo	2,279	1:4,658
666	Porco	2,276	1:4,665
667	Barboza	2,267	1:4,683
668	Bonilla	2,253	1:4,712
669	Esquivel	2,247	1:4,725
670	Rosado	2,244	1:4,731
671	Ayma	2,239	1:4,742
672	Ordonez	2,235	1:4,750
673	Tordoya	2,229	1:4,763
674	Zapana	2,223	1:4,776
675	Zamorano	2,222	1:4,778
676	Hilari	2,216	1:4,791
677	Oyola	2,203	1:4,819
678	Antequera	2,198	1:4,830
679	Vila	2,197	1:4,832
680	Mujica	2,195	1:4,837
681	Tenorio	2,189	1:4,850
682	Foronda	2,180	1:4,870
683	Matias	2,179	1:4,872
684	Viveros	2,177	1:4,877
685	Roda	2,168	1:4,897
686	Merlo	2,158	1:4,920
687	Condarco	2,155	1:4,926
688	Lazcano	2,150	1:4,938
689	Saca	2,148	1:4,942
690	Dias	2,147	1:4,945
690	Monasterios	2,147	1:4,945
692	Mamani Choque	2,142	1:4,956
693	Calvo	2,140	1:4,961
694	Chao	2,133	1:4,977
695	Plaza	2,128	1:4,989
696	Amaru	2,127	1:4,991
697	Quiñones	2,121	1:5,005
698	Almazan	2,115	1:5,020
699	Choque Mamani	2,114	1:5,022
700	Aban	2,111	1:5,029
701	Mostacedo	2,094	1:5,070
702	Limon	2,087	1:5,087
703	Chungara	2,082	1:5,099
704	Barreto	2,080	1:5,104
704	Catacora	2,080	1:5,104
706	Ferrel	2,074	1:5,119
707	Pedriel	2,066	1:5,139
708	Viza	2,061	1:5,151
709	Alaca	2,057	1:5,161
710	Alavi	2,041	1:5,202
711	Elias	2,037	1:5,212
712	Portales	2,036	1:5,214
713	Tejada	2,035	1:5,217
714	Machado	2,033	1:5,222
715	Checa	2,032	1:5,225
716	Barron	2,030	1:5,230
716	Geronimo	2,030	1:5,230
718	Echeverria	2,022	1:5,250
719	Viera	2,017	1:5,263
720	Hernandez	2,016	1:5,266
721	Rengifo	2,000	1:5,308
721	Semo	2,000	1:5,308
723	Venegas	1,998	1:5,314
724	Ricaldez	1,992	1:5,330
725	Carmona	1,990	1:5,335
726	Yabeta	1,989	1:5,338
727	Canqui	1,983	1:5,354
728	Sempertegui	1,979	1:5,365
729	Salgado	1,971	1:5,386
730	Onofre	1,968	1:5,395
731	Grageda	1,967	1:5,397
732	Crispin	1,966	1:5,400
733	Nicolas	1,965	1:5,403
733	Sipe	1,965	1:5,403
735	Pinedo	1,956	1:5,428
736	Amador	1,951	1:5,442
737	Arellano	1,946	1:5,456
738	Tarquino	1,944	1:5,461
739	Quispe Quispe	1,943	1:5,464
740	Lora	1,942	1:5,467
741	Saldias	1,938	1:5,478
742	Lazaro	1,932	1:5,495
743	Donaire	1,930	1:5,501
743	Fuertes	1,930	1:5,501
745	Pelaez	1,928	1:5,506
746	Perales	1,927	1:5,509
747	Borja	1,926	1:5,512
748	Segales	1,924	1:5,518
749	Echalar	1,923	1:5,521
750	Chui	1,913	1:5,550
751	Olguin	1,909	1:5,561
752	Tambo	1,901	1:5,585
753	Yepez	1,896	1:5,599
754	Ceron	1,895	1:5,602
755	Chirinos	1,890	1:5,617
755	Garzon	1,890	1:5,617
757	Portal	1,874	1:5,665
758	Pucho	1,866	1:5,689
759	Huaycho	1,865	1:5,692
760	Paraba	1,864	1:5,696
761	Trigo	1,857	1:5,717
762	Marcani	1,856	1:5,720
763	Saire	1,851	1:5,736
764	Raldes	1,848	1:5,745
765	Inturias	1,833	1:5,792
766	Vacaflor	1,832	1:5,795
767	Arrazola	1,821	1:5,830
768	Bruno	1,820	1:5,833
769	Huchani	1,818	1:5,840
769	Vilte	1,818	1:5,840
771	Choqueticlla	1,804	1:5,885
772	Romay	1,803	1:5,888
773	Carlo	1,799	1:5,901
774	Chinche	1,796	1:5,911
775	Huayllani	1,794	1:5,918
776	Julian	1,790	1:5,931
777	Otalora	1,786	1:5,944
778	Alave	1,783	1:5,954
779	Rafael	1,781	1:5,961
780	Toco	1,779	1:5,968
781	Severiche	1,778	1:5,971
781	Yampara	1,778	1:5,971
783	Aleman	1,773	1:5,988
784	Carpio	1,769	1:6,001
784	Uriona	1,769	1:6,001
786	Farell	1,766	1:6,012
787	Armella	1,761	1:6,029
788	Tirado	1,755	1:6,049
789	Alegria	1,754	1:6,053
790	Inca	1,751	1:6,063
791	Cussi	1,748	1:6,073
792	Araoz	1,741	1:6,098
792	Noe	1,741	1:6,098
792	Temo	1,741	1:6,098
795	Alvares	1,740	1:6,101
795	Ulloa	1,740	1:6,101
797	Calamani	1,738	1:6,108
798	Villarpando	1,734	1:6,123
799	Parraga	1,732	1:6,130
800	Gandarillas	1,730	1:6,137
801	Condori Mamani	1,727	1:6,147
802	Mamani Condori	1,725	1:6,154
803	Osco	1,722	1:6,165
804	Barrero	1,719	1:6,176
805	Quevedo	1,717	1:6,183
806	Yave	1,705	1:6,227
807	Cabero	1,704	1:6,230
808	Salamanca	1,701	1:6,241
809	Polo	1,699	1:6,249
810	Villalobos	1,698	1:6,252
811	Muiba	1,690	1:6,282
812	Huaranca	1,689	1:6,286
813	Montalvan	1,683	1:6,308
814	Sanga	1,678	1:6,327
815	Yugar	1,677	1:6,331
816	Huarayo	1,666	1:6,372
817	Bohorquez	1,665	1:6,376
818	Marza	1,659	1:6,399
819	Albino	1,658	1:6,403
819	Laruta	1,658	1:6,403
821	Arcienega	1,651	1:6,430
821	Oporto	1,651	1:6,430
821	Pareja	1,651	1:6,430
824	Maraza	1,647	1:6,446
825	Pessoa	1,643	1:6,462
826	Murga	1,641	1:6,469
827	Jancko	1,631	1:6,509
827	Melgarejo	1,631	1:6,509
829	Barra	1,630	1:6,513
830	Cabral	1,628	1:6,521
831	Irahola	1,627	1:6,525
832	Tardio	1,626	1:6,529
833	Sinani	1,625	1:6,533
834	Masabi	1,622	1:6,545
835	Patino	1,621	1:6,549
836	Pachuri	1,618	1:6,561
837	Baldivieso	1,613	1:6,582
838	Peinado	1,606	1:6,610
839	Quena	1,603	1:6,623
840	Casanova	1,599	1:6,639
841	Alanez	1,594	1:6,660
841	Galean	1,594	1:6,660
843	Charca	1,593	1:6,664
844	Yovio	1,592	1:6,669
845	Achacollo	1,589	1:6,681
846	Algaranaz	1,588	1:6,685
846	Callata	1,588	1:6,685
846	Choquecallata	1,588	1:6,685
849	Rollano	1,585	1:6,698
850	Salcedo	1,582	1:6,711
851	Maraz	1,576	1:6,736
852	Zuleta	1,573	1:6,749
853	Tumiri	1,572	1:6,753
854	Lipa	1,569	1:6,766
855	Carlos	1,568	1:6,771
856	Oblitas	1,565	1:6,784
857	Juchani	1,564	1:6,788
858	Anagua	1,563	1:6,792
859	Tangara	1,552	1:6,840
860	Marzana	1,551	1:6,845
861	Argandoña	1,544	1:6,876
862	Vaca Diez	1,542	1:6,885
863	Brito	1,539	1:6,898
864	Chore	1,533	1:6,925
865	Garrido	1,531	1:6,934
866	Baldelomar	1,529	1:6,943
867	Languidey	1,525	1:6,962
868	Cosme	1,524	1:6,966
869	Manzaneda	1,521	1:6,980
869	Yuco	1,521	1:6,980
871	Ari	1,516	1:7,003
871	Costas	1,516	1:7,003
873	Uribe	1,509	1:7,035
874	Garron	1,507	1:7,045
875	Urquizu	1,506	1:7,049
876	Urquidi	1,502	1:7,068
876	Yañez	1,502	1:7,068
878	Manuel	1,498	1:7,087
879	Alcazar	1,493	1:7,111
879	Salvador	1,493	1:7,111
881	Troncoso	1,492	1:7,116
882	Via	1,491	1:7,120
883	Maydana	1,490	1:7,125
884	Estevez	1,489	1:7,130
885	Aldunate	1,485	1:7,149
885	del Castillo	1,485	1:7,149
887	Leanos	1,479	1:7,178
887	Ricaldi	1,479	1:7,178
889	Marquina	1,477	1:7,188
890	Galvis	1,473	1:7,207
891	Lizarraga	1,471	1:7,217
892	Prieto	1,470	1:7,222
893	Mamani Flores	1,468	1:7,232
893	Merino	1,468	1:7,232
893	Pabon	1,468	1:7,232
896	Reque	1,467	1:7,237
897	Cabello	1,466	1:7,242
898	Saigua	1,463	1:7,257
899	Barco	1,461	1:7,267
900	Lanza	1,456	1:7,292
901	Coarite	1,455	1:7,297
902	Sonco	1,453	1:7,307
903	Serrate	1,452	1:7,312
904	Guaman	1,451	1:7,317
905	Fabian	1,450	1:7,322
905	Narvaez	1,450	1:7,322
907	Adrian	1,449	1:7,327
908	Paton	1,439	1:7,378
909	Troche	1,437	1:7,388
910	Cahuaya	1,436	1:7,393
911	Arauco	1,432	1:7,414