1	Müller	72,878	1:113
2	Meier	51,680	1:159
3	Schmid	44,839	1:183
4	Keller	34,846	1:236
5	Weber	30,341	1:271
6	Schneider	27,417	1:300
7	Huber	26,691	1:308
8	Meyer	26,490	1:310
9	Steiner	23,970	1:343
10	Fischer	22,097	1:372
11	Baumann	20,907	1:393
12	Frei	20,872	1:393
13	Brunner	20,861	1:394
14	Gerber	20,402	1:403
15	Widmer	20,128	1:408
16	Zimmermann	19,551	1:420
17	Moser	19,206	1:428
18	Graf	18,175	1:452
19	Wyss	17,980	1:457
20	Roth	16,536	1:497
21	Suter	16,208	1:507
22	Baumgartner	15,558	1:528
23	Bachmann	15,482	1:530
24	Studer	15,075	1:545
25	Bucher	14,674	1:560
26	Berger	14,499	1:566
27	Kaufmann	14,473	1:567
28	Kunz	14,040	1:585
29	Hofer	13,357	1:615
30	Bühler	12,899	1:637
31	Lüthi	12,674	1:648
32	Lehmann	12,605	1:652
33	Marti	12,520	1:656
34	Frey	12,384	1:663
35	Christen	12,226	1:672
36	Koch	11,800	1:696
37	Egli	11,073	1:742
38	Favre	10,820	1:759
39	Arnold	10,673	1:770
40	Pfister	10,648	1:771
41	Schweizer	10,319	1:796
42	Wüthrich	10,184	1:806
43	Fuchs	10,074	1:815
44	Martin	9,954	1:825
45	Stalder	9,921	1:828
46	Gasser	9,851	1:834
47	Peter	9,837	1:835
48	Kohler	9,768	1:841
49	Maurer	9,757	1:842
50	Koller	9,702	1:847
51	Wenger	9,634	1:852
52	Zürcher	9,586	1:857
53	Burri	9,357	1:878
54	Furrer	9,171	1:896
55	Egger	9,127	1:900
56	Hofmann	9,122	1:900
57	Michel	8,951	1:918
58	Hunziker	8,930	1:920
59	Leuenberger	8,921	1:921
60	Bieri	8,789	1:934
61	Ammann	8,672	1:947
62	Vogel	8,470	1:970
63	Hug	8,466	1:970
64	Hess	8,368	1:981
65	Tanner	8,204	1:1,001
66	Sutter	8,196	1:1,002
67	Hauser	8,171	1:1,005
68	Blaser	8,116	1:1,012
69	Rüegg	8,060	1:1,019
70	Hartmann	7,680	1:1,069
71	Schuler	7,486	1:1,097
72	Rey	7,351	1:1,117
72	Wagner	7,351	1:1,117
74	Gisler	7,283	1:1,128
75	Senn	7,280	1:1,128
76	Zbinden	7,255	1:1,132
77	Kälin	7,212	1:1,139
78	Schär	7,125	1:1,153
79	Siegenthaler	7,060	1:1,163
80	Scherrer	7,033	1:1,168
81	Flückiger	6,996	1:1,174
82	Lang	6,866	1:1,196
83	Zaugg	6,787	1:1,210
84	Fankhauser	6,719	1:1,222
85	Stucki	6,672	1:1,231
86	Kuhn	6,565	1:1,251
87	Imhof	6,545	1:1,255
88	Vogt	6,531	1:1,258
89	Bernasconi	6,511	1:1,261
90	Scheidegger	6,462	1:1,271
91	Odermatt	6,436	1:1,276
92	Portmann	6,402	1:1,283
93	Küng	6,386	1:1,286
94	Sommer	6,370	1:1,289
95	Seiler	6,310	1:1,302
96	Ackermann	6,298	1:1,304
97	Liechti	6,264	1:1,311
98	Jost	6,241	1:1,316
99	Schmidt	6,217	1:1,321
100	Schumacher	6,142	1:1,337
101	Schärer	6,117	1:1,343
102	Schwarz	6,050	1:1,358
103	Stocker	6,044	1:1,359
104	Staub	6,038	1:1,360
105	Giger	6,027	1:1,363
106	Hasler	5,998	1:1,369
107	Rochat	5,995	1:1,370
108	Schenk	5,994	1:1,370
109	Lüscher	5,835	1:1,408
110	Weiss	5,760	1:1,426
111	Gloor	5,735	1:1,432
112	Herzog	5,713	1:1,438
113	Hofstetter	5,710	1:1,438
114	Schwab	5,678	1:1,446
115	Zehnder	5,659	1:1,451
116	Stutz	5,648	1:1,454
117	Pittet	5,575	1:1,473
118	Rohner	5,534	1:1,484
119	Weibel	5,527	1:1,486
120	Schnyder	5,491	1:1,496
121	Bosshard	5,461	1:1,504
122	Wittwer	5,436	1:1,511
123	Eichenberger	5,430	1:1,513
124	Steiger	5,343	1:1,537
125	Haas	5,282	1:1,555
126	Schaller	5,277	1:1,556
127	Stadelmann	5,256	1:1,563
128	Rohrer	5,198	1:1,580
129	Stettler	5,192	1:1,582
130	Bolliger	5,140	1:1,598
131	Stöckli	5,121	1:1,604
132	Tobler	5,112	1:1,607
133	Siegrist	5,093	1:1,613
134	Sieber	5,092	1:1,613
135	Wolf	5,062	1:1,622
136	Sigrist	5,056	1:1,624
137	Meister	5,051	1:1,626
138	Marty	5,036	1:1,631
139	Ulrich	5,018	1:1,637
140	Lutz	4,952	1:1,659
141	Lanz	4,945	1:1,661
142	Blanc	4,943	1:1,662
143	Röthlisberger	4,942	1:1,662
144	Grob	4,897	1:1,677
145	Kaiser	4,893	1:1,679
146	Steffen	4,849	1:1,694
147	Betschart	4,843	1:1,696
148	Locher	4,841	1:1,697
149	Beck	4,839	1:1,697
150	Aeschlimann	4,807	1:1,709
151	Blum	4,799	1:1,711
152	Bühlmann	4,795	1:1,713
153	Probst	4,782	1:1,717
154	Mathys	4,774	1:1,720
155	Rossi	4,773	1:1,721
156	Schmutz	4,759	1:1,726
157	Kessler	4,725	1:1,738
158	Kuster	4,711	1:1,743
159	Häfliger	4,688	1:1,752
160	Muller	4,672	1:1,758
161	Steinmann	4,664	1:1,761
162	Stauffer	4,648	1:1,767
163	Haller	4,639	1:1,770
164	Graber	4,607	1:1,783
165	Krebs	4,574	1:1,796
166	Walker	4,571	1:1,797
167	Ziegler	4,539	1:1,809
168	Nussbaumer	4,509	1:1,821
169	Benz	4,491	1:1,829
170	Jenni	4,472	1:1,837
171	Friedli	4,458	1:1,842
172	Käser	4,430	1:1,854
173	Bischof	4,378	1:1,876
174	Fässler	4,361	1:1,883
175	Aebi	4,347	1:1,889
175	Hostettler	4,347	1:1,889
177	Richard	4,336	1:1,894
178	Hürlimann	4,317	1:1,902
179	Zwahlen	4,316	1:1,903
180	Knecht	4,304	1:1,908
180	Schaub	4,304	1:1,908
182	Wehrli	4,298	1:1,911
183	Eugster	4,297	1:1,911
184	Mäder	4,282	1:1,918
185	Walther	4,281	1:1,918
186	Ott	4,240	1:1,937
187	Flury	4,232	1:1,941
188	Brügger	4,226	1:1,943
189	Rossier	4,225	1:1,944
190	Willi	4,223	1:1,945
191	Erni	4,201	1:1,955
192	Ryser	4,188	1:1,961
193	Gut	4,152	1:1,978
193	Wicki	4,152	1:1,978
195	Reber	4,133	1:1,987
196	Merz	4,107	1:2,000
197	Thalmann	4,094	1:2,006
198	Mettler	4,071	1:2,017
199	Wirth	4,067	1:2,019
200	Iten	4,064	1:2,021
201	Garcia	4,062	1:2,022
202	Heiniger	4,038	1:2,034
203	Glauser	4,026	1:2,040
204	Schütz	3,973	1:2,067
205	Niederberger	3,970	1:2,069
206	Bürgi	3,954	1:2,077
207	Mathis	3,951	1:2,079
208	Schüpbach	3,933	1:2,088
209	Forster	3,928	1:2,091
210	Wirz	3,923	1:2,094
211	Bigler	3,890	1:2,111
212	Clerc	3,889	1:2,112
213	Achermann	3,886	1:2,113
214	Gross	3,864	1:2,125
215	Frischknecht	3,849	1:2,134
216	Zingg	3,844	1:2,137
217	Etter	3,824	1:2,148
218	Jäggi	3,820	1:2,150
219	Bösch	3,819	1:2,151
220	Braun	3,813	1:2,154
221	Ferrari	3,782	1:2,172
222	Balmer	3,776	1:2,175
223	Schlegel	3,773	1:2,177
224	Trachsel	3,772	1:2,177
224	Walter	3,772	1:2,177
226	Allemann	3,771	1:2,178
227	Kern	3,765	1:2,181
227	Walser	3,765	1:2,181
229	Jakob	3,763	1:2,183
230	Fehr	3,735	1:2,199
231	Bianchi	3,723	1:2,206
232	Schoch	3,718	1:2,209
233	von Arx	3,714	1:2,211
234	Bürki	3,711	1:2,213
234	Geiser	3,711	1:2,213
236	Gfeller	3,709	1:2,214
237	Iseli	3,705	1:2,217
238	Sidler	3,689	1:2,226
238	Zeller	3,689	1:2,226
240	Bader	3,687	1:2,228
241	Ritter	3,661	1:2,243
242	Leu	3,644	1:2,254
243	Reymond	3,640	1:2,256
244	Amstutz	3,634	1:2,260
245	Landolt	3,631	1:2,262
246	da Silva	3,628	1:2,264
247	Stadler	3,624	1:2,266
248	Felder	3,621	1:2,268
249	Hänni	3,618	1:2,270
250	Tschanz	3,613	1:2,273
251	Eberle	3,608	1:2,276
252	Bärtschi	3,598	1:2,283
253	Näf	3,597	1:2,283
254	Germann	3,586	1:2,290
255	Schönenberger	3,582	1:2,293
256	Wild	3,569	1:2,301
257	Birrer	3,568	1:2,302
258	Monney	3,564	1:2,304
259	Ernst	3,558	1:2,308
260	Emmenegger	3,544	1:2,317
261	Hodel	3,539	1:2,321
262	Minder	3,527	1:2,329
263	Affolter	3,523	1:2,331
264	Eggenberger	3,522	1:2,332
265	Zemp	3,487	1:2,355
266	Winkler	3,478	1:2,361
267	Isler	3,472	1:2,365
268	Wälti	3,468	1:2,368
269	Messerli	3,458	1:2,375
270	Wiederkehr	3,448	1:2,382
271	Burkhalter	3,442	1:2,386
272	Sonderegger	3,436	1:2,390
273	Neuenschwander	3,431	1:2,394
274	Brand	3,427	1:2,397
275	Brun	3,426	1:2,397
276	Herrmann	3,413	1:2,406
277	Baur	3,410	1:2,408
278	Hirschi	3,409	1:2,409
279	Dubois	3,408	1:2,410
280	Schlatter	3,407	1:2,411
281	Krähenbühl	3,402	1:2,414
281	Perrin	3,402	1:2,414
283	Maillard	3,389	1:2,423
284	Grossenbacher	3,387	1:2,425
285	Jenny	3,383	1:2,428
285	Zuber	3,383	1:2,428
287	Schneeberger	3,361	1:2,444
288	Aebischer	3,340	1:2,459
289	Mosimann	3,338	1:2,460
290	Linder	3,333	1:2,464
291	Beyeler	3,311	1:2,480
292	Fontana	3,298	1:2,490
293	Perret	3,297	1:2,491
294	Rieder	3,257	1:2,522
295	Gehrig	3,256	1:2,522
295	Stähli	3,256	1:2,522
297	Hutter	3,235	1:2,539
298	Buser	3,211	1:2,558
299	Miller	3,210	1:2,559
300	Thoma	3,209	1:2,559
301	Chappuis	3,204	1:2,563
302	Meylan	3,197	1:2,569
303	Strebel	3,195	1:2,571
304	Blatter	3,193	1:2,572
305	Dietrich	3,175	1:2,587
306	Amrein	3,173	1:2,588
306	Burger	3,173	1:2,588
308	Matter	3,172	1:2,589
309	Wettstein	3,163	1:2,597
310	Jäger	3,161	1:2,598
311	Oberholzer	3,152	1:2,606
312	Lustenberger	3,138	1:2,617
313	Grandjean	3,136	1:2,619
314	Lötscher	3,131	1:2,623
315	Züger	3,129	1:2,625
316	Roos	3,128	1:2,626
317	Jordan	3,121	1:2,632
318	Schläpfer	3,112	1:2,639
319	Jud	3,104	1:2,646
320	von Allmen	3,096	1:2,653
321	Fernandez	3,078	1:2,668
322	Oppliger	3,069	1:2,676
323	Chevalley	3,051	1:2,692
324	Rodriguez	3,042	1:2,700
325	Hirt	3,039	1:2,703
325	Schaffner	3,039	1:2,703
327	Borer	3,038	1:2,703
327	Hermann	3,038	1:2,703
329	Jordi	3,020	1:2,720
329	Manser	3,020	1:2,720
331	Salzmann	3,017	1:2,722
332	Blättler	3,014	1:2,725
333	Bättig	2,988	1:2,749
334	Genoud	2,983	1:2,753
334	König	2,983	1:2,753
336	Villiger	2,976	1:2,760
337	Fuhrer	2,973	1:2,763
338	Tschopp	2,960	1:2,775
338	Waser	2,960	1:2,775
340	Kummer	2,949	1:2,785
341	Pereira	2,935	1:2,798
342	Scherer	2,931	1:2,802
343	Vonlanthen	2,930	1:2,803
344	Neuhaus	2,924	1:2,809
345	Gubler	2,921	1:2,812
346	Herren	2,919	1:2,814
346	Loosli	2,919	1:2,814
348	Anderegg	2,910	1:2,822
349	Kramer	2,909	1:2,823
350	Burkhard	2,904	1:2,828
351	Ferreira	2,901	1:2,831
352	Bauer	2,897	1:2,835
352	Schenker	2,897	1:2,835
354	Signer	2,890	1:2,842
355	Honegger	2,881	1:2,851
356	Bernhard	2,876	1:2,856
357	Imboden	2,871	1:2,861
358	Zollinger	2,867	1:2,865
359	Albrecht	2,861	1:2,871
359	Maier	2,861	1:2,871
361	Bonvin	2,846	1:2,886
362	Schürch	2,844	1:2,888
363	Fournier	2,842	1:2,890
364	Beer	2,840	1:2,892
365	Kolly	2,829	1:2,903
366	Habegger	2,824	1:2,908
366	Mächler	2,824	1:2,908
368	Magnin	2,823	1:2,909
369	Maag	2,816	1:2,917
370	Heller	2,812	1:2,921
371	Moret	2,805	1:2,928
372	Mayer	2,787	1:2,947
373	Simon	2,776	1:2,959
374	Renggli	2,773	1:2,962
375	Streit	2,764	1:2,971
376	Zimmerli	2,762	1:2,974
377	Hänggi	2,759	1:2,977
378	Gaillard	2,757	1:2,979
379	Camenzind	2,754	1:2,982
379	Gruber	2,754	1:2,982
381	Fahrni	2,743	1:2,994
381	Matthey	2,743	1:2,994
383	Berchtold	2,733	1:3,005
384	Hefti	2,721	1:3,018
385	Gmür	2,719	1:3,021
386	Jaquet	2,718	1:3,022
387	Gautschi	2,717	1:3,023
388	Rechsteiner	2,704	1:3,037
389	Hediger	2,703	1:3,038
390	Kocher	2,701	1:3,041
391	Zufferey	2,696	1:3,046
392	Oswald	2,690	1:3,053
393	Rutz	2,684	1:3,060
394	Grimm	2,683	1:3,061
394	Nguyen	2,683	1:3,061
394	Thommen	2,683	1:3,061
397	Buchs	2,679	1:3,066
398	Plüss	2,677	1:3,068
399	Diethelm	2,676	1:3,069
400	Reinhard	2,675	1:3,070
401	Bernet	2,660	1:3,088
402	Künzli	2,650	1:3,099
403	Ramseier	2,645	1:3,105
404	Hafner	2,638	1:3,113
405	Brönnimann	2,637	1:3,114
405	Wernli	2,637	1:3,114
407	Lehner	2,635	1:3,117
407	Vögeli	2,635	1:3,117
409	Ingold	2,629	1:3,124
410	Durrer	2,625	1:3,129
411	Barras	2,620	1:3,135
412	Oberson	2,611	1:3,146
413	Stoll	2,608	1:3,149
414	Eicher	2,607	1:3,150
415	Frank	2,596	1:3,164
415	Ruch	2,596	1:3,164
417	Riesen	2,585	1:3,177
418	Jeanneret	2,576	1:3,188
419	Naef	2,565	1:3,202
420	Kägi	2,564	1:3,203
421	Binggeli	2,559	1:3,209
421	Lopez	2,559	1:3,209
421	Wanner	2,559	1:3,209
424	Luginbühl	2,557	1:3,212
424	Wüst	2,557	1:3,212
426	Felber	2,555	1:3,214
427	Nicolet	2,552	1:3,218
428	Jung	2,547	1:3,225
429	Fleury	2,543	1:3,230
430	Lauber	2,529	1:3,247
431	Bär	2,526	1:3,251
432	Hollenstein	2,515	1:3,266
433	Galli	2,497	1:3,289
434	Niederhauser	2,483	1:3,308
435	Schneiter	2,482	1:3,309
436	Schmidlin	2,481	1:3,310
437	Maeder	2,475	1:3,318
437	Nydegger	2,475	1:3,318
439	Hitz	2,473	1:3,321
440	Clément	2,467	1:3,329
440	Hauri	2,467	1:3,329
442	Hoffmann	2,458	1:3,341
443	Vetsch	2,449	1:3,354
444	Sturzenegger	2,447	1:3,356
445	Kurmann	2,446	1:3,358
446	Gonzalez	2,443	1:3,362
446	Schindler	2,443	1:3,362
448	Obrist	2,437	1:3,370
448	Robert	2,437	1:3,370
450	Krummenacher	2,433	1:3,376
451	Aschwanden	2,431	1:3,378
452	Geiger	2,428	1:3,383
453	Morel	2,423	1:3,390
454	Huser	2,421	1:3,392
455	Pasche	2,419	1:3,395
456	Künzler	2,418	1:3,397
457	Dubach	2,412	1:3,405
458	Nussbaum	2,411	1:3,406
459	Niederer	2,407	1:3,412
460	Rohr	2,400	1:3,422
461	Duc	2,393	1:3,432
462	Metzger	2,392	1:3,433
463	Hügli	2,377	1:3,455
464	Nyffenegger	2,376	1:3,457
465	Martinez	2,374	1:3,460
466	Rüttimann	2,373	1:3,461
467	Frick	2,371	1:3,464
467	Reichmuth	2,371	1:3,464
469	Beutler	2,353	1:3,490
470	Wiedmer	2,348	1:3,498
471	Kistler	2,346	1:3,501
472	Zweifel	2,344	1:3,504
473	Spring	2,339	1:3,511
474	Zahnd	2,331	1:3,523
475	Wegmüller	2,328	1:3,528
476	Heer	2,317	1:3,545
477	Lerch	2,312	1:3,552
478	Jaggi	2,311	1:3,554
479	Aeberhard	2,310	1:3,555
480	Fritschi	2,304	1:3,565
481	Mueller	2,302	1:3,568
482	Andrey	2,297	1:3,575
483	Berset	2,296	1:3,577
484	Forrer	2,295	1:3,579
485	Hochstrasser	2,288	1:3,590
486	Hohl	2,285	1:3,594
487	Muff	2,283	1:3,597
487	Wegmann	2,283	1:3,597
489	Meili	2,281	1:3,601
490	Hotz	2,278	1:3,605
491	Kissling	2,274	1:3,612
492	Schäfer	2,267	1:3,623
493	Lienhard	2,259	1:3,636
494	Egloff	2,258	1:3,637
494	Schnider	2,258	1:3,637
496	Gysin	2,256	1:3,640
497	Moor	2,252	1:3,647
498	Hurni	2,251	1:3,649
498	Russo	2,251	1:3,649
498	Werner	2,251	1:3,649
501	Theiler	2,250	1:3,650
502	Helbling	2,246	1:3,657
503	Gabriel	2,245	1:3,658
504	Monnier	2,242	1:3,663
505	Gassmann	2,240	1:3,666
506	Gremaud	2,239	1:3,668
507	Mayor	2,236	1:3,673
508	Zellweger	2,233	1:3,678
509	Kappeler	2,232	1:3,680
510	Weidmann	2,229	1:3,685
511	Perez	2,227	1:3,688
512	Holzer	2,226	1:3,690
513	Ruckstuhl	2,224	1:3,693
514	Boss	2,221	1:3,698
514	Eigenmann	2,221	1:3,698
516	Gurtner	2,218	1:3,703
517	Mühlemann	2,214	1:3,710
518	Eggimann	2,212	1:3,713
518	Schaad	2,212	1:3,713
520	Stampfli	2,206	1:3,723
521	Lauper	2,204	1:3,726
522	Eberhard	2,199	1:3,735
523	Büchi	2,197	1:3,738
524	Froidevaux	2,188	1:3,754
525	Strub	2,185	1:3,759
526	Besson	2,179	1:3,769
526	Walder	2,179	1:3,769
528	Alder	2,178	1:3,771
529	Zgraggen	2,174	1:3,778
530	Gantenbein	2,173	1:3,780
531	Emery	2,172	1:3,781
532	Brändli	2,171	1:3,783
533	Grüter	2,167	1:3,790
534	Brändle	2,166	1:3,792
535	Rutishauser	2,165	1:3,793
536	dos Santos	2,164	1:3,795
537	Halter	2,162	1:3,799
538	Rohrbach	2,161	1:3,801
539	Stäheli	2,157	1:3,808
540	Rüfenacht	2,137	1:3,843
541	Baeriswyl	2,136	1:3,845
542	Straub	2,132	1:3,852
543	Huwiler	2,129	1:3,858
544	Pasquier	2,124	1:3,867
545	Gygax	2,120	1:3,874
546	Spörri	2,117	1:3,880
547	Demierre	2,115	1:3,883
547	Kühne	2,115	1:3,883
549	Ruf	2,114	1:3,885
550	Bourquin	2,111	1:3,891
551	Engel	2,110	1:3,892
552	Roulin	2,101	1:3,909
553	Good	2,097	1:3,917
554	Ochsner	2,091	1:3,928
555	Chassot	2,087	1:3,935
556	Aeschbacher	2,084	1:3,941
557	Büchler	2,083	1:3,943
558	Brechbühl	2,069	1:3,970
559	Costa	2,067	1:3,973
559	Zihlmann	2,067	1:3,973
561	Aubert	2,055	1:3,997
562	Gwerder	2,053	1:4,000
562	Spiess	2,053	1:4,000
564	Aregger	2,052	1:4,002
565	Herger	2,047	1:4,012
566	Barmettler	2,046	1:4,014
567	Künzi	2,045	1:4,016
567	Mauron	2,045	1:4,016
569	Burgener	2,042	1:4,022
570	Bloch	2,037	1:4,032
570	Schwegler	2,037	1:4,032
572	Gilgen	2,029	1:4,048
573	Savary	2,028	1:4,050
574	Thomann	2,026	1:4,054
575	Inauen	2,022	1:4,062
576	Rudin	2,018	1:4,070
577	Flück	2,017	1:4,072
578	Urech	2,005	1:4,096
579	Fluri	2,004	1:4,098
580	Hagmann	2,003	1:4,100
580	Oesch	2,003	1:4,100
582	Guggisberg	2,002	1:4,102
582	Wälchli	2,002	1:4,102
584	Rodrigues	1,999	1:4,109
584	Rosset	1,999	1:4,109
586	Künzle	1,995	1:4,117
587	Binder	1,990	1:4,127
588	Joss	1,987	1:4,133
588	Sauter	1,987	1:4,133
590	Wüest	1,986	1:4,135
591	Brugger	1,985	1:4,137
592	Heeb	1,984	1:4,140
593	Rupp	1,979	1:4,150
594	Stamm	1,978	1:4,152
595	Troxler	1,964	1:4,182
596	Derungs	1,961	1:4,188
597	Pauli	1,957	1:4,197
598	Rentsch	1,956	1:4,199
599	Häberli	1,955	1:4,201
600	Grütter	1,950	1:4,212
600	Rouiller	1,950	1:4,212
602	Morf	1,945	1:4,223
603	Keiser	1,943	1:4,227
603	Lüdi	1,943	1:4,227
605	Bertschi	1,940	1:4,233
606	Girard	1,938	1:4,238
606	Grand	1,938	1:4,238
608	Fernandes	1,936	1:4,242
608	Wilhelm	1,936	1:4,242
610	Kopp	1,934	1:4,247
610	Vollenweider	1,934	1:4,247
612	Golay	1,932	1:4,251
613	Gschwend	1,931	1:4,253
614	Bichsel	1,929	1:4,258
615	Burkhardt	1,926	1:4,264
616	Jungo	1,924	1:4,269
617	Beeler	1,921	1:4,275
618	Zumstein	1,920	1:4,278
619	Boillat	1,919	1:4,280
620	Dörig	1,914	1:4,291