1	Kone	852,689	1:27
2	Ouattara	774,207	1:30
3	Kouassi	736,413	1:31
4	Koffi	709,366	1:33
5	Kouadio	653,383	1:35
6	Kouame	642,006	1:36
7	Yao	628,972	1:37
8	Coulibaly	612,470	1:38
9	Kouakou	586,866	1:39
10	Konan	517,172	1:45
11	N'Guessan	407,996	1:57
12	Traore	372,695	1:62
13	Soro	324,040	1:71
14	Bamba	294,387	1:78
15	Toure	248,675	1:93
16	Fofana	233,415	1:99
17	Yeo	206,999	1:111
18	Diomande	195,860	1:118
19	Konate	182,838	1:126
20	Silue	153,235	1:151
21	Doumbia	152,022	1:152
22	Brou	136,274	1:169
23	N'Dri	133,829	1:172
24	Sanogo	124,571	1:185
25	Cisse	112,672	1:205
26	Hien	107,106	1:215
27	Diarrassouba	101,346	1:228
28	Dosso	101,324	1:228
29	N'Goran	99,186	1:233
30	Sangare	96,057	1:240
31	Soumahoro	95,892	1:241
32	Bakayoko	95,088	1:243
33	Aka	91,382	1:252
34	Amani	80,478	1:287
35	Sylla	80,464	1:287
36	Kra	78,873	1:293
37	Kambou	77,017	1:300
38	Diabate	75,788	1:304
39	Dah	72,826	1:317
40	Tuo	71,447	1:323
41	Kamagate	70,325	1:328
42	Camara	70,321	1:328
43	Oulai	66,099	1:349
44	Dje	63,245	1:365
45	Sidibe	62,219	1:371
46	Adou	56,628	1:407
47	Sekongo	56,416	1:409
48	Irie	54,016	1:427
49	Yapo	53,960	1:428
50	Pale	53,674	1:430
51	Kanga	52,993	1:435
52	Yapi	52,617	1:438
53	Kambire	52,463	1:440
54	Guei	52,066	1:443
55	N'Da	51,152	1:451
56	Keita	50,138	1:460
57	Diarra	47,768	1:483
58	Diakite	47,544	1:485
59	Gueu	45,211	1:510
60	Tra	45,124	1:511
61	Tanoh	42,590	1:542
62	Diallo	42,431	1:544
63	Tano	41,208	1:560
64	Assi	39,017	1:591
65	Karamoko	37,460	1:616
66	Bah	36,517	1:632
67	Yoboue	36,447	1:633
68	Diaby	36,332	1:635
69	Mamadou	36,132	1:639
70	N'Zi	35,597	1:648
71	Seri	34,766	1:664
72	Ble	34,634	1:666
73	Kacou	34,627	1:666
74	Dembele	33,701	1:685
75	Tape	32,957	1:700
76	Dagnogo	32,915	1:701
77	Koua	31,993	1:721
78	Tia	31,503	1:732
79	Komenan	31,233	1:739
80	Meite	31,202	1:739
81	Kassi	30,810	1:749
82	Loukou	30,462	1:757
83	Diby	30,273	1:762
84	N'Cho	30,146	1:765
85	Fanny	29,984	1:769
86	Zamble	29,272	1:788
87	Ballo	28,790	1:801
88	Kobenan	28,551	1:808
89	Dao	27,803	1:830
90	Seka	27,524	1:838
91	Kakou	26,328	1:876
92	Sery	25,084	1:920
93	Dago	25,043	1:921
94	Beugre	24,544	1:940
95	Kouman	24,176	1:954
96	Diabagate	24,087	1:958
97	Djaha	23,979	1:962
98	Diarassouba	23,918	1:965
99	Alla	23,533	1:980
100	Adama	23,516	1:981
101	Kpan	22,275	1:1,036
102	Guehi	22,119	1:1,043
103	Atse	21,944	1:1,051
104	Noufe	21,687	1:1,064
105	Amon	21,619	1:1,067
106	Kouao	21,565	1:1,070
107	Boni	21,387	1:1,079
108	Zadi	21,094	1:1,094
109	Doh	20,916	1:1,103
110	Dion	20,914	1:1,103
111	Moussa	20,849	1:1,107
112	Ake	20,558	1:1,122
113	Allou	19,632	1:1,175
114	Som	19,396	1:1,189
115	Bohoussou	18,991	1:1,215
115	Sea	18,991	1:1,215
117	Berte	18,861	1:1,223
118	Youan	18,711	1:1,233
119	Kadjo	18,638	1:1,238
120	Die	18,630	1:1,238
121	Tiene	18,613	1:1,240
122	Ya	18,600	1:1,240
123	Lago	18,375	1:1,256
124	Kanate	18,243	1:1,265
125	N'Zue	18,184	1:1,269
126	Fatoumata	18,169	1:1,270
127	Tiemoko	18,066	1:1,277
128	Kane	17,977	1:1,283
129	Niamien	17,910	1:1,288
130	Koko	17,857	1:1,292
131	Cherif	17,756	1:1,299
132	Djedje	17,695	1:1,304
133	M'Bra	17,671	1:1,306
134	Ettien	17,398	1:1,326
135	Digbeu	16,987	1:1,358
136	Doua	16,932	1:1,363
137	Atta	16,914	1:1,364
138	Gnamien	16,681	1:1,383
139	Yoro	16,601	1:1,390
140	Achi	16,532	1:1,396
141	Dibi	16,429	1:1,404
142	Boua	16,369	1:1,409
143	Gondo	16,367	1:1,410
144	Aman	16,342	1:1,412
145	Goli	16,184	1:1,426
146	Kore	16,171	1:1,427
147	Karidioula	16,162	1:1,427
147	Kouyate	16,162	1:1,427
149	Ekra	16,099	1:1,433
150	Guede	16,083	1:1,435
151	Mahan	16,081	1:1,435
152	Oka	16,052	1:1,437
153	Kangah	16,015	1:1,441
154	Ehouman	15,981	1:1,444
155	Dongo	15,886	1:1,452
156	Yobouet	15,776	1:1,462
157	Sehi	15,743	1:1,465
158	Mariam	15,399	1:1,498
159	Adja	15,112	1:1,527
160	Gue	14,490	1:1,592
161	Kramo	14,139	1:1,632
162	Koudou	14,124	1:1,633
163	Abou	14,097	1:1,637
164	Bleu	13,875	1:1,663
165	Tokpa	13,811	1:1,670
166	Samake	13,771	1:1,675
167	Amadou	13,715	1:1,682
168	Kossonou	13,605	1:1,696
169	Tah	13,604	1:1,696
170	Kante	13,313	1:1,733
171	Kouacou	13,270	1:1,739
172	Adje	13,045	1:1,769
173	Anoh	13,017	1:1,772
174	Toh	12,959	1:1,780
175	Sako	12,875	1:1,792
176	Gohi	12,778	1:1,806
177	Oussou	12,768	1:1,807
178	Goue	12,764	1:1,808
179	Akoua	12,724	1:1,813
180	Gnahore	12,616	1:1,829
181	Kablan	12,564	1:1,836
182	Maniga	12,478	1:1,849
183	Yeboue	12,393	1:1,862
184	Dan	12,375	1:1,864
185	Tehe	12,366	1:1,866
186	Siaka	12,354	1:1,868
187	Oula	12,281	1:1,879
188	Adjoumani	12,233	1:1,886
189	Gboko	12,082	1:1,910
190	Assie	12,034	1:1,917
191	Boli	12,003	1:1,922
192	Bakary	11,988	1:1,925
193	Assamoi	11,946	1:1,931
194	Sib	11,829	1:1,950
195	Gogbe	11,790	1:1,957
196	Koue	11,612	1:1,987
197	Tie	11,531	1:2,001
198	Bolou	11,477	1:2,010
199	Loua	11,374	1:2,028
200	Gba	11,364	1:2,030
201	Bahi	11,360	1:2,031
202	Bini	11,211	1:2,058
203	Adingra	11,198	1:2,060
204	Timite	11,142	1:2,071
205	Souleymane	10,913	1:2,114
206	Taha	10,820	1:2,132
207	Brahima	10,812	1:2,134
208	Gbane	10,773	1:2,142
209	Fanta	10,597	1:2,177
210	Boussou	10,534	1:2,190
211	Boka	10,524	1:2,192
212	Zouzou	10,499	1:2,197
213	Goh	10,487	1:2,200
214	Daouda	10,486	1:2,200
215	Doukoure	10,484	1:2,201
216	Ahoua	10,445	1:2,209
217	Tanou	10,387	1:2,221
218	Mariame	10,317	1:2,236
219	Abdoulaye	10,313	1:2,237
220	Kipre	10,207	1:2,260
221	Kesse	10,205	1:2,261
222	Yaya	10,157	1:2,271
223	Sie	10,153	1:2,272
224	Doue	10,092	1:2,286
225	Okou	10,082	1:2,288
226	N'Guetta	9,872	1:2,337
227	Bile	9,834	1:2,346
228	Sahi	9,763	1:2,363
228	Vanie	9,763	1:2,363
230	Gnagne	9,747	1:2,367
231	Kouadjo	9,702	1:2,378
232	Kamara	9,676	1:2,384
233	Benie	9,668	1:2,386
234	Gore	9,665	1:2,387
235	Goore	9,658	1:2,389
236	Affoua	9,633	1:2,395
237	Berthe	9,601	1:2,403
238	Yeboua	9,536	1:2,419
239	N'Guettia	9,522	1:2,423
240	Kla	9,514	1:2,425
241	Salimata	9,513	1:2,425
242	Ta	9,413	1:2,451
243	Amany	9,399	1:2,455
244	Doho	9,282	1:2,486
245	Dadie	9,281	1:2,486
246	Saraka	9,272	1:2,488
247	Kei	9,243	1:2,496
248	Kamate	9,237	1:2,498
249	Ouedraogo	9,206	1:2,506
250	Bosson	9,182	1:2,513
251	Kossia	9,128	1:2,528
252	Beda	9,075	1:2,542
253	Essoh	9,073	1:2,543
254	Assoumou	9,011	1:2,560
255	Yacouba	8,981	1:2,569
256	Hie	8,947	1:2,579
257	Savane	8,899	1:2,593
258	Zoh	8,875	1:2,600
259	Bla	8,873	1:2,600
260	Sogodogo	8,805	1:2,620
261	Droh	8,740	1:2,640
262	Abo	8,717	1:2,647
263	Awa	8,705	1:2,650
264	Samassi	8,582	1:2,688
265	Seydou	8,549	1:2,699
266	Kadio	8,547	1:2,699
267	Nemlin	8,515	1:2,709
268	Troh	8,513	1:2,710
269	Diane	8,479	1:2,721
270	Shep	8,437	1:2,735
270	Zan	8,437	1:2,735
272	Kamenan	8,420	1:2,740
273	Mambo	8,406	1:2,745
274	Mobio	8,367	1:2,757
275	Grah	8,342	1:2,766
276	Niangoran	8,324	1:2,772
277	Drissa	8,282	1:2,786
278	Abenan	8,252	1:2,796
279	Barro	8,151	1:2,830
280	Oura	8,112	1:2,844
281	Pokou	8,101	1:2,848
282	Kalou	8,025	1:2,875
283	Gnepa	7,952	1:2,901
284	Ali	7,942	1:2,905
285	Akaffou	7,917	1:2,914
286	Haidara	7,890	1:2,924
287	Flan	7,889	1:2,924
288	Logbo	7,833	1:2,945
289	Gramboute	7,824	1:2,949
290	Konin	7,794	1:2,960
291	Adon	7,695	1:2,998
292	Assale	7,688	1:3,001
293	Karaboue	7,663	1:3,011
294	Ibo	7,655	1:3,014
295	N'Gatta	7,580	1:3,044
296	Ehui	7,520	1:3,068
297	Gogoua	7,491	1:3,080
298	Aminata	7,489	1:3,081
299	Ama	7,486	1:3,082
300	Bomisso	7,427	1:3,106
301	Esse	7,392	1:3,121
302	Akre	7,379	1:3,127
303	Allangba	7,345	1:3,141
304	Badou	7,330	1:3,148
305	Edi	7,295	1:3,163
306	Yavo	7,256	1:3,180
307	Nene	7,252	1:3,181
308	Ouffoue	7,191	1:3,208
309	Dogbo	7,186	1:3,211
310	Gnahoua	7,182	1:3,212
311	Assemien	7,168	1:3,219
312	Tieu	7,131	1:3,235
313	Madou	7,111	1:3,244
314	Sadia	7,057	1:3,269
315	Boa	7,027	1:3,283
316	Yah	7,024	1:3,285
317	Zokou	6,955	1:3,317
318	Assande	6,909	1:3,339
319	Agoh	6,887	1:3,350
320	Sekou	6,866	1:3,360
321	Meledje	6,858	1:3,364
322	Tchimou	6,852	1:3,367
323	Akesse	6,831	1:3,377
323	Kande	6,831	1:3,377
325	Tiote	6,780	1:3,403
326	Ago	6,769	1:3,408
327	Gbamele	6,766	1:3,410
328	Koutouan	6,757	1:3,414
329	Dro	6,747	1:3,419
330	Akpa	6,720	1:3,433
331	Tahou	6,694	1:3,447
332	Ahou	6,687	1:3,450
333	Djane	6,678	1:3,455
334	Assa	6,610	1:3,490
335	Diawara	6,591	1:3,500
336	Dakouri	6,589	1:3,501
337	Ahoutou	6,576	1:3,508
338	N'Doua	6,571	1:3,511
339	Koulai	6,561	1:3,516
340	Kabran	6,559	1:3,517
341	Mian	6,554	1:3,520
342	N'Gouan	6,529	1:3,534
343	Zeze	6,515	1:3,541
344	Goly	6,511	1:3,543
345	Anon	6,507	1:3,546
346	Tahi	6,465	1:3,569
347	N'Dah	6,462	1:3,570
348	Bogui	6,456	1:3,574
349	Foua	6,455	1:3,574
350	Fahe	6,426	1:3,590
351	Gosse	6,403	1:3,603
352	Seu	6,380	1:3,616
353	Koui	6,372	1:3,621
354	Amara	6,348	1:3,634
355	Kodjo	6,305	1:3,659
356	Fadiga	6,292	1:3,667
357	Mea	6,285	1:3,671
358	Nguessan	6,265	1:3,683
359	N'Takpe	6,234	1:3,701
360	Abe	6,206	1:3,718
361	Kobena	6,152	1:3,750
362	Niamke	6,137	1:3,759
363	Djeneba	6,096	1:3,785
364	Ane	6,054	1:3,811
365	Loba	6,047	1:3,815
366	Toto	6,039	1:3,820
367	Aboua	6,037	1:3,822
368	Akpoue	6,019	1:3,833
369	Kouabenan	5,984	1:3,855
370	Krou	5,980	1:3,858
371	Ano	5,952	1:3,876
372	Drame	5,935	1:3,887
373	Siallou	5,903	1:3,908
374	Dramane	5,833	1:3,955
375	Karidja	5,825	1:3,961
376	Kokora	5,824	1:3,961
377	Issa	5,823	1:3,962
378	Zoro	5,818	1:3,965
379	N'Drin	5,812	1:3,970
380	Danho	5,805	1:3,974
381	Dodo	5,795	1:3,981
382	Dea	5,777	1:3,994
383	Naminata	5,772	1:3,997
384	Taki	5,756	1:4,008
385	Miezan	5,720	1:4,033
386	Bayo	5,718	1:4,035
387	Mel	5,704	1:4,045
388	Assemian	5,698	1:4,049
389	Siriki	5,678	1:4,063
390	Guessan	5,653	1:4,081
391	Attoungbre	5,611	1:4,112
392	Kohou	5,609	1:4,113
393	Kaba	5,604	1:4,117
394	Tahe	5,600	1:4,120
395	Fondio	5,567	1:4,144
396	Boue	5,557	1:4,152
397	Kimou	5,527	1:4,174
398	Sohou	5,464	1:4,222
399	Ibrahima	5,458	1:4,227
400	Boti	5,443	1:4,239
401	Zouzoua	5,439	1:4,242
402	Appia	5,432	1:4,247
403	Binate	5,422	1:4,255
404	N'Gbesso	5,382	1:4,287
405	Siagbe	5,313	1:4,342
406	Koulibaly	5,296	1:4,356
407	Gueye	5,294	1:4,358
408	Tiemele	5,282	1:4,368
409	Sia	5,265	1:4,382
410	Eba	5,250	1:4,395
411	Nahounou	5,218	1:4,421
412	Goze	5,212	1:4,427
413	Kongo	5,188	1:4,447
414	Kourouma	5,174	1:4,459
415	Gbe	5,159	1:4,472
416	Kouya	5,131	1:4,496
417	Kouaho	5,125	1:4,502
418	Lath	5,109	1:4,516
419	Bayoko	5,092	1:4,531
420	Ahoussi	5,064	1:4,556
421	Comoe	5,057	1:4,562
422	Djo	5,046	1:4,572
423	Boko	5,018	1:4,598
424	Alle	4,988	1:4,625
425	Allui	4,987	1:4,626
426	Esmel	4,969	1:4,643
427	Goua	4,959	1:4,652
428	Doueu	4,931	1:4,679
429	Zogbe	4,922	1:4,687
430	Angaman	4,919	1:4,690
431	Ouraga	4,883	1:4,725
432	Kouma	4,861	1:4,746
433	Zaouli	4,860	1:4,747
434	Essan	4,849	1:4,758
435	Goure	4,827	1:4,780
436	Gbale	4,818	1:4,789
437	Amian	4,814	1:4,793
437	Ban	4,814	1:4,793
439	Yaoua	4,808	1:4,799
440	Boh	4,803	1:4,804
440	Kanon	4,803	1:4,804
442	Gbah	4,747	1:4,860
443	Affi	4,734	1:4,874
444	Agnero	4,716	1:4,892
445	Tiehi	4,698	1:4,911
446	Sita	4,680	1:4,930
447	Koman	4,669	1:4,941
448	Bai	4,660	1:4,951
449	Zahui	4,656	1:4,955
450	Legre	4,627	1:4,986
451	N'Gotta	4,626	1:4,987
452	Doffou	4,608	1:5,007
453	Deli	4,605	1:5,010
454	Gbehe	4,604	1:5,011
455	Golou	4,596	1:5,020
456	Angoua	4,590	1:5,026
457	Gogbeu	4,573	1:5,045
458	Bora	4,571	1:5,047
459	Dogo	4,570	1:5,048
460	Houssou	4,550	1:5,071
461	Yohou	4,541	1:5,081
462	Aye	4,538	1:5,084
463	Goueu	4,524	1:5,100
464	Kehi	4,518	1:5,107
465	Dja	4,509	1:5,117
466	Messou	4,495	1:5,133
467	Dali	4,485	1:5,144
468	Trazie	4,472	1:5,159
469	Bagate	4,461	1:5,172
470	Bouabre	4,459	1:5,174
471	Ako	4,447	1:5,188
472	Malan	4,444	1:5,192
473	Djire	4,442	1:5,194
473	Ekissi	4,442	1:5,194
475	Assouman	4,388	1:5,258
475	Gnaore	4,388	1:5,258
477	Zon	4,386	1:5,260
478	Bagui	4,369	1:5,281
479	Houphouet	4,358	1:5,294
480	Fongbe	4,357	1:5,295
481	Pehe	4,352	1:5,301
482	Ipou	4,343	1:5,312
483	Achy	4,338	1:5,318
483	Adopo	4,338	1:5,318
485	Guie	4,337	1:5,320
486	Nogbou	4,316	1:5,346
487	Gbogou	4,304	1:5,360
488	Edoukou	4,302	1:5,363
489	Asse	4,301	1:5,364
490	Doudou	4,290	1:5,378
491	Mah	4,286	1:5,383
492	Gode	4,282	1:5,388
493	Ahui	4,280	1:5,390
494	Guy	4,272	1:5,401
495	Mahi	4,268	1:5,406
496	Bouazo	4,255	1:5,422
497	Lamine	4,244	1:5,436
498	Gouet	4,238	1:5,444
499	Serifou	4,233	1:5,450
500	Douan	4,230	1:5,454
501	Dely	4,221	1:5,466
502	Koroma	4,220	1:5,467
503	Ladji	4,219	1:5,468
504	Adiko	4,217	1:5,471
505	Ogou	4,214	1:5,475
506	Rabe	4,211	1:5,479
507	Singo	4,201	1:5,492
508	Mory	4,189	1:5,508
509	Akou	4,172	1:5,530
510	Ehoussou	4,170	1:5,533
511	Djoman	4,169	1:5,534
512	Kabore	4,165	1:5,539
513	Bony	4,159	1:5,547
514	Babo	4,156	1:5,551
515	Adaye	4,134	1:5,581
516	Akissi	4,120	1:5,600
517	Gole	4,118	1:5,603
518	Lasme	4,110	1:5,613
519	Djezou	4,109	1:5,615
520	Mabea	4,104	1:5,622
521	Tagro	4,089	1:5,642
522	Veh	4,074	1:5,663
523	Abbe	4,061	1:5,681
524	Gnagbo	4,060	1:5,683
525	Sawadogo	4,057	1:5,687
526	Zie	4,053	1:5,692
527	Gbongue	4,050	1:5,697
528	Bohui	4,033	1:5,721
529	Acho	4,029	1:5,726
530	Tea	4,024	1:5,733
531	N'Doli	4,023	1:5,735
532	Lassina	4,012	1:5,751
533	Baba	4,001	1:5,766
534	Atte	3,996	1:5,774
535	Ba	3,993	1:5,778
536	Traye	3,989	1:5,784
537	Bieu	3,983	1:5,792
538	Odi	3,977	1:5,801
539	Obrou	3,960	1:5,826
540	Thio	3,957	1:5,830
541	Adjoua	3,952	1:5,838
542	Gnago	3,949	1:5,842
543	Bedi	3,936	1:5,862
544	Dehi	3,901	1:5,914
545	Coulibali	3,876	1:5,952
546	Sika	3,851	1:5,991
547	Minata	3,843	1:6,003
548	Fane	3,838	1:6,011
549	Loue	3,830	1:6,024
550	Gohou	3,829	1:6,025
551	Monney	3,828	1:6,027
551	Youssouf	3,828	1:6,027
553	Youzan	3,826	1:6,030
554	Gnali	3,800	1:6,071
555	Zran	3,799	1:6,073
556	Bede	3,781	1:6,102
557	Akpo	3,779	1:6,105
558	Sialou	3,770	1:6,120
559	Aby	3,762	1:6,133
560	Zoumana	3,737	1:6,174
561	Lanta	3,706	1:6,225
562	Kah	3,704	1:6,229
563	Horo	3,692	1:6,249
564	Gbato	3,690	1:6,252
565	Boga	3,670	1:6,286
566	Moro	3,662	1:6,300
567	Kossa	3,657	1:6,309
568	Djah	3,642	1:6,335
569	Taho	3,640	1:6,338
570	Nomel	3,633	1:6,350
571	Gouanou	3,631	1:6,354
572	Beh	3,613	1:6,386
573	Tiecoura	3,610	1:6,391
574	Falle	3,607	1:6,396
575	Gnaba	3,606	1:6,398
576	Nioule	3,600	1:6,409
577	Combala	3,597	1:6,414
578	Yobo	3,592	1:6,423
579	Gbohou	3,575	1:6,453
580	Gbocho	3,574	1:6,455
581	Djama	3,552	1:6,495
582	Kpangni	3,546	1:6,506
582	Memel	3,546	1:6,506
584	Yoman	3,533	1:6,530
584	Ziao	3,533	1:6,530
586	Daple	3,532	1:6,532
587	Karim	3,521	1:6,552
588	Gbangbo	3,520	1:6,554
589	Asseu	3,513	1:6,567
590	Don	3,506	1:6,580
591	Daho	3,502	1:6,588
592	Gbaka	3,490	1:6,611
593	Botty	3,488	1:6,614
594	Zongo	3,487	1:6,616
595	Lah	3,463	1:6,662
596	Agnimel	3,456	1:6,676
597	Zingbe	3,445	1:6,697
598	Togba	3,442	1:6,703
599	Zah	3,427	1:6,732
600	Inza	3,420	1:6,746
601	Bli	3,418	1:6,750
602	Dia	3,417	1:6,752
603	Kouablan	3,409	1:6,768
604	Manh	3,385	1:6,816
605	Keke	3,381	1:6,824
606	Datte	3,368	1:6,850
607	N'Dja	3,363	1:6,860
608	Amalaman	3,360	1:6,866
609	Bakari	3,359	1:6,868
610	Koumoin	3,341	1:6,905
611	Botti	3,339	1:6,910
612	Allah	3,330	1:6,928
613	Sanou	3,322	1:6,945
614	Mahoua	3,321	1:6,947
615	Behi	3,320	1:6,949
616	Behibro	3,311	1:6,968
617	Wognin	3,308	1:6,974
618	Tai	3,307	1:6,976
619	Assoa	3,306	1:6,979
620	Goho	3,297	1:6,998
621	Tanon	3,294	1:7,004
622	Kotchi	3,291	1:7,010
623	San	3,277	1:7,040
624	Fatouma	3,270	1:7,055
625	Issouf	3,267	1:7,062
626	Manzan	3,262	1:7,073
627	Lacina	3,255	1:7,088
628	Toa	3,251	1:7,097
629	Sei	3,226	1:7,152
630	Douo	3,222	1:7,161
631	Fieni	3,214	1:7,178
632	Bia	3,213	1:7,181
633	Lobognon	3,205	1:7,199
634	Tan	3,190	1:7,232
635	Maho	3,182	1:7,251
636	Kissi	3,156	1:7,310
636	Komoe	3,156	1:7,310
638	Amoin	3,155	1:7,313
639	Angui	3,154	1:7,315
640	Ehounou	3,144	1:7,338
641	Yomi	3,140	1:7,348
642	Gnahe	3,115	1:7,406
643	Gaha	3,114	1:7,409
644	Maiga	3,094	1:7,457
645	Bassa	3,092	1:7,462
646	Goulia	3,079	1:7,493
647	Amoikon	3,076	1:7,500
648	Ahi	3,067	1:7,522
649	N Guessan	3,064	1:7,530
650	N'Din	3,060	1:7,540
651	Menzan	3,059	1:7,542
652	Gompou	3,054	1:7,554
653	Guiro	3,050	1:7,564
654	Dally	3,049	1:7,567
655	Ore	3,047	1:7,572
656	Ahua	3,046	1:7,574
657	Tondossama	3,045	1:7,577
658	Toualy	3,035	1:7,602
659	Soumaila	3,034	1:7,604
660	Gome	3,032	1:7,609
661	Kohon	3,030	1:7,614
662	Gui	3,029	1:7,617
662	Tohouri	3,029	1:7,617
664	Gonto	3,028	1:7,619
665	Essis	3,024	1:7,629
666	Mawa	3,023	1:7,632
667	Binde	3,011	1:7,662
668	Assouan	2,997	1:7,698
668	Djue	2,997	1:7,698
670	Siaba	2,980	1:7,742
671	Assienin	2,979	1:7,745
672	Kasse	2,973	1:7,760
673	Yake	2,969	1:7,771
674	Danon	2,967	1:7,776
674	Oumar	2,967	1:7,776
676	Aboa	2,964	1:7,784
677	Adjei	2,961	1:7,792
678	Amichia	2,952	1:7,815
679	Gbayoro	2,934	1:7,863
680	Koya	2,930	1:7,874
681	Nahi	2,924	1:7,890
682	Doumbouya	2,919	1:7,904
682	Ousmane	2,919	1:7,904
684	Assoua	2,917	1:7,909
685	Takouo	2,910	1:7,928
686	Gohore	2,904	1:7,945
687	Kouko	2,901	1:7,953
688	Oule	2,900	1:7,956
689	Gogo	2,892	1:7,978
690	Kouhon	2,890	1:7,983
691	Gnan	2,880	1:8,011
692	Idrissa	2,879	1:8,014
693	Kadja	2,875	1:8,025
694	Gbeada	2,874	1:8,028
695	Siata	2,868	1:8,044
696	Agnissan	2,862	1:8,061
697	Atsain	2,860	1:8,067
698	Ayemou	2,858	1:8,073
699	Djehi	2,857	1:8,075
699	Souare	2,857	1:8,075
701	Ossey	2,852	1:8,089
702	Bodo	2,850	1:8,095
702	Koukougnon	2,850	1:8,095
704	Youkou	2,835	1:8,138
705	Gbeuli	2,833	1:8,144
706	Eby	2,824	1:8,170
707	Tiekoura	2,816	1:8,193
708	Jean	2,795	1:8,254
709	Kouamelan	2,793	1:8,260
710	Yebouet	2,790	1:8,269
711	Tibe	2,787	1:8,278
712	Koutou	2,775	1:8,314
712	Zahi	2,775	1:8,314
714	Lokossue	2,768	1:8,335
715	Amessan	2,766	1:8,341
715	Pregnon	2,766	1:8,341
717	Loh	2,758	1:8,365
718	Yatte	2,747	1:8,399
719	Some	2,738	1:8,426
720	Lancine	2,727	1:8,460
721	Adji	2,726	1:8,463
722	Able	2,710	1:8,513
723	Gbahou	2,709	1:8,517
724	Digbe	2,699	1:8,548
725	Zago	2,697	1:8,554
726	Kapet	2,686	1:8,589
727	Boya	2,678	1:8,615
728	Aboya	2,677	1:8,618
729	Adia	2,674	1:8,628
730	Zehe	2,672	1:8,634
731	Yode	2,670	1:8,641
732	Ouehi	2,668	1:8,647
733	Krah	2,664	1:8,660
733	Souanga	2,664	1:8,660
735	Gonkanou	2,661	1:8,670
736	Glou	2,654	1:8,693
737	Ossohou	2,648	1:8,713
738	Obou	2,646	1:8,719
739	Dagou	2,639	1:8,742
739	Yoh	2,639	1:8,742
741	Gahie	2,638	1:8,746
742	Kouai	2,623	1:8,796
743	Aba	2,608	1:8,846
744	N'Depo	2,606	1:8,853
745	Dji	2,604	1:8,860
746	Zeregbe	2,603	1:8,863
747	Ebrottie	2,602	1:8,867
748	Zou	2,601	1:8,870
749	Bailly	2,600	1:8,874
750	Maimouna	2,599	1:8,877
751	Guigui	2,597	1:8,884
752	Djahi	2,584	1:8,928
753	Gbahi	2,581	1:8,939
754	Kragbe	2,579	1:8,946
755	Bohi	2,572	1:8,970
756	Lia	2,570	1:8,977
757	Baikoro	2,557	1:9,023
758	Etien	2,552	1:9,040
759	Goulei	2,549	1:9,051
760	Adepo	2,541	1:9,080
760	Gbalou	2,541	1:9,080
762	Doumouya	2,531	1:9,115
762	Yoboua	2,531	1:9,115
764	Dehe	2,529	1:9,123
764	Goule	2,529	1:9,123
766	Gbehi	2,526	1:9,134
767	Kambo	2,514	1:9,177
768	Tehoua	2,508	1:9,199
769	N'Djore	2,506	1:9,206
770	Vehi	2,503	1:9,217
771	Hili	2,501	1:9,225
772	Daniogo	2,499	1:9,232
773	Batoua	2,498	1:9,236
774	Djea	2,496	1:9,243
775	Amoa	2,495	1:9,247
776	Tre	2,486	1:9,280
777	Gnaly	2,485	1:9,284
778	Komara	2,479	1:9,307
779	Sombo	2,478	1:9,310
780	Tetchi	2,473	1:9,329
781	Bosse	2,472	1:9,333
782	Soma	2,462	1:9,371
783	Akichi	2,461	1:9,375
783	Kassoum	2,461	1:9,375
785	Niamkey	2,448	1:9,425
786	Voli	2,445	1:9,436
787	Nanou	2,440	1:9,455
788	N'Tamon	2,430	1:9,494
789	Massandje	2,422	1:9,526
790	Tonga	2,419	1:9,538
791	Ekou	2,405	1:9,593
792	Ouohi	2,404	1:9,597
793	Djedou	2,403	1:9,601
793	Sai	2,403	1:9,601
795	Salifou	2,399	1:9,617
796	Hue	2,397	1:9,625
797	Bosso	2,394	1:9,637
798	Ohoueu	2,384	1:9,678
799	Agnini	2,383	1:9,682
799	Bleou	2,383	1:9,682
801	Gonsan	2,373	1:9,722
802	Esso	2,371	1:9,731
802	Lorougnon	2,371	1:9,731
802	Maizan	2,371	1:9,731
805	Anzian	2,363	1:9,764
806	Agbo	2,360	1:9,776
807	Tchetche	2,354	1:9,801
808	Yoda	2,349	1:9,822
809	Sorho	2,345	1:9,838
810	Gnoleba	2,344	1:9,843
810	Kodia	2,344	1:9,843
812	Dibo	2,336	1:9,876
813	Affian	2,335	1:9,881
814	Tehua	2,332	1:9,893
815	Douho	2,328	1:9,910
816	Anoman	2,326	1:9,919
817	Zogbo	2,313	1:9,975
818	Acka	2,312	1:9,979
819	Sissoko	2,308	1:9,996
820	Tro	2,306	1:10,005
821	Aguie	2,304	1:10,014
822	Signo	2,298	1:10,040
823	Tanh	2,291	1:10,070
824	Diehi	2,283	1:10,106
825	Kouyo	2,280	1:10,119
826	Gnangoran	2,274	1:10,146
827	Digbo	2,272	1:10,155
828	Fofie	2,267	1:10,177
829	Amangoua	2,266	1:10,181
829	Ganon	2,266	1:10,181
831	Bouh	2,265	1:10,186
832	Gboho	2,257	1:10,222
833	Trah	2,255	1:10,231
834	Oupoh	2,251	1:10,249
835	Zigbe	2,250	1:10,254
836	Koulibali	2,249	1:10,258
837	Adoni	2,247	1:10,268
838	Bintou	2,246	1:10,272
838	Djako	2,246	1:10,272
840	Bouadou	2,245	1:10,277
841	Bly	2,241	1:10,295
841	Douin	2,241	1:10,295
843	Mousso	2,235	1:10,323
844	Djangone	2,231	1:10,341
844	Ourega	2,231	1:10,341
844	Yro	2,231	1:10,341
847	Gnakpa	2,229	1:10,350
848	Sinan	2,228	1:10,355
849	Alimata	2,227	1:10,360
850	Monnet	2,224	1:10,374
851	Sinde	2,220	1:10,392
852	Yahiri	2,218	1:10,402
853	Monsia	2,217	1:10,407
854	Bie	2,213	1:10,425
855	Koye	2,211	1:10,435
856	Kre	2,207	1:10,454
857	Berete	2,206	1:10,458
858	Okon	2,201	1:10,482
859	Mabo	2,199	1:10,492
860	Gnamba	2,189	1:10,540
860	Ohouo	2,189	1:10,540
862	Korotoumou	2,188	1:10,544
863	Keipo	2,184	1:10,564
864	Bouo	2,183	1:10,569
864	Saganogo	2,183	1:10,569
866	Abran	2,179	1:10,588
867	Miessan	2,177	1:10,598
868	Odje	2,170	1:10,632
868	Zouhou	2,170	1:10,632
870	Dole	2,169	1:10,637
871	Karidia	2,168	1:10,642
872	Gle	2,167	1:10,647
873	Lorng	2,165	1:10,656
874	Gbamble	2,163	1:10,666
875	Kramoh	2,162	1:10,671
876	Groguhe	2,158	1:10,691
876	Kokola	2,158	1:10,691
878	Fodjo	2,155	1:10,706
879	Bahikoro	2,149	1:10,736
879	Zobo	2,149	1:10,736
881	Gnande	2,148	1:10,741
882	Kouadja	2,144	1:10,761
883	Nean	2,137	1:10,796
884	Gomun	2,135	1:10,806
884	Guindo	2,135	1:10,806
886	Gnaoue	2,130	1:10,832
887	Zio	2,127	1:10,847
888	Kangoute	2,126	1:10,852
889	Me	2,122	1:10,872
890	Bohou	2,121	1:10,878
890	Gneba	2,121	1:10,878
892	Koula	2,115	1:10,908
893	Missa	2,112	1:10,924
894	Gala	2,105	1:10,960
895	Gnolou	2,101	1:10,981
896	N'Zebo	2,096	1:11,007
897	Fatou	2,093	1:11,023
898	Anzoumana	2,089	1:11,044
898	Mama	2,089	1:11,044
900	Assata	2,086	1:11,060
901	Ebi	2,084	1:11,071
902	Mouroufie	2,079	1:11,097
903	M'Boua	2,078	1:11,103
904	Marie	2,077	1:11,108
905	Latte	2,075	1:11,119
906	Gbogbo	2,074	1:11,124
907	Gaoussou	2,072	1:11,135
908	Losseni	2,069	1:11,151
909	Anougba	2,062	1:11,189
910	Deh	2,061	1:11,194
910	Hino	2,061	1:11,194
910	Nango	2,061	1:11,194
913	Bouadi	2,060	1:11,200
914	Kahou	2,052	1:11,243
915	Agba	2,051	1:11,249
915	Bohouo	2,051	1:11,249
917	Alloko	2,049	1:11,260
917	Angora	2,049	1:11,260
919	Ezoua	2,047	1:11,271
920	Abi	2,046	1:11,276
920	Meless	2,046	1:11,276
922	Zoueu	2,044	1:11,287
923	Sonan	2,043	1:11,293
924	Dede	2,042	1:11,298
925	Balo	2,039	1:11,315
926	Barry	2,038	1:11,321
927	Manhan	2,036	1:11,332
928	Momine	2,033	1:11,348
928	Zolou	2,033	1:11,348
930	Gouli	2,031	1:11,360
931	Ambeu	2,028	1:11,376
931	Yede	2,028	1:11,376
933	Angoran	2,027	1:11,382
933	Gon	2,027	1:11,382
933	Sidiki	2,027	1:11,382
936	Teya	2,024	1:11,399
937	Angbe	2,022	1:11,410
938	Maman	2,021	1:11,416
938	Meh	2,021	1:11,416
940	N'Draman	2,019	1:11,427
941	Bahou	2,018	1:11,433
942	Bada	2,017	1:11,438
943	Hema	2,015	1:11,450
944	Atsin	2,004	1:11,513
945	Abiba	2,002	1:11,524
945	Blesson	2,002	1:11,524
947	Ouassa	2,001	1:11,530
948	Blehi	1,998	1:11,547
948	Issoufou	1,998	1:11,547
950	Atto	1,997	1:11,553
951	Fae	1,994	1:11,570
952	Sitionon	1,992	1:11,582
953	Ani	1,989	1:11,599
953	Appoh	1,989	1:11,599
955	Blah	1,985	1:11,623
955	Tete	1,985	1:11,623
957	Wohi	1,983	1:11,635
958	Liade	1,982	1:11,640
958	N'Dre	1,982	1:11,640
958	Siehi	1,982	1:11,640
961	Serikpa	1,978	1:11,664
962	Adouko	1,973	1:11,693
963	Gbessi	1,970	1:11,711
964	Ligue	1,969	1:11,717
965	Bagayoko	1,968	1:11,723
966	Cissoko	1,967	1:11,729
967	Tizie	1,963	1:11,753
968	N'Gbra	1,961	1:11,765
969	Vah	1,959	1:11,777
970	Degre	1,956	1:11,795
971	Touali	1,955	1:11,801
972	Adaman	1,952	1:11,819
973	Nanan	1,951	1:11,825
973	Samagassi	1,951	1:11,825
975	Dagrou	1,944	1:11,868
975	Gah	1,944	1:11,868
977	Dadi	1,940	1:11,892
978	Allali	1,937	1:11,911
978	Kle	1,937	1:11,911
980	Bogbe	1,933	1:11,935
981	Lacine	1,925	1:11,985
982	Lognon	1,923	1:11,998
983	Bley	1,921	1:12,010
984	Akpro	1,912	1:12,067
985	Akoun	1,909	1:12,086
985	Gbla	1,909	1:12,086
987	Baka	1,903	1:12,124
988	Hine	1,902	1:12,130
988	Sigui	1,902	1:12,130
990	Gouesse	1,900	1:12,143
991	Dohou	1,898	1:12,156
992	Gnako	1,895	1:12,175
992	Manlan	1,895	1:12,175
994	Loa	1,893	1:12,188
995	Zako	1,891	1:12,201
996	Bih	1,887	1:12,226
997	Edja	1,885	1:12,239
997	Sow	1,885	1:12,239
999	Baye	1,881	1:12,265
1000	N'Douba	1,879	1:12,278