1	Georgiou	19,329	1:46
2	Charalambous	17,616	1:50
3	Ioannou	15,292	1:58
4	Constantinou	14,184	1:62
5	Christodoulou	14,081	1:63
6	Demetriou	11,719	1:76
7	Michael	11,286	1:78
8	Nicolaou	10,806	1:82
9	Andreou	10,668	1:83
10	Antoniou	10,438	1:85
11	Kyriacou	9,228	1:96
12	Savva	7,685	1:115
13	Stylianou	7,397	1:120
14	Christou	7,162	1:124
15	Panayiotou	6,638	1:133
16	Petrou	5,375	1:165
17	Christoforou	5,336	1:166
18	Christofi	5,205	1:170
19	Vassiliou	4,966	1:178
20	Theodorou	4,669	1:190
21	Loizou	4,527	1:195
22	Stavrou	4,492	1:197
23	Neophytou	4,399	1:201
24	Panayi	4,267	1:207
25	Philippou	3,923	1:226
26	Michaelides	3,731	1:237
27	Pavlou	3,680	1:240
28	Chrysostomou	3,673	1:241
29	Alexandrou	3,499	1:253
30	Kyprianou	3,438	1:257
30	Louca	3,438	1:257
32	Papadopoulos	3,368	1:263
33	Panteli	3,173	1:279
34	Elia	2,872	1:308
35	Eleftheriou	2,866	1:309
36	Georgiades	2,731	1:324
37	Constantinides	2,719	1:325
38	Spyrou	2,706	1:327
39	Efstathiou	2,691	1:329
40	Ioannides	2,686	1:329
41	Demosthenous	2,674	1:331
42	Anastassiou	2,670	1:331
43	Chrysanthou	2,661	1:333
44	Soteriou	2,560	1:346
45	Gregoriou	2,524	1:351
46	Savvides	2,449	1:361
47	Socratous	2,372	1:373
48	Achilleos	2,323	1:381
49	Kyriakides	2,295	1:386
50	Sophocleous	2,242	1:395
51	Lambrou	2,235	1:396
52	Evangelou	2,215	1:399
52	Iacovou	2,215	1:399
54	Costa	2,186	1:405
55	Aristidou	2,148	1:412
56	Papageorgiou	2,055	1:431
57	Kyriakou	2,034	1:435
58	Nicolaides	2,009	1:440
59	Xenophontos	1,994	1:444
60	Theocharous	1,944	1:455
61	Solomou	1,927	1:459
62	Adamou	1,919	1:461
63	Nikolaou	1,912	1:463
64	Polycarpou	1,855	1:477
65	Evripidou	1,832	1:483
66	Theophanous	1,821	1:486
67	Paraskeva	1,804	1:491
68	Efthymiou	1,788	1:495
69	Antoniades	1,757	1:504
70	Hadjigeorgiou	1,742	1:508
71	Avraam	1,724	1:513
72	Theodoulou	1,722	1:514
73	Cleanthous	1,714	1:516
74	Neocleous	1,710	1:517
75	Argyrou	1,698	1:521
76	Christodoulides	1,676	1:528
77	Christofides	1,620	1:546
77	Heracleous	1,620	1:546
77	Themistocleous	1,620	1:546
80	Lazarou	1,598	1:554
81	Yiangou	1,539	1:575
82	Athanassiou	1,508	1:587
83	Sofroniou	1,496	1:591
84	Leonidou	1,494	1:592
85	Gavriel	1,485	1:596
86	Prodromou	1,472	1:601
87	Michaelidou	1,470	1:602
88	Papadopoulou	1,462	1:605
89	Menelaou	1,442	1:614
89	Theodossiou	1,442	1:614
91	Demetriades	1,434	1:617
92	Photiou	1,430	1:619
93	Symeou	1,405	1:630
94	Aristodemou	1,400	1:632
95	Marcou	1,385	1:639
96	Herodotou	1,369	1:646
97	Pericleous	1,351	1:655
98	Loizides	1,344	1:658
99	Agathocleous	1,312	1:674
100	Mina	1,305	1:678
101	Zenonos	1,295	1:683
102	Procopiou	1,293	1:684
103	Polydorou	1,270	1:697
104	Pieri	1,265	1:700
105	Economou	1,261	1:702
106	Charalambides	1,256	1:705
107	Papaioannou	1,249	1:708
107	Varnava	1,249	1:708
109	Economides	1,242	1:712
110	Konstantinou	1,228	1:721
111	Petrides	1,212	1:730
112	Stephanou	1,165	1:760
113	Thoma	1,139	1:777
114	Anastasiou	1,112	1:796
115	Tryfonos	1,097	1:807
116	Apostolou	1,072	1:825
117	Papamichael	1,054	1:840
118	Kokkinos	1,053	1:840
119	Panayides	1,046	1:846
120	Aristotelous	1,043	1:848
121	Mattheou	1,040	1:851
122	Constantinidou	1,027	1:862
123	Charalampous	1,023	1:865
124	Zachariou	1,021	1:867
125	Nicola	1,019	1:868
126	Eliades	1,014	1:873
127	Aresti	1,009	1:877
128	Avgousti	1,000	1:885
129	Damianou	995	1:889
130	Charilaou	984	1:899
131	Erotokritou	979	1:904
132	Yiannakou	973	1:909
133	Georgiadou	969	1:913
133	Miltiadous	969	1:913
135	Nearchou	961	1:921
136	Ioannidou	931	1:950
137	Panagiotou	915	1:967
138	Mylonas	914	1:968
139	Pavlides	901	1:982
140	Ellinas	896	1:988
141	Stavrinou	887	1:998
142	Vasiliou	884	1:1,001
143	Agapiou	883	1:1,002
143	Agathangelou	883	1:1,002
145	Hadjimichael	865	1:1,023
146	Odysseos	863	1:1,025
147	Evagorou	857	1:1,033
148	Stylianides	855	1:1,035
149	Zacharia	848	1:1,043
150	Savvidou	835	1:1,060
151	Paphitis	833	1:1,062
152	Iacovides	823	1:1,075
153	Papanicolaou	821	1:1,078
154	Yianni	815	1:1,086
155	Panagi	805	1:1,099
156	Polyviou	800	1:1,106
157	Kallis	796	1:1,112
158	Hadjioannou	787	1:1,124
159	Kyriakidou	766	1:1,155
160	Costi	760	1:1,164
160	Nicolaidou	760	1:1,164
162	Manoli	754	1:1,174
163	Andronicou	749	1:1,181
164	Hadjikyriacou	739	1:1,197
165	Violaris	723	1:1,224
166	Vassiliades	718	1:1,232
167	Orphanides	712	1:1,243
168	Kalli	711	1:1,245
169	Hadjicharalambous	709	1:1,248
169	Mavrommatis	709	1:1,248
171	Pittas	701	1:1,262
172	Timotheou	695	1:1,273
173	Angeli	686	1:1,290
173	Neofytou	686	1:1,290
175	Patsalides	679	1:1,303
176	Iosif	678	1:1,305
177	Papademetriou	672	1:1,317
177	Tsangarides	672	1:1,317
179	Papakyriacou	658	1:1,345
180	Kalogirou	646	1:1,370
181	Onissiforou	645	1:1,372
182	Athanasiou	644	1:1,374
183	Dionyssiou	641	1:1,380
184	Protopapas	640	1:1,383
184	Thrassyvoulou	640	1:1,383
186	Papacharalambous	636	1:1,391
187	Koumi	629	1:1,407
188	Loucaides	626	1:1,414
189	Papapetrou	623	1:1,420
190	Anastassi	622	1:1,423
191	Afxentiou	604	1:1,465
192	Dimitriou	603	1:1,467
193	Pitsillides	602	1:1,470
194	Papachristoforou	599	1:1,477
195	Pantelides	598	1:1,480
196	Karaolis	591	1:1,497
197	Theodotou	588	1:1,505
198	Louka	586	1:1,510
198	Papaconstantinou	586	1:1,510
200	Antoniadou	585	1:1,513
201	Constanti	579	1:1,528
202	Pierides	578	1:1,531
203	Phylactou	574	1:1,542
204	Serghiou	572	1:1,547
205	Gavrielides	565	1:1,566
205	Onoufriou	565	1:1,566
207	Markou	558	1:1,586
208	Tsangaris	556	1:1,592
209	Markides	554	1:1,597
210	Papantoniou	552	1:1,603
211	Argyrides	545	1:1,624
212	Theodosiou	543	1:1,630
213	Christodoulidou	539	1:1,642
214	Charitou	536	1:1,651
214	Filippou	536	1:1,651
216	Frangou	533	1:1,660
216	Ioackim	533	1:1,660
218	Christofidou	532	1:1,663
219	Gerolemou	527	1:1,679
219	Hadjiyiannis	527	1:1,679
221	Toumazou	524	1:1,689
222	Demetri	521	1:1,698
223	Karayiannis	517	1:1,712
224	Poyiadjis	515	1:1,718
225	Psaras	509	1:1,738
226	Philippides	507	1:1,745
227	Papachristodoulou	506	1:1,749
228	Xenofontos	502	1:1,763
229	Hadjidemetriou	501	1:1,766
230	Droussiotis	500	1:1,770
230	Stavrinides	500	1:1,770
232	Artemiou	497	1:1,780
232	Loizidou	497	1:1,780
234	Eftychiou	484	1:1,828
235	Evgeniou	480	1:1,843
235	Sergiou	480	1:1,843
237	Vasileiou	479	1:1,847
238	Flourentzou	478	1:1,851
239	Kleanthous	476	1:1,859
240	Sofocleous	471	1:1,879
241	Avraamides	469	1:1,887
242	Komodromos	468	1:1,891
243	Petsas	464	1:1,907
243	Zachariades	464	1:1,907
245	Angelides	463	1:1,911
246	Michail	458	1:1,932
247	Paschali	457	1:1,936
248	Kakoullis	453	1:1,953
249	Iordanou	450	1:1,966
250	Papandreou	440	1:2,011
251	Orphanou	439	1:2,016
252	Theophilou	436	1:2,030
253	Demetriadou	435	1:2,034
254	Konnaris	431	1:2,053
255	Spanos	429	1:2,063
256	Anastassiades	426	1:2,077
257	Marinou	425	1:2,082
258	Ignatiou	423	1:2,092
259	Symeonides	422	1:2,097
260	Polykarpou	421	1:2,102
261	Hadjiloizou	420	1:2,107
262	Apostolides	416	1:2,127
263	Mylona	411	1:2,153
264	Andronikou	404	1:2,190
265	Kokkinou	401	1:2,207
266	Petridou	399	1:2,218
267	Miltiadou	396	1:2,235
267	Nicodemou	396	1:2,235
267	Theofanous	396	1:2,235
270	Hadjinicolaou	393	1:2,252
271	Hadjichristodoulou	392	1:2,257
272	Nikiforou	388	1:2,281
272	Omirou	388	1:2,281
274	Economidou	387	1:2,287
274	Macris	387	1:2,287
276	Payt	385	1:2,298
277	Nicou	384	1:2,304
278	Roussos	383	1:2,310
279	Makrides	381	1:2,323
280	Zavros	380	1:2,329
281	Sofokleous	377	1:2,347
282	Stylianidou	375	1:2,360
283	Demou	373	1:2,372
283	Solomonides	373	1:2,372
285	Kountouris	372	1:2,379
286	Chari	369	1:2,398
286	Yiannaki	369	1:2,398
288	Papa	368	1:2,405
288	Theocharides	368	1:2,405
288	Yiallouros	368	1:2,405
288	Zeniou	368	1:2,405
292	Leonida	367	1:2,411
292	Steliou	367	1:2,411
294	Athinodorou	365	1:2,424
295	Epiphaniou	364	1:2,431
296	Leontiou	362	1:2,444
296	Maratheftis	362	1:2,444
296	Shiakallis	362	1:2,444
299	Pavlidou	361	1:2,451
300	Andrea	360	1:2,458
300	Hadjipanayi	360	1:2,458
302	Ellina	354	1:2,500
303	Cosma	352	1:2,514
303	Orphanos	352	1:2,514
303	Orthodoxou	352	1:2,514
306	Modestou	351	1:2,521
307	Prokopiou	349	1:2,535
308	Hadjiconstanti	347	1:2,550
308	Tsangari	347	1:2,550
310	Papasavva	344	1:2,572
311	Panayidou	343	1:2,580
311	Skordis	343	1:2,580
313	Daniel	342	1:2,587
313	Nathanael	342	1:2,587
315	Diakou	340	1:2,603
315	Kythreotis	340	1:2,603
317	Alexiou	337	1:2,626
318	Olympios	336	1:2,634
319	Vassou	335	1:2,641
320	Marangos	334	1:2,649
321	Papasavvas	333	1:2,657
322	Stavri	332	1:2,665
323	Chimonides	329	1:2,690
324	Athanassiades	328	1:2,698
324	Kadis	328	1:2,698
324	Pelekanou	328	1:2,698
327	Adamides	327	1:2,706
327	Iona	327	1:2,706
327	Metaxas	327	1:2,706
330	Pantelidou	326	1:2,714
331	Xeni	324	1:2,731
332	Roussou	323	1:2,740
333	Cleovoulou	322	1:2,748
334	Kyrou	321	1:2,757
335	Hadjipetrou	319	1:2,774
336	Andreas	316	1:2,800
336	Kanaris	316	1:2,800
338	Poullis	315	1:2,809
339	Smith	314	1:2,818
340	Potamitis	313	1:2,827
341	Kakoulli	312	1:2,836
341	Papas	312	1:2,836
341	Pelekanos	312	1:2,836
344	Kontos	310	1:2,854
345	Kyprianides	306	1:2,892
346	Charalambidou	305	1:2,901
346	Efstratiou	305	1:2,901
346	Protopapa	305	1:2,901
349	Hadjiyianni	303	1:2,920
349	Kattos	303	1:2,920
351	Nestoros	301	1:2,940
352	Hadjichristofi	297	1:2,979
353	Drakos	296	1:2,989
354	Hadjiantoni	295	1:3,000
354	Mitas	295	1:3,000
356	Sarris	294	1:3,010
357	Lambrianou	293	1:3,020
357	Mavrou	293	1:3,020
359	Violari	290	1:3,051
360	Papanastassiou	289	1:3,062
361	Hadjivassiliou	288	1:3,072
361	Kazamias	288	1:3,072
363	Jones	286	1:3,094
363	Karayianni	286	1:3,094
365	Papacosta	284	1:3,116
366	Mavros	283	1:3,127
367	Epaminonda	281	1:3,149
367	Hadjisavvas	281	1:3,149
367	Klitou	281	1:3,149
367	Themistokleous	281	1:3,149
371	Chambi	280	1:3,160
371	Koutsou	280	1:3,160
371	Lyssandrou	280	1:3,160
371	Stefanou	280	1:3,160
375	Diogenous	279	1:3,172
375	Eliadou	279	1:3,172
377	Erotocritou	278	1:3,183
378	Liassides	277	1:3,194
378	Pattichis	277	1:3,194
380	Agrotis	276	1:3,206
380	Papastylianou	276	1:3,206
382	Makri	275	1:3,218
382	Papaleontiou	275	1:3,218
382	Vassiliadou	275	1:3,218
382	Vryonides	275	1:3,218
386	Karaoli	273	1:3,241
386	Prastitis	273	1:3,241
388	Anastasi	272	1:3,253
388	Macrides	272	1:3,253
388	Tsiakkas	272	1:3,253
391	Iakovou	271	1:3,265
391	Spanou	271	1:3,265
391	Stephani	271	1:3,265
394	Englezou	270	1:3,277
395	Alkiviades	269	1:3,290
395	Schizas	269	1:3,290
397	Soteriades	268	1:3,302
397	Therapontos	268	1:3,302
399	Ktorides	266	1:3,327
399	Vlachou	266	1:3,327
401	Efthyvoulou	265	1:3,339
401	Gregoriades	265	1:3,339
401	Patsalos	265	1:3,339
404	Konnari	264	1:3,352
404	Phedonos	264	1:3,352
404	Theodorides	264	1:3,352
407	Joseph	262	1:3,377
407	Lazari	262	1:3,377
409	Vassili	261	1:3,390
410	Artemi	259	1:3,417
410	Kallenos	259	1:3,417
410	Papavassiliou	259	1:3,417
413	Hadjiantonis	258	1:3,430
413	Menikou	258	1:3,430
413	Photi	258	1:3,430
416	Tsolakis	257	1:3,443
417	Hadjisavva	255	1:3,470
418	Asprou	254	1:3,484
418	Eleftheriades	254	1:3,484
418	Mavri	254	1:3,484
418	Mouzouris	254	1:3,484
422	Mouskos	253	1:3,498
423	Grigoriou	252	1:3,511
423	Koutsoftas	252	1:3,511
425	Assiotis	251	1:3,525
425	Makris	251	1:3,525
425	Pitsillos	251	1:3,525
425	Valanides	251	1:3,525
429	Agathokleous	250	1:3,540
429	Zambas	250	1:3,540
431	Hadjittofi	249	1:3,554
431	Rodosthenous	249	1:3,554
433	Venizelou	248	1:3,568
433	Vrachimis	248	1:3,568
435	Kakouris	246	1:3,597
435	Paphiti	246	1:3,597
437	Patsalidou	245	1:3,612
438	Meletiou	244	1:3,627
439	Kanari	243	1:3,641
439	Kontou	243	1:3,641
439	Kritikos	243	1:3,641
442	Hadjipavlou	242	1:3,657
442	Ierodiaconou	242	1:3,657
442	Paschalis	242	1:3,657
445	Neokleous	241	1:3,672
446	Drakou	239	1:3,702
446	Hadjiandreou	239	1:3,702
446	Moyseos	239	1:3,702
449	Solonos	238	1:3,718
450	Pieridou	237	1:3,734
451	Hadjicosti	236	1:3,749
451	Kattou	236	1:3,749
451	Papayiannis	236	1:3,749
454	Toumbas	234	1:3,782
455	Tsingis	233	1:3,798
456	Antoni	231	1:3,831
456	Papettas	231	1:3,831
456	Telemachou	231	1:3,831
459	Hadjichristou	230	1:3,847
459	Sokratous	230	1:3,847
459	Thrasyvoulou	230	1:3,847
462	Genethliou	229	1:3,864
462	Karageorgis	229	1:3,864
462	Parpas	229	1:3,864
462	Savvas	229	1:3,864
462	Zorpas	229	1:3,864
467	Lysandrou	228	1:3,881
467	Orphanidou	228	1:3,881
467	Papadakis	228	1:3,881
467	Vryoni	228	1:3,881
471	Iacovidou	227	1:3,898
471	Petri	227	1:3,898
471	Rossides	227	1:3,898
474	Lazarides	226	1:3,915
474	Pitta	226	1:3,915
474	Stavrides	226	1:3,915
474	Zannetou	226	1:3,915
478	Kassapis	225	1:3,933
478	Patsias	225	1:3,933
480	Aspris	224	1:3,950
480	Messios	224	1:3,950
482	Avraamidou	223	1:3,968
482	Evangelides	223	1:3,968
482	Flouri	223	1:3,968
482	Ktori	223	1:3,968
482	Papayianni	223	1:3,968
482	Pilavakis	223	1:3,968
488	Panaretou	222	1:3,986
489	Tsangaridou	221	1:4,004
490	Christoforides	220	1:4,022
490	Iordanous	220	1:4,022
490	Philippidou	220	1:4,022
490	Zenios	220	1:4,022
494	Kyprou	219	1:4,041
495	Clerides	218	1:4,059
495	Hadjicostis	218	1:4,059
495	Yiacoumi	218	1:4,059
498	Hadjiantoniou	217	1:4,078
498	Hadjicosta	217	1:4,078
500	Lanitis	215	1:4,116
500	Wright	215	1:4,116
502	Panayiotides	214	1:4,135
503	Angelidou	213	1:4,154
503	Diomedous	213	1:4,154
503	Kyrillou	213	1:4,154
503	Theori	213	1:4,154
507	Souroullas	210	1:4,214
507	Stephanides	210	1:4,214
507	Tsiartas	210	1:4,214
510	Ierodiakonou	209	1:4,234
510	Kaizer	209	1:4,234
510	Komodromou	209	1:4,234
510	Papaloizou	209	1:4,234
510	Papastavrou	209	1:4,234
510	Patsalou	209	1:4,234
516	Hadjicostas	207	1:4,275
516	Koumides	207	1:4,275
516	Matheou	207	1:4,275
516	Mavroudes	207	1:4,275
516	Melas	207	1:4,275
516	Soteri	207	1:4,275
522	Vrontis	206	1:4,296
523	Fotiou	205	1:4,316
523	Hadjiconstantinou	205	1:4,316
523	Hadjistyllis	205	1:4,316
523	Pastou	205	1:4,316
527	Charidemou	204	1:4,338
527	Josephides	204	1:4,338
527	Marti	204	1:4,338
530	Meli	203	1:4,359
531	Frantzis	202	1:4,381
531	Othonos	202	1:4,381
531	Sakkas	202	1:4,381
534	Kypri	201	1:4,402
535	Mavroudis	200	1:4,424
535	Mouskou	200	1:4,424
535	Psara	200	1:4,424
535	Taliotis	200	1:4,424
539	Georgallides	199	1:4,447
539	Mavris	199	1:4,447
539	Miliotis	199	1:4,447
542	David	198	1:4,469
542	Dimosthenous	198	1:4,469
542	Onisiforou	198	1:4,469
542	Voskou	198	1:4,469
546	Papacostas	197	1:4,492
547	Georgios	196	1:4,515
547	Lefteri	196	1:4,515
547	Stavrinidou	196	1:4,515
550	Papaefstathiou	195	1:4,538
550	Shiakalli	195	1:4,538
550	Taylor	195	1:4,538
553	Mavrommati	194	1:4,561
553	Minas	194	1:4,561
553	Papouis	194	1:4,561
553	Stratis	194	1:4,561
557	Elisseou	193	1:4,585
557	Frangos	193	1:4,585
557	Katsaris	193	1:4,585
557	Poullos	193	1:4,585
561	Valiantis	192	1:4,609
561	Vorkas	192	1:4,609
563	Hadjinicola	191	1:4,633
563	Kolios	191	1:4,633
563	Ploutarchou	191	1:4,633
566	Anaxagorou	190	1:4,657
566	Marangou	190	1:4,657
566	Psaltis	190	1:4,657
566	Sotiriou	190	1:4,657
570	Frangeskou	189	1:4,682
571	Tzionis	188	1:4,707
571	Vlachos	188	1:4,707
573	Mavrides	187	1:4,732
574	Taki	186	1:4,757
575	Ierides	185	1:4,783
575	Kourris	185	1:4,783
575	Solomonidou	185	1:4,783
578	Aristeidou	184	1:4,809
578	Makriyiannis	184	1:4,809
578	Mikellides	184	1:4,809
578	Zantis	184	1:4,809
582	Eracleous	183	1:4,835
582	Hadjipanayiotou	183	1:4,835
584	Iasonos	182	1:4,862
584	Lytras	182	1:4,862
584	Mitsides	182	1:4,862
587	Stylli	181	1:4,889
588	Kareklas	180	1:4,916
588	Nikola	180	1:4,916
588	Pieris	180	1:4,916
591	Mama	179	1:4,943
591	Papadamou	179	1:4,943
591	Ttofi	179	1:4,943
591	Yiassemi	179	1:4,943
595	Araouzos	177	1:4,999
595	Moustakas	177	1:4,999
595	Yiassoumi	177	1:4,999
598	Fellas	176	1:5,028
598	Kazamia	176	1:5,028
598	Perdios	176	1:5,028
598	Yiallourou	176	1:5,028
598	Zachariadou	176	1:5,028
603	Hadjimitsis	175	1:5,056
603	Markidou	175	1:5,056
605	Kadi	174	1:5,085
605	Rotsides	174	1:5,085
605	Strouthos	174	1:5,085
608	Kosta	173	1:5,115
608	Koukkoullis	173	1:5,115
608	Kourri	173	1:5,115
608	Tziortzis	173	1:5,115
612	Karatzias	172	1:5,145
612	Pavli	172	1:5,145
612	Perikleous	172	1:5,145
612	Tyrimou	172	1:5,145
616	Brown	171	1:5,175
617	Davies	170	1:5,205
617	Kleovoulou	170	1:5,205
617	Papaiacovou	170	1:5,205
617	Serghides	170	1:5,205
617	Tsokkos	170	1:5,205
622	Fysentzou	169	1:5,236
622	Lambrianides	169	1:5,236
624	Krashias	168	1:5,267
625	Georgiadis	167	1:5,299
625	Theologou	167	1:5,299
625	Zannetos	167	1:5,299
628	Lamprou	166	1:5,331
629	Messaritis	165	1:5,363
629	Mitsingas	165	1:5,363
629	Photiades	165	1:5,363
629	Williams	165	1:5,363
633	Georgalli	164	1:5,396
633	Lyssiotis	164	1:5,396
633	Perdiou	164	1:5,396
636	Gerasimou	163	1:5,429
636	Lambi	163	1:5,429
636	Makariou	163	1:5,429
636	Papazachariou	163	1:5,429
640	Ermogenous	162	1:5,462
640	Koushiappas	162	1:5,462
640	Livadiotis	162	1:5,462
640	Parperi	162	1:5,462
640	Pipis	162	1:5,462
640	Yiakoumi	162	1:5,462
646	Symeonidou	161	1:5,496
647	Kaloyirou	160	1:5,530
647	Kapetaniou	160	1:5,530
647	Martin	160	1:5,530
650	Athanassi	159	1:5,565
650	Hadjivassili	159	1:5,565
650	Koumbaris	159	1:5,565
650	Leandrou	159	1:5,565
650	Soleas	159	1:5,565
650	Strouthou	159	1:5,565
650	Taliadoros	159	1:5,565
650	Wilson	159	1:5,565
658	Karoullas	158	1:5,600
659	Argyridou	157	1:5,636
659	Aristides	157	1:5,636
659	Pashias	157	1:5,636
662	Chimonas	156	1:5,672
662	Christaki	156	1:5,672
662	Loucaidou	156	1:5,672
662	Marneros	156	1:5,672
662	Metaxa	156	1:5,672
662	Pantazis	156	1:5,672
668	Monoyios	155	1:5,709
669	Chimona	154	1:5,746
669	Giorgalli	154	1:5,746
669	Kallinikou	154	1:5,746
669	Olympiou	154	1:5,746
669	Varianos	154	1:5,746
669	Varnavides	154	1:5,746
669	Yiallouris	154	1:5,746
676	George	153	1:5,784
676	Papadouris	153	1:5,784
676	Pissarides	153	1:5,784
676	Syrimis	153	1:5,784
676	Triantafyllides	153	1:5,784
681	Alambritis	152	1:5,822
681	Efthimiou	152	1:5,822
681	Frixou	152	1:5,822
681	Gavrielidou	152	1:5,822
685	Diakos	151	1:5,860
685	Koulermou	151	1:5,860
685	Lagos	151	1:5,860
685	Mouzouri	151	1:5,860
685	Xinaris	151	1:5,860
690	Neoptolemou	150	1:5,899
690	Paraskevas	150	1:5,899
690	Paroutis	150	1:5,899
690	Valanidou	150	1:5,899
690	Zavos	150	1:5,899
695	Georgallis	149	1:5,939
695	Germanos	149	1:5,939
695	Karaiskakis	149	1:5,939
695	Macri	149	1:5,939
695	Michailidis	149	1:5,939
695	Papapavlou	149	1:5,939
695	Parmaxis	149	1:5,939
695	Rousou	149	1:5,939
695	Stassi	149	1:5,939
704	Efthymiades	148	1:5,979
704	Makridou	148	1:5,979
704	Mastrou	148	1:5,979
704	Vakanas	148	1:5,979
704	Zinonos	148	1:5,979
709	Aspri	147	1:6,020
709	Kasparis	147	1:6,020
711	Fiakkou	146	1:6,061
711	Sergides	146	1:6,061
713	Averkiou	145	1:6,103
713	Christos	145	1:6,103
713	Efrem	145	1:6,103
713	Karamanos	145	1:6,103
713	Papalouca	145	1:6,103
713	Patsalis	145	1:6,103
713	Ttofa	145	1:6,103
713	Yiatrou	145	1:6,103
721	Karekla	144	1:6,145
721	Kitsios	144	1:6,145
723	Athienitis	143	1:6,188
723	Hadjipanteli	143	1:6,188
723	Hadjipapas	143	1:6,188
723	Hadjithoma	143	1:6,188
723	Hadjizacharia	143	1:6,188
723	Orfanou	143	1:6,188
723	Pittalis	143	1:6,188
730	Karyos	142	1:6,232
730	Kyzas	142	1:6,232
730	Procopi	142	1:6,232
730	Theofilou	142	1:6,232
730	Zakou	142	1:6,232
735	Englezos	141	1:6,276
735	Hadjisoteriou	141	1:6,276
735	Paraschou	141	1:6,276
735	Pitsillidou	141	1:6,276
735	Vladimirou	141	1:6,276
740	Alkiviadou	139	1:6,366
740	Apostolidou	139	1:6,366
740	Pafitis	139	1:6,366
740	Santis	139	1:6,366
744	Lagou	138	1:6,412
744	Laos	138	1:6,412
744	Tsoukkas	138	1:6,412
744	Vrakas	138	1:6,412
748	Emmanouel	137	1:6,459
748	Kleopa	137	1:6,459
748	Koliandris	137	1:6,459
748	Samouel	137	1:6,459
752	Ashiotis	136	1:6,506
752	Jackson	136	1:6,506
752	Kafkalias	136	1:6,506
752	Kamilaris	136	1:6,506
752	Koulountis	136	1:6,506
752	Michalis	136	1:6,506
752	Paschalides	136	1:6,506
759	Anderson	135	1:6,555
759	Johnson	135	1:6,555
759	Pambakas	135	1:6,555
759	Skarparis	135	1:6,555
759	Venizelos	135	1:6,555
759	Yerolemou	135	1:6,555
765	Florides	134	1:6,604
765	Hadjineophytou	134	1:6,604
765	Koupparis	134	1:6,604
765	Leventis	134	1:6,604
765	Parpounas	134	1:6,604
770	Maria	133	1:6,653
770	Mavrikios	133	1:6,653
770	Miller	133	1:6,653
770	Phili	133	1:6,653
770	Schiza	133	1:6,653
770	Stefanov	133	1:6,653
770	Tillyros	133	1:6,653
777	Colocassides	132	1:6,704
777	Georgakis	132	1:6,704
777	Giagkou	132	1:6,704
777	Hadjimattheou	132	1:6,704
777	Karagiorgis	132	1:6,704
777	Kyprianidou	132	1:6,704
777	Sarri	132	1:6,704
777	Sozou	132	1:6,704
785	Ioannoy	131	1:6,755
785	Konstanti	131	1:6,755
785	Malekkos	131	1:6,755
785	Mavrogenis	131	1:6,755
785	Peratikos	131	1:6,755
790	Karapatakis	130	1:6,807
790	Kekkou	130	1:6,807
790	Perdikos	130	1:6,807
790	Zanti	130	1:6,807
794	Athanassiadou	129	1:6,860
794	Kitromilides	129	1:6,860
794	Kouzalis	129	1:6,860
794	Mantis	129	1:6,860
794	Tomazou	129	1:6,860
794	Xanthou	129	1:6,860
794	Yiallourides	129	1:6,860
801	Aristodimou	128	1:6,913
801	Pantazi	128	1:6,913
801	Victoros	128	1:6,913
801	Vrachimi	128	1:6,913
805	Anastassiadou	127	1:6,968
805	Hadjiphilippou	127	1:6,968
805	Hadjittofis	127	1:6,968
805	Isaac	127	1:6,968
809	Agesilaou	126	1:7,023
809	Georgallas	126	1:7,023
809	Kiriakou	126	1:7,023
809	Kkailis	126	1:7,023
809	Pastos	126	1:7,023
809	Strati	126	1:7,023
815	Chrysiliou	125	1:7,079
815	Kouroushis	125	1:7,079
815	Mamas	125	1:7,079
815	Paraskevopoulos	125	1:7,079
815	Santi	125	1:7,079
815	Skourou	125	1:7,079
821	Kasapis	124	1:7,136
821	Koulas	124	1:7,136
821	Stephanidou	124	1:7,136
824	Kamenos	123	1:7,194
824	Karpasitis	123	1:7,194
824	Potamitou	123	1:7,194
824	Roti	123	1:7,194
824	Stavrinos	123	1:7,194
829	Anastasiades	122	1:7,253
829	Kourtis	122	1:7,253
829	Moustaka	122	1:7,253
829	Theocharidou	122	1:7,253
833	Dionysiou	121	1:7,313
833	Kapetanios	121	1:7,313
833	Mavronicolas	121	1:7,313
833	Papanicola	121	1:7,313
833	Sideras	121	1:7,313
838	Antonopoulos	120	1:7,374
838	Danos	120	1:7,374
838	Giannakou	120	1:7,374
838	Kakouri	120	1:7,374
838	Larkou	120	1:7,374
838	Pentaras	120	1:7,374
838	Psilogenis	120	1:7,374
845	Hadjistylli	119	1:7,436
845	Katelaris	119	1:7,436
845	Kontopoulos	119	1:7,436
845	Kouppas	119	1:7,436
845	Matsis	119	1:7,436
845	Papaspyrou	119	1:7,436
845	Pattichi	119	1:7,436
845	Pitsillou	119	1:7,436
845	Sakka	119	1:7,436
845	Tymvios	119	1:7,436
845	Tziakouris	119	1:7,436
856	Aloneftis	118	1:7,499
856	Ayios	118	1:7,499
856	Goumenou	118	1:7,499
856	Hadjigavriel	118	1:7,499
856	Hadjikyriacos	118	1:7,499
856	Kolokotronis	118	1:7,499
856	Marinos	118	1:7,499
856	Mavromoustakis	118	1:7,499
856	Parperis	118	1:7,499
865	Green	117	1:7,563
865	Kozakos	117	1:7,563
865	Mikellis	117	1:7,563
865	Orfanides	117	1:7,563
865	Pantziaros	117	1:7,563
870	Alecou	116	1:7,628
870	Dalitis	116	1:7,628
870	Evans	116	1:7,628
870	Flouris	116	1:7,628
870	Mcdonalds	116	1:7,628
870	Papanikolaou	116	1:7,628
870	Rossos	116	1:7,628
870	Shiatis	116	1:7,628
870	Thomas	116	1:7,628
879	Alkiviadous	115	1:7,695
879	Karseras	115	1:7,695
879	Kavazis	115	1:7,695
879	Koumis	115	1:7,695
879	Koursaros	115	1:7,695
879	Mappourides	115	1:7,695
879	Matsangos	115	1:7,695
879	Meliniotis	115	1:7,695
879	Menicou	115	1:7,695
879	Papachrysostomou	115	1:7,695
879	Phoka	115	1:7,695
879	Toumba	115	1:7,695
879	Vorka	115	1:7,695
879	Vrahimis	115	1:7,695
893	Hinis	114	1:7,762
893	Kritiotis	114	1:7,762
893	Neophytides	114	1:7,762
893	Peleties	114	1:7,762
893	Petsa	114	1:7,762
893	Shiailis	114	1:7,762
893	Tanos	114	1:7,762
900	Fella	113	1:7,831
900	Hadjipieris	113	1:7,831
900	Isaak	113	1:7,831
900	Kapsalis	113	1:7,831
900	Kiliaris	113	1:7,831
900	Liasides	113	1:7,831
900	Nikandrou	113	1:7,831
900	Papaneophytou	113	1:7,831
900	Poyiadji	113	1:7,831
900	Simillides	113	1:7,831
900	Skourides	113	1:7,831
911	Charitonos	112	1:7,901
911	Evdokimou	112	1:7,901
911	Kambouris	112	1:7,901
911	Kosma	112	1:7,901
911	Koullapis	112	1:7,901
911	Lefkatis	112	1:7,901
911	Papachristou	112	1:7,901
911	Taliadorou	112	1:7,901
911	Tyrimos	112	1:7,901
920	Costas	111	1:7,972
920	Ioulianou	111	1:7,972
920	Katsouri	111	1:7,972
920	Kimonos	111	1:7,972
920	Pamboris	111	1:7,972
925	Antreou	110	1:8,044
925	Kephalas	110	1:8,044
925	Koursaris	110	1:8,044
925	Mappouras	110	1:8,044
925	Moulazimis	110	1:8,044
925	Potamou	110	1:8,044
925	Toumazis	110	1:8,044
932	Ali	109	1:8,118
932	Archontides	109	1:8,118
932	Aristocleous	109	1:8,118
932	Georgiade	109	1:8,118
932	Gianni	109	1:8,118
932	Iosifides	109	1:8,118
932	Loutsios	109	1:8,118
932	Papaphylactou	109	1:8,118
932	Soteriadou	109	1:8,118
932	Stefani	109	1:8,118
942	Anthimou	108	1:8,193
942	Diamanti	108	1:8,193
942	Messiou	108	1:8,193
942	Olymbios	108	1:8,193
942	Papaeleftheriou	108	1:8,193
942	Parpa	108	1:8,193
942	Rousos	108	1:8,193
942	Tofarides	108	1:8,193
950	Chrysostomides	107	1:8,270
950	Fessas	107	1:8,270
950	Gregori	107	1:8,270
950	Gregoriadou	107	1:8,270
950	Hadjisolomou	107	1:8,270
950	Kkolos	107	1:8,270
950	Koliandri	107	1:8,270
950	Koniotis	107	1:8,270
950	Papaloucas	107	1:8,270
950	Papathomas	107	1:8,270
950	Psomas	107	1:8,270
961	Avgoustis	106	1:8,348
961	Frangoudes	106	1:8,348
961	Konstantinidou	106	1:8,348
961	Marathefti	106	1:8,348
961	Marios	106	1:8,348
961	Papathanassiou	106	1:8,348
967	Douglas	105	1:8,427
967	Epaminondas	105	1:8,427
967	Georgiev	105	1:8,427
967	Harris	105	1:8,427
967	Karakannas	105	1:8,427
967	Kittou	105	1:8,427
967	Makrigeorgis	105	1:8,427
967	Mouzouros	105	1:8,427
967	Pantelis	105	1:8,427
967	Skordi	105	1:8,427
967	Varellas	105	1:8,427
978	Kouroufexis	104	1:8,508
978	Kourtellas	104	1:8,508
978	Mavrokordatos	104	1:8,508
978	Skouroumounis	104	1:8,508
982	Frantzeskou	103	1:8,591
982	Koumbari	103	1:8,591
982	Koutsides	103	1:8,591
982	Ktoris	103	1:8,591
982	Ladas	103	1:8,591
982	Malekkides	103	1:8,591
982	Papagregoriou	103	1:8,591
982	Pouros	103	1:8,591
982	Samaras	103	1:8,591
982	Theochari	103	1:8,591
982	Thompson	103	1:8,591
982	Yiasoumi	103	1:8,591
994	Christakis	102	1:8,675
994	Kitas	102	1:8,675
994	Konstantinidis	102	1:8,675
994	Koudounas	102	1:8,675
994	Koullouros	102	1:8,675
994	Kourouyiannis	102	1:8,675
994	Koutsofta	102	1:8,675
994	Pittakas	102	1:8,675
994	Vatyliotis	102	1:8,675
994	Zakos	102	1:8,675