1	Nováková	31,268	1:340
2	Novák	28,058	1:379
3	Svobodová	27,033	1:393
4	Svoboda	26,560	1:400
5	Novotná	25,485	1:417
6	Novotný	24,344	1:437
7	Dvořáková	21,512	1:494
8	Dvořák	20,086	1:529
9	Černá	18,895	1:563
10	Černý	17,423	1:610
11	Procházková	15,534	1:685
12	Procházka	15,488	1:687
13	Kučera	14,995	1:709
14	Kučerová	14,874	1:715
15	Veselá	13,279	1:801
16	Horáková	13,039	1:816
17	Veselý	12,363	1:860
18	Horák	12,142	1:876
19	Krejčí	11,763	1:904
20	Marek	11,341	1:938
21	Pospíšilová	11,146	1:954
22	Pokorná	11,134	1:955
23	Marková	11,120	1:956
24	Pokorný	11,039	1:963
25	Pospíšil	10,571	1:1,006
26	Hájek	10,174	1:1,045
27	Benešová	10,144	1:1,048
28	Králová	10,092	1:1,054
29	Beneš	9,736	1:1,092
30	Fialová	9,701	1:1,096
31	Fiala	9,654	1:1,101
32	Zemanová	9,317	1:1,141
33	Král	9,311	1:1,142
34	Zeman	9,251	1:1,149
35	Doležalová	9,222	1:1,153
36	Hájková	9,094	1:1,169
37	Sedláček	8,919	1:1,192
38	Sedláčková	8,895	1:1,195
39	Jelínková	8,587	1:1,238
40	Čermáková	8,545	1:1,244
41	Doležal	8,380	1:1,269
42	Navrátil	8,287	1:1,283
43	Růžičková	8,167	1:1,302
44	Navrátilová	8,050	1:1,321
45	Urban	8,036	1:1,323
46	Urbanová	8,025	1:1,325
47	Čermák	8,021	1:1,326
48	Růžička	7,972	1:1,334
49	Jelínek	7,769	1:1,369
50	Němec	7,639	1:1,392
51	Kopecká	7,534	1:1,411
52	Blažková	7,490	1:1,420
53	Novak	7,297	1:1,457
54	Vlčková	7,184	1:1,480
55	Blažek	7,162	1:1,485
56	Musil	7,109	1:1,496
57	Kříž	7,073	1:1,503
58	Vlček	7,068	1:1,504
59	Malá	7,047	1:1,509
60	Konečná	7,041	1:1,510
61	Bartošová	6,978	1:1,524
62	Musilová	6,960	1:1,528
63	Šimková	6,956	1:1,529
64	Machová	6,921	1:1,536
65	Němcová	6,897	1:1,542
66	Kadlec	6,794	1:1,565
67	Holubová	6,792	1:1,566
68	Kopecký	6,766	1:1,572
69	Kadlecová	6,742	1:1,577
70	Blahová	6,690	1:1,589
71	Holub	6,683	1:1,591
72	Bartoš	6,635	1:1,603
73	Malý	6,633	1:1,603
74	Štěpánková	6,621	1:1,606
75	Soukup	6,577	1:1,617
76	Soukupová	6,558	1:1,621
77	Vaněk	6,557	1:1,622
78	Poláková	6,487	1:1,639
79	Šimek	6,452	1:1,648
80	Štěpánek	6,407	1:1,660
81	Křížová	6,351	1:1,674
82	Valentová	6,217	1:1,710
83	Moravec	6,186	1:1,719
84	Moravcová	6,165	1:1,725
85	Konečný	6,159	1:1,726
86	Šťastný	6,064	1:1,754
87	Polák	6,051	1:1,757
88	Mašková	6,014	1:1,768
89	Marešová	6,004	1:1,771
90	Matoušková	5,991	1:1,775
91	Valenta	5,962	1:1,784
92	Tichý	5,927	1:1,794
93	Müllerová	5,899	1:1,803
94	Tichá	5,883	1:1,807
95	Čechová	5,823	1:1,826
96	Čech	5,804	1:1,832
97	Krejčová	5,792	1:1,836
98	Müller	5,771	1:1,843
99	Šťastná	5,759	1:1,846
100	Burešová	5,737	1:1,853
101	Kolářová	5,723	1:1,858
102	Matoušek	5,718	1:1,860
103	Kolář	5,710	1:1,862
104	Jandová	5,682	1:1,871
105	Blaha	5,665	1:1,877
106	Hrušková	5,581	1:1,905
107	Dušková	5,555	1:1,914
108	Janda	5,517	1:1,927
109	Kovář	5,508	1:1,931
110	Mareš	5,480	1:1,940
111	Kovářová	5,478	1:1,941
112	Hruška	5,474	1:1,943
113	Bureš	5,422	1:1,961
114	Martinková	5,394	1:1,971
115	Sýkorová	5,346	1:1,989
116	Mach	5,345	1:1,989
117	Říhová	5,343	1:1,990
118	Hrubý	5,327	1:1,996
119	Mašek	5,309	1:2,003
120	Ševčíková	5,303	1:2,005
121	Hrubá	5,297	1:2,007
122	Dušek	5,280	1:2,014
123	Vávra	5,264	1:2,020
124	Staněk	5,233	1:2,032
125	Havlíček	5,196	1:2,046
126	Beranová	5,195	1:2,047
127	Tomanová	5,133	1:2,072
128	Toman	5,107	1:2,082
129	Vacková	5,102	1:2,084
130	Beran	5,089	1:2,090
131	Říha	5,078	1:2,094
132	Sýkora	5,070	1:2,097
133	Nemcová	5,046	1:2,107
134	Vacek	5,017	1:2,119
135	Havlíčková	4,920	1:2,161
136	Vaňková	4,911	1:2,165
137	Janečková	4,902	1:2,169
138	Pešková	4,877	1:2,180
139	Fišerová	4,822	1:2,205
140	Sedláková	4,811	1:2,210
140	Stejskal	4,811	1:2,210
142	Stejskalová	4,809	1:2,211
143	Martinek	4,779	1:2,225
144	Macháček	4,777	1:2,226
145	Pavlík	4,752	1:2,238
146	Švecová	4,746	1:2,241
147	Ježková	4,736	1:2,245
148	Švec	4,734	1:2,246
149	Kovaříková	4,732	1:2,247
150	Strnad	4,721	1:2,252
151	Ševčík	4,720	1:2,253
152	Strnadová	4,717	1:2,254
153	Pavlíková	4,707	1:2,259
154	Sedlák	4,665	1:2,279
155	Krausová	4,647	1:2,288
156	Jarošová	4,638	1:2,293
157	Žáková	4,636	1:2,294
158	Kratochvilová	4,612	1:2,306
159	Slavíková	4,600	1:2,312
160	Ježek	4,554	1:2,335
161	Horáčková	4,520	1:2,353
162	Kovařík	4,514	1:2,356
163	Jaroš	4,504	1:2,361
164	Beránková	4,448	1:2,391
165	Novaková	4,411	1:2,411
166	Slavík	4,409	1:2,412
167	Kraus	4,367	1:2,435
168	Havlová	4,344	1:2,448
169	Žák	4,340	1:2,450
170	Tesařová	4,303	1:2,471
171	Horáček	4,282	1:2,483
172	Beránek	4,270	1:2,490
173	Bílek	4,228	1:2,515
174	Prokop	4,222	1:2,519
175	Prokopová	4,214	1:2,523
176	Brožová	4,194	1:2,535
176	Havel	4,194	1:2,535
178	Kratochvil	4,185	1:2,541
179	Kočí	4,184	1:2,541
180	Fišer	4,172	1:2,549
181	Kohoutová	4,146	1:2,565
182	Suchá	4,145	1:2,565
183	Kohout	4,143	1:2,567
184	Kašparová	4,140	1:2,568
185	Pavelková	4,101	1:2,593
186	Petr	4,074	1:2,610
187	Pechová	4,071	1:2,612
188	Macková	4,057	1:2,621
188	Richter	4,057	1:2,621
190	Součková	4,052	1:2,624
191	Kašpar	4,047	1:2,627
192	Vítek	4,040	1:2,632
193	Tesař	4,036	1:2,635
194	Nemec	4,035	1:2,635
195	Havlíková	4,034	1:2,636
196	Janoušková	4,032	1:2,637
197	Šulcová	4,019	1:2,646
198	Brož	4,011	1:2,651
199	Němečková	3,988	1:2,666
199	Šulc	3,988	1:2,666
201	Straková	3,974	1:2,676
202	Suchý	3,970	1:2,678
203	Havlík	3,966	1:2,681
204	Němeček	3,960	1:2,685
205	Vávrová	3,956	1:2,688
206	Vítková	3,944	1:2,696
207	Pavlíček	3,940	1:2,699
208	Pešek	3,922	1:2,711
209	Janoušek	3,914	1:2,717
210	Havelková	3,900	1:2,727
211	Špačková	3,887	1:2,736
212	Straka	3,881	1:2,740
213	Souček	3,879	1:2,741
214	Čížková	3,859	1:2,755
215	Šmídová	3,840	1:2,769
216	Matějková	3,838	1:2,771
217	Jedličková	3,833	1:2,774
218	Janeček	3,828	1:2,778
219	Kratochvílová	3,823	1:2,781
220	Čížek	3,817	1:2,786
221	Richterová	3,797	1:2,800
222	Liška	3,790	1:2,806
223	Smejkalová	3,773	1:2,818
224	Havelka	3,771	1:2,820
225	Miková	3,751	1:2,835
226	Jedlička	3,718	1:2,860
227	Vrba	3,716	1:2,862
228	Zapletalová	3,714	1:2,863
228	Špaček	3,714	1:2,863
230	Filip	3,712	1:2,865
231	Franková	3,706	1:2,869
232	Červenková	3,692	1:2,880
233	Zapletal	3,689	1:2,882
234	Filipová	3,684	1:2,886
235	Kubíček	3,677	1:2,892
236	Šmíd	3,670	1:2,897
237	Smejkal	3,643	1:2,919
238	Vrbová	3,630	1:2,929
239	Bendová	3,619	1:2,938
239	Červenka	3,619	1:2,938
241	Hanák	3,616	1:2,941
242	Přibylová	3,610	1:2,946
243	Kratochvíl	3,601	1:2,953
244	Klíma	3,589	1:2,963
245	Pavlíčková	3,573	1:2,976
246	Staňková	3,568	1:2,980
247	Macek	3,563	1:2,984
248	Jeřábková	3,559	1:2,988
249	Petrová	3,558	1:2,989
250	Hlaváček	3,550	1:2,995
251	Dostalová	3,548	1:2,997
251	Mrázková	3,548	1:2,997
253	Stehlíková	3,545	1:3,000
254	Nová	3,540	1:3,004
255	Přibyl	3,505	1:3,034
256	Stanková	3,500	1:3,038
257	Benda	3,487	1:3,049
258	Urbánková	3,470	1:3,064
259	Stehlík	3,457	1:3,076
260	Hrdličková	3,452	1:3,080
261	Hladík	3,441	1:3,090
262	Linhartová	3,433	1:3,097
263	Tomášek	3,431	1:3,099
264	Linhart	3,429	1:3,101
265	Vlková	3,423	1:3,106
266	Holý	3,419	1:3,110
266	Volfová	3,419	1:3,110
268	Janků	3,418	1:3,111
268	Kozáková	3,418	1:3,111
270	Kozák	3,417	1:3,112
271	Hrdlička	3,415	1:3,114
272	Mrázek	3,408	1:3,120
273	Dostal	3,406	1:3,122
274	Pavelka	3,396	1:3,131
275	Vlk	3,391	1:3,136
276	Hladíková	3,380	1:3,146
277	Adamcová	3,378	1:3,148
278	Volf	3,376	1:3,150
279	Nový	3,337	1:3,187
280	Burian	3,335	1:3,188
281	Turková	3,331	1:3,192
282	Danková	3,323	1:3,200
283	Brabec	3,321	1:3,202
284	Burianová	3,319	1:3,204
285	David	3,316	1:3,207
286	Klimešová	3,315	1:3,208
287	Štěpánová	3,311	1:3,212
288	Adamec	3,309	1:3,213
289	Zelenka	3,301	1:3,221
290	Vanková	3,296	1:3,226
291	Zelenková	3,295	1:3,227
292	Jeřábek	3,291	1:3,231
293	Dvořáček	3,290	1:3,232
294	Matějka	3,287	1:3,235
295	Dostálová	3,283	1:3,239
295	Hanus	3,283	1:3,239
297	Hanusová	3,274	1:3,248
298	Brabcová	3,272	1:3,250
299	Dostál	3,263	1:3,259
300	Macháčková	3,260	1:3,262
301	Šindelářová	3,235	1:3,287
302	Davidová	3,230	1:3,292
303	Dvořáčková	3,229	1:3,293
304	Štěpán	3,228	1:3,294
305	Turek	3,223	1:3,299
306	Lišková	3,216	1:3,306
307	Hanáková	3,211	1:3,312
308	Málek	3,205	1:3,318
309	Skalová	3,195	1:3,328
309	Tumová	3,195	1:3,328
311	Holá	3,192	1:3,331
312	Šindelář	3,180	1:3,344
313	Trnka	3,142	1:3,384
314	Málková	3,134	1:3,393
315	Trnková	3,131	1:3,396
316	Dlouhá	3,113	1:3,416
317	Skala	3,094	1:3,437
318	Adámek	3,088	1:3,443
319	Bílková	3,087	1:3,445
320	Nováčková	3,083	1:3,449
321	Kořínková	3,062	1:3,473
322	Tomášková	3,054	1:3,482
323	Holečková	3,049	1:3,488
324	Tuma	3,047	1:3,490
325	Klimeš	3,039	1:3,499
325	Stránská	3,039	1:3,499
327	Daněk	3,032	1:3,507
328	Charvátová	3,021	1:3,520
329	Řezníčková	3,018	1:3,523
330	Hošková	3,014	1:3,528
331	Ptáčková	3,013	1:3,529
332	Urbánek	3,008	1:3,535
333	Dohnalová	3,005	1:3,539
334	Bárta	3,004	1:3,540
335	Nosková	2,997	1:3,548
336	Hlaváčová	2,983	1:3,565
337	Krátká	2,977	1:3,572
338	Nováček	2,976	1:3,573
339	Švarcová	2,973	1:3,577
340	Dohnal	2,972	1:3,578
341	Šrámek	2,971	1:3,579
342	Adámková	2,964	1:3,588
343	Řezníček	2,960	1:3,592
344	Čapková	2,958	1:3,595
345	Charvát	2,952	1:3,602
346	Horvath	2,948	1:3,607
347	Sládková	2,946	1:3,609
348	Kroupová	2,933	1:3,625
349	Ptáček	2,932	1:3,627
350	Chaloupková	2,929	1:3,630
351	Polášková	2,918	1:3,644
352	Šebestová	2,905	1:3,660
353	Kubíková	2,904	1:3,662
354	Gregorová	2,899	1:3,668
355	Kroupa	2,876	1:3,697
356	Krátký	2,872	1:3,702
357	Vodičková	2,871	1:3,704
358	Tomková	2,865	1:3,712
359	Sobotka	2,864	1:3,713
360	Holeček	2,863	1:3,714
360	Kořínek	2,863	1:3,714
362	Michálek	2,861	1:3,717
363	Dlouhý	2,860	1:3,718
364	Hlaváč	2,859	1:3,719
365	Dufková	2,856	1:3,723
366	Hošek	2,838	1:3,747
367	Bednářová	2,830	1:3,757
368	Sobotková	2,822	1:3,768
369	Kubík	2,815	1:3,777
370	Vlachová	2,814	1:3,779
370	Váňa	2,814	1:3,779
372	Bártová	2,811	1:3,783
373	Gregor	2,809	1:3,785
374	Nosek	2,799	1:3,799
375	Vlach	2,793	1:3,807
376	Suchánek	2,769	1:3,840
377	Komárková	2,764	1:3,847
378	Šrámková	2,762	1:3,850
378	Švarc	2,762	1:3,850
380	Mrázová	2,757	1:3,857
381	Slámová	2,756	1:3,858
382	Jirásková	2,752	1:3,864
383	Polášek	2,744	1:3,875
384	Prokešová	2,737	1:3,885
385	Kalinová	2,732	1:3,892
386	Kubát	2,729	1:3,896
387	Vodička	2,727	1:3,899
388	Sláma	2,724	1:3,904
389	Smetanová	2,723	1:3,905
390	Šedivá	2,719	1:3,911
391	Hermanová	2,714	1:3,918
392	Suchánková	2,711	1:3,922
393	Komárek	2,705	1:3,931
394	Smetana	2,690	1:3,953
395	Slezáková	2,688	1:3,956
396	Šebesta	2,678	1:3,971
397	Lukeš	2,675	1:3,975
398	Lukešová	2,668	1:3,986
399	Herman	2,667	1:3,987
400	Šedivý	2,663	1:3,993
401	Bednář	2,659	1:3,999
402	Sikora	2,644	1:4,022
403	Prokeš	2,638	1:4,031
404	Poláček	2,635	1:4,035
405	Sládek	2,632	1:4,040
406	Zajíčková	2,631	1:4,042
407	Peterková	2,628	1:4,046
408	Radová	2,623	1:4,054
409	Kalina	2,616	1:4,065
410	Mráz	2,610	1:4,074
410	Stránský	2,610	1:4,074
412	Červená	2,606	1:4,080
413	Chaloupka	2,592	1:4,102
413	Slezák	2,592	1:4,102
415	Březina	2,580	1:4,121
416	Čapek	2,579	1:4,123
417	Majerová	2,576	1:4,128
418	Poláčková	2,572	1:4,134
419	Březinová	2,569	1:4,139
420	Dufek	2,567	1:4,142
421	Burdová	2,566	1:4,144
422	Koudelková	2,558	1:4,157
423	Mikešová	2,556	1:4,160
424	Rada	2,553	1:4,165
425	Kopřivová	2,550	1:4,170
426	Burda	2,548	1:4,173
427	Koudelka	2,546	1:4,177
428	Sikorová	2,533	1:4,198
429	Žáčková	2,528	1:4,206
430	Majer	2,526	1:4,210
431	Vlasáková	2,523	1:4,215
432	Červený	2,522	1:4,216
433	Hofmanová	2,521	1:4,218
434	Klímová	2,518	1:4,223
435	Vlasák	2,517	1:4,225
436	Boháčová	2,507	1:4,242
437	Kubíčková	2,495	1:4,262
438	Štěrbová	2,494	1:4,264
439	Vašíček	2,493	1:4,265
440	Adam	2,488	1:4,274
441	Starý	2,486	1:4,277
442	Hlaváčková	2,484	1:4,281
442	Šebková	2,484	1:4,281
444	Jelinek	2,481	1:4,286
445	Kopřiva	2,478	1:4,291
446	Hofman	2,475	1:4,296
447	Večeřová	2,461	1:4,321
448	Zajíček	2,458	1:4,326
449	Fojtík	2,454	1:4,333
450	Duda	2,442	1:4,354
451	Bednárová	2,440	1:4,358
452	Žáček	2,439	1:4,360
453	Kouba	2,433	1:4,371
454	Přikrylová	2,430	1:4,376
454	Vondráčková	2,430	1:4,376
456	Bartoňová	2,428	1:4,380
457	Horký	2,426	1:4,383
457	Kocourek	2,426	1:4,383
459	Bauerová	2,423	1:4,389
460	Vondráček	2,421	1:4,392
461	Kuncová	2,419	1:4,396
462	Karásková	2,418	1:4,398
463	Dudová	2,415	1:4,403
464	Kocourková	2,412	1:4,409
465	Bartová	2,410	1:4,412
466	Doleželová	2,409	1:4,414
467	Koubová	2,408	1:4,416
468	Jindrová	2,407	1:4,418
469	Mikeš	2,402	1:4,427
470	Chalupová	2,400	1:4,431
471	Adamová	2,394	1:4,442
472	Kovač	2,391	1:4,447
473	Fojtíková	2,388	1:4,453
474	Tomek	2,384	1:4,460
475	Bartoň	2,376	1:4,475
475	Kuchařová	2,376	1:4,475
477	Ondráček	2,375	1:4,477
478	Bauer	2,373	1:4,481
478	Hudec	2,373	1:4,481
480	Jindra	2,371	1:4,485
481	Štěrba	2,369	1:4,489
482	Lisková	2,355	1:4,515
483	Coufal	2,344	1:4,536
484	Uhlířová	2,343	1:4,538
485	Zajícová	2,338	1:4,548
486	Kunc	2,337	1:4,550
487	Šebek	2,336	1:4,552
488	Přikryl	2,332	1:4,560
489	Kvapilová	2,328	1:4,568
490	Malíková	2,326	1:4,572
491	Chalupa	2,321	1:4,581
491	Zavadil	2,321	1:4,581
493	Valová	2,319	1:4,585
494	Vachová	2,315	1:4,593
495	Jílek	2,310	1:4,603
495	Vašíčková	2,310	1:4,603
495	Zavadilová	2,310	1:4,603
498	Berková	2,304	1:4,615
499	Pech	2,301	1:4,621
500	Smolíková	2,298	1:4,627
501	Divišová	2,296	1:4,631
502	Coufalová	2,294	1:4,635
503	Karásek	2,291	1:4,641
504	Böhmová	2,286	1:4,652
505	Hovorková	2,283	1:4,658
506	Francová	2,269	1:4,686
507	Žižková	2,268	1:4,688
508	Diviš	2,267	1:4,691
509	Simonová	2,266	1:4,693
510	Kovačová	2,260	1:4,705
511	Stará	2,256	1:4,713
512	Jílková	2,255	1:4,716
513	Boháč	2,253	1:4,720
513	Jirásek	2,253	1:4,720
515	Horvathová	2,248	1:4,730
516	Čejková	2,246	1:4,734
517	Vavrová	2,233	1:4,762
518	Kvapil	2,232	1:4,764
519	Zajíc	2,230	1:4,768
520	Doležel	2,223	1:4,783
521	Samková	2,222	1:4,786
522	Pánková	2,221	1:4,788
523	Váňová	2,220	1:4,790
524	Tučková	2,215	1:4,801
525	Havránek	2,214	1:4,803
526	Havránková	2,210	1:4,812
527	Červinková	2,202	1:4,829
528	Bartáková	2,200	1:4,833
528	Marečková	2,200	1:4,833
530	Hovorka	2,196	1:4,842
530	Uhlíř	2,196	1:4,842
532	Tůma	2,195	1:4,844
533	Valková	2,192	1:4,851
534	Zahradníková	2,190	1:4,855
535	Vašek	2,182	1:4,873
536	Barta	2,181	1:4,876
537	Kolárová	2,176	1:4,887
538	Křivánková	2,174	1:4,891
538	Řezáčová	2,174	1:4,891
540	Peterka	2,173	1:4,893
541	Hamplová	2,172	1:4,896
542	Tůmová	2,168	1:4,905
543	Šíma	2,165	1:4,912
544	Langer	2,159	1:4,925
545	Zatloukalová	2,155	1:4,934
546	Ružičková	2,152	1:4,941
547	Minaříková	2,150	1:4,946
548	Pánek	2,144	1:4,960
548	Smolík	2,144	1:4,960
550	Kulhánková	2,143	1:4,962
551	Melicharová	2,141	1:4,967
552	Škodová	2,140	1:4,969
553	Kubičková	2,139	1:4,971
554	Trojanová	2,134	1:4,983
555	Mareček	2,131	1:4,990
556	Böhm	2,126	1:5,002
556	Petrů	2,126	1:5,002
558	Melichar	2,124	1:5,006
558	Večeřa	2,124	1:5,006
558	Zahradník	2,124	1:5,006
561	Kosová	2,122	1:5,011
562	Uher	2,120	1:5,016
563	Kos	2,119	1:5,018
564	Bednár	2,118	1:5,021
565	Drábková	2,116	1:5,025
566	Jelinková	2,104	1:5,054
567	Trojan	2,103	1:5,056
568	Dolejší	2,101	1:5,061
569	Kolaříková	2,096	1:5,073
570	Drábek	2,094	1:5,078
570	Zatloukal	2,094	1:5,078
572	Čejka	2,092	1:5,083
573	Berka	2,091	1:5,085
574	Řezáč	2,087	1:5,095
575	Koutná	2,086	1:5,098
576	Tuček	2,083	1:5,105
577	Franc	2,079	1:5,115
577	Vala	2,079	1:5,115
579	Formánek	2,074	1:5,127
580	Uhrová	2,072	1:5,132
580	Žižka	2,072	1:5,132
582	Kulhánek	2,069	1:5,139
583	Neumannová	2,067	1:5,144
584	Křivánek	2,066	1:5,147
584	Mika	2,066	1:5,147
586	Hradilová	2,060	1:5,162
586	Kuchař	2,060	1:5,162
588	Matušková	2,058	1:5,167
589	Dobešová	2,056	1:5,172
590	Simon	2,054	1:5,177
591	Formánková	2,051	1:5,185
592	Skalická	2,047	1:5,195
593	Červinka	2,043	1:5,205
594	Škoda	2,040	1:5,212
595	Vaníčková	2,038	1:5,218
596	Šubrtová	2,036	1:5,223
597	Hampl	2,035	1:5,225
598	Barták	2,034	1:5,228
599	Válek	2,031	1:5,236
600	Hanzlíková	2,028	1:5,243
601	Horová	2,024	1:5,254
602	Veverka	2,020	1:5,264
603	Morávková	2,019	1:5,267
604	Neumann	2,017	1:5,272
605	Hubáček	2,016	1:5,275
606	Nečasová	2,014	1:5,280
606	Pelikánová	2,014	1:5,280
608	Zimová	2,009	1:5,293
609	Vítová	2,000	1:5,317
610	Koutný	1,999	1:5,319
611	Hubáčková	1,995	1:5,330
612	Balog	1,993	1:5,335
612	Hanzlík	1,993	1:5,335
612	Kupka	1,993	1:5,335
615	Vácha	1,986	1:5,354
616	Seidlová	1,981	1:5,368
617	Hradil	1,978	1:5,376
617	Řeháková	1,978	1:5,376
619	Dobeš	1,971	1:5,395
620	Martincová	1,966	1:5,409
620	Minařík	1,966	1:5,409
622	Veverková	1,963	1:5,417
623	Kubová	1,954	1:5,442
624	Trávníček	1,948	1:5,459
625	Houdková	1,944	1:5,470
626	Kupková	1,943	1:5,473
626	Vaníček	1,943	1:5,473
628	Kozel	1,941	1:5,478
629	Hora	1,937	1:5,490
630	Kubátová	1,934	1:5,498
631	Nečas	1,933	1:5,501
632	Houdek	1,930	1:5,510
633	Bláha	1,928	1:5,515
634	Zima	1,927	1:5,518
635	Popelková	1,926	1:5,521
635	Sochorová	1,926	1:5,521
637	Kozlová	1,925	1:5,524
638	Kolařík	1,924	1:5,527
639	Malina	1,923	1:5,530
640	Machačková	1,917	1:5,547
641	Lorenc	1,915	1:5,553
642	Hajková	1,914	1:5,556
642	Langová	1,914	1:5,556
644	Malinová	1,911	1:5,564
645	Popelka	1,910	1:5,567
646	Pražáková	1,909	1:5,570
647	Václavík	1,908	1:5,573
648	Hrdina	1,902	1:5,591
649	Hudcová	1,900	1:5,597
650	Morávek	1,894	1:5,614
651	Horká	1,890	1:5,626
651	Pelikán	1,890	1:5,626
653	Buchta	1,889	1:5,629
653	Lorencová	1,889	1:5,629
655	Vránová	1,888	1:5,632
656	Lang	1,887	1:5,635
657	Michálková	1,881	1:5,653
657	Seidl	1,881	1:5,653
659	Řehák	1,879	1:5,659
660	Balogová	1,877	1:5,665
661	Martinec	1,870	1:5,686
662	Kolár	1,869	1:5,689
663	Bilková	1,868	1:5,692
663	Langerová	1,868	1:5,692
665	Hrdinová	1,865	1:5,702
666	Malík	1,860	1:5,717
667	Šubrt	1,858	1:5,723
668	Křížek	1,850	1:5,748
669	Buchtová	1,849	1:5,751
670	Vít	1,848	1:5,754
671	Ryšavá	1,847	1:5,757
672	Ryšavý	1,846	1:5,760
673	Nejedlá	1,844	1:5,767
674	Kafková	1,842	1:5,773
675	Ondráčková	1,833	1:5,801
675	Václavíková	1,833	1:5,801
677	Kafka	1,832	1:5,804
678	Lacina	1,829	1:5,814
679	Ružička	1,828	1:5,817
680	Pekárková	1,826	1:5,823
681	Muchová	1,823	1:5,833
682	Lacinová	1,822	1:5,836
683	Trávníčková	1,821	1:5,839
684	Šafránek	1,816	1:5,855
685	Dvorák	1,815	1:5,859
686	Horváthová	1,812	1:5,868
686	Mucha	1,812	1:5,868
688	Janíčková	1,805	1:5,891
689	Machač	1,796	1:5,921
690	Plachá	1,795	1:5,924
691	Košťálová	1,794	1:5,927
692	Štefková	1,793	1:5,931
693	Kubešová	1,790	1:5,940
693	Pražák	1,790	1:5,940
695	Klimová	1,786	1:5,954
696	Zelinková	1,784	1:5,960
697	Janů	1,783	1:5,964
698	Kubín	1,775	1:5,991
699	Michalková	1,773	1:5,997
699	Pekárek	1,773	1:5,997
701	Vaculíková	1,770	1:6,008
702	Sochor	1,769	1:6,011
703	Skalický	1,763	1:6,031
704	Chládková	1,762	1:6,035
705	Hořejší	1,761	1:6,038
706	Šafránková	1,760	1:6,042
707	Nejedlý	1,759	1:6,045
708	Pavlů	1,756	1:6,056
709	Hašková	1,752	1:6,069
709	Pecha	1,752	1:6,069
711	Demeter	1,749	1:6,080
712	Valášková	1,748	1:6,083
712	Vyskočilová	1,748	1:6,083
712	Zemánková	1,748	1:6,083
715	Zelený	1,745	1:6,094
716	Vašková	1,740	1:6,111
717	Horváth	1,733	1:6,136
718	Schneider	1,728	1:6,154
718	Vyskočil	1,728	1:6,154
720	Zelená	1,726	1:6,161
721	Šmidová	1,718	1:6,189
722	Jonáš	1,715	1:6,200
722	Plachý	1,715	1:6,200
724	Samek	1,714	1:6,204
725	Smutná	1,713	1:6,208
726	Kocian	1,712	1:6,211
727	Machačová	1,710	1:6,218
728	Karasová	1,709	1:6,222
729	Hudečková	1,708	1:6,226
730	Bilý	1,707	1:6,229
730	Zelinka	1,707	1:6,229
732	Siváková	1,706	1:6,233
733	Dočkalová	1,705	1:6,237
734	Doubek	1,703	1:6,244
735	Hynková	1,701	1:6,251
735	Wagner	1,701	1:6,251
737	Zemánek	1,699	1:6,259
738	Homola	1,698	1:6,262
739	Barešová	1,697	1:6,266
740	Jonášová	1,694	1:6,277
741	Dvoráková	1,693	1:6,281
741	Sojková	1,693	1:6,281
743	Kuba	1,692	1:6,285
743	Valášek	1,692	1:6,285
745	Bareš	1,691	1:6,288
746	Brázdová	1,690	1:6,292
746	Doubková	1,690	1:6,292
748	Klein	1,689	1:6,296
749	Kurková	1,685	1:6,311
750	Sivák	1,684	1:6,314
751	Machalová	1,679	1:6,333
752	Smutný	1,677	1:6,341
753	Verner	1,675	1:6,348
753	Wagnerová	1,675	1:6,348
755	Kubeš	1,672	1:6,360
756	Kocianová	1,671	1:6,364
756	Prchalová	1,671	1:6,364
758	Ferenc	1,670	1:6,367
758	Polívka	1,670	1:6,367
760	Kleinová	1,668	1:6,375
761	Kostková	1,667	1:6,379
762	Dočkal	1,664	1:6,390
763	Karas	1,663	1:6,394
763	Čonka	1,663	1:6,394
765	Husáková	1,660	1:6,406
765	Šimůnková	1,660	1:6,406
767	Votavová	1,658	1:6,413
768	Hynek	1,655	1:6,425
768	Šestáková	1,655	1:6,425
770	Hlavatá	1,654	1:6,429
771	Mikulová	1,652	1:6,437
772	Křenková	1,651	1:6,441
773	Vaculík	1,650	1:6,445
774	Homolka	1,649	1:6,448
774	Šesták	1,649	1:6,448
776	Košťál	1,648	1:6,452
776	Šimůnek	1,648	1:6,452
778	Sojka	1,647	1:6,456
779	Prchal	1,646	1:6,460
780	Schneiderová	1,645	1:6,464
781	Hudeček	1,642	1:6,476
781	Kostka	1,642	1:6,476
783	Vernerová	1,641	1:6,480
784	Kovárová	1,640	1:6,484
785	Koubek	1,637	1:6,496
785	Vaněčková	1,637	1:6,496
787	Jakubcová	1,636	1:6,500
787	Polívková	1,636	1:6,500
789	Husák	1,633	1:6,512
790	Demeterová	1,632	1:6,516
790	Holíková	1,632	1:6,516
792	Homolková	1,630	1:6,524
793	Koubková	1,628	1:6,532
794	Nedvědová	1,624	1:6,548
795	Hloušek	1,620	1:6,564
795	Homolová	1,620	1:6,564
795	Votava	1,620	1:6,564
798	Vojtová	1,619	1:6,568
799	Bilá	1,616	1:6,580
800	Housková	1,615	1:6,584
801	Jakubec	1,609	1:6,609
802	Daniel	1,606	1:6,621
803	Jirků	1,604	1:6,629
804	Chládek	1,603	1:6,633
805	Kotková	1,602	1:6,638
806	Vondrová	1,598	1:6,654
807	Vondra	1,595	1:6,667
808	Antošová	1,590	1:6,688
809	Brázda	1,588	1:6,696
810	Michal	1,587	1:6,700
811	Nedvěd	1,586	1:6,705
812	Rašková	1,585	1:6,709
813	Holík	1,583	1:6,717
813	Matulová	1,583	1:6,717
815	Klementová	1,580	1:6,730
815	Křenek	1,580	1:6,730
817	Kovár	1,578	1:6,739
818	Kohoutková	1,577	1:6,743
819	Kotek	1,575	1:6,751
819	Sklenářová	1,575	1:6,751
821	Průša	1,574	1:6,756
822	Sklenář	1,572	1:6,764
823	Slabý	1,569	1:6,777
824	Danielová	1,568	1:6,782
824	Maříková	1,568	1:6,782
826	Schwarz	1,565	1:6,795
826	Čápová	1,565	1:6,795
828	Janovská	1,564	1:6,799
828	Sokolová	1,564	1:6,799
830	Kudrnová	1,563	1:6,803
831	Čiháková	1,562	1:6,808
832	Houska	1,557	1:6,829
833	Hlavatý	1,551	1:6,856
834	Zbořilová	1,550	1:6,860
835	Vaněček	1,548	1:6,869
836	Chytilová	1,547	1:6,874
836	Matula	1,547	1:6,874
836	Pilařová	1,547	1:6,874
836	Slavíčková	1,547	1:6,874
840	Ferencová	1,546	1:6,878
840	Klement	1,546	1:6,878
840	Sokol	1,546	1:6,878
843	Šimečková	1,544	1:6,887
844	Zachová	1,543	1:6,891
845	Kohoutek	1,540	1:6,905
846	Koláčková	1,538	1:6,914
847	Mařík	1,537	1:6,918
848	Spáčilová	1,535	1:6,927
849	Wolf	1,532	1:6,941
850	Hloušková	1,531	1:6,945
850	Wolfová	1,531	1:6,945
852	Bocková	1,528	1:6,959
852	Dolejšová	1,528	1:6,959
854	Vojta	1,527	1:6,964
854	Vranová	1,527	1:6,964
856	Křížková	1,526	1:6,968
856	Ludvík	1,526	1:6,968
856	Machala	1,526	1:6,968
856	Šnajdrová	1,526	1:6,968
860	Chovanec	1,524	1:6,977
861	Janíček	1,522	1:6,987
862	Chovancová	1,518	1:7,005
863	Liska	1,517	1:7,010
864	Dudková	1,512	1:7,033
865	Menšík	1,510	1:7,042
866	Hronová	1,509	1:7,047
867	Hlavačková	1,506	1:7,061
868	Menšíková	1,504	1:7,070
869	Gabrielová	1,502	1:7,080
870	Průšová	1,501	1:7,084
871	Fischerová	1,500	1:7,089
871	Gabriel	1,500	1:7,089
873	Smrčková	1,499	1:7,094
874	Hron	1,498	1:7,098
874	Kouřilová	1,498	1:7,098
874	Kuželová	1,498	1:7,098
874	Schwarzová	1,498	1:7,098
878	Bezděková	1,497	1:7,103
878	Janovský	1,497	1:7,103
880	Matuška	1,492	1:7,127
880	Olah	1,492	1:7,127
882	Krejčíková	1,491	1:7,132
883	Valeš	1,490	1:7,137
883	Valešová	1,490	1:7,137
883	Šimeček	1,490	1:7,137
886	Koláček	1,489	1:7,141
887	Vybíralová	1,488	1:7,146
888	Pilař	1,485	1:7,161
889	Baláž	1,483	1:7,170
890	Chytil	1,482	1:7,175
891	Eliášová	1,480	1:7,185
892	Antoš	1,479	1:7,190
893	Dolejš	1,477	1:7,199
894	Kouřil	1,476	1:7,204
894	Mikula	1,476	1:7,204
896	Zárubová	1,471	1:7,229
897	Vrana	1,469	1:7,239
898	Kudrna	1,467	1:7,248
898	Šolcová	1,467	1:7,248
900	Kašpárek	1,465	1:7,258
901	Spáčil	1,463	1:7,268
902	Kašpárková	1,462	1:7,273
902	Zbořil	1,462	1:7,273
904	Švejdová	1,460	1:7,283
905	Slavíček	1,459	1:7,288
906	Javůrková	1,457	1:7,298
907	Fischer	1,455	1:7,308
907	Krupičková	1,455	1:7,308
909	Pospíchalová	1,454	1:7,313
910	Zámečník	1,453	1:7,318
911	Čihák	1,451	1:7,328
912	Michalová	1,448	1:7,344
913	Frank	1,447	1:7,349
914	Jansová	1,445	1:7,359
914	Pecková	1,445	1:7,359
916	Krejčík	1,444	1:7,364
917	Ludvíková	1,442	1:7,374
917	Reháková	1,442	1:7,374
919	Chmelařová	1,440	1:7,384
919	Krupička	1,440	1:7,384
919	Zámečníková	1,440	1:7,384
922	Cibulková	1,438	1:7,395
922	Zika	1,438	1:7,395
924	Cibulka	1,437	1:7,400
924	Synková	1,437	1:7,400
926	Dudek	1,436	1:7,405
926	Kurka	1,436	1:7,405
928	Stanek	1,434	1:7,415
929	Dubský	1,432	1:7,426
929	Vojáčková	1,432	1:7,426
929	Ziková	1,432	1:7,426
932	Záruba	1,431	1:7,431
933	Landová	1,430	1:7,436
934	Brožková	1,428	1:7,446
935	Vybíral	1,427	1:7,452
936	Eliáš	1,425	1:7,462
936	Varga	1,425	1:7,462
938	Šolc	1,424	1:7,467
938	Švejda	1,424	1:7,467
940	Rehák	1,423	1:7,473
941	Pospíchal	1,420	1:7,488
942	Dubská	1,419	1:7,494
943	Spurná	1,418	1:7,499
943	Srbová	1,418	1:7,499
945	Hejna	1,416	1:7,510
946	Franek	1,411	1:7,536
946	Javůrek	1,411	1:7,536
948	Šnajdr	1,407	1:7,558
949	Bajerová	1,406	1:7,563
950	Zikmundová	1,402	1:7,584
951	Čáp	1,401	1:7,590
952	Synek	1,399	1:7,601
953	Kaňová	1,397	1:7,612
954	Bajer	1,395	1:7,623
955	Blechová	1,392	1:7,639
955	Pelcová	1,392	1:7,639
955	Vančurová	1,392	1:7,639
958	Vraná	1,390	1:7,650
959	Janíková	1,388	1:7,661
959	Kvasničková	1,388	1:7,661
959	Slováková	1,388	1:7,661
962	Průchová	1,387	1:7,667
963	Pelc	1,385	1:7,678
964	Zach	1,383	1:7,689
965	Pazderová	1,382	1:7,694
966	Kantorová	1,381	1:7,700
967	Bednaříková	1,380	1:7,705
968	Pařízková	1,375	1:7,733
969	Hladká	1,374	1:7,739
969	Hladký	1,374	1:7,739
971	Vojáček	1,373	1:7,745
972	Sovová	1,371	1:7,756
973	Jansa	1,370	1:7,762
973	Kantor	1,370	1:7,762
975	Tománková	1,369	1:7,767
976	Kvasnička	1,368	1:7,773
977	Balážová	1,367	1:7,779
977	Vagner	1,367	1:7,779
979	Vanek	1,366	1:7,784
980	Bednařík	1,365	1:7,790
981	Suková	1,364	1:7,796
982	Lukášová	1,363	1:7,802
983	Chmelíková	1,362	1:7,807
984	Hašek	1,361	1:7,813
985	Tománek	1,360	1:7,819
986	Knotková	1,359	1:7,824
986	Vargová	1,359	1:7,824
986	Šustrová	1,359	1:7,824
989	Janík	1,357	1:7,836
989	Kaplan	1,357	1:7,836
991	Janská	1,356	1:7,842
991	Spurný	1,356	1:7,842
991	Svatošová	1,356	1:7,842
994	Boček	1,354	1:7,853
995	Tomečková	1,353	1:7,859
996	Lukáš	1,352	1:7,865
997	Chmelová	1,350	1:7,877
997	Studená	1,350	1:7,877
999	Vondráková	1,349	1:7,882
1000	Micková	1,347	1:7,894