1	Mohamed	60,092	1:15
2	Ali	56,771	1:16
3	Ahmed	45,662	1:20
4	Hassan	42,965	1:21
5	Abdi	29,834	1:31
6	Omar	28,735	1:32
7	Abdillahi	27,936	1:33
8	Moussa	24,216	1:38
9	Ibrahim	23,318	1:39
10	Houssein	22,294	1:41
11	Aden	21,420	1:43
12	Djama	20,047	1:46
13	Farah	16,502	1:55
14	Elmi	15,853	1:58
15	Youssouf	14,605	1:63
16	Mahamoud	14,280	1:64
17	Osman	13,881	1:66
18	Robleh	13,082	1:70
19	Said	12,932	1:71
20	Daher	10,136	1:90
21	Ismael	9,012	1:102
22	Abdallah	8,713	1:105
23	Bouh	8,189	1:112
24	Ismail	7,215	1:127
25	Houmed	7,015	1:130
26	Nour	6,666	1:137
27	Awaleh	5,467	1:167
28	Darar	5,417	1:169
29	Guedi	5,343	1:171
30	Waberi	5,193	1:176
31	Idriss	4,419	1:207
32	Moumin	4,344	1:211
33	Guelleh	4,269	1:214
33	Kamil	4,269	1:214
35	Wais	4,194	1:218
36	Daoud	4,119	1:222
37	Hamadou	3,994	1:229
38	Doualeh	3,795	1:241
39	Abdoulkader	3,645	1:251
40	Mouhoumed	3,620	1:253
41	Abdourahman	3,545	1:258
42	Miguil	3,520	1:260
43	Hersi	3,420	1:268
44	Aouled	3,196	1:286
44	Issa	3,196	1:286
46	Egueh	2,996	1:305
47	Barreh	2,796	1:327
47	Dirieh	2,796	1:327
49	Assoweh	2,771	1:330
50	Sougueh	2,746	1:333
51	Abdo	2,621	1:349
52	Saleh	2,596	1:352
53	Yonis	2,571	1:356
54	Mohamoud	2,472	1:370
55	Hamad	2,422	1:378
56	Guirreh	2,347	1:390
56	Isman	2,347	1:390
58	Dirir	2,172	1:421
59	Khaireh	2,047	1:447
60	Djibril	1,997	1:458
60	Iltireh	1,997	1:458
62	Meraneh	1,972	1:464
62	Souleiman	1,972	1:464
64	Warsama	1,947	1:470
65	Arreh	1,922	1:476
65	Okieh	1,922	1:476
67	Rayaleh	1,847	1:495
68	Adaweh	1,822	1:502
68	Kayad	1,822	1:502
70	Barkad	1,748	1:523
71	Bileh	1,698	1:539
72	Atteyeh	1,648	1:555
72	Jama	1,648	1:555
74	Yacin	1,598	1:573
75	Aboubaker	1,573	1:582
76	Dahir	1,548	1:591
77	Waiss	1,523	1:601
78	Dabar	1,473	1:621
79	Hoch	1,448	1:632
80	Abdou	1,423	1:643