1	Joseph	3,260	1:23
2	Charles	2,022	1:38
3	George	2,018	1:38
4	Thomas	1,847	1:41
5	Williams	1,627	1:47
6	John	1,212	1:63
7	Alexander	1,038	1:73
8	James	1,004	1:76
9	Francis	984	1:77
10	Shillingford	942	1:81
11	Lewis	860	1:88
12	John Baptiste	835	1:91
13	Matthew	799	1:95
14	Paul	783	1:97
15	Benjamin	726	1:105
16	Toussaint	725	1:105
17	Pascal	716	1:106
18	Vidal	711	1:107
19	Roberts	665	1:114
20	Cuffy	642	1:118
21	Lawrence	627	1:121
22	Samuel	600	1:126
23	Durand	597	1:127
24	Royer	578	1:131
25	Darroux	550	1:138
26	Henry	533	1:142
27	Esprit	515	1:147
28	Etienne	511	1:149
29	Laville	505	1:150
30	Peter	495	1:153
31	Abraham	482	1:157
32	Baron	469	1:162
33	Daniel	461	1:165
34	Edwards	454	1:167
35	Bannis	443	1:171
36	Nicholas	436	1:174
37	Frederick	435	1:174
38	Fontaine	433	1:175
39	Richards	399	1:190
40	Augustine	397	1:191
41	Prince	395	1:192
42	Bruno	393	1:193
43	Andrew	391	1:194
44	Carbon	389	1:195
45	Honore	388	1:196
46	Green	385	1:197
47	Letang	379	1:200
48	Henderson	377	1:201
49	Alfred	373	1:203
50	Felix	371	1:205
51	Riviere	362	1:210
52	Auguiste	355	1:214
53	Laurent	353	1:215
54	Julien	352	1:216
54	Seaman	352	1:216
54	Tavernier	352	1:216
57	Bellot	346	1:219
58	Robin	344	1:221
59	Prosper	340	1:223
60	Leblanc	332	1:229
61	Victor	327	1:232
62	Pierre	320	1:237
63	Defoe	316	1:240
64	Casimir	314	1:242
65	Winston	301	1:252
66	Simon	300	1:253
67	Burton	292	1:260
67	Pacquette	292	1:260
69	Lockhart	282	1:269
70	Anthony	280	1:271
71	Robinson	274	1:277
72	Rolle	273	1:278
73	Graham	272	1:279
74	Challenger	269	1:282
75	Romain	266	1:285
76	Magloire	256	1:296
77	Luke	255	1:298
77	Prevost	255	1:298
79	Hector	248	1:306
79	Louis	248	1:306
81	Anselm	246	1:308
82	Hill	243	1:312
83	David	242	1:314
83	Xavier	242	1:314
85	Isaac	233	1:326
86	Baptiste	231	1:329
86	Marie	231	1:329
88	Peters	229	1:331
89	Martin	227	1:334
90	Peltier	224	1:339
91	Bruney	221	1:343
92	Guiste	211	1:360
93	Francois	209	1:363
93	Marcellin	209	1:363
95	Smith	206	1:368
96	Phillip	204	1:372
97	Scotland	199	1:381
98	Wallace	198	1:383
99	Christopher	193	1:393
99	Rodney	193	1:393
101	Harris	190	1:399
102	Stephenson	186	1:408
103	Antoine	184	1:412
104	Bertrand	183	1:415
105	Bernard	179	1:424
106	Laudat	177	1:429
107	Brumant	176	1:431
108	Andre	174	1:436
109	Dominique	173	1:439
110	Timothy	170	1:446
111	Aaron	169	1:449
111	Gregoire	169	1:449
113	Jervier	168	1:452
114	Johnson	167	1:454
115	Moses	164	1:463
115	Walsh	164	1:463
117	John Charles	163	1:466
118	Titre	160	1:474
119	Bardouille	159	1:477
119	Blaize	159	1:477
121	Sorhaindo	157	1:483
122	Gordon	156	1:486
123	Serrant	155	1:490
124	Gilbert	151	1:503
124	Larocque	151	1:503
124	Walter	151	1:503
127	Elwin	148	1:513
128	Christmas	145	1:523
128	Douglas	145	1:523
128	Moise	145	1:523
131	Valmond	142	1:534
132	Laronde	141	1:538
133	St Jean	140	1:542
134	Parillon	139	1:546
135	Ferrol	137	1:554
135	Panthier	137	1:554
137	Alleyne	136	1:558
137	Angol	136	1:558
137	Telemacque	136	1:558
140	Eusebe	135	1:562
141	Austrie	134	1:566
141	Jacob	134	1:566
143	Valerie	130	1:584
144	Philogene	129	1:588
145	Davis	127	1:598
146	Alexis	126	1:602
147	Hilaire	125	1:607
148	St Hilaire	120	1:632
149	Bazil	118	1:643
150	Germain	116	1:654
150	John Lewis	116	1:654
150	Massicot	116	1:654
153	Brown	115	1:660
153	Morancie	115	1:660
155	Blanc	113	1:672
155	McPherson	113	1:672
155	Pierre-Louis	113	1:672
155	Polydore	113	1:672
155	Victorine	113	1:672
160	Jones	111	1:684
160	Wiltshire	111	1:684
162	Sampson	110	1:690
163	Isidore	108	1:703
164	Pinard	107	1:709
165	Christian	106	1:716
165	Mills	106	1:716
165	Registe	106	1:716
168	St Ville	105	1:723
168	Vital	105	1:723
170	Fevrier	104	1:730
171	Watt	102	1:744
172	Lavinier	101	1:751
173	Corriette	100	1:759
174	Ducreay	99	1:767
175	Ferreira	97	1:782
176	Dyer	96	1:791
177	Warrington	95	1:799
178	Dublin	94	1:807
178	Emanuel	94	1:807
178	Guye	94	1:807
178	Harry	94	1:807
182	Delsol	93	1:816
182	Stoute	93	1:816
184	Denis	92	1:825
184	White	92	1:825
186	Azille	91	1:834
186	Burnette	91	1:834
186	Leatham	91	1:834
189	Africa	90	1:843
189	Eugene	90	1:843
191	Lafond	89	1:853
192	Drigo	88	1:862
192	Liverpool	88	1:862
192	Rabess	88	1:862
195	John Finn	87	1:872
196	Elizee	86	1:882
196	Merrifield	86	1:882
198	Ismael	85	1:893
198	Lucien	85	1:893
200	Bell	84	1:903
201	Florent	83	1:914
201	Leslie	83	1:914
203	Bedminister	82	1:926
203	Dangleben	82	1:926
205	Lloyd	81	1:937
206	John-Charles	80	1:949
206	Langlais	80	1:949
208	Eloi	79	1:961
209	Hyacinth	77	1:986
210	Linton	76	1:999
210	Remy	76	1:999
210	Stedman	76	1:999
210	Valentine	76	1:999
214	Bontiff	75	1:1,012
214	Boston	75	1:1,012
214	Jeremy	75	1:1,012
217	Didier	74	1:1,026
217	Severin	74	1:1,026
217	St Rose	74	1:1,026
220	Astaphan	73	1:1,040
221	Ambrose	72	1:1,054
221	Celaire	72	1:1,054
223	Doctrove	71	1:1,069
223	Fabien	71	1:1,069
223	Grell	71	1:1,069
226	Hamilton	70	1:1,084
227	Ambo	69	1:1,100
227	Daisy	69	1:1,100
227	Piper	69	1:1,100
230	Commodore	68	1:1,116
230	Fagan	68	1:1,116
230	Wilson	68	1:1,116
233	Jean	67	1:1,133
233	St Louis	67	1:1,133
235	Lander	66	1:1,150
235	Mitchell	66	1:1,150
235	Oscar	66	1:1,150
235	Seraphin	66	1:1,150
239	Dejean	64	1:1,186
240	Athanaze	63	1:1,205
240	Jean-Jacques	63	1:1,205
242	Dodds	62	1:1,224
242	Patrick	62	1:1,224
244	Boland	61	1:1,244
244	John-Baptiste	61	1:1,244
244	Musgrave	61	1:1,244
244	Sharplis	61	1:1,244
248	Celestine	60	1:1,265
248	McLawrence	60	1:1,265
248	Nanthan	60	1:1,265
248	Telemaque	60	1:1,265
252	Adrien	58	1:1,308
252	Jules	58	1:1,308
254	Dalrymple	57	1:1,331
254	Greenaway	57	1:1,331
256	Benoit	55	1:1,380
256	Fritz	55	1:1,380
256	Mark	55	1:1,380
259	Attidore	54	1:1,405
259	Giraud	54	1:1,405
259	Moulon	54	1:1,405
259	Proctor	54	1:1,405
259	Reynolds	54	1:1,405
264	Blanchard	53	1:1,432
264	Brade	53	1:1,432
264	Mason	53	1:1,432
267	Noel	52	1:1,459
268	Colaire	51	1:1,488
268	Powell	51	1:1,488
270	Barry	50	1:1,518
270	Bougouneau	50	1:1,518
270	Harriette	50	1:1,518
270	Marcelle	50	1:1,518
274	Bleau	49	1:1,549
275	Dailey	48	1:1,581
275	Dorival	48	1:1,581
275	Hypolite	48	1:1,581
278	Bedneau	47	1:1,615
278	Belle	47	1:1,615
278	Hamlet	47	1:1,615
278	Jackson	47	1:1,615
278	Massicott	47	1:1,615
278	Nicholls	47	1:1,615
284	Alie	46	1:1,650
284	Augustus	46	1:1,650
284	Lugay	46	1:1,650
287	Armour	45	1:1,686
287	Beazer	45	1:1,686
287	Flerin	45	1:1,686
287	Horsford	45	1:1,686
287	London	45	1:1,686
292	Clarke	44	1:1,725
292	Cochrane	44	1:1,725
292	Pond	44	1:1,725
292	Stevens	44	1:1,725
296	Bastien	43	1:1,765
296	Gage	43	1:1,765
296	Giraudel	43	1:1,765
296	Jolly	43	1:1,765
296	Karam	43	1:1,765
296	Watty	43	1:1,765
302	Faustin	42	1:1,807
302	Raffoul	42	1:1,807
302	Woodman	42	1:1,807
305	Ferdinand	41	1:1,851
306	Albert	40	1:1,897
306	Alcendor	40	1:1,897
306	Birmingham	40	1:1,897
306	Cooper	40	1:1,897
306	Lestrade	40	1:1,897
306	Nelson	40	1:1,897
306	Sablon	40	1:1,897
313	Andrews	39	1:1,946
313	Breezie	39	1:1,946
313	Edwin	39	1:1,946
313	Philbert	39	1:1,946
313	Stuart	39	1:1,946
318	Destouche	38	1:1,997
318	O'Brien	38	1:1,997
320	Bully	37	1:2,051
320	Caprice	37	1:2,051
320	Casey	37	1:2,051
320	Dupigny	37	1:2,051
320	Frampton	37	1:2,051
320	John Rose	37	1:2,051
320	Moreau	37	1:2,051
320	Vigilante	37	1:2,051
328	Coipel	36	1:2,108
328	Cyrille	36	1:2,108
328	Deschamps	36	1:2,108
328	Irish	36	1:2,108
328	John Jules	36	1:2,108
328	Lazare	36	1:2,108
328	Sabin	36	1:2,108
335	Meade	34	1:2,232
335	Theophille	34	1:2,232
337	Daway	33	1:2,300
337	Gallion	33	1:2,300
337	Poponne	33	1:2,300
337	Savarin	33	1:2,300
341	Browne	32	1:2,372
341	Buffong	32	1:2,372
341	Cools-Lartigue	32	1:2,372
341	Desiree	32	1:2,372
341	Dover	32	1:2,372
341	Harve	32	1:2,372
341	Hodge	32	1:2,372
341	Jerome	32	1:2,372
341	Lambert	32	1:2,372
341	Langford	32	1:2,372
341	Latouche	32	1:2,372
341	Raphael	32	1:2,372
341	Tuitt	32	1:2,372
354	Aird	31	1:2,448
354	Caesar	31	1:2,448
354	Carter	31	1:2,448
354	Common	31	1:2,448
354	Giddings	31	1:2,448
354	Issa	31	1:2,448
354	Junkere	31	1:2,448
354	Labad	31	1:2,448
354	Lin	31	1:2,448
354	Mendes	31	1:2,448
354	Morvan	31	1:2,448
354	Pinard-Byrne	31	1:2,448
354	Roosburg	31	1:2,448
354	Yeeloy	31	1:2,448
368	Rodriguez	23	1:3,300
369	Lee	17	1:4,464
370	Sebastien	14	1:5,421
371	Beaupierre	13	1:5,838
371	Dupuis	13	1:5,838
371	Elie	13	1:5,838
371	Ettienne	13	1:5,838
375	Gabriel	12	1:6,324
375	Garcia	12	1:6,324
375	Garraway	12	1:6,324
375	Gonzalez	12	1:6,324
375	Perez	12	1:6,324
375	Sylvester	12	1:6,324
381	Georges	11	1:6,899
381	Mitchel	11	1:6,899
383	Adams	10	1:7,589
383	Bowers	10	1:7,589
383	Boyd	10	1:7,589
383	Corbette	10	1:7,589
383	Desbonnes	10	1:7,589
383	Guzman	10	1:7,589
383	Lecointe	10	1:7,589
383	McKenzie	10	1:7,589
383	Seraphine	10	1:7,589
383	St Luce	10	1:7,589
383	Stjean	10	1:7,589
394	Carrette	9	1:8,432
394	Cornelius	9	1:8,432
394	Joyce	9	1:8,432
394	Labassiere	9	1:8,432
394	Reid	9	1:8,432
394	Roach	9	1:8,432
394	Wade	9	1:8,432
394	Younis	9	1:8,432
402	Allan	8	1:9,486
402	Boyer	8	1:9,486
402	Butler	8	1:9,486
402	Gachette	8	1:9,486
402	Grant	8	1:9,486
402	Maronie	8	1:9,486
402	Munro	8	1:9,486
402	Myers	8	1:9,486
402	St John	8	1:9,486
411	Abreu	7	1:10,842
411	Arias	7	1:10,842
411	Blondel	7	1:10,842
411	Constance	7	1:10,842
411	Diaz	7	1:10,842
411	Feliz	7	1:10,842
411	Jimenez	7	1:10,842
411	King	7	1:10,842
411	Lamothe	7	1:10,842
411	Lopez	7	1:10,842
411	Olivacce	7	1:10,842
411	Roudette	7	1:10,842
411	Sabaroche	7	1:10,842
411	Torres	7	1:10,842
411	Toulon	7	1:10,842
426	Acosta	6	1:12,648
426	André	6	1:12,648
426	Balthazar	6	1:12,648
426	Bethel	6	1:12,648
426	Blackman	6	1:12,648
426	Bonnie	6	1:12,648
426	Cabrera	6	1:12,648
426	de La Rosa	6	1:12,648
426	Degallerie	6	1:12,648
426	Desabaye	6	1:12,648
426	Fortune	6	1:12,648
426	Isles	6	1:12,648
426	Jarvis	6	1:12,648
426	Jnolewis	6	1:12,648
426	Lowe	6	1:12,648
426	Maxim	6	1:12,648
426	Medina	6	1:12,648
426	Mellow	6	1:12,648
426	Mendez	6	1:12,648
426	Montero	6	1:12,648
426	Morris	6	1:12,648
426	Newton	6	1:12,648
426	Norris	6	1:12,648
426	Paris	6	1:12,648
426	Pemberton	6	1:12,648
426	Popo	6	1:12,648
426	Raymond	6	1:12,648
426	Sanderson	6	1:12,648
426	Santana	6	1:12,648
426	Stephen	6	1:12,648
426	Stewart	6	1:12,648
426	Stlouis	6	1:12,648
426	Theodore	6	1:12,648
426	Tonge	6	1:12,648
426	Vigilant	6	1:12,648
426	Wyke	6	1:12,648
426	Zamore	6	1:12,648
463	Abdullah	5	1:15,178
463	Alcântara	5	1:15,178
463	Alvarez	5	1:15,178
463	Bethelmie	5	1:15,178
463	Brudey	5	1:15,178
463	Burnett	5	1:15,178
463	Cadette	5	1:15,178
463	Campbell	5	1:15,178
463	Carriere	5	1:15,178
463	Carty	5	1:15,178
463	Castillo	5	1:15,178
463	Codrington	5	1:15,178
463	Cognet	5	1:15,178
463	Constant	5	1:15,178
463	Cuevas	5	1:15,178
463	de Leon	5	1:15,178
463	Delauney	5	1:15,178
463	Dominguez	5	1:15,178
463	Emmanuel	5	1:15,178
463	Espinal	5	1:15,178
463	Ferguson	5	1:15,178
463	Fernandez	5	1:15,178
463	Florant	5	1:15,178
463	Foye	5	1:15,178
463	Frias	5	1:15,178
463	Gomez	5	1:15,178
463	Griffith	5	1:15,178
463	Gustave	5	1:15,178
463	Hansen	5	1:15,178
463	Hilton	5	1:15,178
463	Hogan	5	1:15,178
463	Jacobs	5	1:15,178
463	Jean-Marie	5	1:15,178
463	Jeffrey	5	1:15,178
463	Jno-Charles	5	1:15,178
463	John-Rose	5	1:15,178
463	Knight	5	1:15,178
463	Martinez	5	1:15,178
463	Maximea	5	1:15,178
463	Maxwell	5	1:15,178
463	McIntyre	5	1:15,178
463	Mejia	5	1:15,178
463	Mesmain	5	1:15,178
463	Mingo	5	1:15,178
463	Nassief	5	1:15,178
463	O'Garro	5	1:15,178
463	Olive	5	1:15,178
463	Ormond	5	1:15,178
463	Patel	5	1:15,178
463	Paulino	5	1:15,178
463	Pringle	5	1:15,178
463	Remie	5	1:15,178
463	Righton	5	1:15,178
463	Riley	5	1:15,178
463	Rivera	5	1:15,178
463	Robert	5	1:15,178
463	Rocque	5	1:15,178
463	Rosário	5	1:15,178
463	St Claire	5	1:15,178
463	Thompson	5	1:15,178
463	Valarie	5	1:15,178
463	Vargas	5	1:15,178
463	Volney	5	1:15,178
463	Waldron	5	1:15,178
463	Warner	5	1:15,178
463	Zapata	5	1:15,178
529	Allport	4	1:18,973
529	Alphonse	4	1:18,973
529	Azoo	4	1:18,973
529	Bain	4	1:18,973
529	Bernabe	4	1:18,973
529	Bique	4	1:18,973
529	Bonit	4	1:18,973
529	Brewster	4	1:18,973
529	Burke	4	1:18,973
529	Byam	4	1:18,973
529	Cabral	4	1:18,973
529	Carlisle	4	1:18,973
529	Carlton	4	1:18,973
529	Chambers	4	1:18,973
529	Charlemagne	4	1:18,973
529	Connor	4	1:18,973
529	Cruz	4	1:18,973
529	Daley	4	1:18,973
529	Davison	4	1:18,973
529	Dechausay	4	1:18,973
529	Derrick	4	1:18,973
529	Desire	4	1:18,973
529	Dorsette	4	1:18,973
529	Dowe	4	1:18,973
529	Dumas	4	1:18,973
529	Duverney	4	1:18,973
529	Edmond	4	1:18,973
529	Encarnacion	4	1:18,973
529	Ernest	4	1:18,973
529	Farrell	4	1:18,973
529	Fingal	4	1:18,973
529	Frank	4	1:18,973
529	George-Dill	4	1:18,973
529	Ghitar	4	1:18,973
529	Goodwin-Joseph	4	1:18,973
529	Graneau	4	1:18,973
529	Harper	4	1:18,973
529	Harrigan	4	1:18,973
529	Hazel	4	1:18,973
529	Heath	4	1:18,973
529	Henriquez	4	1:18,973
529	Israel	4	1:18,973
529	Jemmott	4	1:18,973
529	Jeremie	4	1:18,973
529	Jno-Baptiste	4	1:18,973
529	John Hope	4	1:18,973
529	John Phillip	4	1:18,973
529	Johnbaptiste	4	1:18,973
529	Josephs	4	1:18,973
529	Jubenot	4	1:18,973
529	Julius	4	1:18,973
529	Karlsson	4	1:18,973
529	Lance	4	1:18,973
529	Lawson	4	1:18,973
529	Leevy	4	1:18,973
529	Leger	4	1:18,973
529	Liburd	4	1:18,973
529	Luckie	4	1:18,973
529	Marquez	4	1:18,973
529	Mathurine	4	1:18,973
529	Mayers	4	1:18,973
529	Moore	4	1:18,973
529	Morel	4	1:18,973
529	Murphy	4	1:18,973
529	Odiamar	4	1:18,973
529	Ogarro	4	1:18,973
529	Ortiz	4	1:18,973
529	Pendenque	4	1:18,973
529	Perrier	4	1:18,973
529	Perryman	4	1:18,973
529	Peña	4	1:18,973
529	Polanco	4	1:18,973
529	Prescot	4	1:18,973
529	Prescott	4	1:18,973
529	Ravariere	4	1:18,973
529	Rene	4	1:18,973
529	Reynault	4	1:18,973
529	Reynold	4	1:18,973
529	Roache	4	1:18,973
529	Rossi	4	1:18,973
529	Sandy	4	1:18,973
529	Shaw	4	1:18,973
529	Sommers	4	1:18,973
529	St Aimee	4	1:18,973
529	Sántos	4	1:18,973
529	Talbert	4	1:18,973
529	Taylor	4	1:18,973
529	Underwood	4	1:18,973
529	Vincent	4	1:18,973
529	Viville	4	1:18,973
529	Wilkinson	4	1:18,973
529	Zhang	4	1:18,973
621	Adames	3	1:25,297
621	Allen	3	1:25,297
621	Almanzar	3	1:25,297
621	Arya	3	1:25,297
621	Audain	3	1:25,297
621	Barrie	3	1:25,297
621	Berridge	3	1:25,297
621	Boy	3	1:25,297
621	Brito	3	1:25,297
621	Canoville	3	1:25,297
621	Castro	3	1:25,297
621	Christon	3	1:25,297
621	Contreras	3	1:25,297
621	Cover	3	1:25,297
621	Cuthbert	3	1:25,297
621	Cyprien	3	1:25,297
621	Davidson	3	1:25,297
621	de La Cruz	3	1:25,297
621	Estrella	3	1:25,297
621	Eustache	3	1:25,297
621	Fountain	3	1:25,297
621	Gasper	3	1:25,297
621	Gibbons	3	1:25,297
621	Gussie	3	1:25,297
621	Heredia	3	1:25,297
621	Herrera	3	1:25,297
621	Holmes	3	1:25,297
621	Jacques	3	1:25,297
621	Jeffers	3	1:25,297
621	Kell	3	1:25,297
621	Le Blanc	3	1:25,297
621	Leon	3	1:25,297
621	Loblack	3	1:25,297
621	Love	3	1:25,297
621	Martines	3	1:25,297
621	Mathew	3	1:25,297
621	Mercado	3	1:25,297
621	Morgan	3	1:25,297
621	Nation	3	1:25,297
621	Nielsen	3	1:25,297
621	Nuñez	3	1:25,297
621	Ogando	3	1:25,297
621	Pacheco	3	1:25,297
621	Payne	3	1:25,297
621	Peralta	3	1:25,297
621	Petit	3	1:25,297
621	Phillips	3	1:25,297
621	Ricardo	3	1:25,297
621	Roa	3	1:25,297
621	Robertson	3	1:25,297
621	Santiago	3	1:25,297
621	Severino	3	1:25,297
621	Simelda	3	1:25,297
621	Singh	3	1:25,297
621	Soto	3	1:25,297
621	Stjohn	3	1:25,297
621	Suero	3	1:25,297
621	Tavarez	3	1:25,297
621	Tejeda	3	1:25,297
621	Valdez	3	1:25,297
621	Vasquez	3	1:25,297
621	William	3	1:25,297
621	Wright	3	1:25,297
621	Yankey	3	1:25,297
685	Abiodun	2	1:37,946
685	Ackie	2	1:37,946
685	Active	2	1:37,946
685	Adame	2	1:37,946
685	Ahmed	2	1:37,946
685	Allick	2	1:37,946
685	Allie	2	1:37,946
685	Allister	2	1:37,946
685	Amankwaah	2	1:37,946
685	Anslem	2	1:37,946
685	Antigua	2	1:37,946
685	Ariza	2	1:37,946
685	Arlington	2	1:37,946
685	Arthurton	2	1:37,946
685	Ashby	2	1:37,946
685	Atwell	2	1:37,946
685	Atzenweiler	2	1:37,946
685	Baig	2	1:37,946
685	Bali	2	1:37,946
685	Bansal	2	1:37,946
685	Barreau	2	1:37,946
685	Bedminster	2	1:37,946
685	Behn	2	1:37,946
685	Belleau	2	1:37,946
685	Bellevue	2	1:37,946
685	Bellony	2	1:37,946
685	Beno	2	1:37,946
685	Bergoz	2	1:37,946
685	Bernier	2	1:37,946
685	Boatswain	2	1:37,946
685	Bobb	2	1:37,946
685	Bradley	2	1:37,946
685	Braun	2	1:37,946
685	Breaux	2	1:37,946
685	Brisbane	2	1:37,946
685	Bunche	2	1:37,946
685	Calderon	2	1:37,946
685	Carlos	2	1:37,946
685	Carrasco	2	1:37,946
685	Cassell	2	1:37,946
685	Castor	2	1:37,946
685	Ceasar	2	1:37,946
685	Cespedes	2	1:37,946
685	Claxton	2	1:37,946
685	Cobb	2	1:37,946
685	Collins	2	1:37,946
685	Cooke	2	1:37,946
685	Cornielle	2	1:37,946
685	de Joode	2	1:37,946
685	de Oleo	2	1:37,946
685	de Paulino	2	1:37,946
685	Dee	2	1:37,946
685	Dennis	2	1:37,946
685	Denny	2	1:37,946
685	Deravariere	2	1:37,946
685	Desbonne	2	1:37,946
685	Deswandikar	2	1:37,946
685	Dick	2	1:37,946
685	Diggs	2	1:37,946
685	Disla	2	1:37,946
685	Dorsett	2	1:37,946
685	Dorvilus	2	1:37,946
685	Douglas-Murdock	2	1:37,946
685	Dubique	2	1:37,946
685	Dubois	2	1:37,946
685	Dubost	2	1:37,946
685	Egejuru	2	1:37,946
685	Estevez	2	1:37,946
685	Estrado	2	1:37,946
685	Etinoffe	2	1:37,946
685	Ettiene	2	1:37,946
685	Eusebio	2	1:37,946
685	Eustace	2	1:37,946
685	Evans	2	1:37,946
685	Fadelle	2	1:37,946
685	Fanus	2	1:37,946
685	Florentino	2	1:37,946
685	Fontana	2	1:37,946
685	Fountaine	2	1:37,946
685	Franco	2	1:37,946
685	Franklyn	2	1:37,946
685	Fregiste	2	1:37,946
685	French	2	1:37,946
685	Garay	2	1:37,946
685	García	2	1:37,946
685	Gardier	2	1:37,946
685	Gibson	2	1:37,946
685	Gil	2	1:37,946
685	Gonzalez-Peltier	2	1:37,946
685	Goring	2	1:37,946
685	Gowda	2	1:37,946
685	Groton	2	1:37,946
685	Guillen	2	1:37,946
685	Gumbs	2	1:37,946
685	Guthrie	2	1:37,946
685	Guy	2	1:37,946
685	Hall	2	1:37,946
685	Harney	2	1:37,946
685	Harwell	2	1:37,946
685	Hatake	2	1:37,946
685	Hensley	2	1:37,946
685	Herman	2	1:37,946
685	Hernndez	2	1:37,946
685	Hiciano	2	1:37,946
685	Honychurch	2	1:37,946
685	Huang	2	1:37,946
685	Humphreys	2	1:37,946
685	Hunter	2	1:37,946
685	Hurtault	2	1:37,946
685	Irwin	2	1:37,946
685	Jacobson	2	1:37,946
685	Jean-Pierre	2	1:37,946
685	Jensen	2	1:37,946
685	Jerez	2	1:37,946
685	Jericho	2	1:37,946
685	Jno-Finn	2	1:37,946
685	Jnocharles	2	1:37,946
685	John-Lewis	2	1:37,946
685	John-Pierre	2	1:37,946
685	Jose	2	1:37,946
685	Kallarackal	2	1:37,946
685	Kelshall	2	1:37,946
685	Kerensky	2	1:37,946
685	Kerwin	2	1:37,946
685	Khan	2	1:37,946
685	Kimani	2	1:37,946
685	Kirby	2	1:37,946
685	Kolli	2	1:37,946
685	La Torre	2	1:37,946
685	Lanquedoc	2	1:37,946
685	Layne	2	1:37,946
685	Le	2	1:37,946
685	Lebruin	2	1:37,946
685	Li	2	1:37,946
685	Loerner	2	1:37,946
685	Lora	2	1:37,946
685	Louisy	2	1:37,946
685	Malone	2	1:37,946
685	Mandela	2	1:37,946
685	Mateo	2	1:37,946
685	Mathurin	2	1:37,946
685	Matos	2	1:37,946
685	Maximin	2	1:37,946
685	McAulay	2	1:37,946
685	McCoy	2	1:37,946
685	McDowell	2	1:37,946
685	Mendoza	2	1:37,946
685	Merrill	2	1:37,946
685	Mersha	2	1:37,946
685	Mility	2	1:37,946
685	Modest	2	1:37,946
685	Moncion	2	1:37,946
685	Mondesire	2	1:37,946
685	Montemayor	2	1:37,946
685	Mourillon	2	1:37,946
685	Navarro	2	1:37,946
685	Nestor	2	1:37,946
685	Nesty	2	1:37,946
685	Nibbs	2	1:37,946
685	O'Mahony	2	1:37,946
685	Obasogie	2	1:37,946
685	Ojo	2	1:37,946
685	Olavarria	2	1:37,946
685	Olesen	2	1:37,946
685	Oliver	2	1:37,946
685	Osler	2	1:37,946
685	Oviedo	2	1:37,946
685	Owoeye	2	1:37,946
685	Ozuna	2	1:37,946
685	Pagola	2	1:37,946
685	Pao	2	1:37,946
685	Paquette	2	1:37,946
685	Parker	2	1:37,946
685	Paterson	2	1:37,946
685	Peguero	2	1:37,946
685	Pena	2	1:37,946
685	Pernell	2	1:37,946
685	Peterson	2	1:37,946
685	Phillipson	2	1:37,946
685	Plummer	2	1:37,946
685	Ponponne	2	1:37,946
685	Prentice	2	1:37,946
685	Quiroz	2	1:37,946
685	Randell	2	1:37,946
685	Rapha	2	1:37,946
685	Rasmussen	2	1:37,946
685	Ravalliere	2	1:37,946
685	Reyes	2	1:37,946
685	Reynoso	2	1:37,946
685	Richardson	2	1:37,946
685	Rodríguez	2	1:37,946
685	Rojas	2	1:37,946
685	Ross	2	1:37,946
685	Ryan	2	1:37,946
685	Ryner	2	1:37,946
685	Sabroche	2	1:37,946
685	Sandiford	2	1:37,946
685	Schiff	2	1:37,946
685	Segura	2	1:37,946
685	Senhouse	2	1:37,946
685	Sierra	2	1:37,946
685	Silva	2	1:37,946
685	Simeon	2	1:37,946
685	Solomon	2	1:37,946
685	St Aimie	2	1:37,946
685	Stowe	2	1:37,946
685	Strose	2	1:37,946
685	Stville	2	1:37,946
685	Sylvain	2	1:37,946
685	Tanner	2	1:37,946
685	Tashani	2	1:37,946
685	Taveras	2	1:37,946
685	Tejada	2	1:37,946
685	Theophile	2	1:37,946
685	Tyson	2	1:37,946
685	Ulysses	2	1:37,946
685	Umah	2	1:37,946
685	Urias	2	1:37,946
685	Valenzuela	2	1:37,946
685	Ventura	2	1:37,946
685	Villa	2	1:37,946
685	Villaman	2	1:37,946
685	Warrell	2	1:37,946
685	Weaver	2	1:37,946
685	Welsh	2	1:37,946
685	Yakubovskyy	2	1:37,946
685	Yang	2	1:37,946
912	Abady	1	1:75,891
912	Abbedin	1	1:75,891
912	Abderson	1	1:75,891
912	Abdi	1	1:75,891
912	Abel	1	1:75,891
912	Abney	1	1:75,891
912	Abrell	1	1:75,891
912	Abu-Tayeh	1	1:75,891
912	Acantara	1	1:75,891
912	Acceus	1	1:75,891
912	Acevedo	1	1:75,891
912	Achibald	1	1:75,891
912	Activille	1	1:75,891
912	Addis	1	1:75,891
912	Adebiyi	1	1:75,891
912	Adegbosin	1	1:75,891
912	Ademosu	1	1:75,891
912	Adesokan	1	1:75,891
912	Adley	1	1:75,891
912	Adonis	1	1:75,891
912	Adrian	1	1:75,891
912	Afaneh	1	1:75,891
912	Aguasvivas	1	1:75,891
912	Aguirre	1	1:75,891
912	Ahiwa	1	1:75,891
912	Ahlquist	1	1:75,891
912	Ahmeds	1	1:75,891
912	Aird-Whitchurch	1	1:75,891
912	Aisles	1	1:75,891
912	Akorjuru	1	1:75,891
912	Akpa	1	1:75,891
912	Akpata	1	1:75,891
912	Al-Domini	1	1:75,891
912	Alali	1	1:75,891
912	Albendea	1	1:75,891
912	Alberico	1	1:75,891
912	Alberto	1	1:75,891
912	Alburquerque	1	1:75,891
912	Alcid	1	1:75,891
912	Aldama	1	1:75,891
912	Aldrick	1	1:75,891
912	Alen	1	1:75,891
912	Alexandrou	1	1:75,891
912	Alfonzo	1	1:75,891
912	Alford	1	1:75,891
912	Alfred-Toulon	1	1:75,891
912	Ali	1	1:75,891
912	Alidore	1	1:75,891
912	Alili	1	1:75,891
912	Allard	1	1:75,891
912	Allicock-Joseph	1	1:75,891
912	Allord	1	1:75,891
912	Almunez	1	1:75,891
912	Alpha	1	1:75,891
912	Altemar	1	1:75,891
912	Aly	1	1:75,891
912	Amandy	1	1:75,891
912	Amarante	1	1:75,891
912	Aminde	1	1:75,891
912	An	1	1:75,891
912	Anatol	1	1:75,891
912	Andersen	1	1:75,891
912	Anderson	1	1:75,891
912	Andia	1	1:75,891
912	Andrew-Laurent	1	1:75,891
912	Andrew-Peltier	1	1:75,891
912	Andujar	1	1:75,891
912	Aner	1	1:75,891
912	Angeles	1	1:75,891
912	Anic	1	1:75,891
912	Anjum	1	1:75,891
912	Anthanaze	1	1:75,891
912	Antoine-Moses	1	1:75,891
912	Antone	1	1:75,891
912	Appartments	1	1:75,891
912	Arabyan	1	1:75,891
912	Arboleda	1	1:75,891
912	Archer	1	1:75,891
912	Archibald	1	1:75,891
912	Area	1	1:75,891
912	Arena	1	1:75,891
912	Argenta	1	1:75,891
912	Ariel	1	1:75,891
912	Armantrading	1	1:75,891
912	Armour-Shillingford	1	1:75,891
912	Arnold	1	1:75,891
912	Arnoud	1	1:75,891
912	Aron	1	1:75,891
912	Arque	1	1:75,891
912	Arrollo	1	1:75,891
912	Artavia	1	1:75,891
912	Arvelo	1	1:75,891
912	As	1	1:75,891
912	Asara	1	1:75,891
912	Ascencio	1	1:75,891
912	Ashena	1	1:75,891
912	Ashley	1	1:75,891
912	Ashton	1	1:75,891
912	Ashworth	1	1:75,891
912	Assaad	1	1:75,891
912	Astacio	1	1:75,891
912	Ataman	1	1:75,891
912	Atexide	1	1:75,891
912	Athanase	1	1:75,891
912	Atherton	1	1:75,891
912	Athie	1	1:75,891
912	Aubrey	1	1:75,891
912	Augustave	1	1:75,891
912	Augustin	1	1:75,891
912	Averill	1	1:75,891
912	Averoff	1	1:75,891
912	Avril	1	1:75,891
912	Aybar	1	1:75,891
912	Ayodele	1	1:75,891
912	Aza	1	1:75,891
912	Aznar	1	1:75,891
912	Azoos	1	1:75,891
912	Azulay	1	1:75,891
912	Azzam	1	1:75,891
912	Azzouz	1	1:75,891
912	Babaskina	1	1:75,891
912	Babbini	1	1:75,891
912	Bacchus	1	1:75,891
912	Bacevac	1	1:75,891
912	Bachelor	1	1:75,891
912	Bachmann	1	1:75,891
912	Back	1	1:75,891
912	Baez	1	1:75,891
912	Bagay	1	1:75,891
912	Bagster	1	1:75,891
912	Baguidy	1	1:75,891
912	Bahati	1	1:75,891
912	Bahrami	1	1:75,891
912	Bajnath	1	1:75,891
912	Baksh	1	1:75,891
912	Balladares	1	1:75,891
912	Balogun	1	1:75,891
912	Balslev	1	1:75,891
912	Banfield	1	1:75,891
912	Bans	1	1:75,891
912	Banton	1	1:75,891
912	Baraon	1	1:75,891
912	Barash	1	1:75,891
912	Barberan	1	1:75,891
912	Barbosa	1	1:75,891
912	Bardett	1	1:75,891
912	Bardouil	1	1:75,891
912	Barkhou	1	1:75,891
912	Barnwell	1	1:75,891
912	Baron-Belfield	1	1:75,891
912	Baron-Darroux	1	1:75,891
912	Barrera	1	1:75,891
912	Barrientos	1	1:75,891
912	Barrios	1	1:75,891
912	Barrow	1	1:75,891
912	Bartley	1	1:75,891
912	Barton	1	1:75,891
912	Barzey	1	1:75,891
912	Bascom	1	1:75,891
912	Basdeo	1	1:75,891
912	Baskaran	1	1:75,891
912	Basso	1	1:75,891
912	Bates	1	1:75,891
912	Bateson	1	1:75,891
912	Batista	1	1:75,891
912	Batson	1	1:75,891
912	Bautista	1	1:75,891
912	Bazille	1	1:75,891
912	Beard	1	1:75,891
912	Beaudoin	1	1:75,891
912	Beaumont	1	1:75,891
912	Beaupiere	1	1:75,891
912	Beautreau	1	1:75,891
912	Bee	1	1:75,891
912	Been	1	1:75,891
912	Beevers	1	1:75,891
912	Belfield	1	1:75,891
912	Belgrave	1	1:75,891
912	Bello	1	1:75,891
912	Belorgane	1	1:75,891
912	Belotto	1	1:75,891
912	Beltre	1	1:75,891
912	Bem	1	1:75,891
912	Benalcazar	1	1:75,891
912	Bencosme	1	1:75,891
912	Benedict	1	1:75,891
912	Benjanin	1	1:75,891
912	Bennette	1	1:75,891
912	Benoit-Puckerin	1	1:75,891
912	Beras	1	1:75,891
912	Berean	1	1:75,891
912	Berendt	1	1:75,891
912	Berkitte	1	1:75,891
912	Bernabé	1	1:75,891
912	Bernadette	1	1:75,891
912	Berroa	1	1:75,891
912	Best	1	1:75,891
912	Bethelmy	1	1:75,891
912	Bettcher	1	1:75,891
912	Beyer	1	1:75,891
912	Bhagwandin	1	1:75,891
912	Bhalekar	1	1:75,891
912	Biaize	1	1:75,891
912	Bianchini	1	1:75,891
912	Bible	1	1:75,891
912	Bichotte	1	1:75,891
912	Bickle	1	1:75,891
912	Bicque	1	1:75,891
912	Bido	1	1:75,891
912	Bie	1	1:75,891
912	Bieber	1	1:75,891
912	Binet	1	1:75,891
912	Bique-Dorival	1	1:75,891
912	Bird	1	1:75,891
912	Birimingham	1	1:75,891
912	Bish	1	1:75,891
912	Bixian	1	1:75,891
912	Blabla	1	1:75,891
912	Black	1	1:75,891
912	Blackmoore	1	1:75,891
912	Blackmore	1	1:75,891
912	Blade	1	1:75,891
912	Blaho	1	1:75,891
912	Blair	1	1:75,891
912	Blaise	1	1:75,891
912	Blanford	1	1:75,891
912	Blengino	1	1:75,891
912	Blenman	1	1:75,891
912	Blondo	1	1:75,891
912	Bloom	1	1:75,891
912	Bluma	1	1:75,891
912	Blumenthal	1	1:75,891
912	Boal	1	1:75,891
912	Board	1	1:75,891
912	Bobby	1	1:75,891
912	Bocio	1	1:75,891
912	Bock	1	1:75,891
912	Bodden	1	1:75,891
912	Boes	1	1:75,891
912	Bogdanovich	1	1:75,891
912	Bogdanovscky	1	1:75,891
912	Bogeart	1	1:75,891
912	Bohe	1	1:75,891
912	Bois	1	1:75,891
912	Bolaos	1	1:75,891
912	Bolo	1	1:75,891
912	Bomani	1	1:75,891
912	Bompuis	1	1:75,891
912	Boney	1	1:75,891
912	Bonham	1	1:75,891
912	Bonilla	1	1:75,891
912	Bonnaire	1	1:75,891
912	Bonnesen	1	1:75,891
912	Bonney	1	1:75,891
912	Bonniface	1	1:75,891
912	Bonny	1	1:75,891
912	Bontemps	1	1:75,891
912	Bookie	1	1:75,891
912	Booster	1	1:75,891
912	Border	1	1:75,891
912	Born	1	1:75,891
912	Boros	1	1:75,891
912	Bors	1	1:75,891
912	Borwn	1	1:75,891
912	Bos	1	1:75,891
912	Boss	1	1:75,891
912	Boubad	1	1:75,891
912	Boucher	1	1:75,891
912	Bouka	1	1:75,891
912	Bouley	1	1:75,891
912	Bourgeois	1	1:75,891
912	Boutet	1	1:75,891
912	Bowdell	1	1:75,891
912	Bowen	1	1:75,891
912	Boyce	1	1:75,891
912	Bozel	1	1:75,891
912	Brade-Lokey	1	1:75,891
912	Brady	1	1:75,891
912	Bragi	1	1:75,891
912	Braham	1	1:75,891
912	Braithwaite	1	1:75,891
912	Bramble	1	1:75,891
912	Brathwaite	1	1:75,891
912	Breedy	1	1:75,891
912	Breezy	1	1:75,891
912	Breland	1	1:75,891
912	Bretoi	1	1:75,891
912	Bridet	1	1:75,891
912	Bridet-Royer	1	1:75,891
912	Bridgewater	1	1:75,891
912	Bright	1	1:75,891
912	Brilla	1	1:75,891
912	Brinchmann	1	1:75,891
912	Brink	1	1:75,891
912	Bristol	1	1:75,891
912	Broberg	1	1:75,891
912	Brohim	1	1:75,891
912	Bronshteyn	1	1:75,891
912	Bross	1	1:75,891
912	Brouwer	1	1:75,891
912	Bruce	1	1:75,891
912	Brunie	1	1:75,891
912	Brunney	1	1:75,891
912	Bruno-Joseph	1	1:75,891
912	Brunson	1	1:75,891
912	Brutus	1	1:75,891
912	Bryan	1	1:75,891
912	Buchanan	1	1:75,891
912	Bucker	1	1:75,891
912	Buckley	1	1:75,891
912	Buckmire	1	1:75,891
912	Bugel	1	1:75,891
912	Buhl	1	1:75,891
912	Bumby	1	1:75,891
912	Bundgård	1	1:75,891
912	Buntin	1	1:75,891
912	Burgins	1	1:75,891
912	Burgos	1	1:75,891
912	Burkard	1	1:75,891
912	Burns	1	1:75,891
912	Bursar	1	1:75,891
912	Burtom	1	1:75,891
912	Bynoe	1	1:75,891
912	Báez	1	1:75,891
912	Bøllingtoft	1	1:75,891
912	Caba	1	1:75,891
912	Cadeau	1	1:75,891
912	Caesar-Alexander	1	1:75,891
912	Caesar-Dequental	1	1:75,891
912	Caicedo	1	1:75,891
912	Caillier	1	1:75,891
912	Cald	1	1:75,891
912	Caling	1	1:75,891
912	Calma	1	1:75,891
912	Calvache	1	1:75,891
912	Calvia	1	1:75,891
912	Camacho	1	1:75,891
912	Cambran	1	1:75,891
912	Caminero	1	1:75,891
912	Campo	1	1:75,891
912	Campos	1	1:75,891
912	Campusano	1	1:75,891
912	Cancu	1	1:75,891
912	Cannon	1	1:75,891
912	Cantada	1	1:75,891
912	Cao	1	1:75,891
912	Capellan	1	1:75,891
912	Capellán	1	1:75,891
912	Capullo	1	1:75,891
912	Carambula	1	1:75,891
912	Carborn	1	1:75,891
912	Carcamo	1	1:75,891
912	Cardona	1	1:75,891
912	Cardoso	1	1:75,891
912	Carette	1	1:75,891
912	Carew	1	1:75,891
912	Cargo	1	1:75,891
912	Carl	1	1:75,891
912	Carmen	1	1:75,891
912	Carmody	1	1:75,891
912	Carr	1	1:75,891
912	Carras	1	1:75,891
912	Carrington	1	1:75,891
912	Carrio	1	1:75,891
912	Carroz	1	1:75,891
912	Carrubba	1	1:75,891
912	Cartagena	1	1:75,891
912	Cartel	1	1:75,891
912	Carvalho	1	1:75,891
912	Case	1	1:75,891
912	Casilla	1	1:75,891
912	Casimer	1	1:75,891
912	Caso	1	1:75,891
912	Cassel	1	1:75,891
912	Castaño	1	1:75,891
912	Castellanos	1	1:75,891
912	Castle	1	1:75,891
912	Catin	1	1:75,891
912	Cator	1	1:75,891
912	Caudeiron	1	1:75,891
912	Cayton	1	1:75,891
912	Cedano	1	1:75,891
912	Celado	1	1:75,891
912	Celestin	1	1:75,891
912	Celi	1	1:75,891
912	Cena	1	1:75,891
912	Cepeda	1	1:75,891
912	Cerge	1	1:75,891
912	Cernota	1	1:75,891
912	Cesar	1	1:75,891
912	Challener	1	1:75,891
912	Chalmers	1	1:75,891
912	Channan	1	1:75,891
912	Chaplais	1	1:75,891
912	Charles-Didier	1	1:75,891
912	Charles-Green	1	1:75,891
912	Charles-Thomas	1	1:75,891
912	Charlton	1	1:75,891
912	Charpentier	1	1:75,891
912	Charter	1	1:75,891
912	Chase	1	1:75,891
912	Chaseau	1	1:75,891
912	Chasseau	1	1:75,891
912	Chaterine	1	1:75,891
912	Chavez	1	1:75,891
912	Che	1	1:75,891
912	Checo	1	1:75,891
912	Cheemanlall	1	1:75,891
912	Cheeseman	1	1:75,891
912	Chekuri	1	1:75,891
912	Chen	1	1:75,891
912	Cherry	1	1:75,891
912	Chetty	1	1:75,891
912	Chiang	1	1:75,891
912	Chicaiza	1	1:75,891
912	Chong	1	1:75,891
912	Chris	1	1:75,891
912	Christel	1	1:75,891
912	Christophe	1	1:75,891
912	Christopher-Durand	1	1:75,891
912	Church	1	1:75,891
912	Cignoni	1	1:75,891
912	Clapperton	1	1:75,891
912	Clara	1	1:75,891
912	Clarendon	1	1:75,891
912	Clark	1	1:75,891
912	Clarke-Hillaire	1	1:75,891
912	Class	1	1:75,891
912	Clausen	1	1:75,891
912	Clifton	1	1:75,891
912	Clunes	1	1:75,891
912	Cockrane	1	1:75,891
912	Cocorico	1	1:75,891
912	Coffin	1	1:75,891
912	Colbert	1	1:75,891
912	Cole	1	1:75,891
912	Coley	1	1:75,891
912	Colin	1	1:75,891
912	Coll	1	1:75,891
912	Collymore	1	1:75,891
912	Colmore	1	1:75,891
912	Com	1	1:75,891
912	Come	1	1:75,891
912	Comellas	1	1:75,891
912	Comittee	1	1:75,891
912	Connell	1	1:75,891
912	Connie	1	1:75,891
912	Conran	1	1:75,891
912	Consolino	1	1:75,891
912	Consoro	1	1:75,891
912	Contador	1	1:75,891
912	Contrera	1	1:75,891
912	Cool	1	1:75,891
912	Cooles	1	1:75,891
912	Cools	1	1:75,891
912	Corbett	1	1:75,891
912	Corbin	1	1:75,891
912	Cordero	1	1:75,891
912	Cornell	1	1:75,891
912	Coronado	1	1:75,891
912	Corporan	1	1:75,891
912	Costello	1	1:75,891
912	Costilla	1	1:75,891
912	Coulthurst	1	1:75,891
912	Council	1	1:75,891
912	Coupe	1	1:75,891
912	Coureul	1	1:75,891
912	Coutois	1	1:75,891
912	Couture	1	1:75,891
912	Coy	1	1:75,891
912	Coyes	1	1:75,891
912	Crawford	1	1:75,891
912	Crespo	1	1:75,891
912	Cronhardt	1	1:75,891
912	Crucey	1	1:75,891
912	Cruickshank	1	1:75,891
912	Csmarich	1	1:75,891
912	Cuello	1	1:75,891
912	Cuero	1	1:75,891
912	Cumberbach	1	1:75,891
912	Cummings	1	1:75,891
912	Cunneely	1	1:75,891
912	Curlis	1	1:75,891
912	Curry	1	1:75,891
912	Curth	1	1:75,891
912	Curtiss	1	1:75,891
912	Custódio	1	1:75,891
912	Czarnecki	1	1:75,891
912	da Silva	1	1:75,891
912	Daisy-Lewis	1	1:75,891
912	Dalryple	1	1:75,891
912	Dalsager	1	1:75,891
912	Dalton	1	1:75,891
912	Damaso	1	1:75,891
912	Daniels	1	1:75,891
912	Dantas	1	1:75,891
912	Dario	1	1:75,891
912	Darius	1	1:75,891
912	Darling	1	1:75,891
912	Darren	1	1:75,891
912	Daruis	1	1:75,891
912	Darwton	1	1:75,891
912	Daubney	1	1:75,891
912	Dave	1	1:75,891
912	Davi	1	1:75,891
912	Davila	1	1:75,891
912	Davis-Pierre	1	1:75,891
912	Daw	1	1:75,891
912	Daya	1	1:75,891
912	Dayal	1	1:75,891
912	Daye	1	1:75,891
912	de Armas	1	1:75,891
912	de Ath	1	1:75,891
912	de Freitas	1	1:75,891
912	de Gannes	1	1:75,891
912	de Jesús	1	1:75,891
912	de La Torre	1	1:75,891
912	de Peña	1	1:75,891
912	de Rosario	1	1:75,891
912	de Óleo	1	1:75,891
912	De-Lavaliere	1	1:75,891
912	Deanna	1	1:75,891
912	Debus	1	1:75,891
912	Dechamps	1	1:75,891
912	Decius	1	1:75,891
912	Dede	1	1:75,891
912	Deesing	1	1:75,891
912	Defoe-Percin	1	1:75,891
912	Defrank	1	1:75,891
912	Defreitas	1	1:75,891
912	Defusco	1	1:75,891
912	Degalray	1	1:75,891
912	Deighton	1	1:75,891
912	Deikel	1	1:75,891
912	Del	1	1:75,891
912	del Mar	1	1:75,891
912	del Orbe	1	1:75,891
912	del Pozo	1	1:75,891
912	Delacruzz	1	1:75,891
912	Delavega	1	1:75,891
912	Delgado	1	1:75,891
912	Dell	1	1:75,891
912	Delon	1	1:75,891
912	Delossantos	1	1:75,891
912	Deluge	1	1:75,891
912	Deluge-Cornelius	1	1:75,891
912	Demming	1	1:75,891
912	Dena	1	1:75,891
912	Deng	1	1:75,891
912	Denunzio	1	1:75,891
912	Denzer	1	1:75,891
912	Deolall	1	1:75,891
912	Dequental	1	1:75,891
912	Deroche	1	1:75,891
912	Derose	1	1:75,891
912	Desa	1	1:75,891
912	Desai	1	1:75,891
912	Desborne	1	1:75,891
912	Deserie	1	1:75,891
912	Desert	1	1:75,891
912	Deserve	1	1:75,891
912	Desir	1	1:75,891
912	Desmoulins	1	1:75,891
912	Destouche-Johnson	1	1:75,891
912	Destouches	1	1:75,891
912	Detouche	1	1:75,891
912	Devilder	1	1:75,891
912	Deville	1	1:75,891
912	Dewhurst	1	1:75,891
912	Deño	1	1:75,891
912	Dhiman	1	1:75,891
912	Dhlora	1	1:75,891
912	di Biagio	1	1:75,891
912	di Genova	1	1:75,891
912	Dib	1	1:75,891
912	Dibianco	1	1:75,891
912	Dickenson	1	1:75,891
912	Dickerson	1	1:75,891
912	Dickson	1	1:75,891
912	Diehl	1	1:75,891
912	Dier	1	1:75,891
912	Dieu	1	1:75,891
912	Dill	1	1:75,891
912	Dilon	1	1:75,891
912	Dilone	1	1:75,891
912	Dimanche	1	1:75,891
912	Dinnard	1	1:75,891
912	Dinnard-Williams	1	1:75,891
912	Dive	1	1:75,891
912	Dixon	1	1:75,891
912	Dixson	1	1:75,891
912	Do	1	1:75,891
912	Dobiech	1	1:75,891
912	Dode	1	1:75,891
912	Dombkowski	1	1:75,891
912	Domenica	1	1:75,891
912	Dominici	1	1:75,891
912	Donalson	1	1:75,891
912	Donovan	1	1:75,891
912	Dontfraid	1	1:75,891
912	Doris	1	1:75,891
912	Dorll	1	1:75,891
912	Dorman	1	1:75,891
912	Dorway	1	1:75,891
912	Doug	1	1:75,891
912	Douglas-Johnson	1	1:75,891
912	Dousdebes	1	1:75,891
912	Doñe	1	1:75,891
912	Drew	1	1:75,891
912	Drinnon	1	1:75,891
912	Drummelsmith	1	1:75,891
912	Drummond	1	1:75,891
912	Duarte	1	1:75,891
912	Dubuison	1	1:75,891
912	Duguit	1	1:75,891
912	Dumars	1	1:75,891
912	Duncan	1	1:75,891
912	Dupie	1	1:75,891
912	Dupuy	1	1:75,891
912	Duran	1	1:75,891
912	Durban	1	1:75,891
912	Duverseau	1	1:75,891
912	Dylan	1	1:75,891
912	Eakin	1	1:75,891
912	Eastridge	1	1:75,891
912	Ebben	1	1:75,891
912	Ebiringah	1	1:75,891
912	Eck	1	1:75,891
912	Edar	1	1:75,891
912	Edd	1	1:75,891
912	Eddy	1	1:75,891
912	Edgar	1	1:75,891
912	Edmund	1	1:75,891
912	Edmunds	1	1:75,891
912	Edward	1	1:75,891
912	Edwards-Francois	1	1:75,891
912	Edwards-Lewis	1	1:75,891
912	Egebjerg	1	1:75,891
912	Eifrid	1	1:75,891
912	Ekechukwu	1	1:75,891
912	Eli	1	1:75,891
912	Eli-Orr	1	1:75,891
912	Eliane	1	1:75,891
912	Elkins	1	1:75,891
912	Ellick	1	1:75,891
912	Ellingsworth	1	1:75,891
912	Elliontine	1	1:75,891
912	Elliot	1	1:75,891
912	Ellis	1	1:75,891
912	Emeto	1	1:75,891
912	Emmanuel-George	1	1:75,891
912	Enis	1	1:75,891
912	Enmore-Bertrand	1	1:75,891
912	Enrique	1	1:75,891
912	Ent	1	1:75,891
912	Eras	1	1:75,891
912	Erasmus	1	1:75,891
912	Erge	1	1:75,891
912	Erickson	1	1:75,891
912	Ericson	1	1:75,891
912	Errafik	1	1:75,891
912	Escarfullery	1	1:75,891
912	Esch	1	1:75,891
912	España	1	1:75,891
912	Espensen	1	1:75,891
912	Esperanza	1	1:75,891
912	Espinosa	1	1:75,891
912	Espinoza	1	1:75,891
912	Est	1	1:75,891
912	Etherington	1	1:75,891
912	Etienne-Christmas	1	1:75,891
912	Etienne-Manley	1	1:75,891
912	Ettinoffe	1	1:75,891
912	Etxegia	1	1:75,891
912	Eustache-Aaron	1	1:75,891
912	Euzebe	1	1:75,891
912	Eve's	1	1:75,891
912	Everad	1	1:75,891
912	Eze	1	1:75,891
912	Fabbri	1	1:75,891
912	Faber	1	1:75,891
912	Fabres	1	1:75,891
912	Faccin	1	1:75,891
912	Faddoul	1	1:75,891
912	Fadoul	1	1:75,891
912	Faidi	1	1:75,891
912	Fajardo	1	1:75,891
912	Familia	1	1:75,891
912	Famoa	1	1:75,891
912	Fan	1	1:75,891
912	Fanfan	1	1:75,891
912	Farah	1	1:75,891
912	Farajje	1	1:75,891
912	Farkas	1	1:75,891
912	Farm	1	1:75,891
912	Fatima	1	1:75,891
912	Faustine	1	1:75,891
912	Feagin	1	1:75,891
912	Fedr	1	1:75,891
912	Feig	1	1:75,891
912	Feijóo	1	1:75,891
912	Felicien	1	1:75,891
912	Felicite-Stjean	1	1:75,891
912	Feliu	1	1:75,891
912	Femi	1	1:75,891
912	Fergus	1	1:75,891
912	Fermin	1	1:75,891
912	Fernàndez	1	1:75,891
912	Feyi	1	1:75,891
912	Fi	1	1:75,891
912	Figaro	1	1:75,891
912	Figueroa	1	1:75,891
912	Filali	1	1:75,891
912	Filpo	1	1:75,891
912	Filsaime	1	1:75,891
912	Finn	1	1:75,891
912	Finucane	1	1:75,891
912	Firmin	1	1:75,891
912	Fiton	1	1:75,891
912	FitzGerald	1	1:75,891
912	Flach	1	1:75,891
912	Fleming	1	1:75,891
912	Flete	1	1:75,891
912	Flick	1	1:75,891
912	Floissac	1	1:75,891
912	Flora	1	1:75,891
912	Floyd	1	1:75,891
912	Foko	1	1:75,891
912	Fontesse	1	1:75,891
912	Ford	1	1:75,891
912	Forde	1	1:75,891
912	Foresman	1	1:75,891
912	Fort	1	1:75,891
912	Foulds	1	1:75,891
912	Foulkes	1	1:75,891
912	Fox	1	1:75,891
912	Foy	1	1:75,891
912	Fradenburgh	1	1:75,891
912	Francisco	1	1:75,891
912	Franklin	1	1:75,891
912	Frankson	1	1:75,891
912	François	1	1:75,891
912	Frazer	1	1:75,891
912	Fredrick	1	1:75,891
912	Free	1	1:75,891
912	Frie	1	1:75,891
912	Fu	1	1:75,891
912	Fuentes	1	1:75,891
912	Fullbrook	1	1:75,891
912	Fumero	1	1:75,891
912	Gailly	1	1:75,891
912	Gakegne	1	1:75,891
912	Gallagher	1	1:75,891
912	Gallardo	1	1:75,891
912	Gallaway	1	1:75,891
912	Gallo	1	1:75,891
912	Galloway	1	1:75,891
912	Galvez	1	1:75,891
912	Gamarra	1	1:75,891
912	Gamble	1	1:75,891
912	Gamez	1	1:75,891
912	Garabito	1	1:75,891
912	Garcias	1	1:75,891
912	Garduo	1	1:75,891
912	Garnett	1	1:75,891
912	Garsia	1	1:75,891
912	Garvin	1	1:75,891
912	Gaworek-Michalczenia	1	1:75,891
912	Gazzah	1	1:75,891
912	Gba	1	1:75,891
912	Gee	1	1:75,891
912	Geirge	1	1:75,891
912	Gelis	1	1:75,891
912	Gemming	1	1:75,891
912	Gene	1	1:75,891
912	Genevieve	1	1:75,891
912	George-Desabaye	1	1:75,891
912	George-Matthew	1	1:75,891
912	George-Mullings	1	1:75,891
912	Georger	1	1:75,891
912	Gerald	1	1:75,891
912	Geraldino	1	1:75,891
912	Germaine	1	1:75,891
912	Germosen	1	1:75,891
912	Geroge	1	1:75,891
912	Gerwig	1	1:75,891
912	Ghost	1	1:75,891
912	Gibbs	1	1:75,891
912	Giddins	1	1:75,891
912	Gilkes	1	1:75,891
912	Gill	1	1:75,891
912	Gillen	1	1:75,891
912	Gilles	1	1:75,891
912	Gilroy	1	1:75,891
912	Giorgi	1	1:75,891
912	Gittens	1	1:75,891
912	Glenford	1	1:75,891
912	Gloria	1	1:75,891
912	Goddard	1	1:75,891
912	Godwin	1	1:75,891
912	Goff	1	1:75,891
912	Goffin	1	1:75,891
912	Goizueta	1	1:75,891
912	Goldberg	1	1:75,891
912	Golub	1	1:75,891
912	Gomaa	1	1:75,891
912	Gomera	1	1:75,891
912	Gomez-Burke	1	1:75,891
912	Gomsale	1	1:75,891
912	Goodwill	1	1:75,891
912	Gore	1	1:75,891
912	Govani	1	1:75,891
912	Grace	1	1:75,891
912	Gragasin	1	1:75,891
912	Gravesen	1	1:75,891
912	Gray	1	1:75,891
912	Greene	1	1:75,891
912	Greer	1	1:75,891
912	Gregorie	1	1:75,891
912	Gregório	1	1:75,891
912	Griffin	1	1:75,891
912	Grimner	1	1:75,891
912	Grogan	1	1:75,891
912	Groome	1	1:75,891
912	Gross	1	1:75,891
912	Grosy	1	1:75,891
912	Grove	1	1:75,891
912	Guachamin	1	1:75,891
912	Guardiola	1	1:75,891
912	Guerin	1	1:75,891
912	Guilamo	1	1:75,891
912	Guillot	1	1:75,891
912	Guobadia	1	1:75,891
912	Guro	1	1:75,891
912	Guzmanrodriguez	1	1:75,891
912	Guzmán	1	1:75,891
912	Gyamfi	1	1:75,891
912	Gysin	1	1:75,891
912	Haase	1	1:75,891
912	Hajjah	1	1:75,891
912	Hale	1	1:75,891
912	Halls	1	1:75,891
912	Halpin	1	1:75,891
912	Hamille	1	1:75,891
912	Hamiton	1	1:75,891
912	Hand	1	1:75,891
912	Handel	1	1:75,891
912	Hanekom	1	1:75,891
912	Hannah	1	1:75,891
912	Hansel	1	1:75,891
912	Hanson	1	1:75,891
912	Haque	1	1:75,891
912	Hara	1	1:75,891
912	Hare	1	1:75,891
912	Harman	1	1:75,891
912	Harps	1	1:75,891
912	Harripersad	1	1:75,891
912	Harvest	1	1:75,891
912	Harvey	1	1:75,891
912	Hasbun	1	1:75,891
912	Hasheem	1	1:75,891
912	Hasna	1	1:75,891
912	Hassan	1	1:75,891
912	Hasseries	1	1:75,891
912	Hassett	1	1:75,891
912	Hata	1	1:75,891
912	Hauge	1	1:75,891
912	Hawley	1	1:75,891
912	Hayes	1	1:75,891
912	Haynes	1	1:75,891
912	Hazim	1	1:75,891
912	Heady	1	1:75,891
912	Hearle	1	1:75,891
912	Hedemann	1	1:75,891
912	Hedreville	1	1:75,891
912	Heinrich	1	1:75,891
912	Heizelman	1	1:75,891
912	Helena	1	1:75,891
912	Helge	1	1:75,891
912	Helverskov	1	1:75,891
912	Hendricks	1	1:75,891
912	Henery	1	1:75,891
912	Henry-Guiste	1	1:75,891
912	Henserson	1	1:75,891
912	Hercman	1	1:75,891
912	Herga	1	1:75,891
912	Hernandez	1	1:75,891
912	Hernandezdiaz	1	1:75,891
912	Herredia	1	1:75,891
912	Heyliger	1	1:75,891
912	Hickman	1	1:75,891
912	Hido	1	1:75,891
912	Higgins	1	1:75,891
912	Hilbert	1	1:75,891
912	Hinds	1	1:75,891
912	Hinson	1	1:75,891
912	Hiraldo	1	1:75,891
912	Ho	1	1:75,891
912	Hoffman	1	1:75,891
912	Holland	1	1:75,891
912	Holleman	1	1:75,891
912	Hollimon	1	1:75,891
912	Holm	1	1:75,891
912	Homes	1	1:75,891
912	Hone	1	1:75,891
912	Honore-Lockhart	1	1:75,891
912	Hood	1	1:75,891
912	Hopkins	1	1:75,891
912	Hoppley	1	1:75,891
912	Horat	1	1:75,891
912	Horrick	1	1:75,891
912	Hossain	1	1:75,891
912	Hote	1	1:75,891
912	House	1	1:75,891
912	Houston	1	1:75,891
912	Hovde	1	1:75,891
912	Howatt	1	1:75,891
912	Howdeshell	1	1:75,891
912	Howe	1	1:75,891
912	Hsu	1	1:75,891
912	Huard	1	1:75,891
912	Huat	1	1:75,891
912	Hudge	1	1:75,891
912	Huggins	1	1:75,891
912	Hughes	1	1:75,891
912	Hull	1	1:75,891
912	Hunkins	1	1:75,891
912	Hunneybell	1	1:75,891
912	Hunt	1	1:75,891
912	Hunte	1	1:75,891
912	Hur	1	1:75,891
912	Hurst	1	1:75,891
912	Hurt	1	1:75,891
912	Hussey	1	1:75,891
912	Hypolite-Joseph	1	1:75,891
912	Hübner	1	1:75,891
912	Igberi	1	1:75,891
912	Igweze	1	1:75,891
912	Ikechukwu	1	1:75,891
912	Ikes	1	1:75,891
912	Ikezuagu	1	1:75,891
912	Infante	1	1:75,891
912	Ingen	1	1:75,891
912	Inglis	1	1:75,891
912	Ioio	1	1:75,891
912	Isabel	1	1:75,891
912	Isadora	1	1:75,891
912	Ishmael	1	1:75,891
912	Itodo	1	1:75,891
912	Iva	1	1:75,891
912	Ivanov	1	1:75,891
912	Ivory	1	1:75,891
912	Jackie	1	1:75,891
912	Jackson-Miller	1	1:75,891
912	Jaene	1	1:75,891
912	Jakobsson	1	1:75,891
912	Jalil	1	1:75,891
912	James-George	1	1:75,891
912	Janvelian	1	1:75,891
912	Jarzeboski	1	1:75,891
912	Javed	1	1:75,891
912	Jbaptiste	1	1:75,891
912	Jean-Baptiste	1	1:75,891
912	Jeanne	1	1:75,891
912	Jeanpierre	1	1:75,891
912	Jeanton	1	1:75,891
912	Jederon	1	1:75,891
912	Jehosaphat	1	1:75,891
912	Jemmot	1	1:75,891
912	Jenkins	1	1:75,891
912	Jenner	1	1:75,891
912	Jeppesen	1	1:75,891
912	Jervis	1	1:75,891
912	Jiang	1	1:75,891
912	Jike	1	1:75,891
912	Jimene	1	1:75,891
912	Jitchaku	1	1:75,891
912	Jno-Lewis	1	1:75,891
912	Jnomarie	1	1:75,891
912	Joachim	1	1:75,891
912	John Baptise	1	1:75,891
912	John Marie	1	1:75,891
912	John Pierre	1	1:75,891
912	John-Jules	1	1:75,891
912	John-Marie	1	1:75,891
912	Johnrose	1	1:75,891
912	Johnstone	1	1:75,891
912	Jojo	1	1:75,891
912	Jonathan	1	1:75,891
912	Jones-Daisy	1	1:75,891
912	Jorquera	1	1:75,891
912	Jorski	1	1:75,891
912	Josaphat	1	1:75,891
912	Joseph-Bellot	1	1:75,891
912	Joseph-Davis	1	1:75,891
912	Joseph-Fontaine	1	1:75,891
912	Joseph-Lestrade	1	1:75,891
912	Joseph-Pascal	1	1:75,891
912	Joseph-Piper	1	1:75,891
912	Joseph-Vital	1	1:75,891
912	Josephine	1	1:75,891
912	Joudaki	1	1:75,891
912	Jovine	1	1:75,891
912	Jrgensen	1	1:75,891
912	Jude	1	1:75,891
912	Juispais	1	1:75,891
912	Julia	1	1:75,891
912	Jully	1	1:75,891
912	Junior	1	1:75,891
912	Junks	1	1:75,891
912	Juno	1	1:75,891
912	Jurado	1	1:75,891
912	Jury	1	1:75,891
912	Jussila	1	1:75,891
912	Justice	1	1:75,891
912	Justiniano	1	1:75,891
912	Justus	1	1:75,891
912	Jønck	1	1:75,891
912	Kalbach	1	1:75,891
912	Kale	1	1:75,891
912	Kaleshi	1	1:75,891
912	Kalliecharan	1	1:75,891
912	Kalman	1	1:75,891
912	Kangal	1	1:75,891
912	Kante	1	1:75,891
912	Kanwal	1	1:75,891
912	Kanzali	1	1:75,891
912	Karam-Raffoul	1	1:75,891
912	Karitski	1	1:75,891
912	Karla	1	1:75,891
912	Kascelan	1	1:75,891
912	Kasey	1	1:75,891
912	Kass	1	1:75,891
912	Kathiramalainathan	1	1:75,891
912	Katwaroo	1	1:75,891
912	Katz	1	1:75,891
912	Kaysea	1	1:75,891
912	Kazanowski	1	1:75,891
912	Kazim	1	1:75,891
912	Keator	1	1:75,891
912	Kebede	1	1:75,891
912	Keens	1	1:75,891
912	Keetch	1	1:75,891
912	Keilman	1	1:75,891
912	Kekkonen	1	1:75,891
912	Kelchure	1	1:75,891
912	Kelsick	1	1:75,891
912	Kentish	1	1:75,891
912	Kerael	1	1:75,891
912	Kerman	1	1:75,891
912	Kerna	1	1:75,891
912	Kerrison	1	1:75,891
912	Kervel	1	1:75,891
912	Kester	1	1:75,891
912	Key	1	1:75,891
912	Khachatrian	1	1:75,891
912	Khalili	1	1:75,891
912	Khorassani	1	1:75,891
912	Khraponenko	1	1:75,891
912	Kibera	1	1:75,891
912	Kidwai	1	1:75,891
912	Kimayah	1	1:75,891
912	Kimmey	1	1:75,891
912	Kinght	1	1:75,891
912	Kingshill	1	1:75,891
912	Kinman	1	1:75,891
912	Klassen	1	1:75,891
912	Klinck	1	1:75,891
912	Klir	1	1:75,891
912	Knights	1	1:75,891
912	Knott	1	1:75,891
912	Knowles	1	1:75,891
912	Knox	1	1:75,891
912	Koa	1	1:75,891
912	Koenig	1	1:75,891
912	Koffi	1	1:75,891
912	Kohl	1	1:75,891
912	Koi	1	1:75,891
912	Kondo	1	1:75,891
912	Kone	1	1:75,891
912	Konye	1	1:75,891
912	Kopilak	1	1:75,891
912	Kor	1	1:75,891
912	Kosier	1	1:75,891
912	Kpamor	1	1:75,891
912	Krishnakumar	1	1:75,891
912	Kronig	1	1:75,891
912	Kufmann	1	1:75,891
912	Kuis	1	1:75,891
912	Kumar	1	1:75,891
912	Kumarakulasingham	1	1:75,891
912	Kwakye	1	1:75,891
912	Kwasinski	1	1:75,891
912	Kyc	1	1:75,891
912	L'homme	1	1:75,891
912	La Fond	1	1:75,891
912	La Rocque	1	1:75,891
912	La Ronde	1	1:75,891
912	La Ville	1	1:75,891
912	La'rocque	1	1:75,891
912	La-Force	1	1:75,891
912	Laad	1	1:75,891
912	Labadie	1	1:75,891
912	Labone	1	1:75,891
912	Lafleur	1	1:75,891
912	Laflouf	1	1:75,891
912	Lafontaine	1	1:75,891
912	Laguerre	1	1:75,891
912	Lahara	1	1:75,891
912	Laidlow	1	1:75,891
912	Lake	1	1:75,891
912	Laky	1	1:75,891
912	Lala	1	1:75,891
912	Lalonde	1	1:75,891
912	Lalondn	1	1:75,891
912	Lalsee	1	1:75,891
912	Lamami	1	1:75,891
912	Lamar	1	1:75,891
912	Lamar-Ruth	1	1:75,891
912	Lamarche	1	1:75,891
912	Lammar	1	1:75,891
912	Lancaster	1	1:75,891
912	Lancelot	1	1:75,891
912	Lando	1	1:75,891
912	Landrin	1	1:75,891
912	Languedoc	1	1:75,891
912	Lanqing	1	1:75,891
912	Lantan	1	1:75,891
912	Lanthier	1	1:75,891
912	Lantigua	1	1:75,891
912	Lapaix	1	1:75,891
912	Lapidus	1	1:75,891
912	Laplaine	1	1:75,891
912	Laplume	1	1:75,891
912	Lara	1	1:75,891
912	Laramy	1	1:75,891
912	Large	1	1:75,891
912	Lastres	1	1:75,891
912	Lataille	1	1:75,891
912	Laudat-Laville	1	1:75,891
912	Laudaut	1	1:75,891
912	Laupen	1	1:75,891
912	Laurier	1	1:75,891
912	Laviniere	1	1:75,891
912	Law	1	1:75,891
912	Lazarus	1	1:75,891
912	Lean	1	1:75,891
912	Leavy	1	1:75,891
912	Lebeque	1	1:75,891
912	Leblance	1	1:75,891
912	Leclair	1	1:75,891
912	Ledesma	1	1:75,891
912	Lees	1	1:75,891
912	Legros	1	1:75,891
912	Lehrer	1	1:75,891
912	Lelitte	1	1:75,891
912	Lelittle	1	1:75,891
912	Lemaitre	1	1:75,891
912	Lemerle	1	1:75,891
912	Lemuel-Johnson	1	1:75,891
912	Lenard	1	1:75,891
912	Lendor	1	1:75,891
912	Lennard	1	1:75,891
912	Lennox	1	1:75,891
912	Lenny	1	1:75,891
912	Leogal	1	1:75,891
912	Lepre	1	1:75,891
912	Leroy	1	1:75,891
912	Lesens	1	1:75,891
912	Letang-Talbot	1	1:75,891
912	Leury	1	1:75,891
912	Levy	1	1:75,891
912	Leyba	1	1:75,891
912	Liao	1	1:75,891
912	Liat	1	1:75,891
912	Lifford	1	1:75,891
912	Light	1	1:75,891
912	Limbu	1	1:75,891
912	Linares	1	1:75,891
912	Lindley	1	1:75,891
912	Lindo	1	1:75,891
912	Linford	1	1:75,891
912	Link	1	1:75,891
912	Lion	1	1:75,891
912	Liranzo	1	1:75,891
912	Litvinov	1	1:75,891
912	Liu	1	1:75,891
912	Liv	1	1:75,891
912	Livingston	1	1:75,891
912	Lizarazo	1	1:75,891
912	Lizardo	1	1:75,891
912	Lizra	1	1:75,891
912	Llacuna	1	1:75,891
912	Llamas	1	1:75,891
912	Loca	1	1:75,891
912	Lockhart-Warrington	1	1:75,891
912	Locsin	1	1:75,891
912	Lodges	1	1:75,891
912	Lodrick	1	1:75,891
912	Login	1	1:75,891
912	Lokey	1	1:75,891
912	Lolah	1	1:75,891
912	Londergan	1	1:75,891
912	Longmire	1	1:75,891
912	Look	1	1:75,891
912	Loor	1	1:75,891
912	Lopez-Penha	1	1:75,891
912	Loramol	1	1:75,891
912	Lorenzo	1	1:75,891
912	Loretto	1	1:75,891
912	Lorraine	1	1:75,891
912	Los	1	1:75,891
912	Louison	1	1:75,891
912	Louisor	1	1:75,891
912	Loval	1	1:75,891
912	Loy	1	1:75,891
912	Lucas	1	1:75,891
912	Luciano	1	1:75,891
912	Lucumi	1	1:75,891
912	Lucy	1	1:75,891
912	Luna	1	1:75,891
912	Luse	1	1:75,891
912	Luzuriaga	1	1:75,891
912	Lykke	1	1:75,891
912	Lyman	1	1:75,891
912	Lynch	1	1:75,891
912	Lyng	1	1:75,891
912	Ma	1	1:75,891
912	Maartinez	1	1:75,891
912	Mac	1	1:75,891
912	Macarthy	1	1:75,891
912	MacIntyre	1	1:75,891
912	MacLeod	1	1:75,891
912	MacMillan	1	1:75,891
912	Madisetti	1	1:75,891
912	Madou	1	1:75,891
912	Madsen	1	1:75,891
912	Maek	1	1:75,891
912	Maffei	1	1:75,891
912	Magni	1	1:75,891
912	Mahlstedt	1	1:75,891
912	Mahmoud	1	1:75,891
912	Mahtis	1	1:75,891
912	Maigualema	1	1:75,891
912	Majors	1	1:75,891
912	Makasiar	1	1:75,891
912	Makedonski	1	1:75,891
912	Malaker	1	1:75,891
912	Malik	1	1:75,891
912	Malis	1	1:75,891
912	Mallik	1	1:75,891
912	Malone-Hawkins	1	1:75,891
912	Maloone	1	1:75,891
912	Malzaire	1	1:75,891
912	Man	1	1:75,891
912	Mana	1	1:75,891
912	Mani	1	1:75,891
912	Manley	1	1:75,891
912	Mann	1	1:75,891
912	Manubay	1	1:75,891
912	Marcel	1	1:75,891
912	Marcelin	1	1:75,891
912	Marchi	1	1:75,891
912	Marcial	1	1:75,891
912	Mare	1	1:75,891
912	Maria	1	1:75,891
912	Mariah	1	1:75,891
912	Mariano	1	1:75,891
912	Mariette	1	1:75,891
912	Marin	1	1:75,891
912	Marinho	1	1:75,891
912	Mario	1	1:75,891
912	Mark-Dickson	1	1:75,891
912	Marlene	1	1:75,891
912	Marron	1	1:75,891
912	Marsait	1	1:75,891
912	Marshall	1	1:75,891
912	Marsley	1	1:75,891
912	Marte	1	1:75,891
912	Marten	1	1:75,891
912	Martes	1	1:75,891
912	Martias	1	1:75,891
912	Martimez	1	1:75,891
912	Martina	1	1:75,891
912	Martindale	1	1:75,891
912	Martini	1	1:75,891
912	Martins	1	1:75,891
912	Martínez	1	1:75,891
912	Marvlyn	1	1:75,891
912	Mas	1	1:75,891
912	Mascoll	1	1:75,891
912	Massey	1	1:75,891
912	Massicotte	1	1:75,891
912	Massip	1	1:75,891
912	Mathieu	1	1:75,891
912	Matias	1	1:75,891
912	Matthen	1	1:75,891
912	Matther	1	1:75,891
912	Matthew-Joseph	1	1:75,891
912	Matthews	1	1:75,891
912	Matthias	1	1:75,891
912	Mattos	1	1:75,891
912	Maturine	1	1:75,891
912	Matza	1	1:75,891
912	Maude	1	1:75,891
912	Maurice	1	1:75,891
912	Mavare	1	1:75,891
912	Max	1	1:75,891
912	Maxi	1	1:75,891
912	Maxime	1	1:75,891
912	Maximen	1	1:75,891
912	Maxwel	1	1:75,891
912	Maynard	1	1:75,891
912	Maynes	1	1:75,891
912	Mañon	1	1:75,891
912	Mašek	1	1:75,891
912	Mbakop	1	1:75,891
912	McBride	1	1:75,891
912	McCarthy	1	1:75,891
912	McCarty	1	1:75,891
912	McCaskey	1	1:75,891
912	McClean	1	1:75,891
912	McDonald	1	1:75,891
912	McDonough	1	1:75,891
912	McDougal	1	1:75,891
912	McEwan	1	1:75,891
912	McGaffey	1	1:75,891
912	McGilvery	1	1:75,891
912	McInerney	1	1:75,891
912	McIntire	1	1:75,891
912	McKay	1	1:75,891
912	McKelson	1	1:75,891
912	McLean	1	1:75,891
912	McLeod	1	1:75,891
912	McManus	1	1:75,891
912	McMaster	1	1:75,891
912	McMeans	1	1:75,891
912	Mcnamamra	1	1:75,891
912	McNamara	1	1:75,891
912	McPerson	1	1:75,891
912	Meachum	1	1:75,891
912	Meade-Richards	1	1:75,891
912	Mecklembourg	1	1:75,891
912	Medar	1	1:75,891
912	Medico	1	1:75,891
912	Medys	1	1:75,891
912	Mee	1	1:75,891
912	Mehta	1	1:75,891
912	Meijun	1	1:75,891
912	Meisenberg	1	1:75,891
912	Meja	1	1:75,891
912	Mekondongo	1	1:75,891
912	Melanson	1	1:75,891
912	Melendez	1	1:75,891
912	Melin	1	1:75,891
912	Mellow-Baron	1	1:75,891
912	Melon	1	1:75,891
912	Mena	1	1:75,891
912	Mendze	1	1:75,891
912	Menendez	1	1:75,891
912	Menon	1	1:75,891
912	Mera	1	1:75,891
912	Mercedes	1	1:75,891
912	Mercil	1	1:75,891
912	Mericle	1	1:75,891
912	Merritt	1	1:75,891
912	Mesa	1	1:75,891
912	Mesidor	1	1:75,891
912	Mesquita	1	1:75,891
912	Metawi	1	1:75,891
912	Metivier	1	1:75,891
912	Meyers	1	1:75,891
912	Miao	1	1:75,891
912	Miau	1	1:75,891
912	Michael	1	1:75,891
912	Micheal	1	1:75,891
912	Michell	1	1:75,891
912	Milam	1	1:75,891
912	Milan	1	1:75,891
912	Millar	1	1:75,891
912	Miller	1	1:75,891
912	Milton	1	1:75,891
912	Minet	1	1:75,891
912	Minette	1	1:75,891
912	Ming	1	1:75,891
912	Minja	1	1:75,891
912	Minto	1	1:75,891
912	Miranda	1	1:75,891
912	Miredin	1	1:75,891
912	Miron	1	1:75,891
912	Mirza	1	1:75,891
912	Moco	1	1:75,891
912	Modesto	1	1:75,891
912	Moghbel	1	1:75,891
912	Mohamed	1	1:75,891
912	Mohan	1	1:75,891
912	Mohinani	1	1:75,891
912	Mohr	1	1:75,891
912	Moise-Beautreau	1	1:75,891
912	Mojica	1	1:75,891
912	Mok	1	1:75,891
912	Molina	1	1:75,891
912	Molla	1	1:75,891
912	Molski	1	1:75,891
912	Momplaisir	1	1:75,891
912	Mondasire	1	1:75,891
912	Monelle	1	1:75,891
912	Monjoury	1	1:75,891
912	Monsanto	1	1:75,891
912	Montelatici	1	1:75,891
912	Montenegro	1	1:75,891
912	Montes	1	1:75,891
912	Montessori	1	1:75,891
912	Montilla	1	1:75,891
912	Montoute	1	1:75,891
912	Monz	1	1:75,891
912	Moody	1	1:75,891
912	Moorhouse	1	1:75,891
912	Mora	1	1:75,891
912	Morebise	1	1:75,891
912	Moreta	1	1:75,891
912	Morillo	1	1:75,891
912	Morne	1	1:75,891
912	Moronta	1	1:75,891
912	Morson	1	1:75,891
912	Mos	1	1:75,891
912	Moses George	1	1:75,891
912	Moses-Pascal	1	1:75,891
912	Mosquea	1	1:75,891
912	Mota	1	1:75,891
912	Muffet	1	1:75,891
912	Mugrave-Abraham	1	1:75,891
912	Mukherjee	1	1:75,891
912	Mulcare	1	1:75,891
912	Munk	1	1:75,891
912	Munn	1	1:75,891
912	Munoz	1	1:75,891
912	Murdock	1	1:75,891
912	Murrain	1	1:75,891
912	Murray	1	1:75,891
912	Murrell	1	1:75,891
912	Muta	1	1:75,891
912	Muthiah	1	1:75,891
912	Muusmann	1	1:75,891
912	Muzik	1	1:75,891
912	Myler	1	1:75,891
912	Møller	1	1:75,891
912	Müller	1	1:75,891
912	Nadal	1	1:75,891
912	Nadler	1	1:75,891
912	Nagai	1	1:75,891
912	Nagy	1	1:75,891
912	Nakamura	1	1:75,891
912	Nalubega	1	1:75,891
912	Nanthon	1	1:75,891
912	Nanton	1	1:75,891
912	Napier	1	1:75,891
912	Narvaiza	1	1:75,891
912	Nasiiro	1	1:75,891
912	Nata	1	1:75,891
912	Natasha	1	1:75,891
912	Nathan	1	1:75,891
912	Naudin	1	1:75,891
912	Nazarene	1	1:75,891
912	Naziripour	1	1:75,891
912	Nebesky	1	1:75,891
912	Negi	1	1:75,891
912	Nerwal	1	1:75,891
912	Nester	1	1:75,891
912	Neuville	1	1:75,891
912	Nevares	1	1:75,891
912	Newman	1	1:75,891
912	Nguyen	1	1:75,891
912	Niamathalli	1	1:75,891
912	Nichols	1	1:75,891
912	Nico	1	1:75,891
912	Nieto	1	1:75,891
912	Nina	1	1:75,891
912	Niobe	1	1:75,891
912	Nisbett	1	1:75,891
912	Nisbitt	1	1:75,891
912	Nivar	1	1:75,891
912	Nixon	1	1:75,891
912	Niyazov	1	1:75,891
912	Nkatazo	1	1:75,891
912	No	1	1:75,891
912	Noble	1	1:75,891
912	Noelsaint	1	1:75,891
912	Nolen	1	1:75,891
912	Nolin	1	1:75,891
912	Noorlander	1	1:75,891
912	Norbron	1	1:75,891
912	Norbu	1	1:75,891
912	Norde	1	1:75,891
912	Normil	1	1:75,891
912	North	1	1:75,891
912	Norville	1	1:75,891
912	November	1	1:75,891
912	Novoa	1	1:75,891
912	Null	1	1:75,891
912	Nunes	1	1:75,891
912	Nunez	1	1:75,891
912	Nurse	1	1:75,891
912	Nuzhny	1	1:75,891
912	Nuñes	1	1:75,891
912	Nwaka	1	1:75,891
912	Nweke	1	1:75,891
912	Nweye	1	1:75,891
912	Nyaaba	1	1:75,891
912	Nyerere	1	1:75,891
912	Nylin	1	1:75,891
912	Nyvang	1	1:75,891
912	O'Donoghue	1	1:75,891
912	Obafemi	1	1:75,891
912	Obasi	1	1:75,891
912	Obele	1	1:75,891
912	Obidimma	1	1:75,891
912	Obonyo	1	1:75,891
912	Obrien	1	1:75,891
912	Odell	1	1:75,891
912	Oden	1	1:75,891
912	Odutola	1	1:75,891
912	Offersen	1	1:75,891
912	Offley	1	1:75,891
912	Oh	1	1:75,891
912	Oji	1	1:75,891
912	Oko	1	1:75,891
912	Okonji	1	1:75,891
912	Okorie	1	1:75,891
912	Okoro	1	1:75,891
912	Olivacee	1	1:75,891
912	Olivier	1	1:75,891
912	Olmos	1	1:75,891
912	Opadiran	1	1:75,891
912	Ophar	1	1:75,891
912	Opher	1	1:75,891
912	Oppong	1	1:75,891
912	Orbe	1	1:75,891
912	Orden	1	1:75,891
912	Orle	1	1:75,891
912	Ormund	1	1:75,891
912	Osada	1	1:75,891
912	Oselle	1	1:75,891
912	Oshaughnessy	1	1:75,891
912	Osmond	1	1:75,891
912	Oswald	1	1:75,891
912	Osório	1	1:75,891
912	Otano	1	1:75,891
912	Otañez	1	1:75,891
912	Othon	1	1:75,891
912	Ovshani	1	1:75,891
912	Oyelude	1	1:75,891
912	Paavola	1	1:75,891
912	Pacheo	1	1:75,891
912	Pacquet	1	1:75,891
912	Pagua	1	1:75,891
912	Paik	1	1:75,891
912	Palestrina	1	1:75,891
912	Palmquist	1	1:75,891
912	Pan	1	1:75,891
912	Paniagua	1	1:75,891
912	Pannu	1	1:75,891
912	Panthier-Christmas	1	1:75,891
912	Parapi	1	1:75,891
912	Paredes	1	1:75,891
912	Parilon	1	1:75,891
912	Park	1	1:75,891
912	Parlee	1	1:75,891
912	Parreño	1	1:75,891
912	Parry	1	1:75,891
912	Pasdeloup	1	1:75,891
912	Paswell	1	1:75,891
912	Patrice	1	1:75,891
912	Patrickson	1	1:75,891
912	Patrício	1	1:75,891
912	Patterson	1	1:75,891
912	Pattison	1	1:75,891
912	Pattullo	1	1:75,891
912	Paul-Graham	1	1:75,891
912	Paula	1	1:75,891
912	Paulette	1	1:75,891
912	Payamps	1	1:75,891
912	Payano	1	1:75,891
912	Paz	1	1:75,891
912	Pazout	1	1:75,891
912	Pe	1	1:75,891
912	Pecado	1	1:75,891
912	Pedersen	1	1:75,891
912	Pedrosa	1	1:75,891
912	Peete	1	1:75,891
912	Peirre	1	1:75,891
912	Pelletier	1	1:75,891
912	Peoples	1	1:75,891
912	Pereira	1	1:75,891
912	Perera	1	1:75,891
912	Pereyra	1	1:75,891
912	Perik	1	1:75,891
912	Pernin	1	1:75,891
912	Perry	1	1:75,891
912	Person	1	1:75,891
912	Peskin	1	1:75,891
912	Pest	1	1:75,891
912	Pestaina	1	1:75,891
912	Petersen	1	1:75,891
912	Peterseon	1	1:75,891
912	Petrovic	1	1:75,891
912	Pfund	1	1:75,891
912	Pharaoh	1	1:75,891
912	Pharoah	1	1:75,891
912	Pheona	1	1:75,891
912	Philip	1	1:75,891
912	Philippart	1	1:75,891
912	Phillip-Williams	1	1:75,891
912	Phung	1	1:75,891
912	Picard	1	1:75,891
912	Piccini	1	1:75,891
912	Pickman	1	1:75,891
912	Pieraldi	1	1:75,891
912	Pierrelouis	1	1:75,891
912	Pigram	1	1:75,891
912	Pilgrim	1	1:75,891
912	Pineda	1	1:75,891
912	Pinnock	1	1:75,891
912	Piomkowski	1	1:75,891
912	Piotter	1	1:75,891
912	Piscoya	1	1:75,891
912	Pizarro	1	1:75,891
912	Platsko	1	1:75,891
912	Plonge	1	1:75,891
912	Pointe	1	1:75,891
912	Polak	1	1:75,891
912	Polius	1	1:75,891
912	Pollard	1	1:75,891
912	Pollock	1	1:75,891
912	Pontoizeau	1	1:75,891
912	Popeau	1	1:75,891
912	Porras	1	1:75,891
912	Portman	1	1:75,891
912	Portorreal	1	1:75,891
912	Portsmouth	1	1:75,891
912	Posca	1	1:75,891
912	Post	1	1:75,891
912	Potts	1	1:75,891
912	Poulter	1	1:75,891
912	Poulton	1	1:75,891
912	Pradon	1	1:75,891
912	Prescotte	1	1:75,891
912	Preston	1	1:75,891
912	Price	1	1:75,891
912	Prince-Warrington	1	1:75,891
912	Pross	1	1:75,891
912	Proud	1	1:75,891
912	Prudente	1	1:75,891
912	Prynn	1	1:75,891
912	Ptito	1	1:75,891
912	Puckerin	1	1:75,891
912	Pulman	1	1:75,891
912	Pumkin	1	1:75,891
912	Punchee	1	1:75,891
912	Punjabi	1	1:75,891
912	Pursley	1	1:75,891
912	Pyrdek	1	1:75,891
912	Qiong	1	1:75,891
912	Quabili	1	1:75,891
912	Quammie	1	1:75,891
912	Quashie	1	1:75,891
912	Que	1	1:75,891
912	Querishi	1	1:75,891
912	Quevedo	1	1:75,891
912	Quinellato	1	1:75,891
912	Quinn	1	1:75,891
912	Quintana	1	1:75,891
912	Quintero	1	1:75,891
912	Quirot	1	1:75,891
912	Raa	1	1:75,891
912	Rab	1	1:75,891
912	Rahbek	1	1:75,891
912	Rainforest	1	1:75,891
912	Ralph	1	1:75,891
912	Ramires	1	1:75,891
912	Ramirez	1	1:75,891
912	Ramlakhan	1	1:75,891
912	Ramos	1	1:75,891
912	Ramsaran	1	1:75,891
912	Ramsaroop	1	1:75,891
912	Ramsey	1	1:75,891
912	Randall	1	1:75,891
912	Randy	1	1:75,891
912	Rashdan	1	1:75,891
912	Rashid	1	1:75,891
912	Ravalier	1	1:75,891
912	Rawlins	1	1:75,891
912	Rea	1	1:75,891
912	Reach	1	1:75,891
912	Real	1	1:75,891
912	Recors	1	1:75,891
912	Redman	1	1:75,891
912	Reed	1	1:75,891
912	Reefe	1	1:75,891
912	Regalo	1	1:75,891
912	Regist	1	1:75,891
912	Reich	1	1:75,891
912	Reinoso	1	1:75,891
912	Relles	1	1:75,891
912	Remarais	1	1:75,891
912	Renault	1	1:75,891
912	Renna	1	1:75,891
912	Rennick	1	1:75,891
912	Renwick	1	1:75,891
912	Reryes	1	1:75,891
912	Restrepo	1	1:75,891
912	Reyas	1	1:75,891
912	Rhyner	1	1:75,891
912	Richerson	1	1:75,891
912	Richiez	1	1:75,891
912	Rickard	1	1:75,891
912	Rickert	1	1:75,891
912	Ricketts	1	1:75,891
912	Riddle	1	1:75,891
912	Ridge	1	1:75,891
912	Riedel	1	1:75,891
912	Rieke	1	1:75,891
912	Riis	1	1:75,891
912	Rincon	1	1:75,891
912	Ritter	1	1:75,891
912	Rivas	1	1:75,891
912	Robbi	1	1:75,891
912	Roberts-King	1	1:75,891
912	Roberts-Noel	1	1:75,891
912	Robins	1	1:75,891
912	Rock	1	1:75,891
912	Rodriges	1	1:75,891
912	Rodrigez	1	1:75,891
912	Rodriquez	1	1:75,891
912	Roed-Jensen	1	1:75,891
912	Roger	1	1:75,891
912	Rogers	1	1:75,891
912	Rohan	1	1:75,891
912	Rohlicek	1	1:75,891
912	Roland	1	1:75,891
912	Rolston	1	1:75,891
912	Romagnoli	1	1:75,891
912	Romero	1	1:75,891
912	Ronald	1	1:75,891
912	Ronde	1	1:75,891
912	Roney	1	1:75,891
912	Rosa	1	1:75,891
912	Rose	1	1:75,891
912	Roseau	1	1:75,891
912	Roselmond	1	1:75,891
912	Rosenfeld	1	1:75,891
912	Roserens	1	1:75,891
912	Rosero	1	1:75,891
912	Rosney	1	1:75,891
912	Rossard	1	1:75,891
912	Rostkjær	1	1:75,891
912	Rotenberg	1	1:75,891
912	Roulson	1	1:75,891
912	Rouvier	1	1:75,891
912	Rovenskiy	1	1:75,891
912	Rowell	1	1:75,891
912	Royal	1	1:75,891
912	Royer-Dejean	1	1:75,891
912	Rubiera	1	1:75,891
912	Rudolph	1	1:75,891
912	Rufino	1	1:75,891
912	Ruiz	1	1:75,891
912	Russell	1	1:75,891
912	Ryna	1	1:75,891
912	Ryston	1	1:75,891
912	Sa	1	1:75,891
912	Saab	1	1:75,891
912	Saade	1	1:75,891
912	Sabaroache	1	1:75,891
912	Saber	1	1:75,891
912	Sabiduria	1	1:75,891
912	Sabir	1	1:75,891
912	Sadarangani	1	1:75,891
912	Sadhala	1	1:75,891
912	Saes	1	1:75,891
912	Saint	1	1:75,891
912	Saint-Louis	1	1:75,891
912	Salamat	1	1:75,891
912	Saldaña	1	1:75,891
912	Saldivar	1	1:75,891
912	Salerno	1	1:75,891
912	Sambar	1	1:75,891
912	Samuelson	1	1:75,891
912	San	1	1:75,891
912	Sanandaji	1	1:75,891
912	Sanches	1	1:75,891
912	Sanchez	1	1:75,891
912	Sandberg	1	1:75,891
912	Sander	1	1:75,891
912	Sandos	1	1:75,891
912	Sandoval	1	1:75,891
912	Sands	1	1:75,891
912	Sanford	1	1:75,891
912	Sango	1	1:75,891
912	Santelises	1	1:75,891
912	Santo	1	1:75,891
912	Santoro	1	1:75,891
912	Santucci	1	1:75,891
912	Sarante	1	1:75,891
912	Sari	1	1:75,891
912	Sarria-Cesar	1	1:75,891
912	Saunders	1	1:75,891
912	Savarin-John	1	1:75,891
912	Saviñon	1	1:75,891
912	Sawada	1	1:75,891
912	Sawana	1	1:75,891
912	Sawers	1	1:75,891
912	Schilders	1	1:75,891
912	Schipul	1	1:75,891
912	Schirrmeister	1	1:75,891
912	Schlegel	1	1:75,891
912	Scholz	1	1:75,891
912	Schrickel	1	1:75,891
912	Schroeder	1	1:75,891
912	Schultz	1	1:75,891
912	Schulz	1	1:75,891
912	Schütter	1	1:75,891
912	Scotland-Andrew	1	1:75,891
912	Scribner	1	1:75,891
912	Seal	1	1:75,891
912	Seales	1	1:75,891
912	Sealey	1	1:75,891
912	Sealy	1	1:75,891
912	Sebastian	1	1:75,891
912	Sec	1	1:75,891
912	Sedor	1	1:75,891
912	Seignoret	1	1:75,891
912	Sella	1	1:75,891
912	Selmah	1	1:75,891
912	Selman	1	1:75,891
912	Selmo	1	1:75,891
912	Semon	1	1:75,891
912	Sena	1	1:75,891
912	Seo	1	1:75,891
912	Serena	1	1:75,891
912	Sernel	1	1:75,891
912	Sese	1	1:75,891
912	Sexauer	1	1:75,891
912	Seymore	1	1:75,891
912	Shadrach	1	1:75,891
912	Shafi	1	1:75,891
912	Shahzad	1	1:75,891
912	Shakur	1	1:75,891
912	Shams	1	1:75,891
912	Shankar	1	1:75,891
912	Shareef	1	1:75,891
912	Shargel	1	1:75,891
912	Sharma	1	1:75,891
912	Sharon	1	1:75,891
912	Sharpe	1	1:75,891
912	Sharrow	1	1:75,891
912	Sheinerman	1	1:75,891
912	Shemyakov	1	1:75,891
912	Sheng	1	1:75,891
912	Sherman	1	1:75,891
912	Shernelle	1	1:75,891
912	Shilagani	1	1:75,891
912	Shilingford	1	1:75,891
912	Shillingford-Defoe	1	1:75,891
912	Shine	1	1:75,891
912	Shipley	1	1:75,891
912	Shumway	1	1:75,891
912	Sicay	1	1:75,891
912	Sieck	1	1:75,891
912	Siegenthaler	1	1:75,891
912	Sikder	1	1:75,891
912	Silcott	1	1:75,891
912	Silvério	1	1:75,891
912	Simbert	1	1:75,891
912	Simonsen	1	1:75,891
912	Simonson	1	1:75,891
912	Simpler	1	1:75,891
912	Simpson	1	1:75,891
912	Singletary	1	1:75,891
912	Singleton	1	1:75,891
912	Sivakumaran	1	1:75,891
912	Sjöberg	1	1:75,891
912	Skerrit	1	1:75,891
912	Skerritt	1	1:75,891
912	Skillz	1	1:75,891
912	Slanetz	1	1:75,891
912	Sly	1	1:75,891
912	Smart	1	1:75,891
912	Smelser	1	1:75,891
912	Smikle	1	1:75,891
912	Smit	1	1:75,891
912	Smolanoff	1	1:75,891
912	Sobers	1	1:75,891
912	Solano	1	1:75,891
912	Soler	1	1:75,891
912	Solis	1	1:75,891
912	Solorzano	1	1:75,891
912	Son	1	1:75,891
912	Soni	1	1:75,891
912	Sonn	1	1:75,891
912	Sookhoo	1	1:75,891
912	Soriano	1	1:75,891
912	Sosa	1	1:75,891
912	Soshadarmadon	1	1:75,891
912	Sosna	1	1:75,891
912	Soudine	1	1:75,891
912	Southwell	1	1:75,891
912	Spadoni	1	1:75,891
912	Spencer	1	1:75,891
912	Spooner	1	1:75,891
912	Spurgeon	1	1:75,891
912	St Aime	1	1:75,891
912	St Amie	1	1:75,891
912	St Joseph	1	1:75,891
912	St Martin	1	1:75,891
912	St Valle	1	1:75,891
912	Staber	1	1:75,891
912	Staden	1	1:75,891
912	Staimee	1	1:75,891
912	Stamp	1	1:75,891
912	Stanton	1	1:75,891
912	Staples	1	1:75,891
912	Starr	1	1:75,891
912	Stasia	1	1:75,891
912	Stbernard	1	1:75,891
912	Steele	1	1:75,891
912	Steffen	1	1:75,891
912	Stephens	1	1:75,891
912	Stewart-Fulton	1	1:75,891
912	Sthilaire	1	1:75,891
912	Stiansen	1	1:75,891
912	Stluce	1	1:75,891
912	Stoerk-Sylvester	1	1:75,891
912	Stone	1	1:75,891
912	Stoney	1	1:75,891
912	Stoutt	1	1:75,891
912	Stranddorf	1	1:75,891
912	Strap	1	1:75,891
912	Straun	1	1:75,891
912	Strokes	1	1:75,891
912	Stuger	1	1:75,891
912	Stvalle	1	1:75,891
912	Su	1	1:75,891
912	Suarez	1	1:75,891
912	Suez	1	1:75,891
912	Sukumaran	1	1:75,891
912	Sullivan	1	1:75,891
912	Sully	1	1:75,891
912	Sulton	1	1:75,891
912	Sumida	1	1:75,891
912	Sun	1	1:75,891
912	Sutherland	1	1:75,891
912	Svolgaard	1	1:75,891
912	Swaby	1	1:75,891
912	Sweeney	1	1:75,891
912	Sweet	1	1:75,891
912	Swift	1	1:75,891
912	Sy	1	1:75,891
912	Syed	1	1:75,891
912	Sylvestre	1	1:75,891
912	Symes	1	1:75,891
912	Syx	1	1:75,891
912	Szajko	1	1:75,891
912	Szumlanski	1	1:75,891
912	Tabango	1	1:75,891
912	Tafari	1	1:75,891
912	Tajo	1	1:75,891
912	Talabi	1	1:75,891
912	Talbot	1	1:75,891
912	Tamayo	1	1:75,891
912	Tan	1	1:75,891
912	Tang	1	1:75,891
912	Tans	1	1:75,891
912	Tarte	1	1:75,891
912	Tassie	1	1:75,891
912	Taunisma	1	1:75,891
912	Taurus	1	1:75,891
912	Tavanier	1	1:75,891
912	Tavenier	1	1:75,891
912	Tavera	1	1:75,891
912	Tavernier-Jervier	1	1:75,891
912	Tee	1	1:75,891
912	Tees	1	1:75,891
912	Telemak	1	1:75,891
912	Terrell	1	1:75,891
912	Terrio	1	1:75,891
912	Teruel	1	1:75,891
912	Teske	1	1:75,891
912	Theresa	1	1:75,891
912	Thienpont	1	1:75,891
912	Thomas-Roberts	1	1:75,891
912	Thomason	1	1:75,891
912	Thomsen	1	1:75,891
912	Thorley	1	1:75,891
912	Thorne	1	1:75,891
912	Thornhill	1	1:75,891
912	Thornton	1	1:75,891
912	Tiblanc	1	1:75,891
912	Tiboni	1	1:75,891
912	Tiege	1	1:75,891
912	Tieku	1	1:75,891
912	Timothy-Myers	1	1:75,891
912	Titiwi	1	1:75,891
912	Titus	1	1:75,891
912	Toapanta	1	1:75,891
912	Tobias	1	1:75,891
912	Tolentino	1	1:75,891
912	Tommy	1	1:75,891
912	Toribio	1	1:75,891
912	Tossaint	1	1:75,891
912	Toussant	1	1:75,891
912	Townsend	1	1:75,891
912	Tramontano	1	1:75,891
912	Tran	1	1:75,891
912	Treasure	1	1:75,891
912	Tridel	1	1:75,891
912	Trinity	1	1:75,891
912	Trocard	1	1:75,891
912	Trotman	1	1:75,891
912	Trotter	1	1:75,891
912	Tsala	1	1:75,891
912	Turnbull	1	1:75,891
912	Turney	1	1:75,891
912	Tus	1	1:75,891
912	Tyrrestrup	1	1:75,891
912	Ucchino	1	1:75,891
912	Uebelhart	1	1:75,891
912	Ulloa	1	1:75,891
912	Umoja	1	1:75,891
912	Uran	1	1:75,891
912	Urbaez	1	1:75,891
912	Ureña	1	1:75,891
912	Uri	1	1:75,891
912	Uson	1	1:75,891
912	Vache	1	1:75,891
912	Vahyala	1	1:75,891
912	Valcius	1	1:75,891
912	Valderma	1	1:75,891
912	Valentine-Joseph	1	1:75,891
912	Valerio	1	1:75,891
912	Valeus	1	1:75,891
912	Vall	1	1:75,891
912	Valma	1	1:75,891
912	van der Kamp	1	1:75,891
912	van Omme	1	1:75,891
912	Vanhecke	1	1:75,891
912	Vansickle	1	1:75,891
912	Vanterpool	1	1:75,891
912	Vanting	1	1:75,891
912	Vardez	1	1:75,891
912	Vargo	1	1:75,891
912	Varvill	1	1:75,891
912	Vatel	1	1:75,891
912	Vega	1	1:75,891
912	Velez	1	1:75,891
912	Velly	1	1:75,891
912	Vera	1	1:75,891
912	Verel	1	1:75,891
912	Vernanda	1	1:75,891
912	Vernay	1	1:75,891
912	Verona	1	1:75,891
912	Victorio	1	1:75,891
912	Vid	1	1:75,891
912	Vigh	1	1:75,891
912	Vigille	1	1:75,891
912	Villalona	1	1:75,891
912	Villamizar	1	1:75,891
912	Ville	1	1:75,891
912	Villegas	1	1:75,891
912	Viloria	1	1:75,891
912	Vincienne	1	1:75,891
912	Virgen	1	1:75,891
912	Vistor	1	1:75,891
912	Vivanco	1	1:75,891
912	Viveralli	1	1:75,891
912	Vogclina	1	1:75,891
912	Volmie	1	1:75,891
912	Volz	1	1:75,891
912	Vopičkä	1	1:75,891
912	Vouyoukas	1	1:75,891
912	Vv	1	1:75,891
912	Wade-Vidal	1	1:75,891
912	Wadel	1	1:75,891
912	Wadell	1	1:75,891
912	Wadsworth	1	1:75,891
912	Wahab	1	1:75,891
912	Wakefield	1	1:75,891
912	Wakeham	1	1:75,891
912	Walia	1	1:75,891
912	Walker	1	1:75,891
912	Wallick	1	1:75,891
912	Walsh-Antoine	1	1:75,891
912	Walters	1	1:75,891
912	Walther	1	1:75,891
912	Ward	1	1:75,891
912	Warlin	1	1:75,891
912	Washington	1	1:75,891
912	Wassell	1	1:75,891
912	Wateers	1	1:75,891
912	Wathey	1	1:75,891
912	Watson	1	1:75,891
912	Wayland	1	1:75,891
912	Webb	1	1:75,891
912	Webster	1	1:75,891
912	Wedell	1	1:75,891
912	Weekes	1	1:75,891
912	Weeks	1	1:75,891
912	Wehbe	1	1:75,891
912	Weir	1	1:75,891
912	Weisel	1	1:75,891
912	Welke	1	1:75,891
912	Werwer	1	1:75,891
912	West	1	1:75,891
912	Western	1	1:75,891
912	Wheeler	1	1:75,891
912	Wheeling	1	1:75,891
912	Whitcher	1	1:75,891
912	White-Bruno	1	1:75,891
912	Whitford	1	1:75,891
912	Whyte	1	1:75,891
912	Wide	1	1:75,891
912	Wilberton	1	1:75,891
912	Wiliams	1	1:75,891
912	Wilkins	1	1:75,891
912	Willard	1	1:75,891
912	Willet	1	1:75,891
912	Williams-Dover	1	1:75,891
912	Williams-Staimie	1	1:75,891
912	Williamson	1	1:75,891
912	Willmoth	1	1:75,891
912	Wilmot	1	1:75,891
912	Wind	1	1:75,891
912	Winn	1	1:75,891
912	Winston-Seales	1	1:75,891
912	Wip-Unltd	1	1:75,891
912	Witter	1	1:75,891
912	Womack	1	1:75,891
912	Wood	1	1:75,891
912	Worrell	1	1:75,891
912	Wouters	1	1:75,891
912	Wren	1	1:75,891
912	Wu	1	1:75,891
912	Wurst	1	1:75,891
912	Wyatte	1	1:75,891
912	Wyllis	1	1:75,891
912	Xaiver	1	1:75,891
912	Xifro	1	1:75,891
912	Xin	1	1:75,891
912	Xiong	1	1:75,891
912	Xu	1	1:75,891
912	Yameogo	1	1:75,891
912	Yan	1	1:75,891
912	Yarde	1	1:75,891
912	Yarnell	1	1:75,891
912	Yearwood	1	1:75,891
912	Yedi	1	1:75,891
912	Yin	1	1:75,891
912	Yohnson	1	1:75,891
912	Yorke	1	1:75,891
912	You	1	1:75,891
912	Younge	1	1:75,891
912	Yousefi	1	1:75,891
912	Yu	1	1:75,891
912	Yves	1	1:75,891
912	Yvorchuk	1	1:75,891
912	Zahn	1	1:75,891
912	Zahran	1	1:75,891
912	Zandoli	1	1:75,891
912	Zarkha	1	1:75,891
912	Zdravkova	1	1:75,891
912	Zeki	1	1:75,891
912	Zenich	1	1:75,891
912	Zepher	1	1:75,891
912	Zephlyn	1	1:75,891
912	Zephyr	1	1:75,891
912	Zetterstrom	1	1:75,891
912	Zhangfeng	1	1:75,891
912	Zhingre	1	1:75,891
912	Zidor	1	1:75,891
912	Ziv	1	1:75,891
912	Zorayda	1	1:75,891
912	Zôlànski	1	1:75,891