1	Mohamed	3,408,555	1:27
2	Ahmed	2,436,491	1:38
3	Ali	1,269,697	1:72
4	Hassan	1,074,875	1:86
5	Mahmoud	1,018,802	1:90
6	Ibrahim	686,757	1:134
7	Salah	557,069	1:165
8	Mostafa	550,327	1:167
9	Adel	533,578	1:172
10	Gamal	510,606	1:180
11	Saad	466,461	1:197
12	Sayed	389,430	1:236
13	Samir	370,729	1:248
14	Omar	363,193	1:253
15	Hussein	358,037	1:257
16	Kamal	348,183	1:264
17	Magdy	343,119	1:268
18	Salem	314,808	1:292
19	Saleh	314,228	1:293
20	Ramadan	308,798	1:298
21	Hamdy	303,642	1:303
22	Elsayed	292,385	1:314
23	Khaled	280,273	1:328
24	Saeed	275,911	1:333
25	Ashraf	275,362	1:334
26	Yousef	274,050	1:335
27	Fathy	269,169	1:342
28	Said	266,423	1:345
29	Soliman	253,518	1:363
30	Mansour	247,966	1:371
31	Kamel	247,508	1:371
32	Taha	242,932	1:378
33	Mustafa	240,888	1:382
34	Abdo	240,247	1:383
35	Khalil	239,180	1:384
36	Ismail	237,593	1:387
37	Nabil	237,502	1:387
38	Samy	232,621	1:395
39	Ragab	224,750	1:409
40	Fouad	223,468	1:411
40	Youssef	223,468	1:411
42	Amin	216,452	1:425
43	Amer	216,360	1:425
44	Osman	208,276	1:441
45	Awad	207,116	1:444
46	Fawzy	201,625	1:456
47	Aly	200,466	1:459
48	Atef	198,361	1:463
49	Alaa	197,598	1:465
50	Abdullah	196,866	1:467
51	Essam	196,378	1:468
52	Eid	196,072	1:469
53	Hamed	192,442	1:478
54	Zaki	190,856	1:482
55	Sabry	188,171	1:489
56	Maher	187,622	1:490
57	Abdallah	187,195	1:491
58	Abdel	186,829	1:492
59	Salama	185,303	1:496
60	Ana	184,815	1:497
61	Osama	184,083	1:499
62	Tarek	183,808	1:500
63	Nasr	181,307	1:507
64	Alasid	179,751	1:511
65	Badr	178,836	1:514
66	Mohsen	177,249	1:519
67	Farouk	175,846	1:523
68	Saber	174,107	1:528
69	Emad	173,832	1:529
70	Reda	166,968	1:551
71	Helmy	163,948	1:561
72	Ayman	163,521	1:562
73	Fahmy	161,995	1:568
74	Ezzat	159,707	1:576
75	Galal	152,019	1:605
76	Sherif	151,806	1:606
77	Attia	150,525	1:611
78	Rahman	148,481	1:619
79	Fathi	148,420	1:619
80	Shawky	142,043	1:647
81	Khalifa	138,108	1:666
82	Radwan	135,728	1:677
83	Jamal	134,142	1:685
84	Mousa	133,166	1:690
85	Hegazy	132,342	1:695
86	Allam	132,190	1:695
87	Hany	131,640	1:698
88	Hamada	129,139	1:712
89	Farag	128,895	1:713
90	Mamdouh	128,864	1:713
91	Abbas	128,651	1:715
92	Shaaban	128,620	1:715
93	Hussien	126,332	1:728
94	Yasser	126,271	1:728
95	Gad	126,241	1:728
96	Hesham	125,966	1:730
97	Shehata	125,722	1:731
98	Elmasry	123,617	1:744
99	Mido	123,098	1:747
100	Hossam	122,030	1:753
101	Hosny	121,573	1:756
102	Emam	121,237	1:758
103	Sobhy	120,536	1:763
104	Gaber	119,925	1:767
105	Anwar	118,431	1:776
106	Moustafa	117,759	1:781
107	Nasser	116,234	1:791
108	Yehia	115,624	1:795
109	Gomaa	115,349	1:797
110	Hamza	114,770	1:801
111	Hafez	114,648	1:802
112	Rashad	110,499	1:832
113	Mokhtar	110,163	1:835
114	El Misri	109,614	1:839
115	Alalah	108,729	1:846
116	Adam	107,173	1:858
117	Diab	105,648	1:870
118	Nassar	104,611	1:879
119	Darwish	104,580	1:879
120	Nour	104,519	1:880
121	Khalid	104,397	1:881
122	Ebrahim	104,306	1:881
123	Aziz	103,360	1:889
124	Ahmad	100,797	1:912
125	Auljunh	99,302	1:926
126	Hamdi	98,570	1:933
127	Shaheen	97,441	1:944
128	Talaat	97,014	1:948
129	Lotfy	96,679	1:951
130	Shalaby	96,435	1:953
131	Amr	96,404	1:954
131	Habib	96,404	1:954
133	Islam	96,252	1:955
134	Mohammed	95,946	1:958
134	Tawfik	95,946	1:958
136	Zakaria	95,916	1:959
137	Barakat	95,672	1:961
138	Lalh	95,367	1:964
139	Ashour	95,214	1:966
140	Bakr	93,109	1:987
141	Sami	91,431	1:1,006
142	Refaat	89,509	1:1,027
143	Ammar	89,235	1:1,030
144	Medhat	88,655	1:1,037
145	Najjar	87,313	1:1,053
146	Selim	86,123	1:1,067
147	Rabie	85,940	1:1,070
148	Nagy	85,696	1:1,073
149	Shaker	85,025	1:1,081
150	Sakr	84,964	1:1,082
151	Badh	83,682	1:1,099
152	Mohmed	83,469	1:1,101
153	Sadek	83,408	1:1,102
154	El Msra	83,316	1:1,103
155	Abo	83,011	1:1,108
156	Arafa	82,706	1:1,112
157	Ailhiyah	82,035	1:1,121
158	Hashem	81,913	1:1,122
159	Helal	81,608	1:1,127
160	Sultan	81,547	1:1,127
161	Shaban	81,455	1:1,129
162	Zidan	81,364	1:1,130
163	Zagazig	80,937	1:1,136
164	Abdalla	80,388	1:1,144
165	Badawy	79,960	1:1,150
166	Afifi	79,564	1:1,155
167	Sameh	79,381	1:1,158
168	Hammad	79,106	1:1,162
169	Morsy	78,954	1:1,164
170	Abdelaziz	77,916	1:1,180
171	Farid	76,879	1:1,196
172	Raafat	75,994	1:1,210
173	Ibrahem	75,476	1:1,218
174	Salim	74,805	1:1,229
175	Ghanem	74,774	1:1,230
176	Ezz	74,439	1:1,235
177	Sharaf	74,256	1:1,238
178	Fares	73,828	1:1,245
179	Ehab	71,540	1:1,285
180	Khattab	71,296	1:1,289
180	Nada	71,296	1:1,289
182	Saied	71,083	1:1,293
183	Karim	70,656	1:1,301
184	Sharqawi	70,625	1:1,302
185	Safwat	70,564	1:1,303
186	Hamid	70,351	1:1,307
187	Hasan	69,710	1:1,319
188	Taher	69,313	1:1,326
189	Wael	68,612	1:1,340
190	Zahran	67,879	1:1,354
191	Khalaf	67,635	1:1,359
192	Elgendy	67,544	1:1,361
193	Zayed	67,452	1:1,363
194	Khairy	67,361	1:1,365
195	Moussa	66,629	1:1,380
196	Basha	64,890	1:1,417
196	Metwally	64,890	1:1,417
198	Medo	64,158	1:1,433
199	Yousry	63,242	1:1,454
200	Rashed	63,120	1:1,457
201	Fouda	61,747	1:1,489
202	Yassin	61,473	1:1,496
203	Shams	61,198	1:1,502
204	Kassem	61,137	1:1,504
205	Kandil	61,076	1:1,505
206	Fawzi	60,985	1:1,508
207	Sallam	60,436	1:1,521
208	Mounir	60,344	1:1,524
209	Badawi	60,222	1:1,527
210	Fayed	60,100	1:1,530
211	Elkady	59,642	1:1,541
212	Emara	59,124	1:1,555
213	Tamer	58,971	1:1,559
214	Azab	58,910	1:1,561
215	Kotb	58,880	1:1,561
216	Suleiman	58,666	1:1,567
217	Amir	57,690	1:1,594
218	Abd Elaziz	57,598	1:1,596
218	Mahrous	57,598	1:1,596
220	Negm	57,476	1:1,600
221	Adly	57,446	1:1,600
222	Karam	57,385	1:1,602
223	El Sayed	57,141	1:1,609
224	Eissa	56,531	1:1,626
225	Walid	56,317	1:1,632
226	Sheikh	56,165	1:1,637
227	Wahba	55,646	1:1,652
228	Abdelrahman	54,853	1:1,676
229	Salam	54,822	1:1,677
230	Ayad	54,273	1:1,694
231	Naguib	54,182	1:1,697
232	Omran	53,937	1:1,705
233	Shahin	53,266	1:1,726
234	Yasin	53,175	1:1,729
235	Hosni	53,022	1:1,734
236	Seif	52,778	1:1,742
237	Maged	52,687	1:1,745
238	Deeb	52,382	1:1,755
238	Eldeeb	52,382	1:1,755
240	Hamad	52,321	1:1,757
241	Elsaid	52,260	1:1,759
241	Shehab	52,260	1:1,759
243	Faraj	51,863	1:1,773
243	Mahdy	51,863	1:1,773
243	Sharif	51,863	1:1,773
246	Elkholy	51,832	1:1,774
247	Abou	51,405	1:1,788
248	Hazem	51,009	1:1,802
249	Ghoneim	50,978	1:1,803
250	Ramzy	50,795	1:1,810
251	Fayez	50,765	1:1,811
251	Tito	50,765	1:1,811
253	Amal	50,673	1:1,814
254	Hatem	50,246	1:1,830
255	Hanna	50,155	1:1,833
256	Salameh	49,758	1:1,848
257	Khamis	49,270	1:1,866
258	Mody	48,995	1:1,876
259	Rezk	48,721	1:1,887
260	Esmail	48,568	1:1,893
261	Rady	48,202	1:1,907
261	Tharwat	48,202	1:1,907
263	Sarhan	48,111	1:1,911
264	Hashim	47,866	1:1,921
265	Zaky	47,653	1:1,929
266	Roshdy	47,622	1:1,931
267	Gabr	47,592	1:1,932
268	Rizk	47,561	1:1,933
269	Abu Ahmed	47,500	1:1,935
270	Khater	47,317	1:1,943
271	Elnagar	47,287	1:1,944
272	Abdou	47,134	1:1,951
273	Fekry	47,104	1:1,952
274	Rada	47,043	1:1,954
275	Essa	46,860	1:1,962
276	Othman	46,768	1:1,966
277	Fadel	46,738	1:1,967
278	Isa	46,433	1:1,980
279	Mahfouz	46,097	1:1,994
280	Yahia	45,914	1:2,002
281	Yahya	45,822	1:2,006
282	Abu Zaid	45,273	1:2,031
283	Khedr	45,029	1:2,042
284	Hanafy	44,602	1:2,061
285	Shokry	44,480	1:2,067
286	Labib	44,389	1:2,071
287	de Ana	44,175	1:2,081
288	Abdulrahman	43,717	1:2,103
289	Gharib	43,504	1:2,113
290	Younis	43,473	1:2,115
291	Yarb	43,351	1:2,121
292	Abdel Fattah	43,260	1:2,125
292	Riad	43,260	1:2,125
294	Mourad	43,229	1:2,127
295	Jaber	42,772	1:2,149
296	Mohamad	42,558	1:2,160
297	Elsharkawy	42,497	1:2,163
298	Abu Muhammad	42,192	1:2,179
298	Mabrouk	42,192	1:2,179
300	Zaghloul	42,101	1:2,184
301	Rashwan	42,039	1:2,187
302	Abu	41,460	1:2,217
303	Elshazly	41,246	1:2,229
303	Tayeb	41,246	1:2,229
305	Mazen	41,094	1:2,237
306	Elshamy	40,819	1:2,252
307	Ghaly	40,606	1:2,264
308	Thabet	40,575	1:2,266
309	Gamil	40,545	1:2,267
310	Badran	40,484	1:2,271
311	Abed	40,453	1:2,273
312	Nawr	40,209	1:2,286
313	El Jazzar	39,904	1:2,304
314	Nader	39,599	1:2,322
315	Atta	39,263	1:2,342
315	Azzam	39,263	1:2,342
317	Samer	39,050	1:2,354
318	Alahyat	39,019	1:2,356
319	Elgohary	38,745	1:2,373
319	Hisham	38,745	1:2,373
321	Marw	38,653	1:2,378
322	Naser	38,562	1:2,384
323	Abu Youssef	38,318	1:2,399
324	Salman	37,982	1:2,421
325	Bahaa	37,860	1:2,428
326	Tota	37,677	1:2,440
326	Wagdy	37,677	1:2,440
328	Elgamal	37,463	1:2,454
329	Elsawy	37,433	1:2,456
330	Mero	37,372	1:2,460
331	Eldin	37,341	1:2,462
332	Shafie	37,311	1:2,464
333	Atia	37,250	1:2,468
334	Abdelsalam	37,158	1:2,474
335	Pasha	37,128	1:2,476
336	Waleed	36,792	1:2,499
337	Abu Ali	36,670	1:2,507
338	Bayoumi	36,640	1:2,509
339	Masoud	36,487	1:2,520
340	Saif	36,396	1:2,526
341	Muhammad	36,335	1:2,530
342	Adham	36,152	1:2,543
342	Halim	36,152	1:2,543
344	Hassanein	36,060	1:2,550
345	El-Khouly	36,029	1:2,552
346	Tantawy	35,999	1:2,554
347	Dawood	35,877	1:2,563
348	Abdulaziz	35,816	1:2,567
349	Sabri	35,694	1:2,576
350	Tolba	35,663	1:2,578
351	Magdi	35,602	1:2,582
352	Farrag	35,541	1:2,587
353	Esam	35,419	1:2,596
354	Zain	35,389	1:2,598
355	Okasha	35,297	1:2,605
356	Sobhi	35,236	1:2,609
357	Elsherif	35,175	1:2,614
358	Goda	35,053	1:2,623
359	Ebrahem	34,992	1:2,627
359	Zaher	34,992	1:2,627
361	Abd El Aziz	34,931	1:2,632
362	Elsheikh	34,870	1:2,637
363	Saidi	34,840	1:2,639
364	Abdel Moneim	34,779	1:2,643
365	Malak	34,718	1:2,648
366	Bassiouni	34,596	1:2,657