1	Garcia	1,496,432	1:31
2	Rodriguez	942,872	1:50
3	Gonzalez	939,941	1:50
4	Fernandez	928,518	1:50
5	Lopez	895,188	1:52
6	Martinez	855,332	1:55
7	Sanchez	829,229	1:56
8	Perez	804,100	1:58
9	Gomez	503,688	1:93
10	Martin	495,859	1:94
11	Jimenez	398,306	1:117
12	Ruiz	385,398	1:121
13	Hernandez	371,021	1:126
14	Diaz	345,576	1:135
15	Moreno	333,583	1:140
16	Muñoz	291,735	1:160
17	Alvarez	288,686	1:162
18	Romero	229,053	1:204
19	Alonso	206,797	1:226
20	Gutierrez	198,069	1:236
21	Navarro	188,278	1:248
22	Torres	177,665	1:263
23	Dominguez	160,861	1:291
24	Ramos	151,408	1:309
25	Vazquez	150,831	1:310
26	Gil	148,563	1:315
27	Ramirez	139,529	1:335
28	Serrano	138,220	1:338
29	Blanco	128,745	1:363
30	Molina	127,522	1:367
31	Morales	125,749	1:372
32	Suarez	123,671	1:378
33	Ortega	123,228	1:379
34	Delgado	121,614	1:384
35	Castro	120,499	1:388
36	Ortiz	112,138	1:417
37	Rubio	109,919	1:425
38	Marin	106,526	1:439
39	Sanz	98,615	1:474
40	Iglesias	92,972	1:503
41	Medina	92,323	1:506
42	Nuñez	90,990	1:514
43	Garrido	89,394	1:523
44	Castillo	88,304	1:529
45	Cortes	87,123	1:537
46	Lozano	83,737	1:558
47	Guerrero	82,441	1:567
48	Santos	82,152	1:569
49	Cano	81,035	1:577
50	Prieto	77,179	1:606
51	Cruz	74,502	1:628
52	Mendez	74,051	1:631
53	Calvo	73,748	1:634
54	Vidal	73,424	1:637
55	Gallego	72,766	1:642
56	Herrera	72,511	1:645
57	Cabrera	71,658	1:652
58	Flores	71,375	1:655
59	Peña	70,608	1:662
60	Leon	69,827	1:670
61	Marquez	69,674	1:671
62	Campos	69,091	1:677
63	Vega	67,720	1:690
64	Fuentes	67,360	1:694
65	Carrasco	65,829	1:710
66	Diez	65,040	1:719
67	Reyes	63,836	1:732
68	Caballero	63,109	1:741
69	Nieto	62,934	1:743
70	Pascual	62,500	1:748
71	Aguilar	62,274	1:751
72	Santana	61,650	1:758
73	Herrero	61,314	1:763
74	Ferrer	59,233	1:789
75	Lorenzo	59,214	1:790
76	Gimenez	58,937	1:793
77	Hidalgo	58,574	1:798
78	Montero	58,513	1:799
79	Ibañez	56,627	1:826
80	Santiago	55,967	1:835
81	Mora	55,746	1:839
82	Vicente	55,339	1:845
83	Vargas	54,849	1:852
84	Arias	54,778	1:853
85	Duran	54,674	1:855
86	Benitez	54,042	1:865
87	Carmona	53,705	1:871
88	Crespo	52,207	1:896
89	Pastor	52,008	1:899
90	Soto	50,258	1:930
91	Soler	49,433	1:946
92	Roman	49,149	1:951
93	Velasco	49,037	1:953
94	Saez	48,741	1:959
95	Moya	48,336	1:967
96	Parra	47,680	1:981
97	Esteban	47,376	1:987
98	Bravo	46,782	1:999
99	Rojas	46,663	1:1,002
100	Gallardo	46,635	1:1,003
101	Pardo	46,062	1:1,015
102	Merino	44,881	1:1,042
103	Franco	44,470	1:1,051
104	Lara	43,963	1:1,063
105	Espinosa	43,953	1:1,064
106	Rivera	43,421	1:1,077
107	Rivas	43,365	1:1,078
108	Izquierdo	43,256	1:1,081
109	Casado	42,116	1:1,110
110	Camacho	41,900	1:1,116
111	Silva	41,839	1:1,117
112	Arroyo	41,819	1:1,118
113	Vera	41,778	1:1,119
114	Redondo	41,650	1:1,122
115	Segura	41,227	1:1,134
116	Rey	41,226	1:1,134
117	Luque	41,019	1:1,140
118	Sierra	40,815	1:1,145
119	Montes	40,812	1:1,146
120	Otero	40,616	1:1,151
121	Carrillo	40,214	1:1,163
122	Rios	40,130	1:1,165
123	Marcos	39,760	1:1,176
124	Galan	39,643	1:1,179
125	Mendoza	39,498	1:1,184
126	Soriano	39,420	1:1,186
127	Marti	38,257	1:1,222
128	Valero	38,225	1:1,223
129	Bernal	38,179	1:1,225
130	Robles	38,114	1:1,227
131	Vila	38,073	1:1,228
132	Palacios	37,123	1:1,259
133	Heredia	36,852	1:1,269
134	Guerra	36,187	1:1,292
135	Varela	36,181	1:1,292
136	Benito	35,996	1:1,299
137	Mateo	35,713	1:1,309
138	Contreras	35,687	1:1,310
139	Bueno	35,613	1:1,313
140	Exposito	35,380	1:1,321
141	Macias	35,223	1:1,327
142	Andres	34,777	1:1,344
143	Villar	34,686	1:1,348
144	Miranda	34,511	1:1,355
145	Pereira	34,325	1:1,362
146	Roldan	34,116	1:1,370
147	Mateos	33,810	1:1,383
148	Escudero	33,722	1:1,386
149	Guillen	33,545	1:1,394
150	Aguilera	33,328	1:1,403
151	Casas	33,217	1:1,407
152	Rivero	32,581	1:1,435
153	Rico	32,326	1:1,446
154	Padilla	32,278	1:1,448
155	Beltran	31,887	1:1,466
156	Gracia	31,850	1:1,468
157	Abad	31,578	1:1,481
158	Salas	31,431	1:1,487
159	Acosta	31,364	1:1,491
160	Conde	31,148	1:1,501
161	Quintana	31,086	1:1,504
162	Menendez	31,056	1:1,505
163	Galvez	31,019	1:1,507
164	Estevez	30,869	1:1,515
165	Jurado	30,778	1:1,519
166	Roca	30,747	1:1,521
167	Plaza	30,735	1:1,521
168	Calderon	30,637	1:1,526
169	Aranda	30,626	1:1,527
170	Salazar	30,431	1:1,536
171	Serra	30,374	1:1,539
172	Aparicio	30,323	1:1,542
173	Costa	30,299	1:1,543
174	Guzman	29,834	1:1,567
175	Bermudez	29,736	1:1,572
176	Miguel	29,453	1:1,587
177	Villanueva	29,358	1:1,592
178	Santamaria	29,277	1:1,597
179	Manzano	29,250	1:1,598
180	Trujillo	29,182	1:1,602
181	Hurtado	29,137	1:1,605
182	Cuesta	29,049	1:1,609
183	Blazquez	29,029	1:1,611
184	Rueda	28,981	1:1,613
185	Pons	28,824	1:1,622
186	de La Fuente	28,626	1:1,633
187	Tomas	28,560	1:1,637
188	Pacheco	28,435	1:1,644
189	Avila	28,416	1:1,645
190	Sancho	28,055	1:1,666
191	Mesa	27,933	1:1,674
192	Escobar	27,838	1:1,679
193	Blasco	27,652	1:1,691
194	Simon	27,236	1:1,717
195	Luna	27,108	1:1,725
196	Lazaro	27,089	1:1,726
197	Zamora	26,994	1:1,732
198	Salvador	26,886	1:1,739
199	del Rio	26,867	1:1,740
200	Alarcon	26,485	1:1,765
201	Millan	26,341	1:1,775
202	Castaño	26,173	1:1,786
203	Maldonado	26,061	1:1,794
204	Bermejo	25,997	1:1,798
205	De-La-Fuente	25,935	1:1,803
206	Ballesteros	25,863	1:1,808
207	García	25,859	1:1,808
208	Del-Rio	25,768	1:1,814
208	Paredes	25,768	1:1,814
210	Valverde	25,733	1:1,817
211	Mas	25,508	1:1,833
212	Anton	25,506	1:1,833
213	Bautista	25,453	1:1,837
214	Juan	25,374	1:1,843
215	de La Cruz	25,309	1:1,847
216	Ponce	25,223	1:1,854
217	Oliva	25,164	1:1,858
218	Lorente	24,931	1:1,875
219	Montoya	24,811	1:1,884
220	Valle	24,760	1:1,888
221	Rodrigo	24,744	1:1,889
222	Cordero	24,460	1:1,911
223	Collado	24,234	1:1,929
224	Marco	24,172	1:1,934
225	Cuenca	24,052	1:1,944
225	Murillo	24,052	1:1,944
227	Martos	24,016	1:1,947
228	Cuevas	23,944	1:1,953
229	Ros	23,903	1:1,956
230	de La Torre	23,858	1:1,960
231	Quesada	23,774	1:1,967
232	Pozo	23,728	1:1,970
233	Chen	23,652	1:1,977
234	de-La-Cruz	23,465	1:1,992
235	Puig	23,158	1:2,019
236	Barrera	23,156	1:2,019
237	Gimeno	23,146	1:2,020
238	Barroso	23,058	1:2,028
239	Amador	22,846	1:2,046
240	Alba	22,654	1:2,064
241	Ordoñez	22,603	1:2,068
242	Navas	22,585	1:2,070
243	Pulido	22,581	1:2,070
244	Soria	22,528	1:2,075
245	Corral	22,475	1:2,080
246	Rojo	22,474	1:2,080
247	Arenas	22,445	1:2,083
248	Cabello	22,404	1:2,087
249	Domingo	22,357	1:2,091
250	Galindo	22,327	1:2,094
251	Saiz	22,219	1:2,104
252	Valencia	22,210	1:2,105
253	Escribano	22,152	1:2,111
254	Aguado	22,115	1:2,114
255	Asensio	22,052	1:2,120
256	Mena	22,033	1:2,122
257	Vallejo	21,979	1:2,127
258	Lucas	21,711	1:2,153
259	de-La Torre	21,591	1:2,165
259	De-La-Torre	21,591	1:2,165
261	Ramon	21,539	1:2,171
262	Caro	21,536	1:2,171
263	Mata	21,526	1:2,172
264	Polo	21,509	1:2,174
265	Linares	21,288	1:2,196
266	Villalba	21,195	1:2,206
267	Aguirre	21,165	1:2,209
268	Paz	21,062	1:2,220
269	Naranjo	21,060	1:2,220
270	Reina	21,045	1:2,222
271	Ojeda	20,801	1:2,248
272	Leal	20,766	1:2,251
273	Oliver	20,284	1:2,305
274	Burgos	20,278	1:2,306
275	Mohamed	20,254	1:2,308
276	Moran	20,176	1:2,317
277	Carretero	20,108	1:2,325
278	Sosa	19,880	1:2,352
279	Bonilla	19,870	1:2,353
280	Roig	19,781	1:2,363
281	Andreu	19,474	1:2,401
282	Castellano	19,103	1:2,447
283	Clemente	19,057	1:2,453
284	Villa	18,917	1:2,471
285	Cordoba	18,721	1:2,497
286	Rosa	18,699	1:2,500
287	Aragon	18,694	1:2,501
288	Hernando	18,564	1:2,518
289	Carrera	18,525	1:2,524
290	Carrion	18,509	1:2,526
291	Riera	18,503	1:2,527
292	Calero	18,495	1:2,528
293	Caceres	18,460	1:2,533
294	Alcaraz	18,407	1:2,540
295	Toledo	18,276	1:2,558
296	Saavedra	18,254	1:2,561
297	Cobo	18,220	1:2,566
298	Domenech	18,183	1:2,571
299	Cardenas	18,142	1:2,577
300	Zapata	18,130	1:2,579
301	Carbonell	18,038	1:2,592
302	Juarez	17,997	1:2,598
303	Llorente	17,975	1:2,601
304	Chacon	17,895	1:2,613
305	Sola	17,769	1:2,631
306	Moral	17,758	1:2,633
307	Velazquez	17,646	1:2,649
308	Vela	17,638	1:2,651
309	Sevilla	17,625	1:2,653
310	Singh	17,622	1:2,653
311	López	17,618	1:2,654
312	Salgado	17,537	1:2,666
313	Alfonso	17,452	1:2,679
314	Font	17,449	1:2,679
315	Villegas	17,430	1:2,682
316	Requena	17,400	1:2,687
317	Barrios	17,370	1:2,692
318	Esteve	17,366	1:2,692
319	Arribas	17,305	1:2,702
320	Ayala	17,275	1:2,706
321	Correa	17,271	1:2,707
322	Quintero	17,255	1:2,709
323	Pineda	17,178	1:2,722
324	Olivares	17,138	1:2,728
325	Bosch	17,038	1:2,744
326	Grau	17,007	1:2,749
327	Prado	16,962	1:2,756
328	Fernández	16,883	1:2,769
329	Carballo	16,747	1:2,792
330	Salinas	16,670	1:2,805
331	Pelaez	16,558	1:2,824
332	de La Rosa	16,525	1:2,829
333	Ballester	16,516	1:2,831
334	Miralles	16,508	1:2,832
335	Marrero	16,498	1:2,834
336	González	16,470	1:2,839
337	Ferreira	16,401	1:2,851
338	Perea	16,228	1:2,881
339	Piñeiro	16,195	1:2,887
340	Luis	16,162	1:2,893
341	Solis	16,151	1:2,895
342	Cid	16,108	1:2,902
343	Sala	16,098	1:2,904
344	Sanchis	16,091	1:2,905
345	Pinto	16,079	1:2,908
346	Castilla	16,073	1:2,909
347	Cantero	16,043	1:2,914
348	Casanova	16,035	1:2,916
349	Cardona	15,978	1:2,926
350	Pérez	15,932	1:2,934
351	Camara	15,843	1:2,951
352	Palomo	15,763	1:2,966
353	Belmonte	15,675	1:2,983
354	Porras	15,620	1:2,993
355	Ventura	15,534	1:3,010
356	Baena	15,519	1:3,013
357	Madrid	15,478	1:3,021
358	Coll	15,476	1:3,021
359	Palma	15,460	1:3,024
360	Pino	15,352	1:3,045
361	de-La-Rosa	15,248	1:3,066
362	Arranz	15,167	1:3,082
363	Recio	15,160	1:3,084
364	Sánchez	15,154	1:3,085
365	Herranz	15,137	1:3,089
366	Rincon	15,111	1:3,094
367	Barba	15,106	1:3,095
368	Arevalo	15,099	1:3,096
369	Lago	15,059	1:3,105
370	Marques	15,000	1:3,117
371	Cobos	14,979	1:3,121
372	Nicolas	14,932	1:3,131
373	Cuadrado	14,897	1:3,138
374	Cervera	14,893	1:3,139
375	Angulo	14,864	1:3,145
376	Valls	14,745	1:3,171
377	Muñiz	14,671	1:3,187
378	Ochoa	14,653	1:3,191
379	Cabezas	14,650	1:3,191
380	Pujol	14,640	1:3,193
381	Alfaro	14,561	1:3,211
382	Vaquero	14,551	1:3,213
383	Barreiro	14,538	1:3,216
384	Martínez	14,483	1:3,228
385	Puente	14,418	1:3,243
386	Navarrete	14,413	1:3,244
387	Bello	14,380	1:3,251
388	Granados	14,369	1:3,254
389	Peralta	14,342	1:3,260
390	Latorre	14,297	1:3,270
391	Becerra	14,242	1:3,283
392	Velez	14,203	1:3,292
393	Castellanos	14,196	1:3,293
394	Rovira	14,164	1:3,301
395	Ocaña	14,136	1:3,307
396	Tapia	14,104	1:3,315
397	Vergara	14,101	1:3,316
398	da Silva	13,997	1:3,340
399	Rodríguez	13,984	1:3,343
400	Sastre	13,953	1:3,351
401	Losada	13,946	1:3,352
402	Estrada	13,888	1:3,366
403	Campo	13,857	1:3,374
404	Corrales	13,835	1:3,379
405	Egea	13,808	1:3,386
406	Gamez	13,757	1:3,398
407	Godoy	13,697	1:3,413
408	Garca	13,630	1:3,430
409	Da-Silva	13,589	1:3,440
410	Aznar	13,552	1:3,450
411	Huertas	13,543	1:3,452
411	Segovia	13,543	1:3,452
413	Fraile	13,527	1:3,456
414	Gonzales	13,526	1:3,456
415	Ruano	13,495	1:3,464
416	Cerezo	13,469	1:3,471
417	Duarte	13,424	1:3,483
418	Fajardo	13,380	1:3,494
419	Mejias	13,342	1:3,504
420	Guijarro	13,320	1:3,510
421	Valenzuela	13,297	1:3,516
422	Falcon	13,267	1:3,524
423	Morcillo	13,245	1:3,530
424	Cebrian	13,242	1:3,531
425	Catalan	13,239	1:3,531
426	Alcantara	13,151	1:3,555
427	Arjona	13,136	1:3,559
428	Borrego	13,121	1:3,563
429	del Valle	13,106	1:3,567
430	Carvajal	13,085	1:3,573
431	Barbero	13,084	1:3,573
432	Toro	13,041	1:3,585
433	Ariza	13,033	1:3,587
433	Wang	13,033	1:3,587
435	Romera	12,995	1:3,598
436	Ferreiro	12,983	1:3,601
437	Barragan	12,950	1:3,610
438	Sainz	12,932	1:3,615
439	Peinado	12,894	1:3,626
440	Royo	12,865	1:3,634
441	Lin	12,848	1:3,639
442	Rosales	12,846	1:3,639
443	Morillo	12,806	1:3,651
444	Melero	12,755	1:3,665
445	Jorge	12,705	1:3,680
446	Sole	12,663	1:3,692
447	Pavon	12,653	1:3,695
448	Llamas	12,645	1:3,697
449	Alcaide	12,627	1:3,703
450	Portillo	12,620	1:3,705
451	Real	12,565	1:3,721
452	Agudo	12,518	1:3,735
453	Barrio	12,513	1:3,736
453	Duque	12,513	1:3,736
455	Espejo	12,505	1:3,739
455	Lobato	12,505	1:3,739
457	de Miguel	12,488	1:3,744
458	Valdes	12,482	1:3,746
459	Tirado	12,466	1:3,750
460	Tejero	12,453	1:3,754
461	Gonzalo	12,430	1:3,761
462	Canovas	12,424	1:3,763
463	Gordillo	12,409	1:3,768
464	Figueroa	12,383	1:3,776
465	Criado	12,324	1:3,794
466	Galvan	12,318	1:3,795
467	Grande	12,313	1:3,797
468	Chamorro	12,269	1:3,811
469	Solano	12,261	1:3,813
470	Pla	12,216	1:3,827
471	Llorens	12,167	1:3,843
472	Davila	12,150	1:3,848
473	Dorado	12,118	1:3,858
474	Freire	12,089	1:3,867
475	Moyano	12,067	1:3,874
476	Saenz	12,051	1:3,880
477	Tena	12,033	1:3,885
478	Vives	12,026	1:3,888
479	Rosado	12,025	1:3,888
480	Calleja	12,005	1:3,894
481	Frias	11,989	1:3,900
482	Pizarro	11,988	1:3,900
483	Amaya	11,962	1:3,908
484	Mosquera	11,956	1:3,910
485	Ferrero	11,928	1:3,920
486	Zambrano	11,916	1:3,923
487	Olmedo	11,913	1:3,924
488	Huerta	11,906	1:3,927
489	Bonet	11,890	1:3,932
490	Serna	11,750	1:3,979
491	Alcalde	11,737	1:3,983
492	del Pozo	11,716	1:3,990
493	Noguera	11,710	1:3,992
494	Lafuente	11,697	1:3,997
495	Paniagua	11,691	1:3,999
496	Ahmed	11,690	1:3,999
497	Poveda	11,665	1:4,008
498	Mateu	11,663	1:4,009
499	Mira	11,596	1:4,032
500	Salcedo	11,504	1:4,064
501	Heras	11,495	1:4,067
502	Brito	11,468	1:4,077
503	Rebollo	11,463	1:4,079
504	Alcazar	11,442	1:4,086
505	Giner	11,426	1:4,092
506	Alcala	11,415	1:4,096
507	Aviles	11,339	1:4,123
508	Pazos	11,308	1:4,134
509	Llopis	11,273	1:4,147
510	Arce	11,272	1:4,148
511	Chaves	11,270	1:4,148
512	Alvarado	11,237	1:4,161
513	Salguero	11,216	1:4,168
514	Barranco	11,163	1:4,188
515	Garzon	11,136	1:4,198
516	Borja	11,129	1:4,201
517	Paez	11,109	1:4,208
518	Olmo	11,085	1:4,218
519	Zhang	11,077	1:4,221
520	Andrade	11,074	1:4,222
521	Haro	11,040	1:4,235
522	Piñero	11,031	1:4,238
523	Valiente	11,027	1:4,240
524	Valles	10,957	1:4,267
525	Fuertes	10,938	1:4,274
526	Cabeza	10,931	1:4,277
527	Bartolome	10,885	1:4,295
528	Abellan	10,865	1:4,303
529	Orozco	10,852	1:4,308
530	Ribas	10,849	1:4,309
531	Afonso	10,822	1:4,320
532	Borras	10,818	1:4,322
532	Prats	10,818	1:4,322
534	Laguna	10,811	1:4,324
535	dos Santos	10,809	1:4,325
536	Hervas	10,795	1:4,331
537	Mellado	10,789	1:4,333
538	del Castillo	10,760	1:4,345
539	Palomino	10,735	1:4,355
540	Maestre	10,715	1:4,363
541	Palomares	10,698	1:4,370
542	Barcelo	10,690	1:4,373
543	Garces	10,688	1:4,374
543	Souto	10,688	1:4,374
545	Montesinos	10,678	1:4,378
546	Bilbao	10,670	1:4,382
547	Araujo	10,653	1:4,389
548	Molero	10,649	1:4,390
549	Quiros	10,646	1:4,392
550	del Pino	10,598	1:4,411
551	Murcia	10,568	1:4,424
552	Dos-Santos	10,531	1:4,439
553	Gómez	10,516	1:4,446
554	Calle	10,502	1:4,452
555	Castello	10,488	1:4,458
556	Osorio	10,486	1:4,459
557	Osuna	10,484	1:4,459
558	Zaragoza	10,464	1:4,468
559	Carreras	10,457	1:4,471
560	Carreño	10,452	1:4,473
561	Baeza	10,440	1:4,478
562	Ceballos	10,428	1:4,483
563	Castañeda	10,425	1:4,485
564	Olmos	10,401	1:4,495
565	Leiva	10,323	1:4,529
566	Yañez	10,316	1:4,532
567	Bellido	10,239	1:4,566
568	Peris	10,223	1:4,573
569	Felipe	10,212	1:4,578
570	Zafra	10,208	1:4,580
571	Vilchez	10,207	1:4,580
572	Bustamante	10,195	1:4,586
573	Perales	10,185	1:4,590
574	Urbano	10,180	1:4,593
575	Puertas	10,171	1:4,597
576	Fuster	10,118	1:4,621
577	Pareja	10,093	1:4,632
578	Alegre	10,054	1:4,650
579	Nadal	10,042	1:4,656
580	Vizcaino	9,981	1:4,684
581	Vasquez	9,978	1:4,686
582	Chavez	9,971	1:4,689
583	Tejada	9,966	1:4,691
584	Luengo	9,956	1:4,696
585	de Castro	9,955	1:4,696
586	Minguez	9,949	1:4,699
587	Campillo	9,937	1:4,705
588	Gascon	9,903	1:4,721
589	Acevedo	9,901	1:4,722
590	Gago	9,868	1:4,738
591	Vilar	9,852	1:4,745
592	San Jose	9,850	1:4,746
593	Jaen	9,847	1:4,748
594	Montoro	9,829	1:4,757
595	Sebastian	9,781	1:4,780
596	Valera	9,746	1:4,797
597	Arcos	9,731	1:4,804
598	Monge	9,709	1:4,815
599	Ripoll	9,670	1:4,835
600	Tejedor	9,637	1:4,851
601	Ledesma	9,633	1:4,853
602	Sanjuan	9,622	1:4,859
603	Enriquez	9,597	1:4,872
604	Casal	9,595	1:4,873
605	Sarmiento	9,576	1:4,882
606	Tello	9,548	1:4,897
607	San-Jose	9,540	1:4,901
608	Bustos	9,505	1:4,919
609	Cañas	9,502	1:4,920
609	Verdu	9,502	1:4,920
611	Sobrino	9,500	1:4,921
612	Baños	9,480	1:4,932
613	Jerez	9,461	1:4,942
614	Cazorla	9,459	1:4,943
615	Ferrando	9,448	1:4,948
616	Li	9,420	1:4,963
617	Seoane	9,419	1:4,964
618	Armas	9,391	1:4,978
619	Climent	9,369	1:4,990
620	Conesa	9,324	1:5,014
621	Ferre	9,290	1:5,033
622	de Leon	9,285	1:5,035
623	Amoros	9,254	1:5,052
624	Montiel	9,246	1:5,056
625	Baez	9,242	1:5,059
626	Pallares	9,231	1:5,065
627	Tortosa	9,223	1:5,069
628	Martín	9,217	1:5,072
629	Mayor	9,186	1:5,089
630	Berenguer	9,175	1:5,096
631	Sandoval	9,171	1:5,098
632	Zabala	9,148	1:5,111
633	Mejia	9,122	1:5,125
634	Orellana	9,121	1:5,126
635	Moro	9,100	1:5,138
636	Jara	9,099	1:5,138
637	del Campo	9,095	1:5,140
638	Salmeron	9,091	1:5,143
639	Rocha	9,087	1:5,145
640	Lobo	9,077	1:5,151
641	Barea	9,034	1:5,175
642	Prada	9,009	1:5,189
643	Veiga	9,007	1:5,191
644	Arteaga	8,996	1:5,197
645	Díaz	8,982	1:5,205
646	Mari	8,975	1:5,209
647	Batista	8,970	1:5,212
648	Abril	8,966	1:5,214
649	Ayuso	8,958	1:5,219
650	Albert	8,928	1:5,237
651	Catala	8,912	1:5,246
652	Tamayo	8,911	1:5,247
653	Jordan	8,908	1:5,248
654	Prados	8,901	1:5,252
655	Fraga	8,899	1:5,254
656	Taboada	8,889	1:5,260
657	Padron	8,880	1:5,265
658	Barrero	8,848	1:5,284
659	Moreira	8,837	1:5,290
660	Ye	8,823	1:5,299
661	Bejarano	8,817	1:5,302
662	Manrique	8,779	1:5,325
663	Infante	8,764	1:5,335
664	Maya	8,749	1:5,344
665	Patiño	8,745	1:5,346
666	Ribera	8,736	1:5,352
667	Canales	8,726	1:5,358
668	Almeida	8,725	1:5,358
669	Manso	8,716	1:5,364
670	San Martin	8,685	1:5,383
671	Yuste	8,675	1:5,389
672	Machado	8,670	1:5,392
673	Galera	8,634	1:5,415
674	Xu	8,621	1:5,423
675	Peñalver	8,587	1:5,445
676	Alvaro	8,578	1:5,450
677	Maroto	8,554	1:5,466
678	Cerda	8,550	1:5,468
678	Pinilla	8,550	1:5,468
680	Moron	8,534	1:5,478
681	Dieguez	8,531	1:5,480
682	Perdomo	8,527	1:5,483
683	Barros	8,499	1:5,501
684	Medrano	8,478	1:5,515
684	Mota	8,478	1:5,515
686	Pedrosa	8,439	1:5,540
687	Segarra	8,401	1:5,565
688	Sampedro	8,394	1:5,570
689	Diego	8,393	1:5,570
690	Villena	8,374	1:5,583
691	Cifuentes	8,369	1:5,586
692	Lucena	8,364	1:5,590
693	Nogales	8,359	1:5,593
694	Teruel	8,354	1:5,596
695	del Olmo	8,340	1:5,606
696	Villaverde	8,335	1:5,609
697	Atienza	8,323	1:5,617
698	Miro	8,304	1:5,630
699	San-Martin	8,301	1:5,632
700	Liu	8,287	1:5,642
701	Jaramillo	8,270	1:5,653
702	Manzanares	8,265	1:5,657
703	Ortuño	8,264	1:5,657
704	Bernabeu	8,227	1:5,683
705	Raya	8,203	1:5,699
706	Balaguer	8,196	1:5,704
707	España	8,183	1:5,713
708	Macia	8,174	1:5,720
709	Almagro	8,168	1:5,724
710	Viñas	8,162	1:5,728
711	Ubeda	8,153	1:5,734
712	Novoa	8,138	1:5,745
713	Sevillano	8,125	1:5,754
714	Francisco	8,124	1:5,755
715	de las Heras	8,121	1:5,757
715	Fernndez	8,121	1:5,757
717	Echeverria	8,117	1:5,760
718	Checa	8,080	1:5,786
719	Miguez	8,070	1:5,793
720	Herreros	8,054	1:5,805
721	Quevedo	8,050	1:5,808
722	Robledo	8,041	1:5,814
723	Dueñas	8,035	1:5,819
724	de Diego	8,019	1:5,830
725	Iniesta	8,018	1:5,831
726	Morillas	8,001	1:5,843
726	Wu	8,001	1:5,843
728	Matas	7,970	1:5,866
729	Ibarra	7,963	1:5,871
730	Talavera	7,951	1:5,880
731	Ares	7,950	1:5,881
732	Lloret	7,949	1:5,881
733	Puerto	7,922	1:5,902
734	Trigo	7,921	1:5,902
735	Echevarria	7,904	1:5,915
736	Giraldo	7,898	1:5,919
737	Acedo	7,870	1:5,941
738	Pina	7,864	1:5,945
739	Montilla	7,859	1:5,949
740	Frances	7,842	1:5,962
740	Lujan	7,842	1:5,962
742	Bolaños	7,828	1:5,972
743	Prat	7,814	1:5,983
744	Snchez	7,812	1:5,985
745	Hermida	7,796	1:5,997
746	Puerta	7,783	1:6,007
747	Alves	7,765	1:6,021
747	Boix	7,765	1:6,021
749	Merchan	7,764	1:6,022
750	Caparros	7,763	1:6,022
751	Peral	7,736	1:6,043
752	Vivas	7,721	1:6,055
753	Badia	7,719	1:6,057
753	Espada	7,719	1:6,057
755	Granado	7,714	1:6,061
756	Toribio	7,704	1:6,069
757	Torre	7,694	1:6,076
758	Zamorano	7,681	1:6,087
759	Tovar	7,679	1:6,088
760	Palacio	7,668	1:6,097
761	Bernabe	7,657	1:6,106
762	Molinero	7,647	1:6,114
763	Camps	7,645	1:6,115
764	Cubero	7,634	1:6,124
764	Mir	7,634	1:6,124
766	Monzon	7,619	1:6,136
767	Mayo	7,615	1:6,139
768	Cervantes	7,602	1:6,150
769	Coronado	7,600	1:6,152
770	Arana	7,597	1:6,154
771	Martorell	7,575	1:6,172
772	Tellez	7,572	1:6,174
773	Montaño	7,570	1:6,176
774	Saura	7,562	1:6,182
775	Valdivia	7,548	1:6,194
776	Lamas	7,547	1:6,195
777	Barbera	7,536	1:6,204
778	Quiles	7,523	1:6,215
779	Encinas	7,491	1:6,241
780	Zhou	7,472	1:6,257
781	De-Las-Heras	7,439	1:6,285
782	Carro	7,432	1:6,291
783	Planas	7,414	1:6,306
784	Kaur	7,406	1:6,313
785	Buendia	7,403	1:6,315
786	Diallo	7,402	1:6,316
787	Melian	7,391	1:6,326
788	Torregrosa	7,353	1:6,358
789	Mayoral	7,329	1:6,379
789	Tome	7,329	1:6,379
791	Rodenas	7,328	1:6,380
792	Sales	7,324	1:6,383
793	Melendez	7,320	1:6,387
794	Botella	7,319	1:6,388
795	Mariño	7,318	1:6,389
796	Parrilla	7,308	1:6,397
797	Piqueras	7,291	1:6,412
798	Coca	7,281	1:6,421
799	De-Diego	7,258	1:6,441
800	Fidalgo	7,254	1:6,445
800	Pedraza	7,254	1:6,445
802	Acuña	7,243	1:6,455
803	Mariscal	7,236	1:6,461
804	Hinojosa	7,228	1:6,468
805	Ali	7,220	1:6,475
806	Peiro	7,218	1:6,477
807	Sanmartin	7,214	1:6,481
808	Revuelta	7,210	1:6,484
809	Palau	7,194	1:6,499
810	Sempere	7,161	1:6,529
811	Costas	7,160	1:6,530
812	Mestre	7,156	1:6,533
813	Arnau	7,133	1:6,554
814	de Los Santos	7,117	1:6,569
814	de-Los-Santos	7,117	1:6,569
816	Cañete	7,115	1:6,571
817	Picazo	7,112	1:6,574
818	Riquelme	7,094	1:6,590
819	Sabater	7,092	1:6,592
820	Zurita	7,090	1:6,594
821	Carrero	7,067	1:6,616
822	Martnez	7,065	1:6,617
823	Fariña	7,061	1:6,621
824	Ribes	7,043	1:6,638
825	Narvaez	7,028	1:6,652
826	Espinoza	7,017	1:6,663
827	Sepulveda	6,997	1:6,682
828	Perera	6,990	1:6,688
829	Cuellar	6,971	1:6,707
830	Ureña	6,956	1:6,721
831	Gamero	6,948	1:6,729
832	Solana	6,940	1:6,737
833	Pico	6,928	1:6,748
834	Codina	6,921	1:6,755
835	Romo	6,919	1:6,757
836	Cañadas	6,917	1:6,759
837	Rodrguez	6,908	1:6,768
838	Giron	6,898	1:6,778
839	Arellano	6,888	1:6,787
840	Andujar	6,877	1:6,798
841	Calatayud	6,876	1:6,799
842	Amor	6,873	1:6,802
843	Viera	6,872	1:6,803
844	Segui	6,855	1:6,820
845	Parada	6,833	1:6,842
846	Quiroga	6,823	1:6,852
847	Cespedes	6,817	1:6,858
848	Frutos	6,812	1:6,863
849	Centeno	6,807	1:6,868
850	Carrascosa	6,796	1:6,879
851	Goñi	6,784	1:6,892
852	Gordo	6,773	1:6,903
853	Nieves	6,768	1:6,908
854	Fuente	6,766	1:6,910
855	Vilches	6,764	1:6,912
856	Belda	6,760	1:6,916
857	Silvestre	6,759	1:6,917
858	Alamo	6,750	1:6,926
859	Guevara	6,736	1:6,941
860	Novo	6,729	1:6,948
861	Lema	6,721	1:6,956
862	Amores	6,717	1:6,960
863	Pellicer	6,707	1:6,971
864	Vegas	6,694	1:6,984
865	Revilla	6,674	1:7,005
866	Benavides	6,669	1:7,010
866	Rial	6,669	1:7,010
868	de Dios	6,648	1:7,032
869	Quero	6,647	1:7,034
870	Capdevila	6,638	1:7,043
871	Mera	6,636	1:7,045
872	Alemany	6,632	1:7,049
873	Chico	6,620	1:7,062
874	Cantos	6,619	1:7,063
875	Rodrigues	6,609	1:7,074
876	Guisado	6,604	1:7,079
877	Hermoso	6,596	1:7,088
878	Toledano	6,587	1:7,098
879	Colomer	6,574	1:7,112
880	Guardiola	6,567	1:7,119
880	Rosell	6,567	1:7,119
882	Herraiz	6,565	1:7,121
883	Neira	6,560	1:7,127
884	Adan	6,558	1:7,129
885	Jimeno	6,545	1:7,143
886	Nevado	6,538	1:7,151
887	Labrador	6,536	1:7,153
888	Antolin	6,535	1:7,154
889	Torralba	6,514	1:7,177
890	Gisbert	6,509	1:7,183
891	Jaime	6,504	1:7,188
892	Lora	6,495	1:7,198
892	Parejo	6,495	1:7,198
894	Palazon	6,488	1:7,206
895	Sans	6,481	1:7,214
896	Guirado	6,480	1:7,215
897	Canto	6,471	1:7,225
898	del Moral	6,453	1:7,245
899	Farre	6,430	1:7,271
899	Postigo	6,430	1:7,271
901	Ramiro	6,428	1:7,273
902	Hernández	6,407	1:7,297
903	Vico	6,399	1:7,306
904	Hoyos	6,392	1:7,314
905	Gabarri	6,391	1:7,315
906	Montenegro	6,383	1:7,324
907	Gilabert	6,381	1:7,327
908	Elvira	6,379	1:7,329
909	Figueras	6,358	1:7,353
909	Galiano	6,358	1:7,353
911	Antunez	6,306	1:7,414
912	Verdugo	6,300	1:7,421
913	Mansilla	6,294	1:7,428
914	Florez	6,292	1:7,430
915	Comas	6,280	1:7,445
916	Amat	6,276	1:7,449
917	Reig	6,217	1:7,520
918	Jiménez	6,216	1:7,521
919	Megias	6,208	1:7,531
920	De-Dios	6,206	1:7,533
921	Caamaño	6,205	1:7,535
922	Arnaiz	6,202	1:7,538
923	Uriarte	6,192	1:7,550
924	Garriga	6,188	1:7,555
925	Berrocal	6,171	1:7,576
925	Sousa	6,171	1:7,576
927	Cordon	6,144	1:7,609
928	Aroca	6,131	1:7,626
929	Abreu	6,130	1:7,627
930	Llanos	6,124	1:7,634
931	Cornejo	6,122	1:7,637
932	Cañizares	6,090	1:7,677
933	Trillo	6,088	1:7,679
934	Rosello	6,083	1:7,686
935	Cerdan	6,082	1:7,687
936	Rus	6,080	1:7,689
937	Maza	6,074	1:7,697
938	Cabanillas	6,073	1:7,698
939	Aliaga	6,062	1:7,712
940	Meseguer	6,052	1:7,725
941	Vaca	6,049	1:7,729
942	San Juan	6,045	1:7,734
943	Sacristan	6,042	1:7,738
944	Oliveira	6,029	1:7,755
945	Yague	6,020	1:7,766
946	Fonseca	6,006	1:7,784
947	Perello	6,005	1:7,786
948	Rio	5,992	1:7,802
949	Mañas	5,991	1:7,804
950	Samper	5,988	1:7,808
951	Monteagudo	5,977	1:7,822
952	Chaparro	5,969	1:7,832
953	Quiñones	5,961	1:7,843
954	Portela	5,956	1:7,850
955	Carranza	5,945	1:7,864
956	Betancor	5,943	1:7,867
957	Tudela	5,941	1:7,869
958	Seco	5,935	1:7,877
959	Castells	5,931	1:7,883
960	Gomis	5,930	1:7,884
961	Matos	5,920	1:7,897
962	Campoy	5,917	1:7,901
963	Amado	5,898	1:7,927
964	Barrientos	5,893	1:7,933
965	Zhu	5,889	1:7,939
966	Oviedo	5,865	1:7,971
967	Morera	5,864	1:7,973
968	Espin	5,861	1:7,977
969	Lillo	5,851	1:7,990
970	Muriel	5,848	1:7,995
970	Tejera	5,848	1:7,995
972	Cristobal	5,847	1:7,996
973	Jover	5,837	1:8,010
974	Espino	5,834	1:8,014
975	Plasencia	5,825	1:8,026
976	Candela	5,823	1:8,029
977	Camino	5,817	1:8,037
978	Mercado	5,813	1:8,043
979	Carpio	5,806	1:8,052
980	Olivera	5,794	1:8,069
981	Holgado	5,778	1:8,091
982	San Miguel	5,776	1:8,094
983	Bastida	5,771	1:8,101
984	Casals	5,765	1:8,110
985	Zheng	5,730	1:8,159
986	Julian	5,723	1:8,169
987	Gaspar	5,690	1:8,217
987	Torrejon	5,690	1:8,217
989	Morilla	5,676	1:8,237
990	Feijoo	5,664	1:8,254
991	Agullo	5,645	1:8,282
992	Guirao	5,638	1:8,292
993	Ruz	5,625	1:8,311
994	Benavente	5,622	1:8,316
995	Lima	5,621	1:8,317
996	Melgar	5,596	1:8,355
997	de Haro	5,590	1:8,364
998	Valcarcel	5,584	1:8,372
999	Saldaña	5,581	1:8,377
1000	San-Juan	5,574	1:8,388