1	Joensen	2,414	1:20
2	Hansen	2,170	1:23
3	Jacobsen	2,014	1:24
4	Olsen	1,674	1:29
5	Poulsen	1,294	1:38
6	Petersen	1,265	1:39
7	Johannesen	1,019	1:48
8	Thomsen	702	1:70
9	Nielsen	657	1:75
10	Rasmussen	567	1:86
11	Johansen	560	1:87
12	Simonsen	537	1:91
13	Djurhuus	517	1:95
14	Danielsen	489	1:100
15	Mortensen	478	1:103
16	Jensen	475	1:103
17	Mikkelsen	427	1:115
18	Dam	426	1:115
19	Højgaard	425	1:115
20	Sørensen	399	1:123
21	Andreasen	394	1:124
22	Hammer	382	1:128
23	Hentze	368	1:133
24	Magnussen	365	1:134
25	Samuelsen	352	1:139
26	Christiansen	339	1:145
27	Davidsen	315	1:156
28	Heinesen	299	1:164
29	Niclasen	282	1:174
30	Holm	267	1:184
31	Vang	256	1:191
32	Midjord	253	1:194
33	Jakobsen	246	1:199
34	Lamhauge	242	1:202
35	Egholm	240	1:204
36	Berg	222	1:221
37	Justinussen	221	1:222
38	Johannessen	213	1:230
39	Dahl	197	1:249
40	Thomassen	190	1:258
41	Ellingsgaard	186	1:263
42	Nolsøe	182	1:269
43	Haraldsen	179	1:274
44	Larsen	178	1:275
45	Bech	174	1:282
46	Mohr	170	1:288
47	Zachariasen	166	1:295
48	Eliasen	163	1:301
48	Kjærbo	163	1:301
48	Weihe	163	1:301
51	Müller	155	1:316
52	Isaksen	153	1:320
53	Arge	147	1:333
53	Sivertsen	147	1:333
55	Guttesen	145	1:338
56	Debes	140	1:350
57	Mørkøre	132	1:371
58	Clementsen	127	1:386
59	Høgnesen	126	1:389
59	Mouritsen	126	1:389
61	Andreassen	122	1:402
61	Reinert	122	1:402
63	Abrahamsen	121	1:405
63	Dalsgaard	121	1:405
65	Kristiansen	117	1:419
66	Henriksen	113	1:434
66	Jespersen	113	1:434
66	Jørgensen	113	1:434
69	Patursson	112	1:437
70	Winther	111	1:441
71	Gaard	108	1:454
72	Klein	107	1:458
73	Durhuus	106	1:462
74	Gregersen	105	1:467
74	Knudsen	105	1:467
74	Ludvig	105	1:467
74	Tausen	105	1:467
78	Vestergaard	102	1:480
79	Nattestad	97	1:505
79	Rubeksen	97	1:505
79	Zachariassen	97	1:505
82	Matras	93	1:527
83	Michelsen	92	1:533
84	Lützen	91	1:538
85	Kruse	84	1:583
86	Bærentsen	80	1:612
86	Strøm	80	1:612
86	Østerø	80	1:612
89	Andersen	79	1:620
89	Lydersen	79	1:620
89	Næs	79	1:620
92	Justesen	78	1:628
92	Lisberg	78	1:628
94	Madsen	76	1:645
95	Højsted	74	1:662
95	Thomasen	74	1:662
97	Biskopstø	69	1:710
97	Hjelm	69	1:710
99	Absalonsen	68	1:721
99	Augustinussen	68	1:721
101	Anthoniussen	67	1:731
101	Dalsgarð	67	1:731
101	Skaalum	67	1:731
104	Ellefsen	66	1:742
104	Frederiksen	66	1:742
106	Askham	65	1:754
106	Ejdesgaard	65	1:754
106	Sigurðsson	65	1:754
109	Frederiksberg	64	1:766
109	Kjærbæk	64	1:766
109	Lassen	64	1:766
112	Debess	63	1:778
112	Eliassen	63	1:778
112	Gaardlykke	63	1:778
112	Langgaard	63	1:778
112	Lauritsen	63	1:778
112	Pedersen	63	1:778
118	Lakjuni	62	1:790
118	Lervig	62	1:790
118	Toftegaard	62	1:790
121	Bjartalíð	60	1:817
121	Hermansen	60	1:817
123	Christensen	59	1:830
123	Mellemgaard	59	1:830
123	Vilhelm	59	1:830
126	Thorsteinsson	57	1:860
127	Juul	56	1:875
128	Norðberg	55	1:891
128	Wardum	55	1:891
130	Dali	53	1:924
130	Ellendersen	53	1:924
130	Ziska	53	1:924
133	Vilhelmsen	52	1:942
134	Niclassen	51	1:961
135	Leo	49	1:1,000
136	Høj	48	1:1,021
137	Fuglø	46	1:1,065
137	Klakstein	46	1:1,065
137	Nysted	46	1:1,065
137	Sólsker	46	1:1,065
137	Viderø	46	1:1,065
142	Kass	45	1:1,089
142	Reyni	45	1:1,089
142	Syderbø	45	1:1,089
145	Kallsberg	44	1:1,114
146	Persson	42	1:1,167
147	Eidesgaard	41	1:1,195
147	Gong	41	1:1,195
147	Hovgaard	41	1:1,195
147	Magnusson	41	1:1,195
151	Dahl-Olsen	40	1:1,225
151	Nygaard	40	1:1,225
153	Berthelsen	39	1:1,256
153	Elttør	39	1:1,256
153	Lofti	39	1:1,256
153	Lognberg	39	1:1,256
153	Nybo	39	1:1,256
158	Hofgaard	38	1:1,289
158	Jøkladal	38	1:1,289
158	Lindenskov	38	1:1,289
158	Steinberg	38	1:1,289
158	Stenberg	38	1:1,289
158	Ørvarodd	38	1:1,289
164	Gaardbo	37	1:1,324
164	Gudmundsen	37	1:1,324
164	Mørk	37	1:1,324
164	Wang	37	1:1,324
168	Bertholdsen	36	1:1,361
168	Iversen	36	1:1,361
168	Josephsen	36	1:1,361
171	Glerfoss	35	1:1,400
171	Kjeld	35	1:1,400
171	Rein	35	1:1,400
174	Dimon	34	1:1,441
174	Eriksen	34	1:1,441
174	Nolsø	34	1:1,441
174	Samson	34	1:1,441
174	Tróndheim	34	1:1,441
179	Gullaksen	33	1:1,485
179	Gunnarsson	33	1:1,485
179	Homrum	33	1:1,485
179	Smith	33	1:1,485
179	Øster	33	1:1,485
184	Guðjónsson	32	1:1,531
184	Vinther	32	1:1,531
186	Eysturoy	31	1:1,581
186	Falkvard	31	1:1,581
186	Jóanesarson	31	1:1,581
186	Lágabø	31	1:1,581
186	Sigvardsen	31	1:1,581
186	Skoradal	31	1:1,581
192	Bláhamar	30	1:1,633
192	Enni	30	1:1,633
192	Færø	30	1:1,633
192	Nilssen	30	1:1,633
196	Bjarnason	29	1:1,690
196	Helmsdal	29	1:1,690
196	Horn	29	1:1,690
196	Laksafoss	29	1:1,690
196	Lava	29	1:1,690
196	Skála	29	1:1,690
196	Solmunde	29	1:1,690
196	Stórustovu	29	1:1,690
204	Carlsson	28	1:1,750
204	Gleðisheygg	28	1:1,750
204	Godtfred	28	1:1,750
204	Jógvansdóttir	28	1:1,750
204	Nesá	28	1:1,750
204	Nicolajsen	28	1:1,750
204	Selfoss	28	1:1,750
204	Vitalis	28	1:1,750
212	Borg	27	1:1,815
212	Gregoriussen	27	1:1,815
212	Jónsson	27	1:1,815
212	Restorff	27	1:1,815
212	Tórgarð	27	1:1,815
217	Antoniussen	26	1:1,885
217	Haldansen	26	1:1,885
217	Hvannastein	26	1:1,885
217	Reynatrøð	26	1:1,885
217	Venned	26	1:1,885
222	Beder	25	1:1,960
222	Didriksen	25	1:1,960
222	Gardar	25	1:1,960
222	Jarnskor	25	1:1,960
222	Jógvansson	25	1:1,960
222	Kallsoy	25	1:1,960
222	Kristensen	25	1:1,960
222	Lindberg	25	1:1,960
222	Nón	25	1:1,960
222	Ryggshamar	25	1:1,960
222	Skaale	25	1:1,960
222	Svøðstein	25	1:1,960
222	Árting	25	1:1,960
222	Ólavsson	25	1:1,960
236	Brimnes	24	1:2,042
236	Brockie	24	1:2,042
236	Carlsen	24	1:2,042
236	Hjaltalin	24	1:2,042
236	Neshamar	24	1:2,042
236	Norðoy	24	1:2,042
236	Steig	24	1:2,042
236	Ólavsdóttir	24	1:2,042
236	Øregaard	24	1:2,042
245	Dul	23	1:2,130
245	Eyðunsson	23	1:2,130
245	Finnsson	23	1:2,130
245	Fjallsbak	23	1:2,130
245	Foldbo	23	1:2,130
245	Geil	23	1:2,130
245	Horni	23	1:2,130
245	Hvidbro	23	1:2,130
245	Jákupsdóttir	23	1:2,130
245	Ragnarsson	23	1:2,130
245	Sjóstein	23	1:2,130
245	Ziskason	23	1:2,130
257	Hellisdal	22	1:2,227
257	Kjølbro	22	1:2,227
257	Mittelstein	22	1:2,227
257	Rógvi	22	1:2,227
257	Slættanes	22	1:2,227
257	Thorleifsson	22	1:2,227
257	Vest	22	1:2,227
264	Bisp	21	1:2,333
264	Bjarkhamar	21	1:2,333
264	Einarsson	21	1:2,333
264	Eysturberg	21	1:2,333
264	Eyvindsson	21	1:2,333
264	Fossdalsá	21	1:2,333
264	Hjøllum	21	1:2,333
264	Hoydal	21	1:2,333
264	Jónsdóttir	21	1:2,333
264	Ljósheim	21	1:2,333
264	Lon	21	1:2,333
264	Løgmannsbø	21	1:2,333
264	Marsten	21	1:2,333
264	Mittún	21	1:2,333
264	Nordendal	21	1:2,333
264	Saxov	21	1:2,333
264	Seloy	21	1:2,333
264	Skorini	21	1:2,333
264	Viðbjørg	21	1:2,333
264	West	21	1:2,333
264	Ósá	21	1:2,333
285	Dímun	20	1:2,450
285	Eysturdal	20	1:2,450
285	Heinason	20	1:2,450
285	Heygum	20	1:2,450
285	Johnsdóttir	20	1:2,450
285	Jákupsson	20	1:2,450
285	Jákupsstovu	20	1:2,450
285	Kalsø	20	1:2,450
285	Klementsen	20	1:2,450
285	Líknargøtu	20	1:2,450
285	Rúnadóttir	20	1:2,450
285	Soylu	20	1:2,450
285	Steinhólm	20	1:2,450
298	Blástein	19	1:2,579
298	Brekku	19	1:2,579
298	Brøðraberg	19	1:2,579
298	Eystberg	19	1:2,579
298	Fagraberg	19	1:2,579
298	Kirke	19	1:2,579
298	Kunoy	19	1:2,579
298	Láadal	19	1:2,579
298	Norðfoss	19	1:2,579
298	Ole-Jacobsen	19	1:2,579
298	Ravnsfjall	19	1:2,579
298	Reynheim	19	1:2,579
298	Roykheyggi	19	1:2,579
298	Róin	19	1:2,579
298	Skarðenni	19	1:2,579
298	Skorastein	19	1:2,579
298	Skorheim	19	1:2,579
298	Skorá	19	1:2,579
298	Sondum	19	1:2,579
298	Stórá	19	1:2,579
298	Tyril	19	1:2,579
298	Wolles	19	1:2,579
320	Albinus	18	1:2,722
320	Dalbø	18	1:2,722
320	Ennigarð	18	1:2,722
320	Háberg	18	1:2,722
320	Húsgarð	18	1:2,722
320	Kjelnæs	18	1:2,722
320	Kragesteen	18	1:2,722
320	Kák	18	1:2,722
320	Lambanum	18	1:2,722
320	Michaelsen	18	1:2,722
320	Nónklett	18	1:2,722
320	Purkhús	18	1:2,722
320	Skarði	18	1:2,722
320	Svabo	18	1:2,722
320	Sømark	18	1:2,722
320	Thorkildshøj	18	1:2,722
320	Túni	18	1:2,722
320	Vatnhamar	18	1:2,722
320	Vidtfeldt	18	1:2,722
339	Borðoy	17	1:2,882
339	Eikholm	17	1:2,882
339	Fagraklett	17	1:2,882
339	Hejnesen	17	1:2,882
339	Heldarskarð	17	1:2,882
339	Høgnadóttir	17	1:2,882
339	Kastalag	17	1:2,882
339	Møller	17	1:2,882
339	Nicodemussen	17	1:2,882
339	Pattinson	17	1:2,882
339	Sevdal	17	1:2,882
339	Sigurstein	17	1:2,882
339	Skúvadal	17	1:2,882
339	Steintún	17	1:2,882
339	Stongunum	17	1:2,882
339	Sólstein	17	1:2,882
339	Trondesen	17	1:2,882
339	Vágsheyg	17	1:2,882
339	Waag	17	1:2,882
339	Waagstein	17	1:2,882
359	Apol	16	1:3,062
359	Breckmann	16	1:3,062
359	Bøgarði	16	1:3,062
359	Eldevig	16	1:3,062
359	Garðalíð	16	1:3,062
359	Garði	16	1:3,062
359	Gjógvará	16	1:3,062
359	Heinadóttir	16	1:3,062
359	Krosstein	16	1:3,062
359	Kósini	16	1:3,062
359	Ljósstein	16	1:3,062
359	Mýrini	16	1:3,062
359	Olsson	16	1:3,062
359	Petursdóttir	16	1:3,062
359	Skipá	16	1:3,062
359	Vollanum	16	1:3,062
375	Borgardal	15	1:3,267
375	Brekkstein	15	1:3,267
375	Dal-Christiansen	15	1:3,267
375	Danberg	15	1:3,267
375	Fjallstein	15	1:3,267
375	Fossaberg	15	1:3,267
375	Gunnarsdóttir	15	1:3,267
375	Hvítklett	15	1:3,267
375	Króki	15	1:3,267
375	Nystrøm	15	1:3,267
375	Petursson	15	1:3,267
375	Reynskor	15	1:3,267
375	Strømsten	15	1:3,267
388	Beck	14	1:3,500
388	Breiðaskarð	14	1:3,500
388	Festirstein	14	1:3,500
388	Grund	14	1:3,500
388	Husgaard	14	1:3,500
388	Jansdóttir	14	1:3,500
388	Jóhansdóttir	14	1:3,500
388	Kamban	14	1:3,500
388	Leonsson	14	1:3,500
388	Luid	14	1:3,500
388	Lyngvej	14	1:3,500
388	Olesen	14	1:3,500
388	Ottosen	14	1:3,500
388	Rajani	14	1:3,500
388	Steingrund	14	1:3,500
388	Steinum	14	1:3,500
388	Stongum	14	1:3,500
388	Torkilsheyggi	14	1:3,500
388	Vík	14	1:3,500
407	Andresen	13	1:3,769
407	Argjaboða	13	1:3,769
407	Baldvinsson	13	1:3,769
407	Benjaminsen	13	1:3,769
407	Borgarlíð	13	1:3,769
407	Brattalíð	13	1:3,769
407	Brodersen	13	1:3,769
407	Bærendsen	13	1:3,769
407	Christophersen	13	1:3,769
407	Dalheim	13	1:3,769
407	Djurholm	13	1:3,769
407	Dánjalsdóttir	13	1:3,769
407	Enghamar	13	1:3,769
407	Eysturskarð	13	1:3,769
407	Fagradal	13	1:3,769
407	Fløtum	13	1:3,769
407	Fosaa	13	1:3,769
407	Funding	13	1:3,769
407	Geyti	13	1:3,769
407	Gullbein	13	1:3,769
407	Gullfoss	13	1:3,769
407	Gøthe	13	1:3,769
407	Hansdóttir	13	1:3,769
407	Helgadóttir	13	1:3,769
407	Høgabóli	13	1:3,769
407	Høvdanum	13	1:3,769
407	Isfeld	13	1:3,769
407	Isholm	13	1:3,769
407	Jarnfoss	13	1:3,769
407	Johnsson	13	1:3,769
407	Jóhansson	13	1:3,769
407	Kambskarð	13	1:3,769
407	Klakk	13	1:3,769
407	Klakkstein	13	1:3,769
407	Kollslíð	13	1:3,769
407	Kristoffersen	13	1:3,769
407	Krákusteini	13	1:3,769
407	Kúrberg	13	1:3,769
407	Laksá	13	1:3,769
407	Leitisstein	13	1:3,769
407	Lenvig	13	1:3,769
407	Magnusdóttir	13	1:3,769
407	Miðalberg	13	1:3,769
407	Mortansdóttir	13	1:3,769
407	Niðristovu	13	1:3,769
407	Nýggjagarð	13	1:3,769
407	Ryggstein	13	1:3,769
407	Rógvu	13	1:3,769
407	Sirdal	13	1:3,769
407	Sjúrðarson	13	1:3,769
407	Skibenæs	13	1:3,769
407	Steinkross	13	1:3,769
407	Streymoy	13	1:3,769
407	Toftum	13	1:3,769
407	Tungá	13	1:3,769
407	Viðstein	13	1:3,769
407	Árnadóttir	13	1:3,769
407	Øre	13	1:3,769
465	Arabo	12	1:4,083
465	Berjastein	12	1:4,083
465	Brattaberg	12	1:4,083
465	Brekkunum	12	1:4,083
465	Bø	12	1:4,083
465	Christoffersen	12	1:4,083
465	Clemmensen	12	1:4,083
465	Dalsá	12	1:4,083
465	Egilsnes	12	1:4,083
465	Egilsson	12	1:4,083
465	Eiriksson	12	1:4,083
465	Eið	12	1:4,083
465	Erlingsson	12	1:4,083
465	Eyðunsdóttir	12	1:4,083
465	Ferjá	12	1:4,083
465	Fossádal	12	1:4,083
465	Garðshorn	12	1:4,083
465	Glyvrardal	12	1:4,083
465	Hansson	12	1:4,083
465	Heiðunum	12	1:4,083
465	Hjalt	12	1:4,083
465	Konoy	12	1:4,083
465	Krossteig	12	1:4,083
465	Káradóttir	12	1:4,083
465	Láberg	12	1:4,083
465	Mathisen	12	1:4,083
465	Neyst	12	1:4,083
465	Pálsdóttir	12	1:4,083
465	Rana	12	1:4,083
465	Reyðberg	12	1:4,083
465	Silvurdal	12	1:4,083
465	Skýlindal	12	1:4,083
465	Slættalíð	12	1:4,083
465	Sólbjørg	12	1:4,083
465	Tindskarð	12	1:4,083
465	Troest	12	1:4,083
465	Trøðini	12	1:4,083
465	Tummasarson	12	1:4,083
465	Vestergård	12	1:4,083
504	Balle	11	1:4,454
504	Bjarnastein	11	1:4,454
504	Eiðisgarð	11	1:4,454
504	Feilberg	11	1:4,454
504	Fossabrúgv	11	1:4,454
504	Frammistovu	11	1:4,454
504	Frýdal	11	1:4,454
504	Gerðalíð	11	1:4,454
504	Gram	11	1:4,454
504	Gærdbo	11	1:4,454
504	Hanusardóttir	11	1:4,454
504	Helgason	11	1:4,454
504	Krosslá	11	1:4,454
504	Lassaberg	11	1:4,454
504	Leitinum	11	1:4,454
504	Lind	11	1:4,454
504	Philbrow	11	1:4,454
504	Reginsdóttir	11	1:4,454
504	Reginsson	11	1:4,454
504	Regni	11	1:4,454
504	Ritter	11	1:4,454
504	Sandoy	11	1:4,454
504	Sandá	11	1:4,454
504	Skipanes	11	1:4,454
504	Stampe	11	1:4,454
504	Sumberg	11	1:4,454
504	Svalbard	11	1:4,454
504	Tróndarson	11	1:4,454
504	Veihe	11	1:4,454
504	Álaberg	11	1:4,454
534	Arnason	10	1:4,900
534	Buð	10	1:4,900
534	Bárðarson	10	1:4,900
534	Bæk	10	1:4,900
534	Fløtti	10	1:4,900
534	Fonn	10	1:4,900
534	Fríðriksmørk	10	1:4,900
534	Gudjónsson	10	1:4,900
534	Gunnarsstein	10	1:4,900
534	Gunnarstein	10	1:4,900
534	Guðmundsson	10	1:4,900
534	Gásadal	10	1:4,900
534	Hanusarson	10	1:4,900
534	Hellisá	10	1:4,900
534	Hilduberg	10	1:4,900
534	Høgnason	10	1:4,900
534	Kamarinum	10	1:4,900
534	Kjærbech	10	1:4,900
534	Kletti	10	1:4,900
534	Klettskarð	10	1:4,900
534	Kollsker	10	1:4,900
534	Kálvalíð	10	1:4,900
534	Køtlum	10	1:4,900
534	Lambaa	10	1:4,900
534	Líðarenda	10	1:4,900
534	Lómstein	10	1:4,900
534	Manai	10	1:4,900
534	Mikladal	10	1:4,900
534	Myllhamar	10	1:4,900
534	Norðbúð	10	1:4,900
534	Nólsoy	10	1:4,900
534	Nónsgjógv	10	1:4,900
534	Randrup	10	1:4,900
534	Reynatúgvu	10	1:4,900
534	Ripley	10	1:4,900
534	Rætt	10	1:4,900
534	Rúnason	10	1:4,900
534	Sigurheim	10	1:4,900
534	Silvurstein	10	1:4,900
534	Staksberg	10	1:4,900
534	Staksá	10	1:4,900
534	Streym	10	1:4,900
534	Sólheyg	10	1:4,900
534	Thorsen	10	1:4,900
534	Tvørfoss	10	1:4,900
534	Vatnsdal	10	1:4,900
534	Viðoy	10	1:4,900
534	Vágslíð	10	1:4,900
534	Wennerstrøm	10	1:4,900
534	Weyhe	10	1:4,900
534	Áarskarð	10	1:4,900
585	Akselsen	9	1:5,444
585	Arason	9	1:5,444
585	Bergi	9	1:5,444
585	Bjarnadóttir	9	1:5,444
585	Blaasvær	9	1:5,444
585	Black	9	1:5,444
585	Bláberg	9	1:5,444
585	Brimsvík	9	1:5,444
585	Bringsberg	9	1:5,444
585	Brúgv	9	1:5,444
585	Bárðardóttir	9	1:5,444
585	Dalfoss	9	1:5,444
585	Dragaberg	9	1:5,444
585	Drewsen	9	1:5,444
585	Egilstoft	9	1:5,444
585	Fløhamar	9	1:5,444
585	Fonsdal	9	1:5,444
585	Fornagarð	9	1:5,444
585	Funn	9	1:5,444
585	Gerðinum	9	1:5,444
585	Giljum	9	1:5,444
585	Gudmundsson	9	1:5,444
585	Gøte	9	1:5,444
585	Hanusson	9	1:5,444
585	Heimustovu	9	1:5,444
585	Hestoy	9	1:5,444
585	Hædd	9	1:5,444
585	Húsabrúgv	9	1:5,444
585	Húsamørk	9	1:5,444
585	Ilic	9	1:5,444
585	Kárason	9	1:5,444
585	Lag	9	1:5,444
585	Leivsson	9	1:5,444
585	Ljósá	9	1:5,444
585	Lorenzen	9	1:5,444
585	Lundsbjerg	9	1:5,444
585	Líð	9	1:5,444
585	Løkjá	9	1:5,444
585	Løðu	9	1:5,444
585	Meitilberg	9	1:5,444
585	Miðberg	9	1:5,444
585	Mouritzen	9	1:5,444
585	Næss	9	1:5,444
585	Nónfjall	9	1:5,444
585	Prior	9	1:5,444
585	Pállson	9	1:5,444
585	Skarðhamar	9	1:5,444
585	Skálagarð	9	1:5,444
585	Stórhamar	9	1:5,444
585	Svartá	9	1:5,444
585	Thune	9	1:5,444
585	Túgvustein	9	1:5,444
585	Vesturtún	9	1:5,444
585	Wiberg	9	1:5,444
639	Akursmørk	8	1:6,125
639	Bjørgvin	8	1:6,125
639	Bjørk	8	1:6,125
639	Blábjørg	8	1:6,125
639	Brend	8	1:6,125
639	Bólstein	8	1:6,125
639	Clothier	8	1:6,125
639	Drangberg	8	1:6,125
639	Dunga	8	1:6,125
639	Egilsdóttir	8	1:6,125
639	Eyðansstovu	8	1:6,125
639	Falkenberg	8	1:6,125
639	Fles	8	1:6,125
639	Fløtt	8	1:6,125
639	Frandsen	8	1:6,125
639	Fríðheim	8	1:6,125
639	Galan	8	1:6,125
639	Gil	8	1:6,125
639	Gongini	8	1:6,125
639	Grunnveit	8	1:6,125
639	Gásdal	8	1:6,125
639	Gærdum	8	1:6,125
639	Heðinsson	8	1:6,125
639	Hoyvík	8	1:6,125
639	Hummeland	8	1:6,125
639	Hvíthamar	8	1:6,125
639	Høgenni	8	1:6,125
639	Højbro	8	1:6,125
639	Janusarson	8	1:6,125
639	Karstinsdóttir	8	1:6,125
639	Kilgour	8	1:6,125
639	Kristiansdóttir	8	1:6,125
639	Kristiansson	8	1:6,125
639	Magnadóttir	8	1:6,125
639	Martinsdóttir	8	1:6,125
639	Mortansson	8	1:6,125
639	Mýlingstind	8	1:6,125
639	Neystabø	8	1:6,125
639	Norðgerð	8	1:6,125
639	Olafsson	8	1:6,125
639	Othamar	8	1:6,125
639	Presttrøðni	8	1:6,125
639	Ragnarsdóttir	8	1:6,125
639	Reinert-Petersen	8	1:6,125
639	Remberg	8	1:6,125
639	Reynstind	8	1:6,125
639	Reyná	8	1:6,125
639	Ryan	8	1:6,125
639	Sakarisson	8	1:6,125
639	Sjóvará	8	1:6,125
639	Sjúrðaberg	8	1:6,125
639	Skipagøtu	8	1:6,125
639	Skúr	8	1:6,125
639	Sleire	8	1:6,125
639	Smedemark	8	1:6,125
639	Srensen	8	1:6,125
639	Sólheim	8	1:6,125
639	Tauser	8	1:6,125
639	Tavsen	8	1:6,125
639	Tjørnudal	8	1:6,125
639	Toft	8	1:6,125
639	Toftini	8	1:6,125
639	Tómasson	8	1:6,125
639	Vestureið	8	1:6,125
639	Vesturklett	8	1:6,125
639	Veyhe	8	1:6,125
639	Winthereig	8	1:6,125
639	Ákason	8	1:6,125
707	Alberg	7	1:7,000
707	Anderson	7	1:7,000
707	Askildsen	7	1:7,000
707	Bartalstovu	7	1:7,000
707	Bjarnarson	7	1:7,000
707	Bruhn	7	1:7,000
707	Christiansdóttir	7	1:7,000
707	Dalsenni	7	1:7,000
707	Drangastein	7	1:7,000
707	Edvardsdóttir	7	1:7,000
707	Egilstrøð	7	1:7,000
707	Enomoto	7	1:7,000
707	Eyðsteinsson	7	1:7,000
707	Fjallsá	7	1:7,000
707	Friis	7	1:7,000
707	Fríðberg	7	1:7,000
707	Fróðadóttir	7	1:7,000
707	Gaasedal	7	1:7,000
707	Garðastovu	7	1:7,000
707	Geilini	7	1:7,000
707	Gislason	7	1:7,000
707	Golightly	7	1:7,000
707	Grønagarð	7	1:7,000
707	Gudmundarson	7	1:7,000
707	Haraldstovu	7	1:7,000
707	Harryson	7	1:7,000
707	Hauritz	7	1:7,000
707	Havn	7	1:7,000
707	Hendriksen	7	1:7,000
707	Hovsgarð	7	1:7,000
707	Háfoss	7	1:7,000
707	Hátún	7	1:7,000
707	Høgagarð	7	1:7,000
707	Høgaryggi	7	1:7,000
707	Hørg	7	1:7,000
707	Ingason	7	1:7,000
707	Joen-Jacobsen	7	1:7,000
707	Joensen-Næs	7	1:7,000
707	Johanneson	7	1:7,000
707	Jógvanstovu	7	1:7,000
707	Kjartansdóttir	7	1:7,000
707	Kjær	7	1:7,000
707	Klettheyggj	7	1:7,000
707	Kristjánsson	7	1:7,000
707	Laursen	7	1:7,000
707	Leiti	7	1:7,000
707	Leivsgarð	7	1:7,000
707	Lilaa	7	1:7,000
707	Marknagili	7	1:7,000
707	Nesstein	7	1:7,000
707	Plógvi	7	1:7,000
707	Potts	7	1:7,000
707	Pállsson	7	1:7,000
707	Pálsson	7	1:7,000
707	Richardt	7	1:7,000
707	Róadóttir	7	1:7,000
707	Rógvadóttir	7	1:7,000
707	Røsvik	7	1:7,000
707	Schrøter	7	1:7,000
707	Schwartson	7	1:7,000
707	Skoralíð	7	1:7,000
707	Skoubo	7	1:7,000
707	Skálum	7	1:7,000
707	Sloan	7	1:7,000
707	Smiðjuni	7	1:7,000
707	Stovugarð	7	1:7,000
707	Suðuroy	7	1:7,000
707	Teigum	7	1:7,000
707	Teitsdóttir	7	1:7,000
707	Thorgeirsson	7	1:7,000
707	Thorsvig	7	1:7,000
707	Trygvadóttir	7	1:7,000
707	Tróndardóttir	7	1:7,000
707	Tróndargjógv	7	1:7,000
707	Tummasardóttir	7	1:7,000
707	Válinum	7	1:7,000
707	Wejhe	7	1:7,000
707	Árnafjall	7	1:7,000
707	Østergaard	7	1:7,000
786	Baldvinson	6	1:8,166
786	Bjarnaskor	6	1:8,166
786	Bolstad	6	1:8,166
786	Brestisson	6	1:8,166
786	Brimvík	6	1:8,166
786	Bruun	6	1:8,166
786	Brúnni	6	1:8,166
786	Christiansson	6	1:8,166
786	Clausen	6	1:8,166
786	Dalá	6	1:8,166
786	Dánjalsson	6	1:8,166
786	Dávastovu	6	1:8,166
786	Engskær	6	1:8,166
786	Eskildsen	6	1:8,166
786	Eysturstein	6	1:8,166
786	Farstad	6	1:8,166
786	Funningsstovu	6	1:8,166
786	Gerðisá	6	1:8,166
786	Gørðum	6	1:8,166
786	Hardlei	6	1:8,166
786	Hattarstein	6	1:8,166
786	Havmand	6	1:8,166
786	Houmann	6	1:8,166
786	Hvalsrætt	6	1:8,166
786	Ihlen	6	1:8,166
786	Jansson	6	1:8,166
786	Janusardóttir	6	1:8,166
786	Kelduberg	6	1:8,166
786	Kerá	6	1:8,166
786	Klode	6	1:8,166
786	Klæmintsdóttir	6	1:8,166
786	Køk	6	1:8,166
786	Leifsdóttir	6	1:8,166
786	Linklett	6	1:8,166
786	Liða	6	1:8,166
786	Løkin	6	1:8,166
786	Malaikev	6	1:8,166
786	Marnersdóttir	6	1:8,166
786	Mote	6	1:8,166
786	Neslíð	6	1:8,166
786	Old	6	1:8,166
786	Otthamar	6	1:8,166
786	Pearce	6	1:8,166
786	Perdomo	6	1:8,166
786	Reynslág	6	1:8,166
786	Roest	6	1:8,166
786	Saltá	6	1:8,166
786	Schmidt	6	1:8,166
786	Sjóðklett	6	1:8,166
786	Skillicorn	6	1:8,166
786	Smið	6	1:8,166
786	Solberg	6	1:8,166
786	Svarthamar	6	1:8,166
786	Svensson	6	1:8,166
786	Sølvará	6	1:8,166
786	Súnadóttir	6	1:8,166
786	Súnason	6	1:8,166
786	Thorleifson	6	1:8,166
786	Thøgersen	6	1:8,166
786	Torkilsson	6	1:8,166
786	Traber	6	1:8,166
786	Tummassarson	6	1:8,166
786	Vejhe	6	1:8,166
786	Vesturdal	6	1:8,166
786	Vágsgarð	6	1:8,166
786	Váli	6	1:8,166
786	Váðklett	6	1:8,166
786	Wacher	6	1:8,166
786	Warberg	6	1:8,166
786	Wraae	6	1:8,166
786	Árnastein	6	1:8,166
786	Ísheim	6	1:8,166
786	Ólason	6	1:8,166
786	Ólavsstovu	6	1:8,166
786	Ørg	6	1:8,166
861	Anthoniusen	5	1:9,800
861	Argjum	5	1:9,800
861	Arnoldson	5	1:9,800
861	Beiti	5	1:9,800
861	Benbakoura	5	1:9,800
861	Bendtsen	5	1:9,800
861	Berglíð	5	1:9,800
861	Bernhardson	5	1:9,800
861	Billustovu	5	1:9,800
861	Birgisdóttir	5	1:9,800
861	Blak	5	1:9,800
861	Bogadóttir	5	1:9,800
861	Bogason	5	1:9,800
861	Bourbiaa	5	1:9,800
861	Busk	5	1:9,800
861	Cerveneac	5	1:9,800
861	Chung	5	1:9,800
861	Dahl-Jacobsen	5	1:9,800
861	Dalbúð	5	1:9,800
861	Dam-Jacobsen	5	1:9,800
861	Drangá	5	1:9,800
861	Dybczak	5	1:9,800
861	Dølum	5	1:9,800
861	Edvardsson	5	1:9,800
861	Elisson	5	1:9,800
861	Ennistíg	5	1:9,800
861	Erlingsdóttir	5	1:9,800
861	Eysturtún	5	1:9,800
861	Fjallheim	5	1:9,800
861	Fláaberg	5	1:9,800
861	Fløghamri	5	1:9,800
861	Fløtunum	5	1:9,800
861	Foget	5	1:9,800
861	Forná	5	1:9,800
861	Fossdal	5	1:9,800
861	Fossá	5	1:9,800
861	Fríðfinsson	5	1:9,800
861	Fróðason	5	1:9,800
861	Galiceanu	5	1:9,800
861	Garðinum	5	1:9,800
861	Garðsá	5	1:9,800
861	Gjónna	5	1:9,800
861	Grótinum	5	1:9,800
861	Grønastøð	5	1:9,800
861	Haasen	5	1:9,800
861	Hanssen	5	1:9,800
861	Hayfield	5	1:9,800
861	Hellá	5	1:9,800
861	Heradóttir	5	1:9,800
861	Herason	5	1:9,800
861	Herup	5	1:9,800
861	Heyggi	5	1:9,800
861	Hjørleifsdóttir	5	1:9,800
861	Hvalvík	5	1:9,800
861	Hálvmørk	5	1:9,800
861	Háskor	5	1:9,800
861	Hávarsá	5	1:9,800
861	Hólalagi	5	1:9,800
861	Høgadalsá	5	1:9,800
861	Húsinum	5	1:9,800
861	Ignatiussen	5	1:9,800
861	Ingebrigtsen	5	1:9,800
861	Isfeldt	5	1:9,800
861	Johnsen	5	1:9,800
861	Jonassen	5	1:9,800
861	Jønsson	5	1:9,800
861	Kannuberg	5	1:9,800
861	Kjartansson	5	1:9,800
861	Klemmentsen	5	1:9,800
861	Kolden	5	1:9,800
861	Kollsbyrgi	5	1:9,800
861	Kongsstovu	5	1:9,800
861	Korsgaard	5	1:9,800
861	Kristjánsdóttir	5	1:9,800
861	Krossbrekku	5	1:9,800
861	Lað	5	1:9,800
861	Leivsdóttir	5	1:9,800
861	Lindarstein	5	1:9,800
861	Lukama	5	1:9,800
861	Lund	5	1:9,800
861	Mariusardóttir	5	1:9,800
861	Matras-Olsen	5	1:9,800
861	Meitil	5	1:9,800
861	Mittúni	5	1:9,800
861	Mrdalo	5	1:9,800
861	Nandi	5	1:9,800
861	Nikolajsen	5	1:9,800
861	Norðnástovu	5	1:9,800
861	Oknadal	5	1:9,800
861	Olafsdóttir	5	1:9,800
861	Park	5	1:9,800
861	Puntabyrgi	5	1:9,800
861	Pætursdóttir	5	1:9,800
861	Rapa	5	1:9,800
861	Rouch	5	1:9,800
861	Sigmundsdóttir	5	1:9,800
861	Sigurðsdóttir	5	1:9,800
861	Sjúrðarberg	5	1:9,800
861	Sjúrðardóttir	5	1:9,800
861	Soll	5	1:9,800
861	Splidt	5	1:9,800
861	Stauss	5	1:9,800
861	Steffensen	5	1:9,800
861	Sæbúð	5	1:9,800
861	Símunardóttir	5	1:9,800
861	Símunarson	5	1:9,800
861	Torvadal	5	1:9,800
861	Trabelsi	5	1:9,800
861	Trolle	5	1:9,800
861	Trygvason	5	1:9,800
861	Tórarenni	5	1:9,800
861	Tórsdóttir	5	1:9,800
861	Tórstún	5	1:9,800
861	Valle	5	1:9,800
861	Vági	5	1:9,800
861	Vígdá	5	1:9,800
861	Warner	5	1:9,800
861	Wenningstedt	5	1:9,800
861	Wilhelmsen	5	1:9,800
861	Zhang	5	1:9,800
861	Áarstein	5	1:9,800
861	Ákadóttir	5	1:9,800
861	Áslaksson	5	1:9,800
984	Aa	4	1:12,250
984	Aagaard	4	1:12,250
984	Aakjær	4	1:12,250
984	Akselsson	4	1:12,250
984	Akurstein	4	1:12,250
984	Andersson	4	1:12,250
984	Andreasson	4	1:12,250
984	Andriasardóttir	4	1:12,250
984	Antoft	4	1:12,250
984	Argjagarði	4	1:12,250
984	Arnbjerg	4	1:12,250
984	Arnskov	4	1:12,250
984	Asbjarnardóttir	4	1:12,250
984	Atladóttir	4	1:12,250
984	Baianstovu	4	1:12,250
984	Baldursson	4	1:12,250
984	Baldwin	4	1:12,250
984	Barbá	4	1:12,250
984	Bartalsstovu	4	1:12,250
984	Behrens	4	1:12,250
984	Beltran	4	1:12,250
984	Bergkvist	4	1:12,250
984	Bergsson	4	1:12,250
984	Bic	4	1:12,250
984	Bjellevåg	4	1:12,250
984	Bjerkenes	4	1:12,250
984	Blair	4	1:12,250
984	Bogdanovic	4	1:12,250
984	Borentzvige	4	1:12,250
984	Boðanesi	4	1:12,250
984	Brattenni	4	1:12,250
984	Brekkuni	4	1:12,250
984	Brekká	4	1:12,250
984	Briansdóttir	4	1:12,250
984	Brisenfeldt	4	1:12,250
984	Buha	4	1:12,250
984	Byrgi	4	1:12,250
984	Báralíð	4	1:12,250
984	Bøgesvang	4	1:12,250
984	Búðini	4	1:12,250
984	Carstensson	4	1:12,250
984	Cimburovic	4	1:12,250
984	Clemmentsen	4	1:12,250
984	Cornette	4	1:12,250
984	Craib	4	1:12,250
984	Cristiansen	4	1:12,250
984	Dalinum	4	1:12,250
984	Damgaard-Jarnfoss	4	1:12,250
984	Danbjørg	4	1:12,250
984	Darvishi	4	1:12,250
984	Darvishi-Kobejari	4	1:12,250
984	Dickson	4	1:12,250
984	Djónadóttir	4	1:12,250
984	Dulavík	4	1:12,250
984	Dávadóttir	4	1:12,250
984	Ebbe	4	1:12,250
984	Edmundsson	4	1:12,250
984	Egilsnæs	4	1:12,250
984	Ehlers	4	1:12,250
984	Einarson	4	1:12,250
984	Eiriksdóttir	4	1:12,250
984	Eiriksfoss	4	1:12,250
984	Eirikstoft	4	1:12,250
984	El Ghoul	4	1:12,250
984	Erlandsdóttir	4	1:12,250
984	Ernstsson	4	1:12,250
984	Eysturlíð	4	1:12,250
984	Eysturskor	4	1:12,250
984	Eyvindson	4	1:12,250
984	Eyðfinnsdóttir	4	1:12,250
984	Eyðunardóttir	4	1:12,250
984	Faaborg	4	1:12,250
984	Fagralón	4	1:12,250
984	Findleton	4	1:12,250
984	Finnsdóttir	4	1:12,250
984	Fjallinum	4	1:12,250
984	Fjørdal	4	1:12,250
984	Foghill	4	1:12,250
984	Foldarskarð	4	1:12,250
984	Follend	4	1:12,250
984	For	4	1:12,250
984	Frisdahl	4	1:12,250
984	Fríðmundsson	4	1:12,250
984	Fríðufløtum	4	1:12,250
984	Funderud	4	1:12,250
984	Gabor	4	1:12,250
984	Gabrielsen	4	1:12,250
984	Gaini	4	1:12,250
984	Gardshodn	4	1:12,250
984	Garðarnar	4	1:12,250
984	Garðshamar	4	1:12,250
984	Gerster	4	1:12,250
984	Gerðisbakka	4	1:12,250
984	Gilsstein	4	1:12,250
984	Gisladóttir	4	1:12,250
984	Glyvradal	4	1:12,250
984	Gray	4	1:12,250
984	Grástein	4	1:12,250
984	Grógv	4	1:12,250
984	Grønborg	4	1:12,250
984	Gudmundson	4	1:12,250
984	Góðadal	4	1:12,250
984	Haacke	4	1:12,250
984	Halgadal	4	1:12,250
984	Halgaklett	4	1:12,250
984	Hall	4	1:12,250
984	Halldórsson	4	1:12,250
984	Halling	4	1:12,250
984	Hammerfoss	4	1:12,250
984	Haraldson	4	1:12,250
984	Haraldsson	4	1:12,250
984	Harðarson	4	1:12,250
984	Heimistovu	4	1:12,250
984	Heindriksdóttir	4	1:12,250
984	Hendriksdóttir	4	1:12,250
984	Henryson	4	1:12,250
984	Herlufsen	4	1:12,250
984	Heðinsdóttir	4	1:12,250
984	Hilmarsdóttir	4	1:12,250
984	Hjalmarsdóttir	4	1:12,250
984	Hjalmarsson	4	1:12,250
984	Hjaltadóttir	4	1:12,250
984	Hjaltason	4	1:12,250
984	Hjgaard	4	1:12,250
984	Holm-Jacobsen	4	1:12,250
984	Horsdal	4	1:12,250
984	Hultgren	4	1:12,250
984	Huusgaard	4	1:12,250
984	Hvanná	4	1:12,250
984	Hvidtfeldt	4	1:12,250
984	Hádal	4	1:12,250
984	Hólalagnum	4	1:12,250
984	Hórðará	4	1:12,250
984	Høghamar	4	1:12,250
984	Højen	4	1:12,250
984	Høyer	4	1:12,250
984	Húsagarði	4	1:12,250
984	Innistovu	4	1:12,250
984	Intosh	4	1:12,250
984	Jensdóttir	4	1:12,250
984	Jonhardsdóttir	4	1:12,250
984	Julsgart	4	1:12,250
984	Jóannesardóttir	4	1:12,250
984	Jóansdóttir	4	1:12,250
984	Jóhannesson	4	1:12,250
984	Jónhardsson	4	1:12,250
984	Jónsveinsdóttir	4	1:12,250
984	Jørmundsson	4	1:12,250
984	Karlsson	4	1:12,250
984	Keldu	4	1:12,250
984	Kjærbo-Eystaná	4	1:12,250
984	Kjærbo-Veyhe	4	1:12,250
984	Klett	4	1:12,250
984	Klit	4	1:12,250
984	Klæmintsson	4	1:12,250
984	Koba	4	1:12,250
984	Kofod	4	1:12,250
984	Krabenhøft	4	1:12,250
984	Krett	4	1:12,250
984	Kreutzmann	4	1:12,250
984	Kvíggjá	4	1:12,250
984	Kølleskov	4	1:12,250
984	Kørvel	4	1:12,250
984	Lacok	4	1:12,250
984	Lave	4	1:12,250
984	Lee	4	1:12,250
984	Leifsson	4	1:12,250
984	Lindholm	4	1:12,250
984	Luihn	4	1:12,250
984	Lyngvej-Larsen	4	1:12,250
984	Lávík	4	1:12,250
984	Líðini	4	1:12,250
984	Lógv	4	1:12,250
984	Løgmansbø	4	1:12,250
984	Løvendahl-Rasmusse	4	1:12,250
984	Løvhøjten	4	1:12,250
984	Løðuni	4	1:12,250
984	MacDonald	4	1:12,250
984	MacIntosh	4	1:12,250
984	MacKay	4	1:12,250
984	Magnason	4	1:12,250
984	Magnusarson	4	1:12,250
984	Maiza	4	1:12,250
984	Marjunardóttir	4	1:12,250
984	Markling	4	1:12,250
984	Martinsson	4	1:12,250
984	Maslyk	4	1:12,250
984	Mc intosh	4	1:12,250
984	Meinhardsson	4	1:12,250
984	Merkistein	4	1:12,250
984	Meyer	4	1:12,250
984	Mifsud	4	1:12,250
984	Mikkjalsdóttir	4	1:12,250
984	Mikkjalsson	4	1:12,250
984	Miðskarð	4	1:12,250
984	Mølgaard	4	1:12,250
984	Mýruni	4	1:12,250
984	Mýrá	4	1:12,250
984	Nagata	4	1:12,250
984	Nedergaard-Hansen	4	1:12,250
984	Neergaard	4	1:12,250
984	Negru	4	1:12,250
984	Nesinum	4	1:12,250
984	Nilsson	4	1:12,250
984	Nordberg	4	1:12,250
984	Norðá	4	1:12,250
984	Nørregaard	4	1:12,250
984	Obradovic	4	1:12,250
984	Olofson	4	1:12,250
984	Ortind	4	1:12,250
984	Oskarsson	4	1:12,250
984	Ovenberg	4	1:12,250
984	Patawary	4	1:12,250
984	Patel	4	1:12,250
984	Pauladóttir	4	1:12,250
984	Paulason	4	1:12,250
984	Pickney	4	1:12,250
984	Plógv	4	1:12,250
984	Poulsdóttir	4	1:12,250
984	Prestgarði	4	1:12,250
984	Prestá	4	1:12,250
984	Prisco	4	1:12,250
984	Pállsdóttir	4	1:12,250
984	Radosavljevic	4	1:12,250
984	Ranghamar	4	1:12,250
984	Ravnagil	4	1:12,250
984	Reistrup	4	1:12,250
984	Remmel	4	1:12,250
984	Remmer	4	1:12,250
984	Reveal	4	1:12,250
984	Reynagarð	4	1:12,250
984	Richardsdóttir	4	1:12,250
984	Rimestad	4	1:12,250
984	Robertson	4	1:12,250
984	Rodmundsdóttir	4	1:12,250
984	Rognsøy	4	1:12,250
984	Rouah	4	1:12,250
984	Rustin	4	1:12,250
984	Ryggi	4	1:12,250
984	Rygshamar	4	1:12,250
984	Rættará	4	1:12,250
984	Rípuni	4	1:12,250
984	Róaldsdóttir	4	1:12,250
984	Róason	4	1:12,250
984	Rólantsson	4	1:12,250
984	Rødset	4	1:12,250
984	Samsonsen	4	1:12,250
984	Schneider	4	1:12,250
984	Schrøter-Thomsen	4	1:12,250
984	Selvindi	4	1:12,250
984	Setberg	4	1:12,250
984	Sharac	4	1:12,250
984	Sighvatsson	4	1:12,250
984	Sigmarsson	4	1:12,250
984	Sigmundardóttir	4	1:12,250
984	Signarsson	4	1:12,250
984	Sigtórsdóttir	4	1:12,250
984	Sirkovsky	4	1:12,250
984	Sjúrðagarði	4	1:12,250
984	Skaaning	4	1:12,250
984	Skarðberg	4	1:12,250
984	Skarðsá	4	1:12,250
984	Skemmuni	4	1:12,250
984	Skipper-Eriksen	4	1:12,250
984	Skyt	4	1:12,250
984	Slyne	4	1:12,250
984	Stein	4	1:12,250
984	Stovuni	4	1:12,250
984	Stóristovu	4	1:12,250
984	Sundskarð	4	1:12,250
984	Sunnsker	4	1:12,250
984	Sveinbjørnsson	4	1:12,250
984	Sveinsdóttir	4	1:12,250
984	Sveinsson	4	1:12,250
984	Svenningsen	4	1:12,250
984	Svínoy	4	1:12,250
984	Sámalsdóttir	4	1:12,250
984	Sóloy	4	1:12,250
984	Sølvá	4	1:12,250
984	Sønderskov	4	1:12,250
984	Sørinardóttir	4	1:12,250
984	Terjadóttir	4	1:12,250
984	Thorstensen	4	1:12,250
984	Tjaldrastein	4	1:12,250
984	Tjørná	4	1:12,250
984	Toftheyggj	4	1:12,250
984	Torkilsdóttir	4	1:12,250
984	Torvlaðnum	4	1:12,250
984	Trier	4	1:12,250
984	Troleis	4	1:12,250
984	Trúgvason	4	1:12,250
984	Tummasdóttir	4	1:12,250
984	Tórgarði	4	1:12,250
984	Tórhalsdóttir	4	1:12,250
984	Tórhalsson	4	1:12,250
984	Tórsheim	4	1:12,250
984	Tórðardóttir	4	1:12,250
984	Túgvu	4	1:12,250
984	Udbø	4	1:12,250
984	Unadóttir	4	1:12,250
984	Vandsdal	4	1:12,250
984	Vazquez	4	1:12,250
984	Vesenberg	4	1:12,250
984	Vesturlíð	4	1:12,250
984	Viberg	4	1:12,250
984	Vilhelmsdóttir	4	1:12,250
984	Villanueva	4	1:12,250
984	Villumsen	4	1:12,250
984	Vistrup	4	1:12,250
984	Vágadal	4	1:12,250
984	Vágfjall	4	1:12,250
984	Vágoy	4	1:12,250
984	Vágstún	4	1:12,250
984	Vørmadal	4	1:12,250
984	Williamsson	4	1:12,250
984	Willumsen	4	1:12,250
984	Wøldike	4	1:12,250
984	Yttesen	4	1:12,250
984	Ziskasen	4	1:12,250
984	Á	4	1:12,250
984	Áarberg	4	1:12,250
984	Óladóttir	4	1:12,250
984	Ósagarð	4	1:12,250
984	Øssursdóttir	4	1:12,250