1	Diallo	1,964,007	1:6
2	Camara	1,182,957	1:10
3	Bah	674,910	1:18
4	Barry	672,025	1:18
5	Sylla	376,779	1:31
6	Balde	334,715	1:35
7	Conde	333,919	1:35
8	Keita	311,500	1:38
9	Sow	291,124	1:41
10	Bangoura	236,961	1:50
11	Soumah	220,537	1:54
12	Traore	213,051	1:56
13	Kourouma	202,859	1:58
14	Toure	183,575	1:64
15	Kaba	150,124	1:79
16	Cisse	136,760	1:87
17	Doumbouya	131,021	1:90
18	Fofana	122,099	1:97
19	Kamano	115,176	1:103
20	Sidibe	106,265	1:111
21	Haba	98,023	1:121
22	Diakite	91,156	1:130
23	Loua	86,254	1:137
24	Mara	83,217	1:142
25	Tolno	82,609	1:143
26	Lamah	81,953	1:144
27	Kante	79,856	1:148
28	Guilavogui	74,607	1:159
29	Keïta	74,284	1:159
30	Konate	69,241	1:171
31	Kolie	65,940	1:179
32	Conte	62,012	1:191
33	Diaby	61,318	1:193
34	Millimouno	58,193	1:203
35	Oulare	56,530	1:209
36	Diawara	54,617	1:217
37	Sacko	54,411	1:217
38	Souare	52,589	1:225
39	Sangare	51,571	1:229
40	Koulibaly	50,983	1:232
41	Leno	50,780	1:233
42	Mansare	48,529	1:244
43	Koivogui	44,345	1:267
44	Berete	43,610	1:271
45	Sanoh	42,470	1:279
46	Cherif	42,166	1:281
47	Tounkara	40,530	1:292
48	Beavogui	40,379	1:293
49	Kpoghomou	40,174	1:295
50	Kouyate	38,432	1:308
51	Diane	36,427	1:325
52	Magassouba	33,299	1:355
53	Dore	33,095	1:358
54	Drame	32,547	1:364
55	Sagno	32,480	1:364
56	Savane	28,943	1:409
57	Soumaoro	28,861	1:410
58	Thea	28,596	1:414
59	Samoura	25,700	1:460
60	Bilivogui	25,507	1:464
61	Delamou	25,493	1:464
62	Ouendeno	25,285	1:468
63	Bamba	25,110	1:471
64	Bayo	23,280	1:508
65	Zoumanigui	21,336	1:555
66	Goumou	20,806	1:569
67	Sall	20,419	1:580
68	Kalivogui	20,136	1:588
69	Koundouno	19,784	1:598
70	Mamy	19,718	1:600
71	Ly	19,703	1:601
72	Diabate	18,563	1:637
73	Millimono	18,290	1:647
74	Dioubate	17,966	1:659
75	Balamou	17,071	1:693
76	Yansane	16,648	1:711
77	Nabe	16,302	1:726
78	Dopavogui	16,206	1:730
79	Soropogui	16,082	1:736
80	Abien	16,021	1:739
81	Onivogui	15,866	1:746
82	Monemou	15,659	1:756
83	Yattara	14,988	1:790
84	Doukoure	14,873	1:796
85	Sandouno	13,873	1:853
86	Kallo	13,703	1:864
87	Koïvogui	13,568	1:872
88	Dabo	13,504	1:876
89	Gbamou	13,116	1:902
90	Dansoko	13,049	1:907
91	Tenguiano	12,900	1:917
92	Youla	12,826	1:923
93	Maomou	12,599	1:939
94	Yombouno	12,367	1:957
95	Koulemou	12,182	1:971
96	Komano	11,972	1:988
97	Tonguino	11,868	1:997
98	Iffono	11,707	1:1,011
99	Thiam	11,526	1:1,027
100	Sakouvogui	11,386	1:1,039
101	Grovogui	11,368	1:1,041
102	Gbilimou	11,360	1:1,042
103	Kebe	10,439	1:1,134
104	Sy	10,326	1:1,146
105	Cissoko	10,291	1:1,150
106	Kone	10,033	1:1,179
107	Mane	9,872	1:1,199
108	Guemou	9,771	1:1,211
109	Pivi	9,624	1:1,230
110	N'Diaye	9,598	1:1,233
111	Condé	9,378	1:1,262
112	Fadiga	9,132	1:1,296
113	Dieng	8,870	1:1,334
114	Bongono	8,576	1:1,380
115	Keira	8,562	1:1,382
116	Goepogui	8,447	1:1,401
117	Sane	8,371	1:1,414
118	Coumbassa	8,347	1:1,418
119	Dramou	8,305	1:1,425
120	Kondiano	8,045	1:1,471
121	Maomy	7,945	1:1,489
122	Kande	7,849	1:1,508
123	Kolamou	7,816	1:1,514
124	Gamy	7,788	1:1,519
125	Daffe	7,627	1:1,552
126	Ouamouno	7,531	1:1,571
127	Mamadouno	7,403	1:1,599
128	Toupou	7,260	1:1,630
129	Boiro	7,052	1:1,678
130	Komara	6,977	1:1,696
131	Diop	6,624	1:1,787
132	Lelano	6,549	1:1,807
133	Dembadouno	6,527	1:1,813
134	Kalle	6,513	1:1,817
135	Inapogui	6,290	1:1,881
136	Diaba	6,235	1:1,898
137	Haidara	6,211	1:1,905
138	Faro	6,200	1:1,909
139	Yaradouno	6,170	1:1,918
140	Konomou	6,120	1:1,934
141	Kamissoko	6,086	1:1,944
142	Baldé	6,016	1:1,967
143	Sovogui	5,985	1:1,977
144	Niamy	5,838	1:2,027
145	Doualamou	5,803	1:2,039
146	Zogbelemou	5,758	1:2,055
147	Diakhaby	5,736	1:2,063
148	Tall	5,701	1:2,076
149	Diaoune	5,688	1:2,080
150	Sonomou	5,490	1:2,156
151	Mahomy	5,475	1:2,161
152	Damba	5,426	1:2,181
153	Honomou	5,392	1:2,195
154	Keîta	5,175	1:2,287
155	Kpogomou	5,114	1:2,314
156	Koevogui	5,039	1:2,348
157	Bore	5,029	1:2,353
158	Hebelamou	4,965	1:2,383
159	Gbanamou	4,872	1:2,429
160	Kalissa	4,849	1:2,440
161	Kolomou	4,805	1:2,463
162	Oliano	4,757	1:2,488
163	Feindouno	4,700	1:2,518
164	Donzo	4,578	1:2,585
165	Dixinn	4,448	1:2,660
166	Guirassy	4,277	1:2,767
167	Koumbassa	4,239	1:2,792
168	Diare	4,077	1:2,903
169	Simbiano	4,067	1:2,910
170	Morifindjan	4,032	1:2,935
171	Abou Camara	4,006	1:2,954
172	Traoré	3,941	1:3,003
173	Koita	3,853	1:3,071
174	Fangamou	3,801	1:3,113
175	Ifono	3,723	1:3,179
176	Khalil	3,677	1:3,218
177	Sandy	3,622	1:3,267
178	Kondano	3,609	1:3,279
179	Molmou	3,600	1:3,287
180	Theoro	3,535	1:3,348
181	Koïta	3,523	1:3,359
182	Telliano	3,511	1:3,370
183	Malomou	3,482	1:3,399
184	Manet	3,447	1:3,433
185	Ninamou	3,419	1:3,461
186	Kpoulomou	3,416	1:3,464
187	Saoromou	3,408	1:3,472
188	Saoulomou	3,377	1:3,504
189	Gomou	3,363	1:3,519
190	Samake	3,360	1:3,522
191	Tinguiano	3,302	1:3,584
192	Diarra	3,271	1:3,618
193	Komah	3,241	1:3,651
194	Sonomy	3,195	1:3,704
195	Kpamou	3,159	1:3,746
196	Haïdara	3,154	1:3,752
197	Kantambadouno	3,138	1:3,771
198	Touaro	3,130	1:3,781
199	Simagan	3,126	1:3,786
200	Tambassa	3,115	1:3,799
201	Diassy	3,105	1:3,811
202	N'Gouabi	3,102	1:3,815
203	Sankhon	3,070	1:3,855
204	Touré	3,044	1:3,888
205	Teinguiano	3,007	1:3,935
206	Louamou	2,947	1:4,016
207	Sampou	2,931	1:4,037
208	Dia	2,875	1:4,116
209	Kadouno	2,861	1:4,136
210	Kane	2,851	1:4,151
211	Central	2,840	1:4,167
211	Wann	2,840	1:4,167
213	Diakité	2,825	1:4,189
214	Brehemou	2,791	1:4,240
215	Malamou	2,697	1:4,388
216	Kake	2,693	1:4,394
217	Bamy	2,690	1:4,399
218	Bien	2,655	1:4,457
219	Dounamou	2,642	1:4,479
220	Solano	2,611	1:4,532
221	Male	2,610	1:4,534
222	Cissé	2,606	1:4,541
223	Massandouno	2,586	1:4,576
223	Moundekeno	2,586	1:4,576
225	Onikoyamou	2,549	1:4,643
226	Bavogui	2,541	1:4,657
227	Abou Conde	2,524	1:4,689
228	Douno	2,503	1:4,728
229	Sompare	2,455	1:4,820
230	Cone	2,382	1:4,968
231	Beimy	2,362	1:5,010
232	Mano	2,351	1:5,034
233	Gueye	2,347	1:5,042
234	Koniono	2,328	1:5,083
235	Gassama	2,289	1:5,170
236	Simmy	2,255	1:5,248
237	Compo	2,222	1:5,326
238	Gouhara	2,220	1:5,331
239	Gadjiko	2,206	1:5,364
240	Dounoh	2,202	1:5,374
241	Gnekoyamou	2,141	1:5,527
242	Sidibé	2,129	1:5,558
243	Koropogui	2,114	1:5,598
244	Kalabane	2,087	1:5,670
245	Minthe	2,071	1:5,714
246	El-Bass	2,053	1:5,764
247	Sano	2,033	1:5,821
248	Soromou	2,011	1:5,885
249	Guisse	2,006	1:5,899
250	Diomande	2,003	1:5,908
251	Duolamou	1,998	1:5,923
252	Temessadouno	1,985	1:5,962
253	Felemou	1,961	1:6,035
254	Gamamou	1,958	1:6,044
255	Bakayoko	1,912	1:6,189
256	Cabral	1,903	1:6,219
257	Sankon	1,893	1:6,251
258	Fall	1,885	1:6,278
259	Libre	1,875	1:6,311
260	Manimou	1,865	1:6,345
261	Gbamy	1,863	1:6,352
261	Kpomy	1,863	1:6,352
263	Duonamou	1,842	1:6,424
264	Marie	1,835	1:6,449
265	Koma	1,832	1:6,460
266	Kakoro	1,791	1:6,607
267	Tenkiano	1,789	1:6,615
268	Gbemou	1,769	1:6,690
269	Gbanhara	1,749	1:6,766
270	Damey	1,740	1:6,801
271	Kpakpavogui	1,739	1:6,805
272	Kenende	1,738	1:6,809
273	Kaloga	1,726	1:6,856
274	Tito	1,721	1:6,876
275	Pricemou	1,716	1:6,896
276	Abou Kourouma	1,708	1:6,928
277	Magane	1,676	1:7,061
278	Seck	1,622	1:7,296
279	Gouavogui	1,613	1:7,337
280	Malano	1,602	1:7,387
281	Olemou	1,595	1:7,419
282	Abou Keita	1,587	1:7,457
283	Koumassadouno	1,574	1:7,518
284	Niabaly	1,571	1:7,533
285	Colia	1,568	1:7,547
286	Ninahara	1,556	1:7,605
287	Gbilemou	1,553	1:7,620
288	Kotembedouno	1,546	1:7,654
289	Bonamou	1,536	1:7,704
290	Sidime	1,521	1:7,780
291	Marega	1,510	1:7,837
292	Nioke	1,505	1:7,863
292	Plegnemou	1,505	1:7,863
294	Ouendouno	1,493	1:7,926
295	Tamoura	1,484	1:7,974
296	Lama	1,481	1:7,990
297	Povogui	1,479	1:8,001
298	Konaté	1,476	1:8,017
299	Kann	1,471	1:8,045
300	Djoubate	1,467	1:8,067
301	Frangadouno	1,456	1:8,128
302	Assalafi	1,445	1:8,189
303	Keïra	1,440	1:8,218
304	Tinkiano	1,418	1:8,345
305	Kanté	1,409	1:8,399
305	Soumare	1,409	1:8,399
307	Solie	1,406	1:8,417
308	Sagna	1,393	1:8,495
309	Danso	1,392	1:8,501
310	Kolié	1,390	1:8,514
311	Koremou	1,379	1:8,581
312	Kagbadouno	1,350	1:8,766
312	Nikavogui	1,350	1:8,766
314	El Bass	1,347	1:8,785
315	Niang	1,335	1:8,864
316	Moussatembedouno	1,326	1:8,924
317	Doumbouyah	1,315	1:8,999
318	Garaya	1,311	1:9,027
319	Nimaga	1,305	1:9,068
320	Tedouno	1,299	1:9,110
321	Baro	1,297	1:9,124
321	Noba	1,297	1:9,124
323	Koiba	1,290	1:9,174
324	Irandouno	1,286	1:9,202
325	Gnabalamou	1,285	1:9,209
326	Câmara	1,284	1:9,216
327	Foinke	1,271	1:9,311
328	Gsp-Dar-Shariat	1,267	1:9,340
329	Mohomy	1,240	1:9,543
330	Togbodouno	1,225	1:9,660
331	Wamouno	1,224	1:9,668
332	Nanamou	1,223	1:9,676
333	Yeressa	1,221	1:9,692
334	Diarre	1,212	1:9,764
335	Dioumessy	1,203	1:9,837
336	Soomou	1,199	1:9,870
337	Katty	1,188	1:9,961
338	Konyeyah	1,187	1:9,970
339	Nonamou	1,174	1:10,080
340	Sampil	1,172	1:10,097
341	Islamique	1,166	1:10,149
342	Keleba	1,154	1:10,255
343	Abou Traore	1,150	1:10,290
344	Haomou	1,147	1:10,317
345	Kaltamba	1,145	1:10,335
346	Fenano	1,142	1:10,362
347	Dem	1,140	1:10,381
347	Yomalon	1,140	1:10,381
349	Zomy	1,139	1:10,390
350	Biaye	1,131	1:10,463
351	Sonozara	1,108	1:10,680
352	Islam	1,105	1:10,709
353	Pendessa	1,099	1:10,768
354	Toundoufedouno	1,094	1:10,817
355	Kambadouno	1,086	1:10,897
356	Fanghamou	1,081	1:10,947
357	Dalako	1,065	1:11,112
358	Sewadouno	1,061	1:11,153
359	Bokoum	1,054	1:11,228
360	Gbanmou	1,051	1:11,260
361	Sakho	1,047	1:11,303
362	Sossouadouno	1,031	1:11,478
363	Gonomy	1,030	1:11,489
364	Dialllo	1,021	1:11,590
365	Lenoh	1,018	1:11,625
365	Sanden	1,018	1:11,625
367	Fancinadouno	1,009	1:11,728
368	Noramou	1,003	1:11,798
369	Djoumessy	1,000	1:11,834
370	Sako	995	1:11,893
371	Makanera	989	1:11,965
372	Wague	987	1:11,990
373	Sayandouno	980	1:12,075
374	Tonamou	970	1:12,200
375	Yeamou	968	1:12,225
376	Songbono	965	1:12,263
377	Diakaby	960	1:12,327
378	Ndiaye	957	1:12,366
379	Lamine	948	1:12,483
380	Iromou	944	1:12,536
381	Bandia	940	1:12,589
382	Kanimou	938	1:12,616
383	Gamou	934	1:12,670
384	Abou Konate	912	1:12,976
385	Dialo	885	1:13,372
386	Ouemou	884	1:13,387
386	Sangaré	884	1:13,387
388	Ballo	883	1:13,402
389	Conté	876	1:13,509
390	Marena	875	1:13,524
391	Simakan	873	1:13,555
392	Lolamou	863	1:13,712
393	Bimou	859	1:13,776
394	Kpamy	851	1:13,906
395	Dioum	850	1:13,922
396	Kouyaté	847	1:13,971
397	Nieba	841	1:14,071
397	Sangbalamou	841	1:14,071
399	Mahomou	831	1:14,240
400	Zogbila	800	1:14,792
401	Zotomy	783	1:15,113
402	Nyambalamou	781	1:15,152
403	Teoro	771	1:15,349
404	Sympogui	767	1:15,429
405	Dounahara	765	1:15,469
406	Souaré	757	1:15,633
407	Kpowolamou	756	1:15,653
408	Abou Fofana	748	1:15,821
409	Naite	746	1:15,863
410	Saouromou	745	1:15,884
411	Maouomou	741	1:15,970
412	Benemou	740	1:15,992
413	Gackou	736	1:16,079
414	Tagbino	735	1:16,100
415	Keyra	733	1:16,144
416	Boamou	726	1:16,300
417	Daman	712	1:16,621
418	Ba	700	1:16,905
419	Avril	697	1:16,978
419	Maiga	697	1:16,978
421	M'Baye	691	1:17,126
421	Souomou	691	1:17,126
423	Damang	690	1:17,150
423	Niaissa	690	1:17,150
425	Naïte	682	1:17,352
426	Bohamou	681	1:17,377
427	Sande	669	1:17,689
428	Mansaré	668	1:17,715
429	Gsp-A-Boun-Aouf	659	1:17,957
429	Katab	659	1:17,957
431	Gamamy	655	1:18,067
432	Camra	647	1:18,290
433	Kera	646	1:18,319
434	Niane	640	1:18,490
435	Fernandez	637	1:18,577
435	Sagale	637	1:18,577
437	Kéïta	635	1:18,636
438	Oumar	634	1:18,665
439	Daillo	632	1:18,724
440	Gnaissa	629	1:18,814
441	Bolivogui	623	1:18,995
442	Sarr	621	1:19,056
443	Diané	614	1:19,273
444	Holie	613	1:19,305
445	Taimiat	608	1:19,464
446	Sonole	600	1:19,723
447	Welamou	593	1:19,956
447	Yenguissa	593	1:19,956
449	Savané	592	1:19,990
450	Yomalo	591	1:20,023
451	Djikine	589	1:20,091
452	Dambakate	584	1:20,263
453	Guemy	574	1:20,616
454	Kouroumah	573	1:20,652
455	Finando	570	1:20,761
456	Béavogui	568	1:20,834
457	Diao	567	1:20,871
458	Bendia	555	1:21,322
459	Gandeka	552	1:21,438
460	Somadouno	551	1:21,477
461	Fangahara	546	1:21,674
462	Saoulohara	539	1:21,955
462	Somou	539	1:21,955
464	Gsp-Essafa	532	1:22,244
465	Beïmy	525	1:22,541
466	Sabere	524	1:22,584
467	Karim	523	1:22,627
468	Koilamy	511	1:23,158
469	Kouteno	506	1:23,387
469	Oularé	506	1:23,387
471	Djoumessi	505	1:23,433
472	Koundiano	503	1:23,526
473	Diabaté	502	1:23,573
474	Gbehara	501	1:23,620
475	Fofanah	500	1:23,668
475	Teliano	500	1:23,668
477	Bolamou	499	1:23,715
477	Goromou	499	1:23,715
479	Dramé	491	1:24,101
480	Saoromy	489	1:24,200
481	Pamavogui	488	1:24,250
482	Blemou	487	1:24,299
483	Dicko	486	1:24,349
484	Koro	482	1:24,551
485	Centre	474	1:24,966
486	Kombadouno	473	1:25,019
487	Mandy	469	1:25,232
488	Boumbaly	467	1:25,340
488	Dembele	467	1:25,340
488	Gohara	467	1:25,340
491	Tamita	466	1:25,394
492	Abou Mara	464	1:25,504
493	Daff	461	1:25,670
494	Kinomy	454	1:26,066
494	Mongono	454	1:26,066
496	Coman	452	1:26,181
497	Wolamou	451	1:26,239
498	Abou Diallo	448	1:26,415
498	Kanmou	448	1:26,415
498	Zouemou	448	1:26,415
501	Nianle	446	1:26,533
502	Wattara	438	1:27,018
503	Gamys	437	1:27,080
503	Tohonamou	437	1:27,080
505	Bamamou	436	1:27,142
506	Dioubaté	435	1:27,204
507	Banoro	431	1:27,457
507	Gromou	431	1:27,457
509	Abou Kante	430	1:27,521
510	Mindika	429	1:27,585
511	Abou Sylla	428	1:27,649
512	Soumahoro	425	1:27,844
513	Douprou	424	1:27,910
514	Alleluia	422	1:28,042
514	Doufangadouno	422	1:28,042
516	Chaloub	421	1:28,109
517	Gouhala	419	1:28,243
517	Zebelamou	419	1:28,243
519	Abou Sidibe	417	1:28,378
520	Abou Diakite	415	1:28,515
520	Gbanle	415	1:28,515
520	Gonomou	415	1:28,515
523	Gbavogui	413	1:28,653
524	Ognemou	410	1:28,863
525	Abou Kaba	407	1:29,076
526	Bass	406	1:29,147
526	Samory	406	1:29,147
528	Bérété	400	1:29,585
529	Ben Camara	396	1:29,883
530	Milimono	395	1:29,959
530	Sagnane	395	1:29,959
532	Sanogo	392	1:30,188
533	Mathy	389	1:30,421
534	Amadou	382	1:30,979
534	Goumy	382	1:30,979
534	Kieta	382	1:30,979
537	Binta	380	1:31,142
537	Kolahara	380	1:31,142
539	Sangbe	377	1:31,389
540	Yanssane	376	1:31,473
541	Faye	370	1:31,983
541	Teinkiano	370	1:31,983
543	Kantabadouno	369	1:32,070
544	Abou Cisse	367	1:32,245
544	Abou Doumbouya	367	1:32,245
546	Gbonimy	361	1:32,781
546	Samy	361	1:32,781
548	Abou Berete	360	1:32,872
549	Coulibaly	358	1:33,055
549	Kpanamou	358	1:33,055
551	Boolamou	357	1:33,148
551	Dione	357	1:33,148
553	Abou Mansare	356	1:33,241
554	Kaman	354	1:33,429
555	Gamahara	352	1:33,619
556	Saba	349	1:33,908
557	Jem-Plus	347	1:34,103
558	Gbeimy	344	1:34,401
558	Gomy	344	1:34,401
560	Gakou	342	1:34,602
560	Sakovogui	342	1:34,602
562	Zotamou	341	1:34,703
563	Abou Toure	340	1:34,805
563	Beindia	340	1:34,805
563	Donka	340	1:34,805
566	Damah	339	1:34,908
566	Kessemadouno	339	1:34,908
566	Tokpa	339	1:34,908
569	Bagayoko	336	1:35,220
570	Kathab	334	1:35,431
570	Kiabou	334	1:35,431
572	Makalo	333	1:35,537
573	Marche	331	1:35,752
573	Vue	331	1:35,752
575	Hadith	330	1:35,860
576	Koman	329	1:35,969
577	Kale	323	1:36,637
578	Manoh	321	1:36,865
578	Samby	321	1:36,865
580	Bereton	318	1:37,213
580	Niakasso	318	1:37,213
582	Gnagasso	315	1:37,568
583	Lacko	314	1:37,687
583	Ousmane	314	1:37,687
585	Magasouba	313	1:37,808
585	Sinayoko	313	1:37,808
585	Zagaimou	313	1:37,808
588	Billivogui	312	1:37,929
588	Fissirou	312	1:37,929
590	Kalman	309	1:38,297
590	Kalo	309	1:38,297
590	Yaffa	309	1:38,297
593	Abou Sanoh	308	1:38,421
594	Doumbia	307	1:38,547
594	Niambalamou	307	1:38,547
594	Tks	307	1:38,547
597	Alpha-Yaya	306	1:38,673
597	Sambou	306	1:38,673
597	Soumano	306	1:38,673
600	Balbaky	305	1:38,799
600	Boamy	305	1:38,799
602	Gsp-Maldja	304	1:38,927
603	Falivogui	302	1:39,185
604	Douolamou	301	1:39,315
604	Kolohara	301	1:39,315
606	Kpowomou	300	1:39,446
606	Nyabalamou	300	1:39,446
608	Lycee	298	1:39,711
608	Serra	298	1:39,711
610	Sevogui	297	1:39,845
611	Maoumou	296	1:39,979
612	Sarah	295	1:40,115
613	Kenneh	294	1:40,251
613	Niagasso	294	1:40,251
615	Ahmed	293	1:40,388
616	Macina	292	1:40,527
616	Togba	292	1:40,527
618	Koïba	290	1:40,806
618	Septembre	290	1:40,806
620	Barro	289	1:40,947
621	Sara	288	1:41,090
622	Banaro	286	1:41,377
622	Bikaz	286	1:41,377
624	Tea	285	1:41,522
625	Abou Souare	282	1:41,964
626	Kéita	281	1:42,113
627	Gsp-Nyamayara	279	1:42,415
627	Yansané	279	1:42,415
629	Ngadjiko	278	1:42,568
630	Grube	275	1:43,032
630	Massadouno	275	1:43,032
632	Koly	274	1:43,189
633	Abou Soumaoro	273	1:43,347
633	Nabaya	273	1:43,347
635	Ballamou	269	1:43,992
635	Gbahara	269	1:43,992
637	Moloumou	268	1:44,156
638	Léno	265	1:44,656
638	Mosquee	265	1:44,656
638	Sonkhon	265	1:44,656
641	Douomy	264	1:44,825
641	Momou	264	1:44,825
643	Ben Sylla	261	1:45,340
644	Diohere	260	1:45,515
645	Zowotamou	258	1:45,868
646	Boubacar	255	1:46,407
647	Bagayogo	254	1:46,590
647	Djidonou	254	1:46,590
647	Mazagalo	254	1:46,590
647	Mballo	254	1:46,590
651	Souanou	253	1:46,774
651	Souomy	253	1:46,774
653	Lah	251	1:47,147
654	Marthe	248	1:47,717
654	Sewa	248	1:47,717
656	Union	247	1:47,910
657	Souma	245	1:48,301
658	Djiguine	244	1:48,499
658	Fa	244	1:48,499
660	Diarso	242	1:48,900
661	Molomou	238	1:49,722
662	Kaloko	237	1:49,932
663	Dagno	236	1:50,143
664	Sene	233	1:50,789
665	Aeia	232	1:51,008
665	Nanahara	232	1:51,008
665	Zogbélémou	232	1:51,008
668	Pogba	231	1:51,229
669	Fassassy	230	1:51,451
669	Mohara	230	1:51,451
671	Marien	229	1:51,676
672	Alhikmat	228	1:51,903
672	Coura	228	1:51,903
672	Fangbe	228	1:51,903
675	Fanghahara	227	1:52,131
675	Galaye	227	1:52,131
675	Syllla	227	1:52,131
678	Abou Bamba	226	1:52,362
678	Kpeimy	226	1:52,362
678	Lolahara	226	1:52,362
678	Molhara	226	1:52,362
682	Abou Bangoura	225	1:52,595
682	College-Wologbomai	225	1:52,595
682	Gale	225	1:52,595
682	Kpoghonamou	225	1:52,595
682	Sembeno	225	1:52,595
682	Wiemou	225	1:52,595
688	Doubouya	224	1:52,830
689	Bissana	223	1:53,066
689	Gadjigo	223	1:53,066
691	Williams	222	1:53,305
692	Danssoko	221	1:53,547
692	Manino	221	1:53,547
692	Sakoh	221	1:53,547
695	Sonkon	220	1:53,790
695	Soumanoh	220	1:53,790
697	Helemou	219	1:54,036
697	Koue	219	1:54,036
699	Ouattara	218	1:54,284
699	Plus	218	1:54,284
701	Galissa	217	1:54,534
702	Konde	216	1:54,786
703	Sorry	215	1:55,041
704	Sackho	214	1:55,298
705	Badio	213	1:55,558
705	Gnaïssa	213	1:55,558
707	Abou Keïta	212	1:55,820
707	Bies	212	1:55,820
707	Nandou	212	1:55,820
710	Dallo	206	1:57,446
710	N'Daou	206	1:57,446
712	Boubane	205	1:57,726
713	Ayoub	204	1:58,009
713	M'Ballo	204	1:58,009
715	Kankama	203	1:58,295
715	Kondianakoro	203	1:58,295
717	Kantara	202	1:58,583
718	La Concorde	199	1:59,466
719	Bouedouno	197	1:60,070
719	Mazagalon	197	1:60,070
721	Diouf	195	1:60,686
721	Kasse	195	1:60,686
723	Cecemadouno	194	1:60,999
724	Olamou	192	1:61,634
725	Doukouré	191	1:61,957
725	Lowolamou	191	1:61,957
727	Abou Sangare	190	1:62,283
727	Africaine	190	1:62,283
729	Bonahara	189	1:62,613
729	Moudekeno	189	1:62,613
729	Niale	189	1:62,613
729	Ouehara	189	1:62,613
729	Wedey	189	1:62,613
734	Abou Diabate	188	1:62,946
734	Abou Kamano	188	1:62,946
734	Abou Leno	188	1:62,946
734	Cra	188	1:62,946
734	Kamara	188	1:62,946
734	Sanlou	188	1:62,946
740	Abou Oulare	186	1:63,623
740	Danfaga	186	1:63,623
742	Aou	185	1:63,967
743	Bagoura	183	1:64,666
743	Faty	183	1:64,666
745	Le Rocher	182	1:65,021
746	Chérif	181	1:65,380
747	Napo	180	1:65,743
748	Cmara	179	1:66,111
748	Sougoule	179	1:66,111
750	Toumandouno	178	1:66,482
750	Yara	178	1:66,482
752	Tarbiatou	177	1:66,858
753	Abou Kande	176	1:67,238
753	Abou Keîta	176	1:67,238
753	Lèno	176	1:67,238
756	Le Reveil	174	1:68,010
757	Kandou	172	1:68,801
758	Ahmad	170	1:69,611
758	Diara	170	1:69,611
758	Lisso	170	1:69,611
761	Djaby	167	1:70,861
761	Ms	167	1:70,861
761	Nouria	167	1:70,861
764	Tamanate	165	1:71,720
765	Emmanuel	164	1:72,157
765	Gonotey	164	1:72,157
767	Lumiere	162	1:73,048
767	Youmbouno	162	1:73,048
769	Doré	161	1:73,502
769	Emmaüs	161	1:73,502
769	Tangara	161	1:73,502
772	Kpeleya	160	1:73,961
773	Lamou	158	1:74,898
773	Tere	158	1:74,898
775	Sarre	157	1:75,375
776	Bramadouno	156	1:75,858
777	Djabi	155	1:76,347
777	Gbouomy	155	1:76,347
777	Hann	155	1:76,347
780	Hebelemou	154	1:76,843
780	Loramou	154	1:76,843
780	Manamou	154	1:76,843
780	Maniga	154	1:76,843
780	Oivogui	154	1:76,843
780	Zotole	154	1:76,843
786	Bhoye	153	1:77,345
786	Hotesse	153	1:77,345
788	Danwo	152	1:77,854
788	Daraba	152	1:77,854
788	Doumbouy	152	1:77,854
788	Mogotigui	152	1:77,854
788	Tigana	152	1:77,854
788	Wilkinson	152	1:77,854
794	Haoulomou	151	1:78,370
794	Kanhara	151	1:78,370
794	Koévogui	151	1:78,370
797	Coma	150	1:78,892
797	Cossa	150	1:78,892
797	Gbalemou	150	1:78,892
797	Gbammou	150	1:78,892
797	Koissia	150	1:78,892
797	Koyavogui	150	1:78,892
797	Koívogui	150	1:78,892
797	Louamy	150	1:78,892
797	Ninahala	150	1:78,892
806	Gomez	149	1:79,422
806	Paix	149	1:79,422
808	Batchily	147	1:80,502
809	Milimouno	145	1:81,613
810	Taboure	144	1:82,179
811	Akakpo	143	1:82,754
812	Touglo	142	1:83,337
813	Amilcar	141	1:83,928
813	Kowou	141	1:83,928
813	Opong	141	1:83,928
816	Gack	140	1:84,527
817	Soumana	137	1:86,378
818	Mendy	136	1:87,013
818	Stephen	136	1:87,013
820	Dounbouya	135	1:87,658
821	Boure	134	1:88,312
821	Kounta	134	1:88,312
823	Libanais	132	1:89,650
823	Soufane	132	1:89,650
825	Delamy	131	1:90,334
825	Faber	131	1:90,334
825	Niangadou	131	1:90,334
828	Jalloh	130	1:91,029
829	Massare	129	1:91,735
830	Dombouya	128	1:92,452
830	Matty	128	1:92,452
830	Mohamed	128	1:92,452
830	Sissoko	128	1:92,452
834	Assogba	127	1:93,180
834	Djoubaté	127	1:93,180
834	Ghare	127	1:93,180
834	Islamiat	127	1:93,180
834	Kankan-Coura	127	1:93,180
839	Bocoum	126	1:93,919
839	La Source	126	1:93,919
841	Mermoz	125	1:94,671
842	Moussa	123	1:96,210
843	Nawa	120	1:98,615
844	Bassingui	119	1:99,444
844	Diouara	119	1:99,444
844	Samb	119	1:99,444
847	Mayol	117	1:101,144
847	Omoui	117	1:101,144
849	Curtis	116	1:102,016
849	Kabore	116	1:102,016
849	Sainte-Marthe	116	1:102,016
852	Macauley	115	1:102,903
853	Nabé	114	1:103,805
854	Doussandouno	113	1:104,724
855	Djaoune	111	1:106,611
856	Kaloka	110	1:107,580
856	Niaïssa	110	1:107,580
858	Aribot	109	1:108,567
858	Bâ	109	1:108,567
860	Abou Sacko	107	1:110,596
860	Ben Bangoura	107	1:110,596
862	Diabi	106	1:111,640
862	Hawa	106	1:111,640
862	Konte	106	1:111,640
862	Tonguiano	106	1:111,640
866	Malemou	105	1:112,703
867	Maty	104	1:113,787
867	Simpogui	104	1:113,787
869	Fendouno	103	1:114,891
869	Molou	103	1:114,891
869	Nemotte	103	1:114,891
872	Farro	102	1:116,018
872	Onivagui	102	1:116,018
874	Abou Koulibaly	101	1:117,167
874	Agbogan	101	1:117,167
874	Aïcha	101	1:117,167
874	Balandou	101	1:117,167
874	Famako	101	1:117,167
874	Fissourou	101	1:117,167
874	Foussen	101	1:117,167
874	Gsp-Aeia	101	1:117,167
874	Haïdra	101	1:117,167
874	Kangama	101	1:117,167
874	Koelami	101	1:117,167
874	Koudouno	101	1:117,167
874	Koulibal	101	1:117,167
874	Kéîta	101	1:117,167
874	Loma	101	1:117,167
874	Millimounou	101	1:117,167
874	N'Gadjiko	101	1:117,167
874	Nafadjï	101	1:117,167
874	Nambiema	101	1:117,167
874	Nasser	101	1:117,167
874	Saladou	101	1:117,167
874	Sangre	101	1:117,167
874	Santara	101	1:117,167
874	Sinayogo	101	1:117,167
874	Tassy	101	1:117,167
899	Akanel	100	1:118,338
899	Baryy	100	1:118,338
899	Leman	100	1:118,338
902	Danfaca	99	1:119,534
902	Lee	99	1:119,534
902	Yattassaye	99	1:119,534
905	Bangora	96	1:123,269
905	Thomas	96	1:123,269
907	Abou Barry	95	1:124,566
907	Caamra	95	1:124,566
907	D	95	1:124,566
907	Dacosta	95	1:124,566
907	Fox	95	1:124,566
907	Somy	95	1:124,566
907	Tbien	95	1:124,566
914	Compere	94	1:125,892
914	Kpayanlou	94	1:125,892
914	N'Daw	94	1:125,892
914	Noumera	94	1:125,892
914	Tafory	94	1:125,892
914	Troentlin	94	1:125,892
914	Wright	94	1:125,892
921	Tandjigora	93	1:127,245
921	Tossou	93	1:127,245
923	Richard	92	1:128,628
923	Zegbelemou	92	1:128,628
925	Isamique	91	1:130,042
926	Hawil	90	1:131,487
927	Dioumande	88	1:134,475
927	Sam	88	1:134,475
927	Zomou	88	1:134,475
930	A	85	1:139,221
930	Keta	85	1:139,221
930	Sock	85	1:139,221
933	Ben Barry	84	1:140,879
933	Donghol	84	1:140,879
933	Jean	84	1:140,879
936	Diabaye	83	1:142,576
936	Kompo	83	1:142,576
938	Hilal	82	1:144,315
939	David	81	1:146,097
940	Barrry	79	1:149,795
940	Senghor	79	1:149,795
942	Turpin	77	1:153,686
943	Bourouno	76	1:155,708
944	Badougoula	75	1:157,784
944	Lucas	75	1:157,784
946	Dietlin	74	1:159,916
946	Dillo	74	1:159,916
948	Baldet	73	1:162,107
948	Diagne	73	1:162,107
948	Simankan	73	1:162,107
951	Awada	71	1:166,673
951	Camaara	71	1:166,673
951	Haouad	71	1:166,673
951	Paye	71	1:166,673
951	Plegne	71	1:166,673
951	Zayatte	71	1:166,673
957	Ibrahima	70	1:169,055
957	Kleit	70	1:169,055
957	Onipogui	70	1:169,055
960	Fawaz	69	1:171,505
961	Louah	68	1:174,027
962	Abou Soumah	67	1:176,624
962	Aidara	67	1:176,624
962	Fode	67	1:176,624
962	Houngbedji	67	1:176,624
962	Houssou	67	1:176,624
962	Landel	67	1:176,624
962	Lascar	67	1:176,624
962	Théa	67	1:176,624
962	Tounty	67	1:176,624
971	Bathily	66	1:179,300
971	Blelamou	66	1:179,300
971	Boullere	66	1:179,300
971	Galaxie	66	1:179,300
971	Ilandouno	66	1:179,300
971	Sadeck	66	1:179,300
971	Sangbaramou	66	1:179,300
971	Yassane	66	1:179,300
979	Salim	65	1:182,059
980	Ger	64	1:184,903
980	Koulybaly	64	1:184,903
982	Chaya	63	1:187,838
982	Mariko	63	1:187,838
984	Macos	62	1:190,868
984	Sanckon	62	1:190,868
984	Soyandouno	62	1:190,868
987	Daniel	61	1:193,997
987	Maïga	61	1:193,997
987	Mbaye	61	1:193,997
987	Tamadou	61	1:193,997
991	Ben Soumah	60	1:197,230
991	Koffi	60	1:197,230
991	Sagnoh	60	1:197,230
991	Tamboura	60	1:197,230
995	Fatty	59	1:200,573
996	Crespin	58	1:204,031
996	Diaye	58	1:204,031
996	Galema	58	1:204,031
996	Gandhi	58	1:204,031
996	Gbessia	58	1:204,031
996	Guindo	58	1:204,031
996	Kipe	58	1:204,031
996	La Barka	58	1:204,031