1	Charles	3,870	1:28
2	Joseph	2,807	1:39
3	Thomas	2,787	1:39
4	Williams	2,312	1:47
5	Alexander	2,255	1:48
6	Lewis	1,839	1:59
7	John	1,743	1:62
8	Phillip	1,660	1:65
9	Noel	1,638	1:66
10	Mitchell	1,558	1:70
11	Francis	1,456	1:75
12	George	1,310	1:83
13	James	1,165	1:93
14	Baptiste	1,138	1:95
15	Edwards	915	1:119
16	Peters	826	1:131
17	Paul	823	1:132
18	Sylvester	786	1:138
19	Roberts	758	1:143
20	Frederick	751	1:145
21	Jones	721	1:151
22	Alexis	716	1:152
23	Samuel	694	1:156
24	Antoine	691	1:157
25	Smith	667	1:163
26	Benjamin	609	1:178
27	Andrew	608	1:179
28	Felix	588	1:185
29	Henry	562	1:193
30	Calliste	556	1:195
31	Pierre	548	1:198
32	Julien	536	1:202
33	Bartholomew	533	1:204
34	Simon	528	1:206
35	Mark	527	1:206
36	Telesford	502	1:216
37	Modeste	475	1:228
38	Fletcher	461	1:235
39	Bernard	412	1:263
40	Andrews	388	1:280
41	Bain	384	1:283
42	Jeremiah	382	1:284
43	Duncan	378	1:287
44	Regis	371	1:293
44	St Louis	371	1:293
46	Douglas	370	1:293
47	Augustine	369	1:294
48	Frank	368	1:295
49	McDonald	366	1:297
50	Johnson	348	1:312
51	Brathwaite	347	1:313
52	Matthew	336	1:323
52	Nelson	336	1:323
54	Gilbert	335	1:324
55	Bowen	326	1:333
56	Ross	319	1:340
57	Morain	318	1:341
58	Wilson	317	1:342
59	Belfon	315	1:345
59	St Bernard	315	1:345
61	Fraser	313	1:347
62	Campbell	308	1:352
63	Isaac	304	1:357
64	David	303	1:358
65	Richards	294	1:369
66	Horsford	292	1:372
67	Griffith	281	1:386
68	Richardson	279	1:389
69	McQueen	276	1:393
69	Scott	276	1:393
71	Francois	272	1:399
72	Redhead	270	1:402
73	Bethel	267	1:406
74	Jeffrey	261	1:416
75	Clarke	257	1:422
76	Abraham	250	1:434
76	Daniel	250	1:434
78	Victor	249	1:436
79	Gibbs	247	1:439
80	McSween	243	1:447
80	Neckles	243	1:447
82	Lawrence	242	1:448
83	McIntosh	239	1:454
84	Lessey	235	1:462
84	Mason	235	1:462
86	Stewart	233	1:466
87	Collins	232	1:468
88	Pascal	230	1:472
89	Fortune	228	1:476
89	Moses	228	1:476
91	Lambert	225	1:482
92	Clement	222	1:489
93	Cox	221	1:491
94	Harris	220	1:493
94	Philip	220	1:493
96	Stafford	217	1:500
97	Ferguson	216	1:502
98	Cadore	214	1:507
99	Hosten	213	1:510
100	Philbert	212	1:512
101	Murray	211	1:514
102	Cato	210	1:517
102	Marshall	210	1:517
104	Stephen	209	1:519
105	Ettienne	203	1:535
105	Walker	203	1:535
107	Barry	202	1:537
108	Hillaire	200	1:543
109	Bubb	199	1:545
109	Hypolite	199	1:545
111	St John	197	1:551
112	Cyrus	192	1:565
112	Patrice	192	1:565
114	Greenidge	191	1:568
115	de Coteau	189	1:574
116	Romain	188	1:577
117	Grant	183	1:593
118	Langaigne	182	1:596
119	Munro	180	1:603
120	Sandy	179	1:606
121	Christopher	177	1:613
121	Coutain	177	1:613
121	Moore	177	1:613
124	Buckmire	176	1:617
125	Cummings	175	1:620
125	La Touche	175	1:620
125	Patrick	175	1:620
128	Toussaint	174	1:624
129	Stanislaus	172	1:631
130	Lett	171	1:635
131	Louison	170	1:638
132	Andall	169	1:642
132	Courtney	169	1:642
132	Rennie	169	1:642
132	Vincent	169	1:642
136	St Paul	167	1:650
137	Celestine	166	1:654
138	Mahon	164	1:662
139	Richard	163	1:666
140	Nicholas	162	1:670
140	Welsh	162	1:670
142	Fleming	161	1:674
142	Hagley	161	1:674
144	Beggs	160	1:678
145	Thompson	159	1:683
146	Hazzard	158	1:687
147	Gordon	157	1:691
147	Nedd	157	1:691
149	Bishop	155	1:700
150	Robert	153	1:709
151	Panchoo	150	1:724
152	Robertson	148	1:733
153	Smart	146	1:743
154	Bruno	143	1:759
154	Gittens	143	1:759
156	Purcell	142	1:764
157	Adams	140	1:775
157	Brown	140	1:775
157	Gabriel	140	1:775
157	Harford	140	1:775
161	McEwen	139	1:781
161	McIntyre	139	1:781
163	Licorish	137	1:792
164	de Roche	131	1:829
165	Paterson	130	1:835
166	Franklyn	124	1:875
167	Allard	123	1:882
167	Hall	123	1:882
169	Pope	121	1:897
170	Bailey	120	1:904
170	St Clair	120	1:904
172	Marcelle	119	1:912
173	Frame	117	1:928
174	Bridgeman	116	1:936
174	Dominique	116	1:936
174	Dowden	116	1:936
177	Steele	115	1:944
178	Bhola	114	1:952
178	Whiteman	114	1:952
180	Marrast	111	1:978
180	Wells	111	1:978
182	Albert	109	1:996
182	Bedeau	109	1:996
182	Farray	109	1:996
182	Morris	109	1:996
186	Britton	108	1:1,005
186	Gill	108	1:1,005
186	McLawrence	108	1:1,005
186	Newton	108	1:1,005
186	Taylor	108	1:1,005
191	Wellington	107	1:1,014
192	Braveboy	106	1:1,024
192	Donald	106	1:1,024
192	Rogers	106	1:1,024
195	Lalgie	105	1:1,034
196	Aberdeen	104	1:1,044
196	Langdon	104	1:1,044
198	Edgar	103	1:1,054
198	McKenzie	103	1:1,054
200	Penny	102	1:1,064
200	Walcott	102	1:1,064
202	Miller	101	1:1,075
203	Ashton	100	1:1,085
203	Davis	100	1:1,085
205	Blackman	99	1:1,096
205	Teka	99	1:1,096
205	Worme	99	1:1,096
208	Boatswain	98	1:1,108
208	Lendore	98	1:1,108
210	Brizan	97	1:1,119
210	Cornwall	97	1:1,119
210	King	97	1:1,119
210	Prince	97	1:1,119
214	Forrester	96	1:1,131
214	Garraway	96	1:1,131
214	Quashie	96	1:1,131
217	Clyne	95	1:1,142
218	Ambrose	93	1:1,167
218	Compton	93	1:1,167
218	Date	93	1:1,167
218	Gay	93	1:1,167
218	Hinds	93	1:1,167
218	Marryshow	93	1:1,167
218	Martin	93	1:1,167
218	Murrell	93	1:1,167
226	Ramdeen	91	1:1,193
226	Sanderson	91	1:1,193
228	Bonaparte	90	1:1,206
228	Pascall	90	1:1,206
228	Strachan	90	1:1,206
231	Caesar	89	1:1,219
232	Burke	88	1:1,233
232	Jerome	88	1:1,233
232	McMillan	88	1:1,233
235	Chetram	87	1:1,248
236	Mcmeo	86	1:1,262
236	Ollivierre	86	1:1,262
236	Young	86	1:1,262
239	Bascombe	85	1:1,277
239	McBurnie	85	1:1,277
239	Sylvan	85	1:1,277
242	Chitan	84	1:1,292
242	Niles	84	1:1,292
242	William	84	1:1,292
245	Cadoo	83	1:1,308
245	Jacob	83	1:1,308
247	Emmons	82	1:1,324
247	Flanders	82	1:1,324
247	Jules	82	1:1,324
247	Pilgrim	82	1:1,324
251	Haynes	81	1:1,340
251	Wickham	81	1:1,340
253	Cambridge	80	1:1,357
253	Edward	80	1:1,357
253	Harry	80	1:1,357
256	Parris	79	1:1,374
257	Holder	78	1:1,391
257	McFarlane	78	1:1,391
257	Sayers	78	1:1,391
260	Blair	77	1:1,410
260	Swan	77	1:1,410
262	Findley	76	1:1,428
262	Gooding	76	1:1,428
264	Alleyne	75	1:1,447
264	Perrotte	75	1:1,447
264	Stanisclaus	75	1:1,447
267	Cooper	74	1:1,467
267	Forsyth	74	1:1,467
267	Neptune	74	1:1,467
270	Hector	73	1:1,487
270	Patterson	73	1:1,487
272	Bristol	72	1:1,507
272	Dragon	72	1:1,507
272	Sampson	72	1:1,507
275	McLeod	71	1:1,529
276	Bullen	70	1:1,550
276	Caton	70	1:1,550
276	Dottin	70	1:1,550
276	Hopkin	70	1:1,550
280	Lord	69	1:1,573
280	Straker	69	1:1,573
282	Browne	68	1:1,596
282	Evans	68	1:1,596
282	Hamilton	68	1:1,596
282	Jack	68	1:1,596
282	Mapp	68	1:1,596
282	Robinson	68	1:1,596
288	Best	67	1:1,620
288	Millette	67	1:1,620
290	Archibald	66	1:1,644
290	Banfield	66	1:1,644
290	Collier	66	1:1,644
290	Francique	66	1:1,644
290	Hood	66	1:1,644
290	Jackson	66	1:1,644
290	Medford	66	1:1,644
297	Olive	65	1:1,670
297	Palmer	65	1:1,670
297	Parke	65	1:1,670
297	Raymond	65	1:1,670
297	Simeon	65	1:1,670
302	McQuilkin	64	1:1,696
302	Persue	64	1:1,696
302	Primus	64	1:1,696
302	Walters	64	1:1,696
306	Arnold	63	1:1,723
306	Burris	63	1:1,723
306	Cudjoe	63	1:1,723
306	McKie	63	1:1,723
306	Nyack	63	1:1,723
311	Cuffie	62	1:1,751
312	Gibson	61	1:1,779
312	Lyons	61	1:1,779
312	McGuire	61	1:1,779
312	McPhie	61	1:1,779
312	Narine	61	1:1,779
317	da Breo	60	1:1,809
317	Hyacinth	60	1:1,809
319	Church	59	1:1,840
319	de Gale	59	1:1,840
319	Ragbasingh	59	1:1,840
322	Dick	58	1:1,871
322	Logie	58	1:1,871
322	McGillivary	58	1:1,871
325	Bedassie	57	1:1,904
325	de Bellotte	57	1:1,904
325	Elahie	57	1:1,904
325	Holas	57	1:1,904
325	Matheson	57	1:1,904
325	Ogilvie	57	1:1,904
325	Prime	57	1:1,904
325	Reuben	57	1:1,904
325	Warren	57	1:1,904
334	Chase	56	1:1,938
335	Amada	55	1:1,973
335	Fleary	55	1:1,973
335	Fullerton	55	1:1,973
335	Graham	55	1:1,973
335	Mills	55	1:1,973
340	Aban	54	1:2,010
340	Herry	54	1:2,010
340	Simpson	54	1:2,010
340	Stroude	54	1:2,010
340	Tyson	54	1:2,010
345	Hutchinson	53	1:2,048
345	Japal	53	1:2,048
345	Raeburn	53	1:2,048
345	Seales	53	1:2,048
345	Wildman	53	1:2,048
350	Belgrave	52	1:2,087
350	Blake	52	1:2,087
350	Cumberbatch	52	1:2,087
350	Hamlet	52	1:2,087
350	Harriman	52	1:2,087
350	Knight	52	1:2,087
350	Mendes	52	1:2,087
350	Peterkin	52	1:2,087
358	Adonis	51	1:2,128
358	Davidson	51	1:2,128
358	Enoe	51	1:2,128
358	Mathlin	51	1:2,128
358	Pysadee	51	1:2,128
358	Snagg	51	1:2,128
364	Cobb	50	1:2,171
364	Dumont	50	1:2,171
364	Nimrod	50	1:2,171
364	Ranger	50	1:2,171
364	Rodney	50	1:2,171
364	Wilkinson	50	1:2,171
370	Bertrand	49	1:2,215
370	Greaves	49	1:2,215
370	Theodore	49	1:2,215
373	Agard	48	1:2,261
373	Augustus	48	1:2,261
373	Cadet	48	1:2,261
373	Elcock	48	1:2,261
373	Elias	48	1:2,261
373	Gellineau	48	1:2,261
373	Glean	48	1:2,261
373	Kirton	48	1:2,261
373	Phillips	48	1:2,261
373	Ventour	48	1:2,261
383	Chance	47	1:2,309
383	de Allie	47	1:2,309
383	Lashington	47	1:2,309
383	Tannis	47	1:2,309
383	Woodroffe	47	1:2,309
388	Aird	46	1:2,359
388	Belmar	46	1:2,359
388	Boca	46	1:2,359
388	Croney	46	1:2,359
388	Hannibal	46	1:2,359
388	Hercules	46	1:2,359
388	Houston	46	1:2,359
388	Narayan	46	1:2,359
388	Patel	46	1:2,359
388	Whint	46	1:2,359
398	Bell	45	1:2,412
398	Buddy	45	1:2,412
398	Cruickshank	45	1:2,412
398	Drakes	45	1:2,412
398	Flemming	45	1:2,412
398	Lucas	45	1:2,412
404	Ackie	44	1:2,467
404	Chasteau	44	1:2,467
404	Gidharry	44	1:2,467
404	Goddard	44	1:2,467
404	Hayes	44	1:2,467
404	Knights	44	1:2,467
404	Logan	44	1:2,467
404	Marecheau	44	1:2,467
404	Simmons	44	1:2,467
413	Dharangit	43	1:2,524
413	Forteau	43	1:2,524
413	Munroe	43	1:2,524
413	Sealey	43	1:2,524
413	Viechweg	43	1:2,524
418	Dickson	42	1:2,584
418	Edmund	42	1:2,584
418	Granger	42	1:2,584
418	Honore	42	1:2,584
418	Lalite	42	1:2,584
418	Maitland	42	1:2,584
418	Plenty	42	1:2,584
418	Radix	42	1:2,584
418	Rock	42	1:2,584
418	Stuart	42	1:2,584
428	Batson	41	1:2,647
428	Cameron	41	1:2,647
428	Clouden	41	1:2,647
428	Modoo	41	1:2,647
428	St Cyr	41	1:2,647
428	Thorne	41	1:2,647
434	Carter	40	1:2,713
434	Hunte	40	1:2,713
434	Nash	40	1:2,713
434	Reason	40	1:2,713
434	Sabazan	40	1:2,713
439	Alridge	39	1:2,783
439	Bolah	39	1:2,783
439	Budd	39	1:2,783
439	Checkley	39	1:2,783
439	Clarence	39	1:2,783
439	Creedland	39	1:2,783
439	Hackett	39	1:2,783
439	Haywood	39	1:2,783
439	Humphrey	39	1:2,783
439	Searles	39	1:2,783
439	Shade	39	1:2,783
450	Allen	38	1:2,856
450	Baker	38	1:2,856
450	Bennett	38	1:2,856
450	Blackette	38	1:2,856
450	Darbeau	38	1:2,856
450	English	38	1:2,856
450	Gilchrist	38	1:2,856
450	Lazarus	38	1:2,856
450	Levine	38	1:2,856
450	Ottley	38	1:2,856
450	Sam	38	1:2,856
461	Beharry	37	1:2,933
461	Benoit	37	1:2,933
461	Boney	37	1:2,933
461	Carmichael	37	1:2,933
461	Crosby	37	1:2,933
461	McLeish	37	1:2,933
461	Natoo	37	1:2,933
461	Noray	37	1:2,933
461	Ramsey	37	1:2,933
461	Renaud	37	1:2,933
471	Gulston	36	1:3,015
471	Guy	36	1:3,015
471	Passee	36	1:3,015
471	Pursue	36	1:3,015
471	Shears	36	1:3,015
471	St Hillaire	36	1:3,015
471	Tillock	36	1:3,015
471	Whyte	36	1:3,015
479	Amade	35	1:3,101
479	Bleasdille	35	1:3,101
479	Cape	35	1:3,101
479	Creft	35	1:3,101
479	Emery	35	1:3,101
479	Glasgow	35	1:3,101
479	Gunpot	35	1:3,101
479	Hastick	35	1:3,101
479	Rougier	35	1:3,101
479	Slinger	35	1:3,101
489	Anthony	34	1:3,192
489	Billy	34	1:3,192
489	Forde	34	1:3,192
489	Lalsee	34	1:3,192
489	Ledlow	34	1:3,192
489	Mapson	34	1:3,192
489	McPhail	34	1:3,192
489	Prosper	34	1:3,192
489	Roderique	34	1:3,192
489	Salfarlie	34	1:3,192
489	Wharwood	34	1:3,192
500	Amede	33	1:3,289
500	Austin	33	1:3,289
500	Briggs	33	1:3,289
500	Harvey	33	1:3,289
500	Maloney	33	1:3,289
500	Maturine	33	1:3,289
500	Otway	33	1:3,289
500	Pivotte	33	1:3,289
500	Stiell	33	1:3,289
500	Vesprey	33	1:3,289
500	Weekes	33	1:3,289
511	Adolphus	32	1:3,392
511	Gurley	32	1:3,392
511	Layne	32	1:3,392
511	McLean	32	1:3,392
511	Thornhill	32	1:3,392
516	Bernadine	31	1:3,501
516	Bhagwan	31	1:3,501
516	Cherman	31	1:3,501
516	Forbes	31	1:3,501
516	Jacobs	31	1:3,501
516	Morin	31	1:3,501
516	Oliver	31	1:3,501
516	Peter	31	1:3,501
524	Alfred	30	1:3,618
524	Collymore	30	1:3,618
524	Corion	30	1:3,618
524	Morgan	30	1:3,618
524	Nurse	30	1:3,618
524	Waldron	30	1:3,618
530	Anderson	29	1:3,743
530	Hankey	29	1:3,743
530	O'Neale	29	1:3,743
530	Plentie	29	1:3,743
530	Protain	29	1:3,743
530	Rubin	29	1:3,743
530	Rush	29	1:3,743
530	Sandiford	29	1:3,743
538	Crawford	28	1:3,876
538	Dubissette	28	1:3,876
538	Ganness	28	1:3,876
538	Harper	28	1:3,876
538	McFarlene	28	1:3,876
538	Ogiste	28	1:3,876
538	Perryman	28	1:3,876
538	Quamina	28	1:3,876
538	Richmond	28	1:3,876
538	Taitt	28	1:3,876
548	Crowe	27	1:4,020
548	Depradine	27	1:4,020
548	Downes	27	1:4,020
548	Doyle	27	1:4,020
548	Grainger	27	1:4,020
548	Grenade	27	1:4,020
548	Grey	27	1:4,020
548	Jolly	27	1:4,020
548	Lynch	27	1:4,020
548	Mathurine	27	1:4,020
548	Pitt	27	1:4,020
559	Barriteau	26	1:4,174
559	Belle	26	1:4,174
559	Farrier	26	1:4,174
559	Green	26	1:4,174
559	La Barrie	26	1:4,174
559	La mothe	26	1:4,174
559	Lee	26	1:4,174
559	Lindsay	26	1:4,174
559	McBain	26	1:4,174
559	Russell	26	1:4,174
559	Singh	26	1:4,174
559	Skeete	26	1:4,174
571	Booker	25	1:4,341
571	de Lisle	25	1:4,341
571	Dinnah	25	1:4,341
571	Gludd	25	1:4,341
571	Paryag	25	1:4,341
571	Superville	25	1:4,341
577	Callica	24	1:4,522
577	Clovey	24	1:4,522
577	de Gannes	24	1:4,522
577	Frazer	24	1:4,522
577	Gilkes	24	1:4,522
577	Greene	24	1:4,522
577	Ince	24	1:4,522
577	La Borde	24	1:4,522
577	Lang	24	1:4,522
577	Lowhar	24	1:4,522
577	Manwarring	24	1:4,522
577	Marquez	24	1:4,522
577	Renwick	24	1:4,522
577	Ruffin	24	1:4,522
577	Salim	24	1:4,522
577	Stephenson	24	1:4,522
577	Streete	24	1:4,522
577	Wyse	24	1:4,522
595	Ashby	23	1:4,719
595	Binda	23	1:4,719
595	Chiddick	23	1:4,719
595	Chitterman	23	1:4,719
595	Dufont	23	1:4,719
595	Fereira	23	1:4,719
595	Gentle	23	1:4,719
595	Henwood	23	1:4,719
595	Kingston	23	1:4,719
595	Martineau	23	1:4,719
595	Monteram	23	1:4,719
595	Perry	23	1:4,719
595	Sparks	23	1:4,719
595	Tobias	23	1:4,719
609	Coxall	22	1:4,933
609	Coy	22	1:4,933
609	Mungo	22	1:4,933
609	Polson	22	1:4,933
609	Radgman	22	1:4,933
609	Reubin	22	1:4,933
609	Sharpe	22	1:4,933
609	Solomon	22	1:4,933
617	Allert	21	1:5,168
617	Blackett	21	1:5,168
617	Castle	21	1:5,168
617	Derrick	21	1:5,168
617	Hayling	21	1:5,168
617	La Pompe	21	1:5,168
617	Lalitte	21	1:5,168
617	Matthews	21	1:5,168
617	Peterson	21	1:5,168
617	Watson	21	1:5,168
627	Commissiong	20	1:5,427
627	Copland	20	1:5,427
627	Dowe	20	1:5,427
627	Edgehill	20	1:5,427
627	St Hilaire	20	1:5,427
632	Bayne	19	1:5,712
632	Budhlall	19	1:5,712
632	Calder	19	1:5,712
632	Dixon	19	1:5,712
632	Dolland	19	1:5,712
632	Gairy	19	1:5,712
632	Grimes	19	1:5,712
632	Hassan	19	1:5,712
632	Heuton	19	1:5,712
632	Hurst	19	1:5,712
632	Jaffier	19	1:5,712
632	Jeffery	19	1:5,712
632	Leo	19	1:5,712
632	Livingston	19	1:5,712
632	McBarnette	19	1:5,712
632	Nixon	19	1:5,712
632	Payne	19	1:5,712
632	Price	19	1:5,712
632	Ray	19	1:5,712
632	Slocombe	19	1:5,712
632	Springle	19	1:5,712
632	Webster	19	1:5,712
654	Baisden	18	1:6,030
654	Berkeley	18	1:6,030
654	Canning	18	1:6,030
654	Cromwell	18	1:6,030
654	Darius	18	1:6,030
654	Foster	18	1:6,030
654	Friday	18	1:6,030
654	Gora	18	1:6,030
654	Houstone	18	1:6,030
654	Jaldoo	18	1:6,030
654	Lalgee	18	1:6,030
654	McNeilly	18	1:6,030
654	Minors	18	1:6,030
654	Nathaniel	18	1:6,030
654	Persaud	18	1:6,030
654	Powlette	18	1:6,030
654	Wall	18	1:6,030
671	Auld	17	1:6,384
671	Buxo	17	1:6,384
671	Connaught	17	1:6,384
671	Delfish	17	1:6,384
671	Dominic	17	1:6,384
671	Emmanuel	17	1:6,384
671	Lashley	17	1:6,384
671	Monah	17	1:6,384
671	Ratoo	17	1:6,384
671	Roseman	17	1:6,384
671	Springer	17	1:6,384
671	Wallace	17	1:6,384
683	Amarnani	16	1:6,783
683	Boyd	16	1:6,783
683	Byam	16	1:6,783
683	Byer	16	1:6,783
683	Cave	16	1:6,783
683	Chandler	16	1:6,783
683	Clarkson	16	1:6,783
683	Daly	16	1:6,783
683	Franklin	16	1:6,783
683	Garcia	16	1:6,783
683	Guadeloupe	16	1:6,783
683	Hadeed	16	1:6,783
683	Halley	16	1:6,783
683	Juerakhan	16	1:6,783
683	La Crette	16	1:6,783
683	La Qua	16	1:6,783
683	Linton	16	1:6,783
683	Macleish	16	1:6,783
683	McNeil	16	1:6,783
683	Nancoo	16	1:6,783
683	Nicholson	16	1:6,783
683	Pivott	16	1:6,783
683	Preudhomme	16	1:6,783
683	Punch	16	1:6,783
683	Rodd	16	1:6,783
683	Samerson	16	1:6,783
683	Williamson	16	1:6,783
683	Wiltshire	16	1:6,783
711	Barclay	15	1:7,236
711	Bissessar	15	1:7,236
711	Dopwell	15	1:7,236
711	Fisher	15	1:7,236
711	Hackette	15	1:7,236
711	Lorainey	15	1:7,236
711	Maxwell	15	1:7,236
711	Salhab	15	1:7,236
711	Sergeant	15	1:7,236
711	Stapleton	15	1:7,236
711	Sutton	15	1:7,236
722	Abel	14	1:7,752
722	Barrington	14	1:7,752
722	Blackburn	14	1:7,752
722	Braithwaite	14	1:7,752
722	Chateau	14	1:7,752
722	Criss	14	1:7,752
722	Garrett	14	1:7,752
722	Gomas	14	1:7,752
722	Goodings	14	1:7,752
722	Keens-Douglas	14	1:7,752
722	Lallion	14	1:7,752
722	Lander	14	1:7,752
722	Leacock	14	1:7,752
722	Mann	14	1:7,752
722	Maricheau	14	1:7,752
722	Maximay	14	1:7,752
722	Maynard	14	1:7,752
722	McVean	14	1:7,752
722	Norcisse	14	1:7,752
722	Quarless	14	1:7,752
722	Ragbersingh	14	1:7,752
722	Ramdhanny	14	1:7,752
722	Registe	14	1:7,752
722	Rodriguez	14	1:7,752
722	Scantlebury	14	1:7,752
722	Sinclair	14	1:7,752
722	Wade	14	1:7,752
722	Winsborrow	14	1:7,752
750	Baldeo	13	1:8,349
750	Batihk	13	1:8,349
750	Bobb	13	1:8,349
750	Boldeau	13	1:8,349
750	Bristow	13	1:8,349
750	Butler	13	1:8,349
750	Cenac	13	1:8,349
750	de Riggs	13	1:8,349
750	Du Bois	13	1:8,349
750	Finlay	13	1:8,349
750	Ganpot	13	1:8,349
750	Greasley	13	1:8,349
750	Herbert	13	1:8,349
750	Hilaire	13	1:8,349
750	Howell	13	1:8,349
750	Jackasal	13	1:8,349
750	Jessamy	13	1:8,349
750	McLaren	13	1:8,349
750	Moraine	13	1:8,349
750	Murrel	13	1:8,349
750	Nero	13	1:8,349
750	Ramdheen	13	1:8,349
750	Scoon	13	1:8,349
750	Sutherland	13	1:8,349
750	Swann	13	1:8,349
775	Baldeau	12	1:9,045
775	Borris	12	1:9,045
775	Branch	12	1:9,045
775	Coppin	12	1:9,045
775	de Freitas	12	1:9,045
775	Forte	12	1:9,045
775	Ghita	12	1:9,045
775	Guillaume	12	1:9,045
775	Harbin	12	1:9,045
775	Hughes	12	1:9,045
775	Japaul	12	1:9,045
775	Jasat	12	1:9,045
775	Karnani	12	1:9,045
775	Law	12	1:9,045
775	Lawerence	12	1:9,045
775	O'Neal	12	1:9,045
775	Parkes	12	1:9,045
775	Rahaman	12	1:9,045
775	Rapier	12	1:9,045
775	Saunders	12	1:9,045
775	Sawney	12	1:9,045
775	September	12	1:9,045
775	Shaikh	12	1:9,045
775	Sookram	12	1:9,045
775	Spair	12	1:9,045
775	Spencer	12	1:9,045
775	Stbernard	12	1:9,045
775	Stephens	12	1:9,045
775	Swapp	12	1:9,045
804	Akins	11	1:9,867
804	Auguste	11	1:9,867
804	Berrotte	11	1:9,867
804	Bhaiyat	11	1:9,867
804	Bibby	11	1:9,867
804	Brooks	11	1:9,867
804	Canhigh	11	1:9,867
804	Cayenne	11	1:9,867
804	Chedick	11	1:9,867
804	de Caul	11	1:9,867
804	Debellotte	11	1:9,867
804	Decoteau	11	1:9,867
804	Devenish	11	1:9,867
804	Devonish	11	1:9,867
804	Gaskin	11	1:9,867
804	Glaud	11	1:9,867
804	Hamid	11	1:9,867
804	Howard	11	1:9,867
804	La Guerre	11	1:9,867
804	Laldee	11	1:9,867
804	Lazare	11	1:9,867
804	Marriott	11	1:9,867
804	Noreiga	11	1:9,867
804	Padmore	11	1:9,867
804	Roach	11	1:9,867
804	Ruben	11	1:9,867
804	Sargeant	11	1:9,867
804	Tavinier	11	1:9,867
804	Victory	11	1:9,867
804	Wadi	11	1:9,867
804	Wharton	11	1:9,867
835	Blache	10	1:10,854
835	Charles-Fleming	10	1:10,854
835	Edwin	10	1:10,854
835	Ellis	10	1:10,854
835	Ferdinand	10	1:10,854
835	Fernandez	10	1:10,854
835	Gangadeen	10	1:10,854
835	Grappy	10	1:10,854
835	Gulley	10	1:10,854
835	Hitlall	10	1:10,854
835	Jogie	10	1:10,854
835	Kerr	10	1:10,854
835	Le Blanc	10	1:10,854
835	Leggard	10	1:10,854
835	Lennard	10	1:10,854
835	Lumpriss	10	1:10,854
835	Lusan	10	1:10,854
835	Mancini	10	1:10,854
835	Matherson	10	1:10,854
835	Mathura	10	1:10,854
835	Millet	10	1:10,854
835	Muller	10	1:10,854
835	Perez	10	1:10,854
835	Placid	10	1:10,854
835	Ramsee	10	1:10,854
835	Reece	10	1:10,854
835	Reid	10	1:10,854
835	St Ignac	10	1:10,854
835	Waltris	10	1:10,854
835	Woodruffe	10	1:10,854
865	Alves	9	1:12,059
865	Aquart	9	1:12,059
865	Babb	9	1:12,059
865	Beckles	9	1:12,059
865	Bierzynski	9	1:12,059
865	Carriman	9	1:12,059
865	Castillo	9	1:12,059
865	Chichester	9	1:12,059
865	Coldeira	9	1:12,059
865	Crayne	9	1:12,059
865	Dabreo	9	1:12,059
865	Drayton	9	1:12,059
865	Dublin	9	1:12,059
865	Etienne	9	1:12,059
865	Forshaw	9	1:12,059
865	Grell	9	1:12,059
865	Hallal	9	1:12,059
865	Hanney	9	1:12,059
865	Hazel	9	1:12,059
865	Holstein	9	1:12,059
865	Jessemy	9	1:12,059
865	Jordan	9	1:12,059
865	La Grenade	9	1:12,059
865	Marcell	9	1:12,059
865	Mereigh	9	1:12,059
865	Metika	9	1:12,059
865	Milkson	9	1:12,059
865	Myland	9	1:12,059
865	Oneal	9	1:12,059
865	Powell	9	1:12,059
865	Prescott	9	1:12,059
865	Pysadie	9	1:12,059
865	Rae	9	1:12,059
865	Rattoo	9	1:12,059
865	Rose	9	1:12,059
865	Seaforth	9	1:12,059
865	Seethal	9	1:12,059
865	Skinner	9	1:12,059
865	Small	9	1:12,059
865	Sodah	9	1:12,059
865	Tamar	9	1:12,059
865	Wilkie	9	1:12,059
865	Wright	9	1:12,059
908	Aziz	8	1:13,567
908	Bedassee	8	1:13,567
908	Boyke	8	1:13,567
908	Bynoe	8	1:13,567
908	Caine	8	1:13,567
908	Charles-Thomas	8	1:13,567
908	Charter	8	1:13,567
908	Coomansingh	8	1:13,567
908	Cronneit	8	1:13,567
908	Daysant	8	1:13,567
908	Duprey	8	1:13,567
908	Durrant	8	1:13,567
908	Forsythe	8	1:13,567
908	Francis-Thomas	8	1:13,567
908	Gannes	8	1:13,567
908	Gelliseau	8	1:13,567
908	Georges	8	1:13,567
908	Ghatt	8	1:13,567
908	Graneau	8	1:13,567
908	Gray	8	1:13,567
908	Greaux	8	1:13,567
908	Haemer	8	1:13,567
908	Hannibald	8	1:13,567
908	Hooper	8	1:13,567
908	Isaacs	8	1:13,567
908	Jardine	8	1:13,567
908	Jowahir	8	1:13,567
908	Lalsingh	8	1:13,567
908	Leid	8	1:13,567
908	Malcolm	8	1:13,567
908	Mends	8	1:13,567
908	Merryman	8	1:13,567
908	Messiah	8	1:13,567
908	Michael	8	1:13,567
908	Millar	8	1:13,567
908	Ramjohn	8	1:13,567
908	Shockness	8	1:13,567
908	Spann	8	1:13,567
908	Walter	8	1:13,567
908	Ward	8	1:13,567
908	Wardally	8	1:13,567
908	Xavier	8	1:13,567
950	Agostini	7	1:15,505
950	Alibachus	7	1:15,505
950	Allridge	7	1:15,505
950	Barie	7	1:15,505
950	Beswick	7	1:15,505
950	Chateram	7	1:15,505
950	Cherubin	7	1:15,505
950	Daryanani	7	1:15,505
950	Delves	7	1:15,505
950	Du Bissette	7	1:15,505
950	Dubisette	7	1:15,505
950	Eastman	7	1:15,505
950	FitzPatrick	7	1:15,505
950	Flavigny	7	1:15,505
950	Folkes	7	1:15,505
950	Glasson	7	1:15,505
950	Glud	7	1:15,505
950	Gresham	7	1:15,505
950	Guy-Renwick	7	1:15,505
950	Harrack	7	1:15,505
950	Harroo	7	1:15,505
950	Hoschtialek	7	1:15,505
950	Hosford	7	1:15,505
950	Huggins	7	1:15,505
950	Hunt	7	1:15,505
950	Jaffar	7	1:15,505
950	Jobe	7	1:15,505
950	La Geer	7	1:15,505
950	Louis-Obike	7	1:15,505
950	Magoo	7	1:15,505
950	Marine	7	1:15,505
950	Martinez	7	1:15,505
950	Mascoll	7	1:15,505
950	Menezes	7	1:15,505
950	Mignon	7	1:15,505
950	Murphy	7	1:15,505
950	Nahous	7	1:15,505
950	Naraine	7	1:15,505
950	Patino	7	1:15,505
950	Pollydore	7	1:15,505
950	Porter	7	1:15,505
950	Pryce	7	1:15,505
950	Ragguette	7	1:15,505
950	Ramnaryan	7	1:15,505
950	Silvester	7	1:15,505
950	Sleeman	7	1:15,505
950	Sugulam	7	1:15,505
950	Suralie	7	1:15,505
950	Tilbury	7	1:15,505
950	Twum-Barimah	7	1:15,505
950	Wayne	7	1:15,505
950	Worm	7	1:15,505
950	Zepherine	7	1:15,505