1	Lopez	739,865	1:22
2	Perez	441,699	1:36
3	Garcia	417,200	1:39
4	Hernandez	369,293	1:44
5	Morales	277,900	1:58
6	Ramirez	265,224	1:61
7	Gomez	264,833	1:61
8	Gonzalez	234,872	1:68
9	Martinez	208,787	1:77
10	Vasquez	191,996	1:84
11	Caal	159,531	1:101
12	Velasquez	154,332	1:104
13	de Leon	139,021	1:116
14	Ramos	134,721	1:119
15	Mendez	127,555	1:126
16	Rodriguez	118,899	1:135
17	Choc	109,908	1:146
18	Diaz	103,851	1:155
19	Reyes	102,725	1:157
20	Castillo	93,757	1:172
21	Cruz	93,409	1:172
22	Mejia	93,348	1:172
23	Aguilar	90,511	1:178
24	Coc	87,300	1:184
25	Juarez	86,406	1:186
26	Pop	85,662	1:188
27	Marroquin	83,090	1:194
28	Alvarado	82,597	1:195
29	Barrios	80,364	1:200
30	Alvarez	78,469	1:205
31	Escobar	77,580	1:207
32	Herrera	77,256	1:208
33	Ortiz	73,038	1:220
34	Chavez	72,004	1:223
35	Sanchez	71,702	1:224
36	Ordoñez	68,294	1:235
37	Chub	68,208	1:236
38	Estrada	67,257	1:239
39	Flores	63,462	1:253
40	Mendoza	63,320	1:254
41	Gutierrez	60,285	1:267
42	Guzman	60,214	1:267
43	Jimenez	60,055	1:268
44	Castro	59,870	1:269
45	Fuentes	57,613	1:279
46	Rivas	55,758	1:288
47	Cardona	55,741	1:289
48	Xol	54,291	1:296
49	Tiul	53,384	1:301
50	Ruiz	52,594	1:306
51	Pineda	52,314	1:307
52	Rivera	52,254	1:308
53	Mazariegos	51,940	1:310
54	Santos	50,435	1:319
55	Villatoro	49,697	1:324
56	Rodas	48,568	1:331
57	Calel	48,276	1:333
58	Orozco	47,670	1:337
59	Carrillo	45,789	1:351
60	Cucul	45,711	1:352
61	Miranda	45,648	1:352
62	Cifuentes	45,293	1:355
63	Ical	45,225	1:356
64	Torres	44,104	1:365
65	de La Cruz	43,220	1:372
66	Sandoval	40,498	1:397
67	Salazar	39,703	1:405
68	Rosales	39,660	1:406
69	Maldonado	39,626	1:406
70	Giron	39,587	1:406
71	Recinos	39,124	1:411
72	Ajanel	38,728	1:415
73	Palacios	38,219	1:421
74	Monroy	37,054	1:434
75	Osorio	36,481	1:441
76	Lemus	36,265	1:443
77	Monterroso	36,197	1:444
78	Orellana	36,193	1:444
79	Che	34,458	1:467
80	Merida	33,975	1:473
81	Alonzo	33,764	1:476
82	Guerra	33,388	1:482
83	Vicente	33,221	1:484
84	Cortez	33,026	1:487
85	Tzoc	32,982	1:488
86	Monzon	32,947	1:488
87	Samayoa	32,503	1:495
88	Contreras	32,336	1:497
89	Vargas	32,306	1:498
90	Paz	30,445	1:528
91	Ajpacaja	30,203	1:532
92	Muñoz	30,187	1:533
93	Calderon	30,087	1:535
94	Pelico	30,010	1:536
95	Baten	29,907	1:538
96	Argueta	29,744	1:541
97	Puac	29,708	1:541
98	Franco	29,524	1:545
99	Ochoa	29,424	1:547
100	Cac	29,370	1:548
101	Cabrera	28,554	1:563
102	Chen	28,161	1:571
103	Sapon	27,907	1:576
104	Chun	27,904	1:576
105	Soto	27,742	1:580
106	Cuz	27,355	1:588
107	Molina	26,862	1:599
108	Rojas	26,856	1:599
109	Mateo	26,332	1:611
110	Avila	26,190	1:614
111	Lima	25,241	1:637
112	Castellanos	25,167	1:639
113	Veliz	25,154	1:639
114	Barrera	24,941	1:645
115	Matias	24,623	1:653
116	Solis	24,595	1:654
117	Ventura	24,514	1:656
118	Sosa	24,494	1:657
119	Chacon	24,465	1:657
120	Moran	24,247	1:663
121	Figueroa	23,813	1:675
122	Cal	23,789	1:676
123	Oliva	23,653	1:680
124	Ico	23,452	1:686
125	de Paz	23,375	1:688
126	Macario	23,327	1:689
127	Bautista	22,777	1:706
128	Najera	22,628	1:711
129	Barillas	22,536	1:714
130	Lux	22,348	1:720
131	Chan	22,189	1:725
132	Godinez	21,995	1:731
133	Zacarias	21,829	1:737
134	Yat	21,646	1:743
135	Lucas	21,527	1:747
136	Salguero	21,486	1:749
137	Agustin	21,432	1:750
138	Leon	21,197	1:759
139	Cuc	20,996	1:766
140	Romero	20,809	1:773
141	Coy	20,249	1:794
142	Gonzales	19,962	1:806
143	Godoy	19,827	1:811
144	Suchite	18,971	1:848
145	Toc	18,894	1:851
146	Saquic	18,758	1:857
147	Barreno	18,709	1:860
148	Aldana	18,647	1:862
149	Maquin	18,431	1:873
150	Ixcoy	18,395	1:874
151	Cano	17,772	1:905
152	Ruano	17,747	1:906
153	Barrientos	17,650	1:911
154	Donis	17,464	1:921
155	Pacheco	17,452	1:922
156	Valdez	17,338	1:928
157	Ovalle	17,290	1:930
158	Galicia	17,085	1:941
159	Sacul	16,920	1:951
160	Solares	16,898	1:952
161	Catalan	16,882	1:953
162	Quib	16,796	1:958
163	Yax	16,783	1:958
164	Ajtun	16,748	1:960
165	Coyoy	16,517	1:974
166	Aguirre	16,502	1:975
167	del Cid	16,333	1:985
168	Santizo	16,210	1:992
169	Carrera	16,050	1:1,002
170	Quej	15,998	1:1,005
171	Valenzuela	15,979	1:1,006
172	Sagastume	15,940	1:1,009
173	Escalante	15,577	1:1,032
174	Batz	15,536	1:1,035
175	Xiloj	15,518	1:1,036
176	Davila	15,508	1:1,037
176	Galindo	15,508	1:1,037
176	Santiago	15,508	1:1,037
179	Tol	15,343	1:1,048
180	Castañeda	15,332	1:1,049
181	Baquiax	15,045	1:1,069
182	Guox	15,030	1:1,070
183	Cu	15,000	1:1,072
184	Tut	14,985	1:1,073
185	Quino	14,983	1:1,073
186	Cacao	14,906	1:1,079
187	Lem	14,767	1:1,089
188	Fajardo	14,646	1:1,098
189	Xo	14,607	1:1,101
190	Ortega	14,577	1:1,103
191	Coronado	14,513	1:1,108
192	Tubac	14,472	1:1,111
193	Gramajo	14,417	1:1,116
194	Yoc	14,408	1:1,116
195	Tec	14,379	1:1,118
196	Ba	14,343	1:1,121
197	Yaxcal	14,330	1:1,122
198	Camey	14,194	1:1,133
199	Macz	13,990	1:1,150
200	Morataya	13,987	1:1,150
201	Axpuac	13,986	1:1,150
202	Sales	13,907	1:1,156
203	Cho	13,854	1:1,161
204	Raymundo	13,846	1:1,162
205	Itzep	13,732	1:1,171
206	Bol	13,722	1:1,172
207	Duarte	13,692	1:1,175
208	Pascual	13,684	1:1,175
209	Panjoj	13,643	1:1,179
210	Rios	13,506	1:1,191
211	Reynoso	13,433	1:1,197
212	Mo	13,409	1:1,199
213	Guarchaj	13,388	1:1,201
214	Montenegro	13,245	1:1,214
215	Cuyuch	13,136	1:1,224
216	Arevalo	13,048	1:1,233
217	Ambrocio	12,974	1:1,240
218	Tambriz	12,960	1:1,241
219	Guarcas	12,944	1:1,242
220	Dominguez	12,935	1:1,243
221	Toj	12,925	1:1,244
222	Alfaro	12,804	1:1,256
223	Chilel	12,754	1:1,261
224	Muralles	12,725	1:1,264
225	Arias	12,708	1:1,266
226	Espinoza	12,687	1:1,268
227	Salvador	12,672	1:1,269
228	Chivalan	12,642	1:1,272
229	Paiz	12,610	1:1,275
230	Larios	12,546	1:1,282
231	Revolorio	12,510	1:1,286
232	Fernandez	12,486	1:1,288
233	Esquivel	12,440	1:1,293
234	Hidalgo	12,336	1:1,304
235	Xitumul	12,280	1:1,310
236	Caniz	12,245	1:1,313
237	Acabal	12,086	1:1,331
238	Roman	11,977	1:1,343
239	Corado	11,880	1:1,354
240	Quiñonez	11,804	1:1,362
241	Cordon	11,769	1:1,367
242	Lorenzo	11,640	1:1,382
243	Chajon	11,573	1:1,390
243	Tun	11,573	1:1,390
245	Paau	11,551	1:1,392
246	Sis	11,537	1:1,394
247	Paredes	11,500	1:1,398
248	Chumil	11,444	1:1,405
249	Solorzano	11,424	1:1,408
250	Us	11,398	1:1,411
251	Jeronimo	11,364	1:1,415
252	Chocoj	11,307	1:1,422
253	Tesucun	11,268	1:1,427
254	Elias	11,220	1:1,433
255	Bonilla	11,143	1:1,443
256	Melgar	11,127	1:1,445
257	Delgado	11,051	1:1,455
258	Tecu	11,022	1:1,459
259	Carreto	10,931	1:1,471
260	Arana	10,912	1:1,474
261	Casia	10,865	1:1,480
262	Pu	10,852	1:1,482
263	Aquino	10,843	1:1,483
264	Lobos	10,826	1:1,486
265	Acajabon	10,817	1:1,487
266	Mucu	10,756	1:1,495
267	Portillo	10,683	1:1,505
268	Navarro	10,680	1:1,506
269	Tax	10,617	1:1,515
270	Caba	10,607	1:1,516
271	Chinchilla	10,442	1:1,540
272	Aragon	10,403	1:1,546
273	Galvez	10,371	1:1,551
274	Batres	10,317	1:1,559
275	Bamaca	10,316	1:1,559
276	Enriquez	10,268	1:1,566
277	Sequen	10,129	1:1,588
278	Carias	10,127	1:1,588
279	Zepeda	10,011	1:1,606
280	Zapeta	9,884	1:1,627
281	Chamale	9,694	1:1,659
282	Joj	9,658	1:1,665
283	Arreaga	9,650	1:1,667
284	Blanco	9,649	1:1,667
285	Tomas	9,639	1:1,668
286	Suy	9,611	1:1,673
287	Palma	9,555	1:1,683
288	Moreno	9,546	1:1,685
289	Patzan	9,538	1:1,686
290	Cobon	9,524	1:1,689
291	Bran	9,485	1:1,696
292	Tobar	9,417	1:1,708
293	Ac	9,413	1:1,709
294	Leiva	9,332	1:1,723
295	Vega	9,325	1:1,725
296	Urizar	9,322	1:1,725
297	López	9,287	1:1,732
298	Bravo	9,258	1:1,737
299	Socoy	9,216	1:1,745
300	Noj	9,205	1:1,747
301	Canil	9,169	1:1,754
302	Sontay	9,080	1:1,771
303	Mijangos	9,038	1:1,779
304	Zamora	8,982	1:1,791
305	Guevara	8,931	1:1,801
306	Tum	8,844	1:1,818
307	Mayen	8,812	1:1,825
308	Lorenzana	8,719	1:1,845
309	Pirir	8,705	1:1,848
310	Lara	8,703	1:1,848
311	Socop	8,687	1:1,851
312	Peralta	8,679	1:1,853
313	Abac	8,610	1:1,868
314	Sac	8,609	1:1,868
315	Coj	8,524	1:1,887
316	Juc	8,519	1:1,888
317	Acevedo	8,517	1:1,888
318	Luna	8,452	1:1,903
319	Chaj	8,405	1:1,913
320	Tecun	8,345	1:1,927
321	Ixcot	8,339	1:1,929
322	Palencia	8,322	1:1,933
323	Calmo	8,291	1:1,940
324	Pablo	8,284	1:1,941
325	Pacay	8,220	1:1,957
326	Soc	8,175	1:1,967
327	Felix	8,156	1:1,972
328	Cohuoj	8,123	1:1,980
329	Peña	8,037	1:2,001
330	Tello	7,984	1:2,014
331	Carranza	7,978	1:2,016
332	García	7,951	1:2,023
333	Pretzantzin	7,935	1:2,027
334	Ayala	7,827	1:2,055
335	Tzaquitzal	7,818	1:2,057
336	Campos	7,774	1:2,069
337	Xon	7,770	1:2,070
338	Sazo	7,720	1:2,083
339	de La Rosa	7,679	1:2,094
339	Roldan	7,679	1:2,094
341	Manuel	7,672	1:2,096
342	Pérez	7,671	1:2,097
342	Yac	7,671	1:2,097
344	Coz	7,616	1:2,112
345	Santay	7,602	1:2,116
346	Martin	7,599	1:2,116
347	Chay	7,582	1:2,121
348	Chox	7,579	1:2,122
349	Sub	7,575	1:2,123
350	Morente	7,541	1:2,133
351	Arriola	7,534	1:2,135
352	Soyos	7,491	1:2,147
353	Clemente	7,481	1:2,150
354	Can	7,474	1:2,152
355	Archila	7,423	1:2,167
356	Trujillo	7,409	1:2,171
357	Colindres	7,373	1:2,181
358	Chiquin	7,342	1:2,191
359	Sinay	7,331	1:2,194
360	Villagran	7,322	1:2,196
361	Simaj	7,311	1:2,200
362	Montufar	7,287	1:2,207
363	Castañon	7,276	1:2,210
364	Melendez	7,275	1:2,211
365	Baltazar	7,271	1:2,212
366	Pinto	7,268	1:2,213
367	Toledo	7,263	1:2,214
368	Roblero	7,242	1:2,221
369	Gudiel	7,209	1:2,231
370	Barahona	7,193	1:2,236
371	Par	7,163	1:2,245
372	Mayorga	7,161	1:2,246
373	Asig	7,157	1:2,247
374	Tiu	7,144	1:2,251
375	Rabanales	7,111	1:2,262
376	Robles	7,085	1:2,270
377	Ichich	7,070	1:2,275
378	Lazaro	6,994	1:2,299
379	Menendez	6,976	1:2,305
380	Xicay	6,959	1:2,311
381	Segura	6,945	1:2,316
382	Cante	6,904	1:2,329
383	Julajuj	6,893	1:2,333
384	Tohom	6,885	1:2,336
385	Cosigua	6,870	1:2,341
386	Grave	6,855	1:2,346
387	Polanco	6,852	1:2,347
388	Marin	6,803	1:2,364
389	Alvizures	6,781	1:2,372
390	Pichola	6,756	1:2,381
391	Navas	6,755	1:2,381
391	Pixtun	6,755	1:2,381
393	Sierra	6,725	1:2,391
394	Churunel	6,713	1:2,396
395	Milian	6,692	1:2,403
396	Lajuj	6,641	1:2,422
397	Granados	6,627	1:2,427
398	Sagui	6,579	1:2,445
399	Pereira	6,572	1:2,447
400	Quiroa	6,518	1:2,467
401	Esteban	6,511	1:2,470
402	Funes	6,504	1:2,473
403	Medrano	6,500	1:2,474
404	Zacal	6,460	1:2,490
405	Oscal	6,452	1:2,493
406	Saloj	6,444	1:2,496
407	Tzul	6,441	1:2,497
408	Grijalva	6,440	1:2,497
409	Linares	6,387	1:2,518
410	Cos	6,373	1:2,524
411	Maaz	6,367	1:2,526
412	Cahuec	6,253	1:2,572
413	Tipaz	6,200	1:2,594
414	Roque	6,188	1:2,599
415	Laynez	6,186	1:2,600
416	Tux	6,179	1:2,603
417	Ajpop	6,166	1:2,608
418	Casasola	6,159	1:2,611
419	Quisquina	6,121	1:2,627
420	Aspuac	6,089	1:2,641
421	Loarca	6,033	1:2,666
422	Bocel	6,026	1:2,669
423	Ramírez	6,021	1:2,671
424	Tacam	5,999	1:2,681
425	Leal	5,956	1:2,700
426	Salic	5,951	1:2,703
427	Bac	5,948	1:2,704
428	Tzalam	5,899	1:2,726
429	Luis	5,841	1:2,753
430	Botzoc	5,797	1:2,774
431	Medina	5,796	1:2,775
431	Rustrian	5,796	1:2,775
433	Chayax	5,784	1:2,781
434	Och	5,778	1:2,783
435	Pana	5,756	1:2,794
436	Ax	5,744	1:2,800
437	Iboy	5,728	1:2,808
438	Ardon	5,727	1:2,808
439	Padilla	5,712	1:2,816
440	Suret	5,708	1:2,818
441	Villalta	5,695	1:2,824
442	Ixcayau	5,685	1:2,829
443	Domingo	5,682	1:2,830
444	Poou	5,681	1:2,831
445	Cajbon	5,680	1:2,831
446	Silva	5,669	1:2,837
447	Noriega	5,643	1:2,850
448	Nolasco	5,640	1:2,852
449	Garrido	5,627	1:2,858
450	Jolon	5,625	1:2,859
451	Quezada	5,613	1:2,865
452	Guarcax	5,606	1:2,869
453	Pol	5,594	1:2,875
454	Alarcon	5,587	1:2,879
455	Chiroy	5,581	1:2,882
456	Chanchavac	5,509	1:2,919
457	Serrano	5,494	1:2,927
458	Xona	5,485	1:2,932
459	Racancoj	5,484	1:2,933
460	Pastor	5,453	1:2,949
461	Cordero	5,449	1:2,951
462	Herrarte	5,431	1:2,961
463	Tecum	5,423	1:2,966
464	Cumes	5,422	1:2,966
465	Crisostomo	5,420	1:2,967
466	Villeda	5,412	1:2,972
467	Gaitan	5,410	1:2,973
467	Pan	5,410	1:2,973
469	Florian	5,321	1:3,022
470	Valle	5,295	1:3,037
471	Acal	5,278	1:3,047
472	Cordova	5,262	1:3,056
473	Chitic	5,246	1:3,066
474	Zuñiga	5,241	1:3,069
475	Felipe	5,237	1:3,071
475	Tzoy	5,237	1:3,071
477	Osoy	5,202	1:3,092
478	Choj	5,194	1:3,096
479	Suc	5,191	1:3,098
480	Avalos	5,185	1:3,102
481	Arriaga	5,172	1:3,110
482	Jorge	5,171	1:3,110
483	Tox	5,155	1:3,120
484	Urbina	5,129	1:3,136
485	Tzep	5,125	1:3,138
486	Oxlaj	5,123	1:3,139
487	Tay	5,118	1:3,142
488	Rafael	5,110	1:3,147
489	Cuin	5,104	1:3,151
490	Niz	5,102	1:3,152
491	Gil	5,088	1:3,161
492	Ajqui	5,073	1:3,170
493	Aceituno	5,052	1:3,183
494	Brito	5,047	1:3,187
495	Riquiac	5,021	1:3,203
496	Cholom	5,016	1:3,206
497	Ixpata	5,011	1:3,209
498	Tuy	4,994	1:3,220
499	Ucelo	4,962	1:3,241
500	Aju	4,958	1:3,244
501	Echeverria	4,945	1:3,252
502	Guillen	4,943	1:3,254
503	Montecinos	4,916	1:3,271
504	Orantes	4,909	1:3,276
505	Dubon	4,904	1:3,280
505	Rax	4,904	1:3,280
507	Escobedo	4,900	1:3,282
508	Cardenas	4,898	1:3,284
509	Xiquin	4,890	1:3,289
510	Xutuc	4,880	1:3,296
511	Citalan	4,878	1:3,297
512	Urias	4,864	1:3,306
513	Jacinto	4,843	1:3,321
514	Juracan	4,838	1:3,324
515	Marcos	4,805	1:3,347
516	Gualim	4,786	1:3,360
517	Moscoso	4,782	1:3,363
518	Interiano	4,780	1:3,365
519	Roca	4,774	1:3,369
520	Meza	4,767	1:3,374
521	Valiente	4,762	1:3,377
522	Quevedo	4,736	1:3,396
523	Saenz	4,727	1:3,402
524	Sarat	4,724	1:3,404
525	Gabriel	4,714	1:3,412
526	Menchu	4,711	1:3,414
527	Teni	4,709	1:3,415
528	Suntecun	4,699	1:3,423
529	Natareno	4,682	1:3,435
530	Sic	4,678	1:3,438
531	Mauricio	4,635	1:3,470
532	Sarceño	4,623	1:3,479
533	Canahui	4,582	1:3,510
534	Tziquin	4,581	1:3,511
535	Peinado	4,567	1:3,521
536	Ixim	4,563	1:3,525
537	Asicona	4,548	1:3,536
538	Xicara	4,516	1:3,561
539	Paniagua	4,492	1:3,580
540	Ambrosio	4,480	1:3,590
541	Col	4,462	1:3,604
542	Vásquez	4,431	1:3,630
543	Valladares	4,411	1:3,646
544	Colli	4,408	1:3,649
545	Juan	4,405	1:3,651
546	Mas	4,403	1:3,653
547	Cap	4,398	1:3,657
548	Sut	4,378	1:3,674
549	Quinteros	4,372	1:3,679
550	Guachiac	4,369	1:3,681
551	Pelaez	4,359	1:3,690
552	Acte	4,356	1:3,692
553	Canel	4,354	1:3,694
554	Culajay	4,349	1:3,698
555	Son	4,339	1:3,707
556	Xoy	4,338	1:3,707
557	Simon	4,337	1:3,708
558	del Valle	4,334	1:3,711
559	Claudio	4,325	1:3,719
560	Zelada	4,323	1:3,720
561	Ceballos	4,303	1:3,738
562	Yuman	4,276	1:3,761
563	Cuxum	4,271	1:3,766
564	Andres	4,267	1:3,769
565	Azurdia	4,244	1:3,790
566	Chocooj	4,233	1:3,799
566	Prado	4,233	1:3,799
568	Boch	4,226	1:3,806
569	Sucuqui	4,194	1:3,835
570	Lucero	4,177	1:3,850
571	del Aguila	4,175	1:3,852
572	Suruy	4,143	1:3,882
573	Solano	4,114	1:3,909
574	Andrade	4,101	1:3,922
575	Borrayo	4,095	1:3,927
576	Alva	4,088	1:3,934
577	Cotom	4,072	1:3,950
578	Chiche	4,071	1:3,951
579	Olivares	4,034	1:3,987
580	Gaspar	4,033	1:3,988
581	Isem	4,027	1:3,994
582	Gamboa	4,026	1:3,995
583	Zac	4,017	1:4,004
584	Sopon	4,008	1:4,013
585	Chicoj	3,994	1:4,027
586	Tepaz	3,993	1:4,028
587	Set	3,984	1:4,037
588	Jacobo	3,975	1:4,046
589	Ovando	3,971	1:4,050
590	Xep	3,970	1:4,051
591	Tiño	3,964	1:4,057
592	Saravia	3,944	1:4,078
593	Chavajay	3,935	1:4,087
594	Nix	3,917	1:4,106
595	Sical	3,885	1:4,140
596	Ismalej	3,880	1:4,145
597	Ixcotoyac	3,876	1:4,149
598	Tista	3,874	1:4,151
599	Laj	3,866	1:4,160
600	Gallardo	3,854	1:4,173
601	Colop	3,853	1:4,174
601	Xirum	3,853	1:4,174
603	Saquil	3,850	1:4,177
604	Atz	3,849	1:4,178
605	Tiniguar	3,848	1:4,179
606	Arriaza	3,843	1:4,185
607	Pec	3,842	1:4,186
608	Lastor	3,827	1:4,202
609	Ajcalon	3,824	1:4,206
610	Chacaj	3,814	1:4,217
611	Bolaños	3,802	1:4,230
612	Hun	3,797	1:4,236
613	Tzi	3,796	1:4,237
614	Francisco	3,795	1:4,238
615	Ic	3,793	1:4,240
616	Sotoj	3,792	1:4,241
617	Borja	3,789	1:4,245
618	Suar	3,787	1:4,247
619	Abaj	3,784	1:4,250
620	Yool	3,770	1:4,266
621	Chingo	3,753	1:4,285
622	Maas	3,752	1:4,286
623	Ibarra	3,718	1:4,326
624	Chuta	3,689	1:4,360
625	de Len	3,687	1:4,362
625	Velasco	3,687	1:4,362
627	Cajas	3,670	1:4,382
628	Sen	3,656	1:4,399
629	Sente	3,653	1:4,403
630	Pivaral	3,650	1:4,406
631	Altan	3,643	1:4,415
632	Raxon	3,634	1:4,426
633	Cux	3,617	1:4,446
634	Sucup	3,611	1:4,454
635	Cumez	3,590	1:4,480
636	Arango	3,581	1:4,491
637	Tian	3,575	1:4,499
638	Cuevas	3,561	1:4,516
639	Divas	3,559	1:4,519
640	Erazo	3,556	1:4,523
641	Hernández	3,550	1:4,530
642	Silvestre	3,547	1:4,534
643	Galeano	3,516	1:4,574
644	Jerez	3,509	1:4,583
645	Amador	3,502	1:4,592
646	Lares	3,497	1:4,599
647	Caceres	3,465	1:4,641
648	Dionicio	3,462	1:4,645
649	Garca	3,447	1:4,666
650	Moh	3,444	1:4,670
651	Bernal	3,436	1:4,681
651	Cha	3,436	1:4,681
653	Tizol	3,425	1:4,696
654	Buch	3,423	1:4,698
655	Chavarria	3,422	1:4,700
656	Parada	3,419	1:4,704
656	Sop	3,419	1:4,704
658	Damian	3,414	1:4,711
659	Sántos	3,397	1:4,734
660	Salay	3,391	1:4,743
661	Ixtos	3,376	1:4,764
662	Huit	3,371	1:4,771
662	Tahay	3,371	1:4,771
664	Sohom	3,364	1:4,781
665	Martínez	3,354	1:4,795
666	Benito	3,343	1:4,811
667	Arroyo	3,342	1:4,812
668	Cahuiche	3,328	1:4,833
669	Mancilla	3,321	1:4,843
670	Cetino	3,317	1:4,849
671	Xocoxic	3,315	1:4,851
672	Hernndez	3,302	1:4,871
673	Pinzon	3,299	1:4,875
674	Mansilla	3,293	1:4,884
675	Aguilon	3,286	1:4,894
676	Raxcaco	3,284	1:4,897
677	Carcamo	3,273	1:4,914
678	Vela	3,256	1:4,939
679	Cojoc	3,247	1:4,953
680	Armas	3,240	1:4,964
681	Ixchop	3,236	1:4,970
682	Beteta	3,235	1:4,971
683	Putul	3,234	1:4,973
684	Leonardo	3,231	1:4,978
685	Cayax	3,214	1:5,004
685	Sirin	3,214	1:5,004
687	Tzunux	3,188	1:5,045
688	Quijivix	3,185	1:5,050
689	Orrego	3,181	1:5,056
690	Cisneros	3,176	1:5,064
691	Porras	3,175	1:5,065
692	Benavente	3,173	1:5,069
693	Quiej	3,168	1:5,077
694	Machic	3,161	1:5,088
695	Izaguirre	3,158	1:5,093
696	Trigueros	3,157	1:5,094
697	Say	3,153	1:5,101
698	Cua	3,130	1:5,138
699	Cervantes	3,123	1:5,150
700	Matul	3,117	1:5,160
701	Cuellar	3,116	1:5,161
702	Dieguez	3,112	1:5,168
703	Tunche	3,111	1:5,170
704	Asencio	3,103	1:5,183
705	Caz	3,100	1:5,188
706	Pacajoj	3,092	1:5,201
707	Riz	3,083	1:5,217
708	Madrid	3,077	1:5,227
709	Cox	3,073	1:5,234
710	Chitay	3,055	1:5,264
711	Boror	3,045	1:5,282
712	Jacome	3,044	1:5,283
713	Muy	3,043	1:5,285
714	Inay	3,032	1:5,304
715	Chonay	3,031	1:5,306
716	Nufio	3,030	1:5,308
716	Yanes	3,030	1:5,308
718	Chuy	3,025	1:5,317
719	Tzib	3,024	1:5,318
720	Lainez	3,022	1:5,322
721	Tot	3,008	1:5,347
722	Ecom	2,992	1:5,375
723	de León	2,981	1:5,395
724	Equite	2,979	1:5,399
725	Pa	2,978	1:5,400
726	Aj	2,972	1:5,411
727	Chuc	2,964	1:5,426
728	Cor	2,960	1:5,433
729	Dardon	2,958	1:5,437
730	Calgua	2,952	1:5,448
731	Sacalxot	2,947	1:5,457
732	Ijom	2,942	1:5,467
733	Chojolan	2,937	1:5,476
733	Vitzil	2,937	1:5,476
735	Chopen	2,921	1:5,506
736	Ixmata	2,912	1:5,523
737	Alegria	2,898	1:5,550
738	Saput	2,896	1:5,553
739	Espino	2,894	1:5,557
740	Ibañez	2,891	1:5,563
741	Pedro	2,888	1:5,569
742	Najarro	2,886	1:5,573
743	Xoyon	2,885	1:5,575
744	Sipac	2,884	1:5,577
745	Folgar	2,874	1:5,596
746	Concua	2,870	1:5,604
747	España	2,860	1:5,623
748	Cabnal	2,852	1:5,639
748	Valey	2,852	1:5,639
750	Ubeda	2,846	1:5,651
751	Sipaque	2,844	1:5,655
752	Tzaj	2,842	1:5,659
753	Gualna	2,833	1:5,677
754	Grajeda	2,825	1:5,693
755	Algua	2,813	1:5,717
755	Bo	2,813	1:5,717
757	Cermeño	2,808	1:5,727
758	Coloch	2,805	1:5,734
758	Piox	2,805	1:5,734
760	Vanegas	2,804	1:5,736
761	Aroche	2,802	1:5,740
762	Mejicanos	2,795	1:5,754
763	Ujpan	2,789	1:5,766
764	Cholotio	2,787	1:5,771
765	Salvatierra	2,784	1:5,777
766	Guamuch	2,783	1:5,779
767	Luc	2,778	1:5,789
768	Saban	2,762	1:5,823
769	Beltran	2,757	1:5,833
770	Tojin	2,737	1:5,876
771	Mus	2,736	1:5,878
772	Cuy	2,729	1:5,893
773	Camo	2,726	1:5,900
774	Chocon	2,717	1:5,919
775	Matzar	2,711	1:5,932
776	Lastro	2,708	1:5,939
777	Ponce	2,707	1:5,941
778	Si	2,704	1:5,948
779	Pic	2,702	1:5,952
780	Villegas	2,701	1:5,954
781	Sicaja	2,699	1:5,959
782	Urrutia	2,697	1:5,963
783	Tzunun	2,694	1:5,970
784	Roquel	2,684	1:5,992
785	Díaz	2,683	1:5,994
785	Mis	2,683	1:5,994
787	Sanan	2,677	1:6,008
788	Quijano	2,675	1:6,012
789	Ascuc	2,669	1:6,026
790	Conoz	2,667	1:6,030
791	Galdamez	2,657	1:6,053
792	Cali	2,656	1:6,055
793	Navarijo	2,649	1:6,071
794	Conde	2,646	1:6,078
795	Arrecis	2,644	1:6,083
795	Temaj	2,644	1:6,083
797	Jax	2,641	1:6,090
798	Ajcal	2,639	1:6,094
798	Requena	2,639	1:6,094
800	Asturias	2,638	1:6,097
801	Cinto	2,637	1:6,099
802	Villanueva	2,636	1:6,101
803	Car	2,635	1:6,103
804	Chic	2,623	1:6,131
805	Siquic	2,614	1:6,153
806	Hub	2,606	1:6,171
807	Gamez	2,599	1:6,188
808	Perdomo	2,571	1:6,255
809	Gordillo	2,565	1:6,270
810	Caballeros	2,557	1:6,290
811	Capriel	2,554	1:6,297
812	Pilo	2,552	1:6,302
813	Turcios	2,551	1:6,304
814	Sil	2,550	1:6,307
815	Sajbin	2,545	1:6,319
816	Esquite	2,538	1:6,337
817	Panto	2,537	1:6,339
817	Saucedo	2,537	1:6,339
819	Quintana	2,522	1:6,377
820	Cahuex	2,513	1:6,400
821	Cojon	2,501	1:6,430
822	Munguia	2,499	1:6,436
823	Gualip	2,497	1:6,441
824	Raxtun	2,481	1:6,482
825	Cojom	2,478	1:6,490
825	Quieju	2,478	1:6,490
827	Sian	2,476	1:6,495
828	Mota	2,468	1:6,516
829	Satz	2,464	1:6,527
830	Cobo	2,450	1:6,564
830	Lopic	2,450	1:6,564
832	Tamup	2,449	1:6,567
832	Vidal	2,449	1:6,567
834	Cutzal	2,441	1:6,589
835	Perebal	2,438	1:6,597
836	Montes	2,435	1:6,605
837	Lindo	2,427	1:6,627
838	Coti	2,423	1:6,638
839	Tzampop	2,420	1:6,646
840	Cotiy	2,415	1:6,659
841	Cojtin	2,402	1:6,696
842	Teyul	2,398	1:6,707
843	Sum	2,397	1:6,709
844	Nimatuj	2,394	1:6,718
845	Sol	2,391	1:6,726
846	Vielman	2,389	1:6,732
847	Poncio	2,386	1:6,740
848	Gue	2,384	1:6,746
849	Tuiz	2,378	1:6,763
850	Guitz	2,372	1:6,780
851	Ixbalan	2,366	1:6,797
852	Sican	2,361	1:6,812
853	Joachin	2,358	1:6,820
854	Chang	2,349	1:6,847
855	Iquique	2,348	1:6,850
856	Anay	2,341	1:6,870
856	Posadas	2,341	1:6,870
858	Cana	2,340	1:6,873
859	Miculax	2,337	1:6,882
860	Esquit	2,332	1:6,897
861	Camposeco	2,324	1:6,920
862	Guerrero	2,321	1:6,929
863	Tiriquiz	2,320	1:6,932
864	Sicajau	2,313	1:6,953
865	Cardoza	2,312	1:6,956
866	Chavac	2,311	1:6,959
867	Boj	2,307	1:6,971
868	Ixcol	2,305	1:6,977
869	Poroj	2,304	1:6,980
870	Quim	2,303	1:6,983
871	Rosal	2,294	1:7,011
872	Burgos	2,292	1:7,017
873	Subuyuc	2,289	1:7,026
874	Queme	2,287	1:7,032
875	Sutuc	2,286	1:7,035
876	Castrillo	2,283	1:7,045
876	Catun	2,283	1:7,045
878	Gatica	2,282	1:7,048
879	Amperez	2,278	1:7,060
880	Matom	2,276	1:7,066
881	Diego	2,268	1:7,091
882	Estacuy	2,264	1:7,104
882	Pajarito	2,264	1:7,104
884	Sinaj	2,252	1:7,142
885	Tzaput	2,247	1:7,157
886	Sumale	2,240	1:7,180
887	Higueros	2,229	1:7,215
888	Chiyal	2,228	1:7,218
889	Hurtado	2,225	1:7,228
890	Xocol	2,220	1:7,244
891	Sanic	2,217	1:7,254
892	Monge	2,214	1:7,264
892	Sacrapal	2,214	1:7,264
894	Pac	2,213	1:7,267
895	Co	2,210	1:7,277
896	Letona	2,209	1:7,281
897	Xante	2,207	1:7,287
898	Suyuc	2,206	1:7,290
899	Tzay	2,205	1:7,294
900	Montejo	2,202	1:7,304
901	Tavico	2,199	1:7,314
902	Lic	2,195	1:7,327
903	Ralda	2,193	1:7,334
904	Calachij	2,192	1:7,337
905	Ruch	2,189	1:7,347
906	Acan	2,188	1:7,350
906	Osório	2,188	1:7,350
908	Xuc	2,185	1:7,360
909	Castaeda	2,182	1:7,371
910	Bay	2,180	1:7,377
911	Illescas	2,171	1:7,408
912	Coroy	2,170	1:7,411
913	Elel	2,169	1:7,415
914	Quich	2,168	1:7,418
915	Oroxom	2,167	1:7,422
916	Jop	2,166	1:7,425
917	Tzir	2,165	1:7,428
918	Tul	2,162	1:7,439
919	Mata	2,152	1:7,473
920	Cristales	2,151	1:7,477
921	Alonso	2,149	1:7,484
922	Oj	2,147	1:7,491
923	Mendizabal	2,142	1:7,508
923	Soberanis	2,142	1:7,508
925	Terraza	2,140	1:7,515
926	Benitez	2,129	1:7,554
927	Ixtuc	2,123	1:7,575
928	Anton	2,117	1:7,597
929	Gregorio	2,110	1:7,622
929	Tebalan	2,110	1:7,622
931	Cun	2,107	1:7,633
932	Cipriano	2,106	1:7,637
933	Machan	2,104	1:7,644
934	Sulugui	2,102	1:7,651
935	Hu	2,101	1:7,655
936	Cao	2,099	1:7,662
937	Soliz	2,096	1:7,673
938	Axpuaca	2,093	1:7,684
939	Guit	2,090	1:7,695
940	Chon	2,089	1:7,699
941	Ajuchan	2,088	1:7,702
942	Celada	2,083	1:7,721
943	Yol	2,077	1:7,743
944	Gonon	2,075	1:7,751
944	Saqui	2,075	1:7,751
946	Gómez	2,074	1:7,754
947	Jimon	2,072	1:7,762
948	Acuta	2,070	1:7,769
949	Tahuico	2,068	1:7,777
950	Saz	2,065	1:7,788
951	Camaja	2,062	1:7,800
951	Velásquez	2,062	1:7,800
953	Quintanilla	2,055	1:7,826
953	Xoquic	2,055	1:7,826
955	Motta	2,046	1:7,861
956	Yucute	2,040	1:7,884
957	de La Roca	2,039	1:7,888
958	Zabaleta	2,035	1:7,903
959	Tepen	2,033	1:7,911
960	Ceron	2,031	1:7,919
961	Hilario	2,025	1:7,942
962	Sutuj	2,014	1:7,985
963	Salala	2,008	1:8,009
964	Taracena	2,003	1:8,029
965	de Rosa	1,999	1:8,045
966	Lutin	1,998	1:8,049
967	Loaiza	1,997	1:8,053
968	Angel	1,994	1:8,066
969	Tic	1,992	1:8,074
970	Batzin	1,990	1:8,082
971	Ichaj	1,983	1:8,110
972	Camacho	1,963	1:8,193
973	Gallego	1,958	1:8,214
974	Xum	1,951	1:8,243
975	Chali	1,950	1:8,248
976	Ixquiactap	1,947	1:8,260
977	González	1,942	1:8,281
978	Betancourth	1,938	1:8,299
979	Con	1,930	1:8,333
980	Poz	1,927	1:8,346
980	Soloman	1,927	1:8,346
982	Tomin	1,920	1:8,376
983	Zuleta	1,917	1:8,389
984	Quiche	1,910	1:8,420
985	Peñate	1,909	1:8,425
986	Aparicio	1,906	1:8,438
986	Berduo	1,906	1:8,438
988	Obando	1,905	1:8,442
989	Catu	1,904	1:8,447
990	Laynes	1,902	1:8,456
991	Anleu	1,897	1:8,478
992	Tistoj	1,892	1:8,500
993	Muyuz	1,884	1:8,536
994	Quinilla	1,880	1:8,555
995	Zapata	1,873	1:8,587
996	Tem	1,871	1:8,596
997	Reyna	1,870	1:8,600
998	Torrez	1,868	1:8,610
999	Tziboy	1,865	1:8,623
1000	Picon	1,859	1:8,651