1	Persaud	21,855	1:35
2	Singh	20,153	1:38
3	Williams	10,894	1:70
4	Khan	7,462	1:102
5	Thomas	5,803	1:131
6	Joseph	5,184	1:147
7	Henry	4,567	1:167
8	James	4,467	1:171
9	Mohamed	4,328	1:176
10	Smith	3,861	1:197
11	Wilson	3,522	1:216
12	Daniels	3,463	1:220
13	Fraser	3,370	1:226
14	Peters	3,357	1:227
15	Narine	3,302	1:231
16	George	3,211	1:237
17	Benjamin	3,204	1:238
18	Lewis	3,160	1:241
19	Johnson	3,129	1:244
20	John	3,116	1:245
21	Adams	3,030	1:252
22	Bacchus	2,900	1:263
23	Ali	2,893	1:263
24	Edwards	2,823	1:270
25	Roberts	2,764	1:276
26	Charles	2,568	1:297
27	Jones	2,264	1:337
28	Griffith	2,236	1:341
29	Rampersaud	2,223	1:343
30	Paul	2,175	1:350
31	David	2,174	1:351
32	King	2,152	1:354
33	Simon	2,036	1:374
34	Lall	2,000	1:381
35	Samaroo	1,957	1:389
36	Ally	1,905	1:400
37	Clarke	1,839	1:414
38	Fredericks	1,838	1:415
39	Rodrigues	1,788	1:426
40	Abrams	1,768	1:431
41	Campbell	1,767	1:431
42	Harris	1,723	1:442
43	Francis	1,715	1:444
44	Moore	1,698	1:449
45	Alli	1,690	1:451
46	Ramnarine	1,594	1:478
47	Mohabir	1,584	1:481
48	Baksh	1,574	1:484
49	Grant	1,541	1:495
50	Thompson	1,521	1:501
51	Samuels	1,481	1:515
52	Austin	1,477	1:516
53	Phillips	1,414	1:539
54	Gomes	1,401	1:544
55	Richards	1,387	1:550
56	Browne	1,311	1:581
57	Jacobs	1,308	1:583
58	Mohan	1,300	1:586
59	Mahadeo	1,299	1:587
60	Gordon	1,284	1:594
61	Prince	1,254	1:608
62	Douglas	1,251	1:609
63	Hussain	1,249	1:610
64	Isaacs	1,228	1:621
65	Harry	1,213	1:628
66	Ross	1,209	1:630
67	Semple	1,196	1:637
68	Benn	1,176	1:648
69	Blair	1,165	1:654
70	Kissoon	1,158	1:658
71	Basdeo	1,157	1:659
72	McKenzie	1,141	1:668
73	Alexander	1,140	1:669
74	Moses	1,138	1:670
75	Mangal	1,137	1:670
76	Ram	1,134	1:672
77	Gonsalves	1,125	1:678
78	McDonald	1,103	1:691
79	Cummings	1,102	1:692
80	Garraway	1,086	1:702
81	Marks	1,074	1:710
82	Alleyne	1,072	1:711
83	Forde	1,069	1:713
84	Anderson	1,068	1:714
85	Fernandes	1,057	1:721
85	Hinds	1,057	1:721
87	Allen	1,054	1:723
88	Sampson	1,050	1:726
89	Duncan	1,038	1:734
89	Melville	1,038	1:734
91	Latchman	1,035	1:736
92	Holder	1,023	1:745
93	Andrews	1,020	1:747
94	France	1,017	1:749
95	Nelson	1,014	1:752
96	Murray	1,008	1:756
97	Deonarine	1,003	1:760
98	Ramnauth	999	1:763
99	Glasgow	987	1:772
100	McPherson	983	1:775
101	Haynes	965	1:790
102	Prashad	955	1:798
103	Allicock	951	1:801
104	Seepersaud	941	1:810
105	Gobin	940	1:811
106	Naraine	935	1:815
107	Stephen	933	1:817
108	Davis	924	1:825
109	Boodhoo	903	1:844
109	Sookram	903	1:844
111	Rodney	889	1:857
112	Albert	877	1:869
113	Dhanraj	874	1:872
114	Greene	872	1:874
115	Barker	860	1:886
115	Bobb	860	1:886
117	Cameron	852	1:895
118	Scott	849	1:898
119	da Silva	847	1:900
120	Ramkissoon	844	1:903
121	Solomon	841	1:906
122	Sukhu	838	1:910
123	Sukhdeo	837	1:911
124	Roopnarine	831	1:917
125	Marshall	830	1:918
125	Nurse	830	1:918
125	Sookdeo	830	1:918
128	Budhram	822	1:927
129	Alfred	821	1:928
130	Arjune	817	1:933
131	Ramlall	810	1:941
132	Ramcharran	808	1:943
133	Sugrim	803	1:949
134	Archer	801	1:952
134	Jordan	801	1:952
136	Anthony	800	1:953
136	Sahadeo	800	1:953
138	Collins	798	1:955
139	Morris	794	1:960
140	Haniff	793	1:961
141	Rose	786	1:970
142	Sankar	785	1:971
143	Halley	778	1:980
144	Jeffrey	772	1:987
144	Sam	772	1:987
146	Caesar	767	1:994
147	Budhu	766	1:995
147	La Rose	766	1:995
149	Hamilton	765	1:996
150	Braithwaite	762	1:1,000
151	Balram	744	1:1,024
152	Narain	738	1:1,033
153	Martin	737	1:1,034
154	Robinson	736	1:1,036
154	Stewart	736	1:1,036
156	Hope	735	1:1,037
157	Kumar	729	1:1,046
157	Ramotar	729	1:1,046
157	Trotman	729	1:1,046
160	Robertson	727	1:1,048
161	Evans	724	1:1,053
162	Layne	718	1:1,062
163	Atkinson	715	1:1,066
163	Beharry	715	1:1,066
165	Pooran	710	1:1,074
166	Richmond	705	1:1,081
167	Thom	702	1:1,086
168	Reid	696	1:1,095
169	Crawford	692	1:1,101
170	Munroe	690	1:1,105
171	Gibson	685	1:1,113
172	Doodnauth	682	1:1,118
173	Rahaman	681	1:1,119
174	Ramroop	666	1:1,144
175	Mendonca	665	1:1,146
176	Patterson	664	1:1,148
177	Cornelius	662	1:1,151
178	Mangra	661	1:1,153
179	Ganesh	658	1:1,158
180	Nedd	653	1:1,167
181	Rogers	652	1:1,169
182	Balgobin	649	1:1,174
182	Wong	649	1:1,174
184	Baldeo	647	1:1,178
185	de Freitas	645	1:1,182
186	Bernard	639	1:1,193
187	Baird	637	1:1,197
187	Parris	637	1:1,197
187	Small	637	1:1,197
190	Frank	636	1:1,198
191	Arthur	633	1:1,204
192	Carter	631	1:1,208
193	Mitchell	630	1:1,210
194	Stephens	629	1:1,212
195	Bhagwandin	628	1:1,214
196	Hendricks	626	1:1,218
197	Spencer	622	1:1,225
197	Welcome	622	1:1,225
199	London	611	1:1,247
200	Sandy	610	1:1,250
201	Cort	608	1:1,254
202	Lawrence	606	1:1,258
202	Mangru	606	1:1,258
204	Inniss	603	1:1,264
204	Leitch	603	1:1,264
204	Taylor	603	1:1,264
207	Jackson	598	1:1,275
208	Gill	596	1:1,279
209	Walcott	593	1:1,285
210	Aaron	592	1:1,288
211	Hunte	591	1:1,290
211	Seeram	591	1:1,290
213	Jairam	590	1:1,292
214	Matthews	587	1:1,299
215	Bristol	586	1:1,301
216	Boodram	579	1:1,316
216	Rambarran	579	1:1,316
218	Domingo	577	1:1,321
219	Fordyce	573	1:1,330
220	Bourne	569	1:1,340
221	Gopaul	567	1:1,344
222	Hamid	566	1:1,347
223	Azeez	565	1:1,349
223	Burnett	565	1:1,349
223	Watson	565	1:1,349
226	Prasad	561	1:1,359
226	Ramnarain	561	1:1,359
228	Sinclair	560	1:1,361
229	Abraham	559	1:1,364
229	Hernandez	559	1:1,364
231	Hopkinson	558	1:1,366
231	Seecharran	558	1:1,366
233	Bissoon	550	1:1,386
234	Hercules	548	1:1,391
235	Blackman	546	1:1,396
236	Etwaroo	544	1:1,401
237	Sawh	543	1:1,404
238	Chan	542	1:1,406
239	Lynch	540	1:1,412
239	Sooklall	540	1:1,412
241	Chung	537	1:1,419
241	Liverpool	537	1:1,419
243	Emanuel	536	1:1,422
244	Hutson	534	1:1,427
245	Amsterdam	527	1:1,446
245	Cox	527	1:1,446
247	de Souza	526	1:1,449
247	Sukhram	526	1:1,449
249	Gittens	524	1:1,455
249	Khemraj	524	1:1,455
251	Balkaran	522	1:1,460
252	Ramdeen	521	1:1,463
253	Mingo	520	1:1,466
254	Shepherd	518	1:1,471
254	Simpson	518	1:1,471
256	Andrew	516	1:1,477
257	Gray	515	1:1,480
257	Miller	515	1:1,480
259	Shaw	512	1:1,489
260	Primo	511	1:1,492
261	Sealey	510	1:1,495
262	Jagdeo	509	1:1,497
263	Bowen	508	1:1,500
264	Pollard	504	1:1,512
265	Somwaru	503	1:1,515
266	Felix	500	1:1,524
267	Jaikaran	499	1:1,527
268	Boston	494	1:1,543
269	Brown	493	1:1,546
270	Reynolds	492	1:1,549
271	Smartt	490	1:1,556
272	Dass	489	1:1,559
272	McLean	489	1:1,559
274	Whyte	487	1:1,565
275	Duke	485	1:1,572
276	Torres	484	1:1,575
277	Mangar	483	1:1,578
278	Hassan	482	1:1,581
279	Bennett	479	1:1,591
280	Garnett	477	1:1,598
280	Jagmohan	477	1:1,598
280	Skeete	477	1:1,598
280	Waldron	477	1:1,598
284	Ramlochan	476	1:1,601
285	Rahim	475	1:1,605
286	Ferreira	473	1:1,611
287	Edwin	472	1:1,615
288	Beaton	471	1:1,618
288	Crandon	471	1:1,618
290	Carmichael	470	1:1,622
291	Ramdass	465	1:1,639
292	Beckles	464	1:1,643
293	Kanhai	463	1:1,646
294	Outar	462	1:1,650
295	Chapman	460	1:1,657
295	Lowe	460	1:1,657
297	Wills	457	1:1,668
298	Hall	456	1:1,672
298	Nicholson	456	1:1,672
300	Bisnauth	455	1:1,675
301	Nauth	449	1:1,698
302	Thornhill	448	1:1,701
303	Bhola	447	1:1,705
304	Park	446	1:1,709
305	Payne	445	1:1,713
306	Morrison	444	1:1,717
307	Headley	442	1:1,724
308	Morgan	440	1:1,732
308	Ramsaroop	440	1:1,732
310	Dundas	439	1:1,736
311	Bess	437	1:1,744
312	Dyal	432	1:1,764
313	Chester	431	1:1,768
313	Ramlakhan	431	1:1,768
315	Boyce	430	1:1,773
316	Chase	428	1:1,781
317	Sharma	425	1:1,793
318	Ragnauth	424	1:1,798
318	Ramsammy	424	1:1,798
320	Budhoo	423	1:1,802
321	Trim	421	1:1,811
322	Chetram	420	1:1,815
322	Welch	420	1:1,815
324	English	417	1:1,828
325	Alphonso	416	1:1,832
325	Ward	416	1:1,832
327	Ramdat	414	1:1,841
327	Xavier	414	1:1,841
329	Razack	413	1:1,846
330	Cumberbatch	411	1:1,855
330	Mentore	411	1:1,855
332	Kendall	410	1:1,859
332	Saul	410	1:1,859
334	Noble	407	1:1,873
335	Agard	403	1:1,891
335	Fiedtkou	403	1:1,891
335	Norton	403	1:1,891
338	Bovell	402	1:1,896
338	Deodat	402	1:1,896
340	Richardson	401	1:1,901
341	Ramjit	400	1:1,906
341	Totaram	400	1:1,906
343	Sanichar	398	1:1,915
344	Sattaur	396	1:1,925
345	Bailey	395	1:1,930
346	Baptiste	394	1:1,935
346	Davidson	394	1:1,935
346	Gouveia	394	1:1,935
346	Stoll	394	1:1,935
350	Bahadur	393	1:1,939
351	Jack	390	1:1,954
352	Permaul	388	1:1,964
353	Washington	385	1:1,980
354	Bharat	384	1:1,985
354	Luke	384	1:1,985
356	Goberdhan	382	1:1,995
356	Pearson	382	1:1,995
358	Cadogan	380	1:2,006
358	Dey	380	1:2,006
360	Bascom	378	1:2,016
360	Perreira	378	1:2,016
362	Sears	377	1:2,022
363	La Cruz	376	1:2,027
363	Rajkumar	376	1:2,027
365	Ramsarran	375	1:2,033
366	Jaundoo	374	1:2,038
366	Tappin	374	1:2,038
368	Itwaru	373	1:2,043
369	Osborne	371	1:2,055
370	Belle	368	1:2,071
371	Nandalall	366	1:2,083
372	Craig	365	1:2,088
372	Kingston	365	1:2,088
372	Miguel	365	1:2,088
375	Ramrattan	364	1:2,094
376	Ramcharan	363	1:2,100
377	Giddings	360	1:2,117
377	Greaves	360	1:2,117
377	Lyte	360	1:2,117
380	Callender	359	1:2,123
380	Parasram	359	1:2,123
382	Karim	358	1:2,129
383	Christian	357	1:2,135
384	Sobers	356	1:2,141
385	Amin	355	1:2,147
385	Vieira	355	1:2,147
387	Hughes	354	1:2,153
388	Ashby	353	1:2,159
388	Mahabir	353	1:2,159
388	Pereira	353	1:2,159
391	Higgins	350	1:2,178
391	Puran	350	1:2,178
393	Bagot	349	1:2,184
393	Gravesande	349	1:2,184
393	Winter	349	1:2,184
396	Yearwood	348	1:2,190
397	Andries	347	1:2,197
397	Britton	347	1:2,197
399	Bowman	345	1:2,209
400	Reece	344	1:2,216
400	Younge	344	1:2,216
402	Hansraj	343	1:2,222
402	Hodge	343	1:2,222
402	Scipio	343	1:2,222
405	Roopchand	342	1:2,229
405	Sookhoo	342	1:2,229
407	Young	341	1:2,235
408	Graham	338	1:2,255
409	Lovell	337	1:2,262
409	Pierre	337	1:2,262
411	Clement	336	1:2,269
411	Jonas	336	1:2,269
413	Barry	334	1:2,282
413	Johnny	334	1:2,282
415	Gilkes	333	1:2,289
415	Motilall	333	1:2,289
417	Lambert	332	1:2,296
417	Sammy	332	1:2,296
419	Chattergoon	331	1:2,303
419	Marques	331	1:2,303
421	Ramdeo	330	1:2,310
422	Sutton	329	1:2,317
423	Edward	328	1:2,324
423	Husain	328	1:2,324
425	Kellman	324	1:2,353
425	Marcus	324	1:2,353
425	Stuart	324	1:2,353
428	Downer	323	1:2,360
428	Drepaul	323	1:2,360
430	Ramphal	322	1:2,367
430	Webster	322	1:2,367
432	Ramgobin	321	1:2,375
432	Ramoutar	321	1:2,375
432	Toney	321	1:2,375
435	Drakes	320	1:2,382
436	Barrow	319	1:2,389
436	McBean	319	1:2,389
438	Dover	317	1:2,404
439	Alves	315	1:2,420
439	Eastman	315	1:2,420
441	Thorne	314	1:2,427
441	Walters	314	1:2,427
443	Ambrose	313	1:2,435
443	Jackman	313	1:2,435
445	Chichester	312	1:2,443
446	Pellew	311	1:2,451
446	Romascindo	311	1:2,451
448	Bollers	310	1:2,459
448	McAlmont	310	1:2,459
450	Dindial	309	1:2,467
450	McAllister	309	1:2,467
452	Knights	308	1:2,475
452	Samad	308	1:2,475
454	Castello	306	1:2,491
454	Marco	306	1:2,491
456	Pompey	305	1:2,499
457	Hanif	304	1:2,507
457	Josiah	304	1:2,507
457	Leacock	304	1:2,507
457	McRae	304	1:2,507
461	Lee	303	1:2,516
461	Ramcharitar	303	1:2,516
463	Daly	302	1:2,524
464	Deen	301	1:2,532
464	Gangaram	301	1:2,532
464	Seenarine	301	1:2,532
467	Ghanie	300	1:2,541
468	Augustine	299	1:2,549
468	Cheong	299	1:2,549
470	Carrington	298	1:2,558
470	Cozier	298	1:2,558
470	Mayers	298	1:2,558
470	Narayan	298	1:2,558
474	Das	296	1:2,575
475	Cambridge	294	1:2,593
475	Fortune	294	1:2,593
477	Harding	292	1:2,610
478	Hunter	291	1:2,619
478	Mangroo	291	1:2,619
480	Wright	290	1:2,628
481	Rambharose	289	1:2,637
481	Sukhai	289	1:2,637
483	Blake	288	1:2,647
483	Doobay	288	1:2,647
483	Mars	288	1:2,647
483	Mohanlall	288	1:2,647
483	Ramsingh	288	1:2,647
483	Woolford	288	1:2,647
489	Bishop	287	1:2,656
489	Chand	287	1:2,656
489	Doris	287	1:2,656
489	Joe	287	1:2,656
493	Nicholas	286	1:2,665
494	Wickham	285	1:2,674
495	Glen	284	1:2,684
495	Moonsammy	284	1:2,684
497	Hemraj	283	1:2,693
498	Newton	281	1:2,713
499	Ramdial	280	1:2,722
499	Sooknanan	280	1:2,722
501	Dhanpaul	279	1:2,732
502	Cyril	278	1:2,742
502	Walker	278	1:2,742
504	Brathwaite	277	1:2,752
504	Jardine	277	1:2,752
504	Pablo	277	1:2,752
504	Pitt	277	1:2,752
508	Hussein	276	1:2,762
508	McGarrell	276	1:2,762
508	Perry	276	1:2,762
511	Parmanand	275	1:2,772
511	Ramsay	275	1:2,772
513	Harripersaud	274	1:2,782
513	Niles	274	1:2,782
515	Baker	273	1:2,792
515	Durant	273	1:2,792
515	Gilbert	273	1:2,792
515	Hoosein	273	1:2,792
519	Bruce	271	1:2,813
519	Lochan	271	1:2,813
519	Sancho	271	1:2,813
519	Seecharan	271	1:2,813
519	Yaw	271	1:2,813
524	Adrian	270	1:2,823
524	Wharton	270	1:2,823
526	Bharrat	267	1:2,855
526	Franklin	267	1:2,855
526	Ishmael	267	1:2,855
529	Barnwell	266	1:2,865
529	Bissessar	266	1:2,865
529	Savory	266	1:2,865
532	Dublin	265	1:2,876
532	Valenzuela	265	1:2,876
534	Michael	264	1:2,887
535	Samlall	263	1:2,898
535	Springer	263	1:2,898
537	Ibrahim	262	1:2,909
538	Lindie	261	1:2,920
538	Major	261	1:2,920
538	Porter	261	1:2,920
541	Antone	260	1:2,932
542	Madramootoo	258	1:2,954
542	Samuel	258	1:2,954
544	Balkissoon	257	1:2,966
544	Seegobin	257	1:2,966
546	Brijmohan	256	1:2,977
546	Deochand	256	1:2,977
546	Mootoo	256	1:2,977
549	Lachman	255	1:2,989
550	Bisram	254	1:3,001
550	de Jonge	254	1:3,001
550	Juman	254	1:3,001
550	Massiah	254	1:3,001
550	Pilgrim	254	1:3,001
555	Batson	253	1:3,013
555	Dwarka	253	1:3,013
555	Noel	253	1:3,013
555	Sookraj	253	1:3,013
559	Abdool	252	1:3,025
559	Mahase	252	1:3,025
559	Simmons	252	1:3,025
562	Dookie	250	1:3,049
562	Farley	250	1:3,049
562	Schultz	250	1:3,049
565	Harper	249	1:3,061
566	Arjoon	248	1:3,073
567	Kadir	247	1:3,086
567	Kishun	247	1:3,086
569	Abel	245	1:3,111
569	Ellis	245	1:3,111
569	Heeralall	245	1:3,111
569	Lashley	245	1:3,111
569	Sukdeo	245	1:3,111
569	Sullivan	245	1:3,111
575	Chisholm	244	1:3,124
575	Hubbard	244	1:3,124
575	Lakeram	244	1:3,124
575	Seenauth	244	1:3,124
579	Baijnauth	243	1:3,137
579	Sukhnandan	243	1:3,137
579	Surujpaul	243	1:3,137
579	Wade	243	1:3,137
583	Howard	242	1:3,150
583	Klass	242	1:3,150
583	Pedro	242	1:3,150
586	Adonis	241	1:3,163
586	Hollingsworth	241	1:3,163
586	Humphrey	241	1:3,163
586	Weekes	241	1:3,163
590	Dodson	240	1:3,176
590	Seeraj	240	1:3,176
590	Stoby	240	1:3,176
593	Archibald	239	1:3,189
593	Charlie	239	1:3,189
593	Rooplall	239	1:3,189
596	Jaipersaud	238	1:3,203
597	Raghunandan	237	1:3,216
598	Ifill	236	1:3,230
598	Rambaran	236	1:3,230
600	Panday	235	1:3,243
601	Rai	234	1:3,257
601	Ramnaraine	234	1:3,257
603	Bynoe	233	1:3,271
603	Madray	233	1:3,271
603	Tulsie	233	1:3,271
606	Armstrong	232	1:3,285
606	Hackett	232	1:3,285
606	Kassim	232	1:3,285
609	Allie	231	1:3,300
609	Ferguson	231	1:3,300
609	McLennan	231	1:3,300
612	Hooper	229	1:3,328
612	Rasheed	229	1:3,328
612	Sumner	229	1:3,328
612	Vincent	229	1:3,328
616	Budhan	228	1:3,343
616	Chance	228	1:3,343
616	Hack	228	1:3,343
616	Lord	228	1:3,343
616	Ramdeholl	228	1:3,343
621	Heywood	227	1:3,358
621	McIntosh	227	1:3,358
621	Pestano	227	1:3,358
624	Beepat	225	1:3,388
624	Seymour	225	1:3,388
624	Trotz	225	1:3,388
627	O'Selmo	224	1:3,403
627	Ramdin	224	1:3,403
629	Ahmad	223	1:3,418
629	Bradford	223	1:3,418
629	Burrowes	223	1:3,418
632	Conway	222	1:3,433
633	Abrahim	221	1:3,449
633	Critchlow	221	1:3,449
633	Hector	221	1:3,449
633	Yusuf	221	1:3,449
637	Hazel	220	1:3,465
637	Rutherford	220	1:3,465
639	Jainarine	219	1:3,480
639	Ramjattan	219	1:3,480
641	Grimmond	218	1:3,496
642	Charran	217	1:3,513
642	Raghubir	217	1:3,513
642	Salim	217	1:3,513
645	Hoosain	216	1:3,529
646	Calistro	215	1:3,545
646	Maniram	215	1:3,545
648	Ganpat	214	1:3,562
648	Gibbons	214	1:3,562
650	Cato	213	1:3,579
650	Cole	213	1:3,579
650	Corlette	213	1:3,579
650	Dick	213	1:3,579
654	Harvey	212	1:3,595
654	Jailall	212	1:3,595
654	Mathura	212	1:3,595
654	Ramjohn	212	1:3,595
658	Couchman	210	1:3,630
658	Garrett	210	1:3,630
658	Roach	210	1:3,630
658	Wilkinson	210	1:3,630
658	Williamson	210	1:3,630
663	Hardyal	209	1:3,647
663	Ramdhan	209	1:3,647
665	Alberts	208	1:3,665
665	Denny	208	1:3,665
665	McCurdy	208	1:3,665
665	Ramprashad	208	1:3,665
669	Babb	207	1:3,682
669	dos Santos	207	1:3,682
669	Misir	207	1:3,682
672	Elias	206	1:3,700
672	Gillis	206	1:3,700
674	Balkarran	205	1:3,718
674	Boyal	205	1:3,718
674	Chaitram	205	1:3,718
674	Dindyal	205	1:3,718
674	McFarlane	205	1:3,718
674	Pitamber	205	1:3,718
674	Seepaul	205	1:3,718
681	Bridgemohan	204	1:3,736
682	Aziz	203	1:3,755
682	Gafoor	203	1:3,755
682	Jaisingh	203	1:3,755
682	Kowlessar	203	1:3,755
682	Lindore	203	1:3,755
682	Sutherland	203	1:3,755
688	Augustus	202	1:3,773
689	Fields	201	1:3,792
689	Todd	201	1:3,792
691	Ramdas	200	1:3,811
692	Lucas	199	1:3,830
692	Patrick	199	1:3,830
694	Adolphus	198	1:3,850
694	Cornette	198	1:3,850
694	Dawson	198	1:3,850
694	Jacobus	198	1:3,850
698	Autar	197	1:3,869
698	Courtman	197	1:3,869
698	Gentle	197	1:3,869
698	Hartman	197	1:3,869
698	Stanley	197	1:3,869
703	Brummell	196	1:3,889
703	McCalmon	196	1:3,889
705	Lakhan	194	1:3,929
705	Ramkishun	194	1:3,929
707	Barton	193	1:3,949
707	La Fleur	193	1:3,949
707	Lam	193	1:3,949
707	Rameshwar	193	1:3,949
711	Goodridge	192	1:3,970
711	Kyte	192	1:3,970
713	Bachan	191	1:3,991
713	Boyer	191	1:3,991
713	Chunilall	191	1:3,991
713	Deane	191	1:3,991
713	Jaipaul	191	1:3,991
713	Nandlall	191	1:3,991
719	Maraj	190	1:4,012
719	Rohoman	190	1:4,012
721	Dasrat	189	1:4,033
721	Haripersaud	189	1:4,033
721	Junor	189	1:4,033
721	Nichols	189	1:4,033
721	Tobin	189	1:4,033
721	Tyndall	189	1:4,033
727	Barclay	188	1:4,054
727	Isaac	188	1:4,054
729	Barnes	187	1:4,076
729	Forrester	187	1:4,076
729	Jerrick	187	1:4,076
729	Mohabeer	187	1:4,076
729	Russell	187	1:4,076
729	Warde	187	1:4,076
735	Belgrave	186	1:4,098
735	Bryan	186	1:4,098
735	Dorrick	186	1:4,098
735	Jarvis	186	1:4,098
735	Kennedy	186	1:4,098
735	Ramkarran	186	1:4,098
735	Ramprasad	186	1:4,098
735	Willie	186	1:4,098
743	Deolall	185	1:4,120
744	Bissoondial	184	1:4,143
744	Lyken	184	1:4,143
744	Mohammed	184	1:4,143
747	Corbin	183	1:4,165
748	Bipat	182	1:4,188
748	Fowler	182	1:4,188
748	Millington	182	1:4,188
751	Brijlall	181	1:4,211
751	Hoyte	181	1:4,211
751	Jupiter	181	1:4,211
754	Dennis	180	1:4,235
754	Haywood	180	1:4,235
754	McLeod	180	1:4,235
754	Stanislaus	180	1:4,235
754	Tiwari	180	1:4,235
759	Boucher	179	1:4,258
759	Deonarain	179	1:4,258
759	Foo	179	1:4,258
759	Wallace	179	1:4,258
763	Adolph	178	1:4,282
763	Chatterpaul	178	1:4,282
763	Gulliver	178	1:4,282
763	Hamer	178	1:4,282
763	Murphy	178	1:4,282
763	Peter	178	1:4,282
763	Ramchand	178	1:4,282
763	Sarjoo	178	1:4,282
771	Indar	177	1:4,306
771	Ramessar	177	1:4,306
771	Wahab	177	1:4,306
774	Majeed	176	1:4,331
774	Nandram	176	1:4,331
774	Sandiford	176	1:4,331
777	Grenville	175	1:4,356
777	Hyman	175	1:4,356
777	Naughton	175	1:4,356
780	D'Aguiar	174	1:4,381
780	Green	174	1:4,381
780	Herman	174	1:4,381
780	Hilliman	174	1:4,381
780	Jagroop	174	1:4,381
780	Ramrup	174	1:4,381
786	Christopher	173	1:4,406
786	Leonard	173	1:4,406
786	McGregor	173	1:4,406
786	Sukhraj	173	1:4,406
790	Alert	172	1:4,432
790	de Abreu	172	1:4,432
790	Jagnarine	172	1:4,432
790	Lachhman	172	1:4,432
790	Maxwell	172	1:4,432
790	Nero	172	1:4,432
796	Majid	171	1:4,457
796	Profitt	171	1:4,457
796	Ramraj	171	1:4,457
796	Veerasammy	171	1:4,457
796	Victor	171	1:4,457
801	August	170	1:4,484
801	Durga	170	1:4,484
801	Hicks	170	1:4,484
804	Calder	169	1:4,510
804	Correia	169	1:4,510
804	Ramnath	169	1:4,510
807	Jameer	168	1:4,537
807	Manohar	168	1:4,537
809	Bento	167	1:4,564
809	D'Andrade	167	1:4,564
809	Lutchman	167	1:4,564
812	Bishun	166	1:4,592
812	Cush	166	1:4,592
812	Freeman	166	1:4,592
812	Waithe	166	1:4,592
816	Bhagwandeen	165	1:4,620
816	Fredricks	165	1:4,620
816	Phoenix	165	1:4,620
816	Rigby	165	1:4,620
816	Rupnarain	165	1:4,620
816	Sheriff	165	1:4,620
816	St Hill	165	1:4,620
823	Bayley	164	1:4,648
823	Booker	164	1:4,648
823	Clementson	164	1:4,648
826	Chin	163	1:4,676
826	Damon	163	1:4,676
826	Gaskin	163	1:4,676
826	Heyliger	163	1:4,676
826	McLennon	163	1:4,676
826	Ragbeer	163	1:4,676
832	Hookumchand	162	1:4,705
832	Pyle	162	1:4,705
832	Seetaram	162	1:4,705
832	Sookra	162	1:4,705
832	Subhan	162	1:4,705
837	Ramsundar	161	1:4,734
837	Tucker	161	1:4,734
839	Ault	160	1:4,764
839	Chesney	160	1:4,764
839	Loncke	160	1:4,764
839	Rafeek	160	1:4,764
839	Ramkumar	160	1:4,764
839	Salvador	160	1:4,764
839	Wells	160	1:4,764
839	White	160	1:4,764
847	Ahamad	159	1:4,794
847	Coates	159	1:4,794
847	Dasilva	159	1:4,794
847	Hill	159	1:4,794
847	Moriah	159	1:4,794
847	Nestor	159	1:4,794
847	Whinfield	159	1:4,794
854	Beresford	158	1:4,824
854	Canterbury	158	1:4,824
854	Mickle	158	1:4,824
854	Sebastian	158	1:4,824
854	Sukhoo	158	1:4,824
859	Bartholomew	157	1:4,855
859	Edmund	157	1:4,855
859	Nunes	157	1:4,855
859	Rajcoomar	157	1:4,855
863	Barran	156	1:4,886
863	Calvan	156	1:4,886
863	Jacobis	156	1:4,886
863	Jaggernauth	156	1:4,886
863	Sauers	156	1:4,886
863	Spellen	156	1:4,886
863	Thakur	156	1:4,886
863	Worrell	156	1:4,886
871	Barrington	155	1:4,918
871	Jodhan	155	1:4,918
871	Livan	155	1:4,918
871	Norville	155	1:4,918
871	Venture	155	1:4,918
876	Harte	154	1:4,949
876	Ralph	154	1:4,949
876	Ramsaywack	154	1:4,949
876	Zaman	154	1:4,949
880	Bell	153	1:4,982
880	Ramsaran	153	1:4,982
880	Rawlins	153	1:4,982
880	Rookmin	153	1:4,982
880	Willis	153	1:4,982
885	Gabriel	152	1:5,015
885	Marcello	152	1:5,015
885	Ramdatt	152	1:5,015
888	Harlequin	151	1:5,048
888	Hawker	151	1:5,048
888	Joaquin	151	1:5,048
888	Khalil	151	1:5,048
888	Ogle	151	1:5,048
888	Paddy	151	1:5,048
888	Shamlall	151	1:5,048
895	Bumbury	150	1:5,081
895	Obermuller	150	1:5,081
895	Rowe	150	1:5,081
898	Baljit	149	1:5,116
898	Dainty	149	1:5,116
898	Giles	149	1:5,116
898	Hardat	149	1:5,116
898	Jordon	149	1:5,116
898	Phagoo	149	1:5,116
898	Ramkhelawan	149	1:5,116
905	Ignacio	148	1:5,150
905	McKinnon	148	1:5,150
905	Ramesh	148	1:5,150
905	Ramlagan	148	1:5,150
905	Sumintra	148	1:5,150
910	Arjun	147	1:5,185
910	Bentick	147	1:5,185
910	Hardeo	147	1:5,185
910	Sargeant	147	1:5,185
914	Bissoondyal	146	1:5,221
914	Butters	146	1:5,221
914	Dookram	146	1:5,221
914	Elliot	146	1:5,221
914	Greenidge	146	1:5,221
914	Jaikarran	146	1:5,221
914	Khelawan	146	1:5,221
914	Kirton	146	1:5,221
914	Matheson	146	1:5,221
914	Rajaram	146	1:5,221
914	Roland	146	1:5,221
914	Tularam	146	1:5,221
914	William	146	1:5,221
927	Budhai	145	1:5,257
927	December	145	1:5,257
927	FitzPatrick	145	1:5,257
927	Prescott	145	1:5,257
931	de Silva	144	1:5,293
931	Jaigobin	144	1:5,293
931	Jaikissoon	144	1:5,293
931	Karran	144	1:5,293
931	Rebeiro	144	1:5,293
931	Yarde	144	1:5,293
937	Hardy	143	1:5,330
937	Percival	143	1:5,330
937	Rahman	143	1:5,330
937	Seaforth	143	1:5,330
937	Watts	143	1:5,330
942	Behari	142	1:5,368
942	Dias	142	1:5,368
942	Frederick	142	1:5,368
942	Grimes	142	1:5,368
942	Hinckson	142	1:5,368
942	Price	142	1:5,368
942	Seales	142	1:5,368
942	Sookwah	142	1:5,368
950	Gajadhar	141	1:5,406
950	Harrilall	141	1:5,406
950	McCalman	141	1:5,406
950	Sarju	141	1:5,406
950	Saunders	141	1:5,406
950	Scotland	141	1:5,406
956	Budram	140	1:5,444
956	Goodluck	140	1:5,444
956	Harrichand	140	1:5,444
956	Mandook	140	1:5,444
960	Europe	139	1:5,484
960	Harold	139	1:5,484
960	Kawall	139	1:5,484
960	Manbodh	139	1:5,484
960	Razak	139	1:5,484
960	Tyrell	139	1:5,484
966	Harilall	138	1:5,523
966	Sanchara	138	1:5,523
966	Sewnarine	138	1:5,523
966	Simeon	138	1:5,523
970	Fung	137	1:5,564
970	Latiff	137	1:5,564
970	Ramnarace	137	1:5,564
970	Wray	137	1:5,564
974	Azore	136	1:5,605
974	Diaram	136	1:5,605
974	Foster	136	1:5,605
974	Francisco	136	1:5,605
974	Hudson	136	1:5,605
974	Jervis	136	1:5,605
974	Milton	136	1:5,605
974	Rajpaul	136	1:5,605
982	Broomes	135	1:5,646
982	Etwaru	135	1:5,646
982	Husbands	135	1:5,646
982	Padmore	135	1:5,646
982	Punch	135	1:5,646
982	Wahid	135	1:5,646
988	Cordis	134	1:5,688
988	Hariprashad	134	1:5,688
988	Hastings	134	1:5,688
988	Kellawan	134	1:5,688
988	Pollydore	134	1:5,688
993	Angel	133	1:5,731
993	D'Oliveira	133	1:5,731
993	Dhaniram	133	1:5,731
993	Jeffers	133	1:5,731
993	Maynard	133	1:5,731
993	McIntyre	133	1:5,731
993	Monah	133	1:5,731
993	Parsram	133	1:5,731
993	Seelall	133	1:5,731
993	Sultan	133	1:5,731
993	Timmerman	133	1:5,731