1	Hernandez	270,545	1:33
2	Lopez	245,736	1:36
3	Martinez	234,466	1:38
4	Rodriguez	206,391	1:43
5	Garcia	183,562	1:48
6	Mejia	167,541	1:53
7	Cruz	132,386	1:67
8	Flores	132,327	1:67
9	Sanchez	123,918	1:71
10	Reyes	122,471	1:72
11	Vasquez	114,044	1:77
12	Rivera	107,595	1:82
13	Perez	101,042	1:87
14	Gomez	97,767	1:90
15	Pineda	88,816	1:99
16	Diaz	88,100	1:100
17	Ramos	86,745	1:102
18	Aguilar	84,614	1:104
19	Ramirez	83,832	1:105
20	Alvarado	68,042	1:130
21	Castro	65,730	1:134
22	Velasquez	65,140	1:135
23	Romero	60,227	1:146
24	Castillo	57,964	1:152
25	Orellana	56,269	1:157
26	Mendoza	51,295	1:172
27	Nu	50,911	1:173
28	Murillo	50,572	1:174
29	Avila	49,980	1:176
30	Gonzalez	49,752	1:177
31	Zelaya	49,202	1:179
32	Padilla	48,769	1:181
33	Santos	48,689	1:181
34	Paz	48,143	1:183
35	Gonzales	46,007	1:192
36	Gutierrez	45,907	1:192
37	Bonilla	45,744	1:193
38	Herrera	44,056	1:200
39	Medina	44,044	1:200
40	Torres	43,972	1:201
41	Maldonado	43,853	1:201
42	Amaya	42,219	1:209
43	Ortiz	40,605	1:217
44	Ordo	39,299	1:224
45	Mendez	38,562	1:229
46	Portillo	38,546	1:229
47	Banegas	38,042	1:232
48	Amador	37,803	1:233
49	Alvarez	37,541	1:235
50	Maradiaga	37,302	1:236
51	Zuniga	37,089	1:238
52	Barahona	36,851	1:239
53	Molina	35,039	1:252
54	Dominguez	33,236	1:265
55	Perdomo	33,040	1:267
56	Castellanos	32,947	1:268
57	Figueroa	32,828	1:269
58	Escobar	32,687	1:270
59	Matute	32,166	1:274
60	Ponce	31,104	1:283
61	Caceres	29,629	1:298
62	Fuentes	29,567	1:298
63	Canales	29,429	1:300
64	Lara	28,860	1:305
65	Benitez	28,822	1:306
66	Salgado	28,471	1:310
67	Funez	28,232	1:312
68	Morales	28,028	1:315
69	Chavez	27,710	1:318
70	Rosales	27,685	1:318
71	Varela	27,617	1:319
72	Valladares	27,606	1:319
73	Meza	26,969	1:327
74	Ruiz	26,924	1:327
75	Espinal	26,381	1:334
76	Acosta	26,036	1:339
77	Espinoza	25,850	1:341
78	Argueta	25,614	1:344
79	Suazo	25,464	1:346
80	Madrid	24,638	1:358
81	Mu	24,365	1:362
82	Guzman	24,171	1:365
83	Carcamo	23,912	1:369
84	Caballero	23,829	1:370
85	Montoya	23,600	1:374
86	Andino	23,341	1:378
87	Miranda	23,204	1:380
88	Lagos	23,059	1:382
89	Calix	23,005	1:383
90	Guevara	22,548	1:391
91	Carranza	22,229	1:397
92	Palma	22,119	1:399
93	Contreras	21,976	1:401
94	Jimenez	21,877	1:403
95	Turcios	21,836	1:404
96	Fernandez	21,793	1:405
97	Moreno	21,790	1:405
98	Cabrera	21,653	1:407
99	Dubon	21,101	1:418
100	Lainez	21,096	1:418
101	Sierra	21,017	1:419
102	Enamorado	20,537	1:429
103	Izaguirre	20,536	1:429
104	Aguilera	20,435	1:431
105	Rivas	20,222	1:436
106	Ayala	20,110	1:438
107	Cardona	20,021	1:440
108	Pe	20,011	1:441
109	Urbina	19,517	1:452
110	Estrada	19,383	1:455
111	Melgar	19,108	1:461
112	Cerrato	18,908	1:466
113	Munguia	18,720	1:471
114	Sosa	18,705	1:471
115	Villanueva	18,691	1:472
116	Giron	18,551	1:475
117	Funes	18,422	1:479
118	Zavala	18,401	1:479
119	Valle	18,392	1:479
120	Alvarenga	18,363	1:480
121	Oliva	18,343	1:481
122	Ortega	18,151	1:486
123	Vargas	18,081	1:488
124	Ochoa	17,933	1:492
125	Bautista	17,780	1:496
126	Moncada	17,665	1:499
127	Zepeda	16,935	1:521
128	Erazo	16,857	1:523
129	Ulloa	16,806	1:525
130	Osorto	16,543	1:533
131	Guillen	16,268	1:542
132	Colindres	15,966	1:552
133	Marquez	15,833	1:557
134	Pacheco	15,742	1:560
135	Leiva	15,684	1:562
136	Lemus	15,548	1:567
137	Serrano	15,499	1:569
138	Corea	15,352	1:574
139	Duarte	15,342	1:575
140	Sarmiento	15,241	1:578
141	Antunez	15,108	1:584
142	Osorio	15,052	1:586
143	Calderon	14,966	1:589
144	Aleman	14,802	1:596
145	Elvir	14,776	1:597
146	Godoy	14,583	1:605
147	Arita	14,536	1:607
148	Euceda	14,416	1:612
149	Henriquez	14,367	1:614
150	Quintanilla	14,169	1:622
151	Rodas	14,086	1:626
152	Melendez	14,049	1:628
153	Sabillon	13,998	1:630
154	Salinas	13,947	1:632
155	Vallecillo	13,697	1:644
156	Baca	13,629	1:647
157	Pavon	13,517	1:652
158	Chavarria	13,489	1:654
159	Bustillo	13,315	1:662
160	Soto	13,052	1:675
161	Rios	13,051	1:676
162	Matamoros	12,960	1:680
163	Sevilla	12,741	1:692
164	Villeda	12,597	1:700
165	Gamez	12,533	1:703
166	Andrade	12,376	1:712
167	Guerra	12,362	1:713
168	Trochez	12,199	1:723
169	Membre	12,144	1:726
170	Sorto	12,111	1:728
171	Escoto	11,963	1:737
172	Bueso	11,850	1:744
173	Sandoval	11,719	1:752
174	Ventura	11,601	1:760
175	Bardales	11,428	1:771
176	Chirinos	11,366	1:776
177	Raudales	11,254	1:783
178	Galeas	11,252	1:784
179	Juarez	11,125	1:792
180	Chacon	11,105	1:794
181	Irias	10,864	1:812
182	Lanza	10,859	1:812
183	Corrales	10,789	1:817
184	Licona	10,666	1:827
185	Alfaro	10,650	1:828
186	Tabora	10,611	1:831
187	Fajardo	10,428	1:845
188	Montes	10,344	1:852
189	Nolasco	10,277	1:858
190	Guardado	10,189	1:865
190	Navarro	10,189	1:865
192	Arias	10,160	1:868
193	Cortes	10,106	1:872
194	Soriano	10,100	1:873
195	Carias	10,061	1:876
196	Oseguera	9,947	1:886
197	Borjas	9,860	1:894
198	Duron	9,774	1:902
199	Galo	9,741	1:905
200	Menjivar	9,704	1:909
201	Ardon	9,694	1:909
202	Almendares	9,641	1:914
203	Ferrera	9,629	1:916
204	Galindo	9,540	1:924
205	Aguirre	9,495	1:929
206	Sauceda	9,296	1:948
207	Cantarero	9,249	1:953
208	Almendarez	9,129	1:966
209	Rapalo	9,080	1:971
210	Escalante	9,047	1:975
211	Coello	8,865	1:995
212	Lobo	8,864	1:995
213	Silva	8,839	1:997
214	Vega	8,819	1:1,000
215	Trejo	8,746	1:1,008
216	Carrasco	8,721	1:1,011
216	Guerrero	8,721	1:1,011
218	Deras	8,667	1:1,017
219	Chinchilla	8,615	1:1,023
220	Lazo	8,614	1:1,024
221	Machado	8,596	1:1,026
222	Solorzano	8,577	1:1,028
223	Fonseca	8,442	1:1,044
224	Palacios	8,430	1:1,046
225	Manueles	8,350	1:1,056
226	Baquedano	8,280	1:1,065
227	Cortez	8,239	1:1,070
228	Cardenas	8,220	1:1,073
229	Carbajal	8,180	1:1,078
230	Garay	8,139	1:1,083
231	Galvez	8,131	1:1,084
232	Lorenzo	8,070	1:1,092
233	Delcid	8,052	1:1,095
234	Quiroz	8,006	1:1,101
235	Peralta	7,981	1:1,105
236	Pinto	7,963	1:1,107
237	Rosa	7,916	1:1,114
238	Sagastume	7,915	1:1,114
239	Barrientos	7,894	1:1,117
240	Mancia	7,870	1:1,120
241	Posadas	7,719	1:1,142
242	Zambrano	7,708	1:1,144
243	Murcia	7,647	1:1,153
244	Solis	7,642	1:1,154
245	Mateo	7,615	1:1,158
246	Zaldivar	7,492	1:1,177
247	Barrera	7,481	1:1,179
248	Cartagena	7,421	1:1,188
249	Claros	7,406	1:1,190
250	Villatoro	7,220	1:1,221
251	Alonzo	7,099	1:1,242
252	Tejada	7,050	1:1,251
253	Campos	6,958	1:1,267
254	Ortez	6,917	1:1,275
255	Milla	6,885	1:1,281
256	Casco	6,869	1:1,284
257	Casta	6,857	1:1,286
258	Moran	6,835	1:1,290
259	Centeno	6,809	1:1,295
260	Mencia	6,701	1:1,316
261	Oviedo	6,675	1:1,321
262	Lozano	6,601	1:1,336
263	Cordova	6,502	1:1,356
264	Villalobos	6,476	1:1,361
265	Paredes	6,473	1:1,362
266	Galeano	6,357	1:1,387
267	Mercado	6,326	1:1,394
268	Rubio	6,301	1:1,399
269	Buezo	6,267	1:1,407
270	Alberto	6,238	1:1,413
271	Inestroza	6,212	1:1,419
272	Cano	6,183	1:1,426
273	Puerto	6,176	1:1,428
274	Castellon	6,102	1:1,445
275	Rojas	6,060	1:1,455
276	Yanes	6,029	1:1,462
277	Pereira	5,917	1:1,490
278	Galdamez	5,866	1:1,503
279	Leon	5,819	1:1,515
280	Guifarro	5,645	1:1,562
281	Manzanares	5,606	1:1,573
282	Franco	5,590	1:1,577
283	Umanzor	5,512	1:1,599
284	Zapata	5,473	1:1,611
285	Suarez	5,426	1:1,625
286	Arteaga	5,398	1:1,633
287	Avilez	5,356	1:1,646
288	del Cid	5,322	1:1,657
289	Granados	5,129	1:1,719
290	Coto	5,078	1:1,736
291	Gavarrete	5,057	1:1,743
292	Valeriano	5,056	1:1,744
293	Bejarano	5,022	1:1,756
294	Zeron	4,971	1:1,774
295	Zamora	4,914	1:1,794
296	Mairena	4,868	1:1,811
297	Valdez	4,779	1:1,845
298	Pastrana	4,764	1:1,851
299	Midence	4,762	1:1,851
300	Salazar	4,760	1:1,852
301	Arriaga	4,757	1:1,853
302	Chicas	4,743	1:1,859
303	Benites	4,730	1:1,864
304	Betancourth	4,719	1:1,868
305	Oyuela	4,708	1:1,873
306	Redondo	4,669	1:1,888
307	Brizuela	4,662	1:1,891
308	George	4,601	1:1,916
309	Anariba	4,595	1:1,919
310	Morazan	4,557	1:1,935
311	Mondragon	4,537	1:1,943
312	Villalta	4,515	1:1,953
313	Yanez	4,512	1:1,954
314	Peraza	4,511	1:1,954
315	Berrios	4,496	1:1,961
316	Merlo	4,483	1:1,967
317	Burgos	4,465	1:1,975
318	Larios	4,409	1:2,000
319	Linares	4,328	1:2,037
320	Cubas	4,245	1:2,077
321	Paguada	4,221	1:2,089
322	Torrez	4,162	1:2,118
323	Mata	4,105	1:2,148
324	Najera	4,101	1:2,150
325	Urquia	4,092	1:2,155
326	Meraz	4,090	1:2,156
327	Betanco	4,028	1:2,189
328	Robles	4,018	1:2,194
329	Blanco	4,003	1:2,202
330	Ferrufino	3,994	1:2,207
331	Ocampo	3,976	1:2,217
332	Archaga	3,968	1:2,222
333	Fiallos	3,937	1:2,239
334	Medrano	3,921	1:2,249
335	Cantillano	3,881	1:2,272
336	Artica	3,819	1:2,309
337	Mayorga	3,790	1:2,326
338	Arevalo	3,777	1:2,334
339	Nataren	3,767	1:2,340
340	Sanabria	3,748	1:2,352
341	Espino	3,738	1:2,359
342	Luna	3,728	1:2,365
343	Tejeda	3,721	1:2,369
344	Roque	3,686	1:2,392
345	Cardoza	3,684	1:2,393
346	Doblado	3,632	1:2,427
347	Miralda	3,601	1:2,448
348	Moya	3,598	1:2,450
349	Nieto	3,596	1:2,452
350	Mena	3,593	1:2,454
351	Aceituno	3,590	1:2,456
351	Tercero	3,590	1:2,456
353	Discua	3,579	1:2,463
354	Servellon	3,550	1:2,484
355	Aviles	3,526	1:2,500
356	Vallejo	3,513	1:2,510
357	Santamaria	3,507	1:2,514
358	Moradel	3,442	1:2,561
359	Montalvan	3,384	1:2,605
360	Rubi	3,371	1:2,615
361	Echeverria	3,364	1:2,621
362	Veliz	3,352	1:2,630
363	Saravia	3,311	1:2,663
364	Dias	3,302	1:2,670
365	Cedillo	3,299	1:2,672
366	Cerna	3,294	1:2,677
367	Interiano	3,286	1:2,683
368	Davila	3,277	1:2,690
369	Espa	3,255	1:2,709
370	Navas	3,231	1:2,729
371	Tinoco	3,192	1:2,762
372	Posas	3,168	1:2,783
373	Garmendia	3,159	1:2,791
374	Villafranca	3,146	1:2,802
375	Mazariegos	3,115	1:2,830
376	Arguijo	3,077	1:2,865
376	Cuellar	3,077	1:2,865
378	Salvador	3,050	1:2,891
379	Henrriquez	3,003	1:2,936
380	Valenzuela	2,950	1:2,989
381	Salguero	2,938	1:3,001
382	Landaverde	2,936	1:3,003
383	Valerio	2,921	1:3,018
384	Lemuz	2,914	1:3,026
385	Vindel	2,904	1:3,036
386	Alcantara	2,902	1:3,038
387	Bodden	2,899	1:3,041
388	Viera	2,896	1:3,044
389	Teruel	2,893	1:3,048
390	Polanco	2,880	1:3,061
391	Quintero	2,839	1:3,105
392	Triminio	2,819	1:3,128
393	Recinos	2,817	1:3,130
394	Vijil	2,784	1:3,167
395	Arriola	2,774	1:3,178
396	Abrego	2,762	1:3,192
397	Aplicano	2,754	1:3,201
398	Pagoada	2,746	1:3,211
399	Carrillo	2,737	1:3,221
399	Obando	2,737	1:3,221
401	Uma	2,715	1:3,247
402	Marcia	2,699	1:3,267
403	Marin	2,683	1:3,286
404	Altamirano	2,665	1:3,308
405	Delgado	2,640	1:3,340
406	Gallardo	2,633	1:3,348
407	Canaca	2,617	1:3,369
408	Donaire	2,603	1:3,387
409	Alcerro	2,575	1:3,424
410	Luque	2,574	1:3,425
411	Marroquin	2,569	1:3,432
411	Soler	2,569	1:3,432
413	Carvajal	2,556	1:3,449
414	Huete	2,545	1:3,464
415	Toro	2,509	1:3,514
416	Moti	2,507	1:3,517
417	David	2,503	1:3,522
418	Monge	2,493	1:3,536
419	Betancourt	2,490	1:3,541
420	Regalado	2,483	1:3,551
421	Aquino	2,482	1:3,552
422	Avelar	2,456	1:3,590
423	Rodezno	2,454	1:3,593
424	Vaquedano	2,448	1:3,601
425	Santiago	2,436	1:3,619
426	Moreira	2,431	1:3,627
427	Baide	2,423	1:3,639
428	Macias	2,404	1:3,667
429	Bernardez	2,402	1:3,670
430	Fortin	2,389	1:3,690
431	Recarte	2,372	1:3,717
432	Armijo	2,363	1:3,731
433	Duran	2,356	1:3,742
434	Arge	2,352	1:3,748
435	Solano	2,347	1:3,756
436	Gaitan	2,321	1:3,799
437	Montufar	2,320	1:3,800
438	Hercules	2,289	1:3,852
439	Chevez	2,269	1:3,886
440	Bu	2,265	1:3,892
441	Bobadilla	2,264	1:3,894
442	Mencias	2,245	1:3,927
443	Tome	2,222	1:3,968
444	Qui	2,198	1:4,011
445	Aldana	2,193	1:4,020
446	Bermudez	2,184	1:4,037
447	Ucles	2,182	1:4,041
448	Navarrete	2,179	1:4,046
449	Aranda	2,165	1:4,072
450	Agurcia	2,159	1:4,084
451	Ramires	2,139	1:4,122
452	Sandres	2,126	1:4,147
453	Talavera	2,105	1:4,188
454	Olivera	2,100	1:4,198
455	Brice	2,082	1:4,235
456	Canelas	2,049	1:4,303
457	Benavides	2,041	1:4,320
458	Due	2,026	1:4,352
459	Miguel	2,014	1:4,378
460	Barralaga	2,008	1:4,391
461	Isaula	2,005	1:4,397
462	Guity	2,000	1:4,408
463	Ayestas	1,999	1:4,410
463	Salmeron	1,999	1:4,410
465	Garrido	1,990	1:4,430
466	Gunera	1,984	1:4,444
467	Quezada	1,969	1:4,478
468	Morel	1,966	1:4,484
469	Bulnes	1,951	1:4,519
470	Toledo	1,940	1:4,545
471	Blandin	1,928	1:4,573
472	Pascual	1,917	1:4,599
473	Andara	1,891	1:4,662
474	Jacinto	1,889	1:4,667
475	Carballo	1,888	1:4,670
476	Jovel	1,886	1:4,675
477	Aparicio	1,882	1:4,685
478	Arzu	1,870	1:4,715
479	Reconco	1,868	1:4,720
480	Beltran	1,866	1:4,725
481	Baires	1,863	1:4,732
482	Esquivel	1,855	1:4,753
483	Alas	1,852	1:4,760
484	Gabarrete	1,841	1:4,789
485	Castejon	1,833	1:4,810
486	Majano	1,830	1:4,818
487	Lezama	1,814	1:4,860
488	Norales	1,799	1:4,901
489	Briones	1,797	1:4,906
490	Alvares	1,787	1:4,934
491	Gomes	1,785	1:4,939
492	Melara	1,774	1:4,970
493	Trujillo	1,767	1:4,989
494	Urrea	1,764	1:4,998
495	Urrutia	1,732	1:5,090
496	Bustamante	1,720	1:5,126
497	Acevedo	1,719	1:5,129
498	Vigil	1,703	1:5,177
499	Callejas	1,689	1:5,220
500	Cornejo	1,688	1:5,223
501	Mayorquin	1,681	1:5,245
502	Gradiz	1,678	1:5,254
503	Lizardo	1,667	1:5,289
504	Barnica	1,664	1:5,298
505	Nicolas	1,651	1:5,340
506	Elias	1,650	1:5,343
507	Cantor	1,631	1:5,406
508	Rueda	1,629	1:5,412
509	Williams	1,617	1:5,452
510	Sanches	1,615	1:5,459
511	Manzanarez	1,602	1:5,503
512	Gallo	1,596	1:5,524
513	Araujo	1,592	1:5,538
513	Soliz	1,592	1:5,538
515	Saavedra	1,591	1:5,541
516	Escalon	1,584	1:5,566
517	Palencia	1,569	1:5,619
518	Wood	1,556	1:5,666
519	Verde	1,533	1:5,751
520	Gallegos	1,531	1:5,759
521	Aragon	1,521	1:5,796
521	Saenz	1,521	1:5,796
523	Hernandes	1,516	1:5,816
524	Gutierres	1,494	1:5,901
525	Iraheta	1,483	1:5,945
526	Fugon	1,462	1:6,030
527	Manzano	1,460	1:6,039
528	Peres	1,446	1:6,097
529	Barrios	1,432	1:6,157
530	Estevez	1,429	1:6,170
531	Linarez	1,428	1:6,174
532	de Jesus	1,427	1:6,178
533	Parada	1,426	1:6,183
533	Roman	1,426	1:6,183
535	Reina	1,408	1:6,262
536	Martines	1,399	1:6,302
537	Martel	1,398	1:6,306
538	Vides	1,394	1:6,325
539	de Dios	1,380	1:6,389
540	Cooper	1,371	1:6,431
541	Menocal	1,363	1:6,468
542	Monroy	1,354	1:6,511
543	Godinez	1,346	1:6,550
544	Valentin	1,331	1:6,624
545	Ca	1,330	1:6,629
546	Alonso	1,320	1:6,679
547	Suate	1,302	1:6,771
548	Lira	1,299	1:6,787
549	Lino	1,279	1:6,893
550	Trigueros	1,273	1:6,926
551	Boquin	1,272	1:6,931
552	Calero	1,269	1:6,948
553	Videa	1,260	1:6,997
554	Aguiriano	1,258	1:7,008
555	Matheu	1,257	1:7,014
556	Isidro	1,254	1:7,031
557	Beltrand	1,249	1:7,059
558	Manchame	1,247	1:7,070
559	Aguiluz	1,242	1:7,099
560	Caseres	1,222	1:7,215
561	Bajurto	1,218	1:7,238
562	Pagoaga	1,215	1:7,256
563	Vilchez	1,214	1:7,262
564	Iscoa	1,211	1:7,280
565	Antonio	1,189	1:7,415
566	Handal	1,182	1:7,459
567	Iriarte	1,167	1:7,555
568	Iglesias	1,156	1:7,627
569	Pinel	1,152	1:7,653
570	Ilias	1,147	1:7,687
571	Jiron	1,146	1:7,693
572	Arrazola	1,145	1:7,700
573	Mendieta	1,135	1:7,768
574	Villela	1,129	1:7,809
575	Sales	1,128	1:7,816
576	Villamil	1,120	1:7,872
577	Noriega	1,111	1:7,936
578	Hidalgo	1,103	1:7,993
579	Brooks	1,093	1:8,066
580	Monrroy	1,092	1:8,074
581	Arauz	1,081	1:8,156
582	Quijada	1,077	1:8,186
582	Rochez	1,077	1:8,186
584	Palomo	1,075	1:8,201
585	Lopes	1,070	1:8,240
586	Johnson	1,065	1:8,278
587	Landa	1,058	1:8,333
588	Thomas	1,056	1:8,349
589	Damas	1,054	1:8,365
590	Marquina	1,050	1:8,397
591	Segura	1,046	1:8,429
592	Batiz	1,040	1:8,477
593	Juanez	1,039	1:8,486
594	Arce	1,036	1:8,510
595	Mayen	1,034	1:8,527
596	Smith	1,031	1:8,551
597	Alba	1,028	1:8,576
598	Cerritos	1,024	1:8,610
598	Suchite	1,024	1:8,610
600	Valladarez	1,021	1:8,635
601	Coca	1,019	1:8,652
602	Rovelo	1,016	1:8,678
603	Lovo	1,012	1:8,712
603	Rico	1,012	1:8,712
605	Jerezano	1,011	1:8,721
606	Cueva	1,005	1:8,773
607	Rea	1,002	1:8,799
608	Aguero	994	1:8,870
608	Cordon	994	1:8,870
610	de La O	991	1:8,897
610	Vivas	991	1:8,897
612	Gusman	979	1:9,006
613	Jacome	974	1:9,052
614	Bertrand	973	1:9,061
615	Cadenas	970	1:9,089
616	Haylock	965	1:9,136
617	Tovar	964	1:9,146
618	Pastor	961	1:9,174
619	Bennett	959	1:9,193
619	Brown	959	1:9,193
621	Cuevas	956	1:9,222
622	Cacho	953	1:9,251
623	Menendez	952	1:9,261
623	Montenegro	952	1:9,261
625	Vieda	951	1:9,271
626	Breve	950	1:9,280
627	Adriano	948	1:9,300
628	Macedo	947	1:9,310
629	Auceda	938	1:9,399
630	Alegria	935	1:9,429
631	Calles	934	1:9,439
632	Montero	928	1:9,500
633	Colon	927	1:9,511
633	Garza	927	1:9,511
635	Jimenes	926	1:9,521
636	Chaver	921	1:9,573
637	Dormes	913	1:9,657
638	Jackson	912	1:9,667
639	Canizales	905	1:9,742
640	Ebanks	898	1:9,818
640	Sabio	898	1:9,818
642	Cerros	897	1:9,829
643	Arriaza	895	1:9,851
643	James	895	1:9,851
645	Palada	892	1:9,884
646	Panchame	887	1:9,940
647	Morga	886	1:9,951
648	Joya	885	1:9,962
649	Balderramos	880	1:10,019
649	Tobar	880	1:10,019
651	Gudiel	877	1:10,053
652	Araque	872	1:10,111
653	Blandon	849	1:10,385
654	Leonor	846	1:10,421
655	Cervantes	836	1:10,546
656	Nelson	835	1:10,559
657	Jarquin	829	1:10,635
658	Castellano	821	1:10,739
659	Brito	820	1:10,752
660	Isaguirre	818	1:10,778
661	Urias	816	1:10,804
662	Juares	815	1:10,818
663	Seren	804	1:10,966
664	Enriquez	803	1:10,979
665	Casildo	800	1:11,021
665	Ilovares	800	1:11,021
667	Green	797	1:11,062
668	Alverto	791	1:11,146
669	Lacayo	790	1:11,160
670	Colindrez	787	1:11,203
670	Posada	787	1:11,203
672	Lindo	786	1:11,217
673	Tobias	783	1:11,260
674	Merino	779	1:11,318
675	Quevedo	778	1:11,332
676	Carabantes	777	1:11,347
677	Cuestas	765	1:11,525
678	Delarca	761	1:11,585
679	Pozo	755	1:11,677
680	Galvan	754	1:11,693
680	Pinot	754	1:11,693
682	Portales	753	1:11,708
683	Bogran	750	1:11,755
683	Laines	750	1:11,755
685	Anduray	748	1:11,787
686	Cisneros	746	1:11,818
686	de Leon	746	1:11,818
688	Sibrian	743	1:11,866
689	Monje	741	1:11,898
690	Zacarias	740	1:11,914
691	Escober	738	1:11,946
692	Artiaga	736	1:11,979
693	Chirino	733	1:12,028
694	Velez	724	1:12,177
694	Wilson	724	1:12,177
696	Villalvir	721	1:12,228
697	Grandez	719	1:12,262
698	Perla	711	1:12,400
698	Rauda	711	1:12,400
700	Toru	710	1:12,418
701	Valderramos	705	1:12,506
702	Paisano	704	1:12,523
703	Alarcon	703	1:12,541
703	Avalos	703	1:12,541
703	Valdiviezo	703	1:12,541
706	Villalobo	702	1:12,559
707	Euseda	693	1:12,722
708	Espinales	686	1:12,852
708	Fletes	686	1:12,852
710	Rodrigues	684	1:12,890
711	Valencia	683	1:12,908
712	Vallejos	682	1:12,927
713	Reyez	675	1:13,061
714	Quesada	670	1:13,159
715	Alva	667	1:13,218
715	Tosta	667	1:13,218
717	Prado	665	1:13,258
718	Jeronimo	663	1:13,298
719	Salas	662	1:13,318
720	Archila	658	1:13,399
721	Javier	657	1:13,419
722	Valdes	656	1:13,440
723	Canan	653	1:13,501
724	Urraco	652	1:13,522
725	Vidal	651	1:13,543
726	Jaco	650	1:13,564
726	Miller	650	1:13,564
728	Dilbert	649	1:13,585
728	Eguigure	649	1:13,585
730	Dixon	642	1:13,733
731	Rosado	641	1:13,754
732	Paniagua	639	1:13,797
732	Waldan	639	1:13,797
734	Pleitez	638	1:13,819
735	Macoto	637	1:13,841
736	Allen	634	1:13,906
737	Dolmo	632	1:13,950
738	Najar	630	1:13,994
738	Paguaga	630	1:13,994
740	Andres	628	1:14,039
740	Chapas	628	1:14,039
742	Lavaire	626	1:14,084
743	Soza	618	1:14,266
744	Videz	617	1:14,289
745	Acu	615	1:14,336
746	Otero	611	1:14,430
747	Melchor	600	1:14,694
748	Rocha	597	1:14,768
748	Villagra	597	1:14,768
750	Cobos	594	1:14,842
751	Montiel	589	1:14,968
752	Gil	587	1:15,019
752	Jordan	587	1:15,019
752	Montejo	587	1:15,019
755	Nufio	585	1:15,071
756	Guido	574	1:15,360
756	Mendes	574	1:15,360
758	Aroca	571	1:15,440
758	Taylor	571	1:15,440
760	Armas	570	1:15,467
760	Simeon	570	1:15,467
760	Webster	570	1:15,467
763	Cribas	566	1:15,577
764	Lazaro	561	1:15,716
765	Sifontes	560	1:15,744
766	Arana	558	1:15,800
766	Trinidad	558	1:15,800
768	Auxume	557	1:15,828
768	Bados	557	1:15,828
770	Saldivar	555	1:15,885
771	Ferman	554	1:15,914
772	Leveron	553	1:15,943
773	Lujan	550	1:16,030
774	Calona	549	1:16,059
774	Salcedo	549	1:16,059
776	Batres	547	1:16,118
776	Quintano	547	1:16,118
778	Sambola	543	1:16,237
779	Guiza	538	1:16,387
780	Sambula	528	1:16,698
781	Coleman	527	1:16,729
782	Bendeck	526	1:16,761
783	Cambar	523	1:16,857
784	Vasques	520	1:16,955
785	Quinteros	518	1:17,020
786	Becerra	514	1:17,153
786	Connor	514	1:17,153
788	Carpio	510	1:17,287
788	Murillos	510	1:17,287
790	Baiza	509	1:17,321
791	Richard	508	1:17,355
791	Ronas	508	1:17,355
793	Castron	507	1:17,389
794	Brizo	506	1:17,424
794	Calidonio	506	1:17,424
796	Cisnado	504	1:17,493
797	Cedillos	503	1:17,528
797	Lambert	503	1:17,528
799	Benavidez	502	1:17,563
799	Maga	502	1:17,563
799	Rogel	502	1:17,563
802	Machuca	501	1:17,598
803	Ambrocio	499	1:17,668
804	Grijalva	498	1:17,704
805	Bonifacio	495	1:17,811
805	Ham	495	1:17,811
807	Trapp	494	1:17,847
808	Sarabia	492	1:17,920
809	Kattan	489	1:18,030
809	Woods	489	1:18,030
811	Antunes	487	1:18,104
811	Limas	487	1:18,104
813	Almazan	485	1:18,178
813	Merlos	485	1:18,178
815	Pino	481	1:18,329
816	Grande	480	1:18,368
817	Arguello	478	1:18,444
817	Olvera	478	1:18,444
819	Villacorta	474	1:18,600
820	Bush	473	1:18,639
821	Nixon	470	1:18,758
822	Bran	465	1:18,960
822	Casasola	465	1:18,960
824	Ceballos	462	1:19,083
825	Degrandez	461	1:19,125
826	Morataya	460	1:19,166
826	Raimundo	460	1:19,166
828	Bustillos	459	1:19,208
828	Iscano	459	1:19,208
830	Cuadra	458	1:19,250
830	Florez	458	1:19,250
830	Montecinos	458	1:19,250
833	Marmol	457	1:19,292
834	Carrillos	454	1:19,419
834	Izcano	454	1:19,419
836	Agustin	452	1:19,505
837	Gamero	450	1:19,592
838	Fino	449	1:19,636
838	Posantes	449	1:19,636
838	Thompson	449	1:19,636
841	Tomas	447	1:19,724
842	Anderson	446	1:19,768
842	Grajeda	446	1:19,768
844	Reyna	445	1:19,812
845	Arambu	444	1:19,857
846	Venegas	437	1:20,175
847	Cuevar	434	1:20,314
848	Riera	430	1:20,503
849	Lambur	428	1:20,599
850	Caba	425	1:20,745
851	Ibarra	420	1:20,992
851	Mancias	420	1:20,992
853	Abarca	417	1:21,143
853	Florentino	417	1:21,143
855	Asturias	416	1:21,193
855	Duque	416	1:21,193
857	Puentes	415	1:21,244
858	Bueno	411	1:21,451
859	Cayetano	410	1:21,504
860	Barillas	409	1:21,556
860	Julian	409	1:21,556
862	Idiaquez	408	1:21,609
863	Mazariego	407	1:21,662
863	Narvaez	407	1:21,662
865	Ni	406	1:21,715
866	Beneth	404	1:21,823
867	Colomer	401	1:21,986
868	Martell	397	1:22,208
869	Gimenez	396	1:22,264
870	Alejandro	395	1:22,320
870	Jones	395	1:22,320
870	Madrigales	395	1:22,320
873	Sequeira	394	1:22,377
874	Anariva	393	1:22,434
874	Chaves	393	1:22,434
876	Manister	392	1:22,491
876	Pesquera	392	1:22,491
878	Cerrano	384	1:22,959
878	Mascare	384	1:22,959
878	Quan	384	1:22,959
881	Canahuati	383	1:23,019
882	de Paz	380	1:23,201
882	Mora	380	1:23,201
884	Chandias	379	1:23,262
884	Gabrie	379	1:23,262
884	Gamoneda	379	1:23,262
884	Uceda	379	1:23,262
888	Casaca	377	1:23,386
888	Greham	377	1:23,386
890	Grant	376	1:23,448
890	Zacapa	376	1:23,448
892	Perea	375	1:23,511
893	Carmona	374	1:23,573
893	San Martin	374	1:23,573
895	Quintana	369	1:23,893
895	Segovia	369	1:23,893
895	Zorto	369	1:23,893
898	Barraza	367	1:24,023
898	Monterrosa	367	1:24,023
900	Pego	363	1:24,288
901	Vallecillos	362	1:24,355
902	Bargas	361	1:24,422
903	Saicion	360	1:24,490
904	Florian	359	1:24,558
905	Leonardo	358	1:24,627
906	Welcome	357	1:24,696
907	Diego	355	1:24,835
908	Lorenzana	354	1:24,905
909	Ledezma	353	1:24,976
909	Montano	353	1:24,976
911	Bojorquez	352	1:25,047
911	Leal	352	1:25,047
911	Morgan	352	1:25,047
914	Moroy	351	1:25,118
915	Ruano	350	1:25,190
916	Lucas	348	1:25,335
917	Chica	346	1:25,481
918	Escamilla	344	1:25,629
918	Lizama	344	1:25,629
918	Salomon	344	1:25,629
921	Juanes	343	1:25,704
922	Canelo	342	1:25,779
922	Justiniano	342	1:25,779
922	Oliveros	342	1:25,779
925	Mauricio	341	1:25,855
926	Landero	338	1:26,084
927	Ballesteros	337	1:26,162
927	Claudino	337	1:26,162
927	Crisanto	337	1:26,162
927	Montez	337	1:26,162
931	Flamenco	336	1:26,239
931	Requeno	336	1:26,239
931	Silvas	336	1:26,239
934	Martin	335	1:26,318
935	Pleites	334	1:26,397
936	Castaneda	332	1:26,556
937	Ovando	331	1:26,636
937	Velis	331	1:26,636
939	Manuel	330	1:26,716
939	Santa Maria	330	1:26,716
941	Godines	329	1:26,798
941	Lucero	329	1:26,798
943	Mesa	327	1:26,962
944	Gamboa	326	1:27,044
944	Paiz	326	1:27,044
946	Cartajena	325	1:27,128
946	Cocas	325	1:27,128
946	Enrriquez	325	1:27,128
949	Simon	323	1:27,295
949	Tela	323	1:27,295
949	Valdivieso	323	1:27,295
952	Collins	321	1:27,466
953	Casa	320	1:27,551
953	Naira	320	1:27,551
955	Galan	319	1:27,638
955	Howell	319	1:27,638
955	Lendos	319	1:27,638
958	Mayes	317	1:27,812
959	Esteban	315	1:27,989
960	Daniel	312	1:28,258
960	Macklin	312	1:28,258
960	Marcelo	312	1:28,258
960	Melendrez	312	1:28,258
960	Stewart	312	1:28,258
960	Vilorio	312	1:28,258
966	Crisostomo	311	1:28,349
966	McNab	311	1:28,349
968	Bordas	310	1:28,440
968	Kelly	310	1:28,440
968	Pandy	310	1:28,440
971	Camacho	309	1:28,532
972	Curry	307	1:28,718
972	Zabala	307	1:28,718
974	Abila	306	1:28,812
974	Leman	306	1:28,812
976	Saybe	304	1:29,001
977	Casalegno	303	1:29,097
977	Goff	303	1:29,097
977	Samayoa	303	1:29,097
980	Esca	302	1:29,194
980	Pantoja	302	1:29,194
982	Hyde	301	1:29,291
983	Mazier	299	1:29,486
983	Pasos	299	1:29,486
985	Fuentez	298	1:29,585
985	Ruz	298	1:29,585
987	Villegas	296	1:29,785
988	Ortis	295	1:29,886
988	Rugama	295	1:29,886
988	Troches	295	1:29,886
991	Bola	294	1:29,988
992	Francisco	292	1:30,193
993	Chimilio	291	1:30,297
993	Larreinaga	291	1:30,297
993	Mijango	291	1:30,297
996	Andrades	290	1:30,402
996	Montalban	290	1:30,402
998	Granado	289	1:30,507
999	Crespo	288	1:30,613
999	Lone	288	1:30,613