1	Sari	976,502	1:135
2	Setiawan	690,405	1:192
3	Hidayat	590,320	1:224
4	Lestari	581,907	1:227
5	Saputra	555,250	1:238
6	Wati	521,904	1:253
7	Rahayu	512,793	1:258
8	Dewi	425,291	1:311
9	Kurniawan	422,978	1:313
10	Santoso	419,301	1:315
11	Putra	414,521	1:319
12	Susanti	408,434	1:324
13	Wahyuni	405,454	1:326
14	Ningsih	349,157	1:379
15	Susanto	339,456	1:390
16	Gunawan	331,285	1:399
17	Arifin	329,057	1:402
18	Siregar	313,489	1:422
19	Astuti	312,933	1:423
20	Wijaya	311,224	1:425
21	Handayani	310,580	1:426
22	Rahman	293,086	1:451
23	Irawan	274,010	1:483
24	Hasanah	252,172	1:524
25	Nurhayati	239,175	1:553
26	Putri	234,608	1:564
27	Wulandari	231,816	1:570
28	Wibowo	230,560	1:574
29	Aminah	227,610	1:581
30	Efendi	224,462	1:589
31	Yanti	224,001	1:590
32	Maulana	223,089	1:593
33	Sinaga	221,905	1:596
34	Hadi	221,409	1:597
35	Suryani	219,188	1:603
36	Fatimah	217,422	1:608
37	Wahyudi	214,282	1:617
38	Lubis	211,637	1:625
39	Pratama	206,687	1:640
40	Utami	205,979	1:642
41	Anwar	205,464	1:644
42	Nasution	203,322	1:650
43	Hermawan	198,684	1:666
44	Ali	198,278	1:667
45	Prasetyo	188,112	1:703
46	Rahmawati	186,147	1:710
47	Nugroho	184,989	1:715
48	Harahap	184,229	1:718
49	Purba	182,586	1:724
50	Rohman	179,948	1:735
51	Yusuf	179,647	1:736
52	Mulyani	179,355	1:737
53	Purwanto	178,760	1:740
54	Purnomo	176,001	1:751
55	Widodo	174,811	1:757
56	Hasan	170,833	1:774
57	Utomo	164,819	1:802
58	Hartono	157,807	1:838
59	Ginting	157,039	1:842
60	Ahmad	155,450	1:851
61	Fauzi	152,100	1:869
62	Abidin	151,695	1:872
63	Simanjuntak	151,443	1:873
64	Yani	151,400	1:874
65	Hayati	149,642	1:884
66	Aisyah	149,079	1:887
67	Hakim	146,628	1:902
68	Marlina	140,971	1:938
69	Nugraha	139,327	1:949
70	Hasibuan	139,071	1:951
71	Permana	138,764	1:953
72	Sumiati	138,061	1:958
73	Supriatna	132,362	1:999
74	Iskandar	132,309	1:1,000
75	Salim	132,114	1:1,001
76	Suryana	131,156	1:1,008
77	Amin	130,768	1:1,011
78	Mulyana	130,081	1:1,017
79	Bahri	128,515	1:1,029
80	Mulyadi	127,831	1:1,035
81	Sumarni	126,678	1:1,044
82	Supriadi	126,004	1:1,050
83	Sihombing	125,705	1:1,052
84	Sulastri	124,390	1:1,063
85	Nurjanah	123,337	1:1,072
86	Agustina	121,611	1:1,087
87	Aisah	121,372	1:1,090
88	Tarigan	120,920	1:1,094
89	Sembiring	119,802	1:1,104
90	Riyadi	118,804	1:1,113
91	Kurnia	118,144	1:1,119
92	Riyanto	117,640	1:1,124
93	Ismail	117,361	1:1,127
94	Yulianti	117,060	1:1,130
95	Huda	116,930	1:1,131
96	Pratiwi	116,071	1:1,139
97	Aini	115,179	1:1,148
98	Safitri	113,896	1:1,161
99	Nur	113,537	1:1,165
100	Nuraeni	112,658	1:1,174
101	Abdullah	111,374	1:1,187
102	Se	110,179	1:1,200
103	Herawati	110,036	1:1,202
104	Anggraini	109,879	1:1,204
105	Mulyati	108,232	1:1,222
106	Anggraeni	108,164	1:1,223
107	Kurniawati	107,903	1:1,226
108	Pasaribu	107,203	1:1,234
109	Yanto	107,097	1:1,235
110	Wiyono	106,732	1:1,239
111	Susilawati	106,298	1:1,244
112	Hidayati	105,668	1:1,252
113	Susilo	105,255	1:1,256
114	Firmansyah	105,243	1:1,257
115	Ibrahim	104,950	1:1,260
116	Usman	104,689	1:1,263
117	Hidayah	104,369	1:1,267
118	Setiawati	104,151	1:1,270
119	Hartati	103,969	1:1,272
120	Akbar	103,655	1:1,276
121	Kusuma	103,213	1:1,281
122	Saragih	102,993	1:1,284
123	Kogoya	102,562	1:1,289
124	Suherman	102,404	1:1,291
125	Saleh	102,022	1:1,296
126	Ridwan	101,451	1:1,304
127	Saepudin	100,160	1:1,320
128	Hamid	98,162	1:1,347
129	Sutrisno	97,814	1:1,352
130	Sitorus	97,716	1:1,353
131	Kurniasih	97,677	1:1,354
132	Saputro	97,353	1:1,358
133	Rohmah	96,589	1:1,369
134	Astutik	96,263	1:1,374
135	Andriani	95,661	1:1,382
136	Rahmat	95,227	1:1,389
137	Sutisna	94,808	1:1,395
138	Khasanah	94,733	1:1,396
139	Darmawan	94,299	1:1,402
140	Farida	94,149	1:1,405
141	Spd	94,025	1:1,407
142	Purwanti	93,510	1:1,414
143	Sudrajat	93,499	1:1,414
144	Khotimah	93,262	1:1,418
145	Siahaan	92,925	1:1,423
146	Kartini	92,585	1:1,428
147	Sulaeman	92,466	1:1,430
148	Ramadhan	92,086	1:1,436
149	Manurung	92,071	1:1,436
150	Situmorang	90,759	1:1,457
151	Jaya	90,566	1:1,460
152	Siswanto	90,559	1:1,460
153	Suryadi	90,184	1:1,466
154	Halim	89,820	1:1,472
155	Supriyadi	89,817	1:1,472
156	Aziz	89,378	1:1,480
157	Damayanti	89,190	1:1,483
158	Komariah	84,756	1:1,560
159	Panjaitan	84,711	1:1,561
160	Azis	84,645	1:1,562
161	Maryati	84,302	1:1,569
162	Yuliana	84,282	1:1,569
163	Prayitno	84,115	1:1,572
164	Anam	83,738	1:1,579
165	Cahyono	83,576	1:1,582
166	Fitriani	83,545	1:1,583
167	Karim	83,521	1:1,583
168	Wahyuningsih	83,446	1:1,585
169	Nainggolan	83,237	1:1,589
170	Purnama	82,954	1:1,594
171	Junaedi	82,906	1:1,595
172	Mulyono	81,929	1:1,614
173	Azizah	81,624	1:1,620
174	Hariyanto	81,188	1:1,629
175	Herlina	81,165	1:1,629
176	Tanjung	80,155	1:1,650
177	Haryanto	80,119	1:1,651
178	Arif	79,659	1:1,660
179	Wijayanti	79,409	1:1,665
180	Asih	79,370	1:1,666
181	Firdaus	79,328	1:1,667
182	Halimah	79,213	1:1,670
183	Basri	79,147	1:1,671
184	Jannah	79,083	1:1,672
185	Rosita	78,805	1:1,678
186	Tambunan	78,625	1:1,682
187	Syahputra	78,427	1:1,686
188	Maryani	78,425	1:1,686
189	Sugianto	77,177	1:1,714
190	Supriyanto	77,013	1:1,717
191	Yulianto	76,552	1:1,728
192	Puspitasari	76,210	1:1,735
193	Simbolon	76,160	1:1,736
194	Kartika	75,910	1:1,742
195	Hj	75,876	1:1,743
196	Umar	75,565	1:1,750
197	Budiman	74,940	1:1,765
198	Soleh	74,719	1:1,770
199	Fitri	74,217	1:1,782
200	Susilowati	74,033	1:1,786
201	Suryati	73,692	1:1,795
202	Sanjaya	73,368	1:1,803
203	Rifai	73,097	1:1,809
204	Rizal	72,885	1:1,814
205	Effendi	72,093	1:1,834
206	Yuningsih	71,972	1:1,838
207	Gultom	71,644	1:1,846
208	Hartini	71,244	1:1,856
209	Sugiarto	71,137	1:1,859
210	Nurdin	71,008	1:1,862
211	Yunus	70,993	1:1,863
212	Amalia	70,701	1:1,871
213	Ernawati	70,306	1:1,881
214	Rohayati	70,210	1:1,884
215	Haryati	70,080	1:1,887
216	Mustofa	69,887	1:1,892
217	Silalahi	69,881	1:1,892
218	Sh	69,666	1:1,898
219	Raharjo	69,449	1:1,904
220	Setyawan	69,083	1:1,914
221	Simamora	68,800	1:1,922
222	Wenda	67,993	1:1,945
223	Salam	67,640	1:1,955
224	Ramdani	67,546	1:1,958
225	Candra	67,479	1:1,960
226	Chandra	67,039	1:1,973
227	Gulo	66,713	1:1,982
228	Sopian	66,598	1:1,986
229	Laia	66,234	1:1,997
230	Manalu	66,091	1:2,001
231	Yusup	65,355	1:2,024
232	Yuliani	65,258	1:2,027
233	Lesmana	65,018	1:2,034
234	Agustin	64,758	1:2,042
235	Setyowati	64,735	1:2,043
236	Yunita	64,648	1:2,046
237	Priyanto	64,007	1:2,066
238	Ardiansyah	63,968	1:2,067
239	Ritonga	63,497	1:2,083
240	Wardani	63,490	1:2,083
241	Siagian	63,413	1:2,086
242	Munawaroh	63,318	1:2,089
243	Slamet	62,780	1:2,107
244	Maryam	62,619	1:2,112
245	Nurhasanah	62,373	1:2,120
246	Damanik	62,093	1:2,130
247	Patimah	61,819	1:2,139
248	Budi	61,759	1:2,141
249	Sugiarti	61,085	1:2,165
250	Malik	61,042	1:2,167
251	Setiadi	60,838	1:2,174
252	Wicaksono	60,826	1:2,174
253	Purwati	60,614	1:2,182
254	Masitoh	60,447	1:2,188
255	Hermanto	60,085	1:2,201
256	Taufik	59,935	1:2,207
257	Indrawati	59,628	1:2,218
258	Ratnasari	59,273	1:2,231
259	Suwito	59,264	1:2,232
260	Pamungkas	59,229	1:2,233
261	Ningrum	59,190	1:2,234
262	Sartika	59,177	1:2,235
263	Sanusi	59,007	1:2,241
264	Manik	58,768	1:2,250
265	Sidik	58,712	1:2,253
266	Komalasari	58,461	1:2,262
267	Hutabarat	58,415	1:2,264
268	Sianturi	58,263	1:2,270
269	Suparman	58,244	1:2,271
270	Waluyo	57,876	1:2,285
271	Nst	57,820	1:2,287
272	Kadir	57,641	1:2,294
273	Amelia	57,219	1:2,311
274	Tabuni	56,743	1:2,331
275	Sirait	56,723	1:2,331
276	Suhendar	56,657	1:2,334
277	Tampubolon	56,651	1:2,334
278	Sundari	56,198	1:2,353
279	Waruwu	55,900	1:2,366
280	Wahyudin	55,889	1:2,366
281	Latif	55,713	1:2,374
282	Kusnadi	55,663	1:2,376
283	Zebua	55,562	1:2,380
284	Murni	55,517	1:2,382
285	Solihin	55,368	1:2,389
286	Diana	55,244	1:2,394
287	Sitompul	55,190	1:2,396
288	Rachman	55,075	1:2,401
289	Maesaroh	54,712	1:2,417
290	Puspita	54,452	1:2,429
291	Gani	54,131	1:2,443
292	Simatupang	53,833	1:2,457
293	Halawa	53,640	1:2,465
294	Prabowo	53,535	1:2,470
295	Adi	53,506	1:2,472
296	Fauziah	53,493	1:2,472
297	Yasin	53,085	1:2,491
298	Fatmawati	52,486	1:2,520
299	Ulfa	51,546	1:2,566
300	Harianto	51,407	1:2,573
301	Munir	51,402	1:2,573
302	Ariani	51,248	1:2,581
303	Purnamasari	50,960	1:2,595
304	Hastuti	50,882	1:2,599
305	Saadah	50,824	1:2,602
306	Kurniati	50,812	1:2,603
307	Kulsum	50,790	1:2,604
308	Rohim	50,784	1:2,604
309	Said	50,726	1:2,607
310	Sitepu	50,610	1:2,613
311	Yahya	50,503	1:2,619
312	Mahmud	50,427	1:2,623
313	Syah	50,245	1:2,632
314	Saputri	50,190	1:2,635
315	Handoko	50,116	1:2,639
316	Adam	49,956	1:2,647
317	Afandi	49,588	1:2,667
318	Aji	49,471	1:2,673
319	Hamzah	49,436	1:2,675
320	Wahid	49,316	1:2,682
321	Muhammad	49,298	1:2,683
322	Sofyan	49,223	1:2,687
323	Jaelani	49,113	1:2,693
324	Marpaung	49,069	1:2,695
325	Irawati	48,840	1:2,708
326	Marbun	48,819	1:2,709
327	Nasir	48,743	1:2,713
328	Sukaesih	48,631	1:2,719
329	Jubaedah	48,465	1:2,729
330	Idris	48,139	1:2,747
331	Asiyah	48,119	1:2,748
332	Julaeha	47,992	1:2,756
333	Yati	47,626	1:2,777
334	Winarti	47,419	1:2,789
335	Nababan	47,350	1:2,793
336	Sitanggang	47,245	1:2,799
337	Suhartini	47,241	1:2,799
338	Santosa	47,066	1:2,810
339	Basuki	47,061	1:2,810
340	Samsudin	46,851	1:2,823
341	Rokayah	46,619	1:2,837
342	Fadilah	46,595	1:2,838
343	Hutagalung	46,536	1:2,842
344	Sopiah	46,457	1:2,847
345	Pramono	46,384	1:2,851
346	Junaidi	46,313	1:2,856
347	Silaban	46,298	1:2,856
348	Oktaviani	46,262	1:2,859
349	Sihotang	46,234	1:2,860
350	Romlah	46,207	1:2,862
351	Fitria	46,091	1:2,869
352	Maemunah	45,901	1:2,881
353	Kosasih	45,684	1:2,895
354	Sulaiman	45,463	1:2,909
355	Rini	45,271	1:2,921
356	Rohani	44,609	1:2,965
357	Ariyanto	44,550	1:2,969
358	Rohaeti	44,453	1:2,975
359	Haris	44,095	1:2,999
360	Oktavia	44,071	1:3,001
361	Nuraini	44,034	1:3,003
362	Indriani	43,934	1:3,010
363	Majid	43,933	1:3,010
364	Latifah	43,932	1:3,010
365	Muslim	43,675	1:3,028
366	Asiah	43,381	1:3,049
367	Rianto	43,163	1:3,064
368	Janah	42,846	1:3,087
369	Rambe	42,844	1:3,087
370	Novianti	42,830	1:3,088
371	Rohaeni	42,795	1:3,090
372	Prasetya	42,709	1:3,097
373	Sunarti	42,671	1:3,099
374	Noor	42,564	1:3,107
375	Permatasari	42,302	1:3,126
376	Apriani	42,289	1:3,127
377	Andriyani	42,285	1:3,128
378	Pertiwi	42,258	1:3,130
379	Rahmah	42,208	1:3,133
380	Aripin	42,203	1:3,134
381	Lase	42,064	1:3,144
382	Hamdani	41,764	1:3,167
383	Alam	41,594	1:3,180
384	Barus	41,464	1:3,189
385	Purwaningsih	41,383	1:3,196
386	Nisa	41,326	1:3,200
387	Wahab	41,157	1:3,213
388	Gea	41,144	1:3,214
389	Harefa	41,068	1:3,220
390	Santi	40,875	1:3,235
391	Sucipto	40,728	1:3,247
392	Supardi	40,588	1:3,258
393	Haryani	40,493	1:3,266
394	Rosadi	40,294	1:3,282
395	Riadi	40,293	1:3,282
396	Ayu	40,164	1:3,293
397	Rahim	40,103	1:3,298
398	Husen	39,904	1:3,314
399	Rasyid	39,807	1:3,322
400	Ar	39,736	1:3,328
401	Salamah	39,722	1:3,329
402	Novita	39,532	1:3,345
403	Ulfah	39,318	1:3,364
404	Utama	39,303	1:3,365
405	Cahyadi	39,232	1:3,371
406	Silitonga	39,164	1:3,377
407	Hulu	39,118	1:3,381
408	Pakpahan	38,880	1:3,401
409	Suwarno	38,855	1:3,404
410	Natalia	38,754	1:3,413
411	Rachmawati	38,678	1:3,419
412	Rejeki	38,549	1:3,431
413	Trisnawati	38,480	1:3,437
414	Tobing	38,300	1:3,453
415	Winarsih	38,192	1:3,463
416	Sumarna	38,151	1:3,466
417	Suprapto	38,150	1:3,467
418	Sholeh	38,125	1:3,469
419	Amri	37,970	1:3,483
420	Sujana	37,967	1:3,483
421	Hsb	37,878	1:3,491
422	Martini	37,854	1:3,494
423	Septiani	37,765	1:3,502
424	Zega	37,712	1:3,507
425	Arianto	37,646	1:3,513
426	Daud	37,467	1:3,530
427	Priyono	37,421	1:3,534
428	Wonda	37,376	1:3,538
429	Alamsyah	37,358	1:3,540
430	Samosir	37,121	1:3,563
431	Kusumawati	36,922	1:3,582
432	Ramadhani	36,847	1:3,589
433	Hs	36,805	1:3,593
434	Sunarya	36,789	1:3,595
435	Royani	36,705	1:3,603
436	Mardiana	36,666	1:3,607
437	Surya	36,361	1:3,637
438	Rosidah	36,176	1:3,656
439	Andayani	36,061	1:3,667
440	Suhendi	36,039	1:3,670
441	Suryanto	36,015	1:3,672
442	Panggabean	35,959	1:3,678
443	Nuryani	35,937	1:3,680
444	Munandar	35,811	1:3,693
445	Aulia	35,808	1:3,693
446	Syafii	35,805	1:3,694
447	Rizki	35,798	1:3,694
448	Supriatin	35,768	1:3,697
449	Nio	35,621	1:3,713
450	Haryono	35,607	1:3,714
451	Aritonang	35,586	1:3,716
452	Budiono	35,509	1:3,724
453	Imron	35,406	1:3,735
454	Kasim	35,283	1:3,748
455	Koswara	35,188	1:3,758
456	Hajar	35,089	1:3,769
457	Satria	35,075	1:3,770
458	Sulistyowati	35,072	1:3,771
459	Sani	35,059	1:3,772
460	Fahmi	35,012	1:3,777
461	Napitupulu	34,993	1:3,779
462	Wibisono	34,935	1:3,786
463	Hamidah	34,897	1:3,790
464	Hartanto	34,888	1:3,791
465	Widiastuti	34,887	1:3,791
466	Hutapea	34,884	1:3,791
467	Bakar	34,874	1:3,792
468	Haryanti	34,862	1:3,794
469	Solihat	34,713	1:3,810
470	Saripudin	34,680	1:3,813
471	Murib	34,664	1:3,815
472	Telaumbanua	34,663	1:3,815
473	Sodikin	34,654	1:3,816
474	Dani	34,596	1:3,823
475	Haryadi	34,591	1:3,823
476	Kholifah	34,496	1:3,834
477	Hikmah	34,430	1:3,841
478	Subekti	34,350	1:3,850
479	Aryani	34,333	1:3,852
480	Amir	34,313	1:3,854
481	Pribadi	34,260	1:3,860
482	Mayasari	34,165	1:3,871
483	Rustandi	34,136	1:3,874
484	Suwandi	34,118	1:3,876
485	Mariana	34,047	1:3,884
486	Yasa	33,996	1:3,890
487	Cahyani	33,915	1:3,899
488	Nurjaman	33,847	1:3,907
489	Rohimah	33,777	1:3,915
490	Zai	33,632	1:3,932
491	Ani	33,518	1:3,946
492	Khodijah	33,501	1:3,948
493	Ansori	33,443	1:3,954
494	Sagala	33,386	1:3,961
495	Ulum	33,379	1:3,962
496	Faisal	33,325	1:3,968
497	Pane	33,267	1:3,975
498	Mintarsih	33,264	1:3,976
499	As	33,249	1:3,978
500	Yana	33,180	1:3,986
501	Mariam	33,163	1:3,988
502	Sandi	33,156	1:3,989
503	Atikah	33,025	1:4,005
504	Andika	32,967	1:4,012
505	Sutanto	32,898	1:4,020
506	Widayati	32,896	1:4,020
507	Hendra	32,830	1:4,028
508	Triana	32,744	1:4,039
509	Sadiyah	32,713	1:4,043
510	Sumantri	32,578	1:4,059
511	Hanafi	32,567	1:4,061
512	Harun	32,526	1:4,066
513	Novitasari	32,465	1:4,074
514	Saepuloh	32,462	1:4,074
515	Budianto	32,375	1:4,085
516	Zakaria	32,374	1:4,085
517	Pranoto	32,276	1:4,097
518	Dahlan	32,061	1:4,125
519	Pranata	31,988	1:4,134
520	Mubarok	31,954	1:4,139
521	Widjaja	31,945	1:4,140
522	Jamilah	31,941	1:4,140
523	Ndruru	31,862	1:4,151
524	Maharani	31,832	1:4,155
525	Komarudin	31,813	1:4,157
526	Wahyu	31,788	1:4,160
527	Agus	31,709	1:4,171
528	Fitriana	31,698	1:4,172
529	Pradana	31,691	1:4,173
530	Wulan	31,665	1:4,177
531	Sianipar	31,639	1:4,180
532	Kalsum	31,594	1:4,186
533	Sumiyati	31,393	1:4,213
534	Safii	31,387	1:4,214
535	Juwita	31,291	1:4,226
536	Juariah	31,284	1:4,227
537	Batubara	31,274	1:4,229
538	Kusmiati	31,233	1:4,234
539	Agustini	31,208	1:4,238
540	Mustika	31,163	1:4,244
541	Suhendra	31,137	1:4,247
542	Ishak	31,071	1:4,256
543	Chasanah	30,990	1:4,267
544	Rukmana	30,828	1:4,290
545	Ilyas	30,787	1:4,296
546	Pardede	30,675	1:4,311
547	Prihatin	30,519	1:4,333
548	Zaini	30,505	1:4,335
549	Suminar	30,340	1:4,359
550	Lisnawati	30,312	1:4,363
551	Hrp	30,287	1:4,367
552	Maria	30,244	1:4,373
553	Suwarni	30,142	1:4,388
554	Naibaho	30,136	1:4,388
555	Nurlaela	30,129	1:4,389
556	Indriyani	30,098	1:4,394
557	Rozi	30,092	1:4,395
558	Anggara	29,990	1:4,410
559	Fitriyani	29,895	1:4,424
560	Ambarwati	29,866	1:4,428
561	Suprianto	29,855	1:4,430
562	Lukman	29,612	1:4,466
563	Siburian	29,549	1:4,476
564	Aprilia	29,501	1:4,483
565	Setyawati	29,419	1:4,495
566	Komariyah	29,305	1:4,513
567	Nawawi	29,257	1:4,520
568	Bangun	29,209	1:4,528
569	Yuliati	29,120	1:4,542
570	Sumarto	29,089	1:4,546
571	Mahmudah	29,077	1:4,548
572	Wardana	29,072	1:4,549
573	Chotimah	29,057	1:4,551
574	Syam	29,051	1:4,552
575	Khotijah	28,991	1:4,562
576	Ekawati	28,975	1:4,564
577	Lie	28,929	1:4,572
578	Indra	28,908	1:4,575
579	Rusli	28,873	1:4,580
580	Ramli	28,812	1:4,590
581	Hodijah	28,759	1:4,599
582	Sopandi	28,633	1:4,619
583	Wulansari	28,551	1:4,632
584	Simarmata	28,366	1:4,662
585	Ashari	28,320	1:4,670
586	Iswanto	28,197	1:4,690
587	Khoiriyah	28,175	1:4,694
588	Daulay	28,149	1:4,698
589	Rochman	28,030	1:4,718
590	Iqbal	28,016	1:4,720
591	Pohan	27,939	1:4,733
592	Aeni	27,891	1:4,742
593	Winata	27,875	1:4,744
594	Surbakti	27,866	1:4,746
595	Ratnawati	27,804	1:4,756
596	Aditya	27,778	1:4,761
597	Mansur	27,732	1:4,769
598	Yikwa	27,631	1:4,786
599	Musa	27,571	1:4,797
600	Mukti	27,552	1:4,800
601	Setiyawan	27,536	1:4,803
602	Laila	27,513	1:4,807
603	Hidayatullah	27,510	1:4,807
604	Syarif	27,454	1:4,817
605	Mariyam	27,442	1:4,819
606	Achmad	27,440	1:4,820
607	Munthe	27,223	1:4,858
608	Winarni	27,106	1:4,879
609	Sukmawati	27,070	1:4,885
610	Sasmita	27,048	1:4,889
611	Setyaningsih	27,047	1:4,890
612	Adawiyah	26,994	1:4,899
613	Fauzan	26,959	1:4,906
614	Gaol	26,957	1:4,906
615	Karlina	26,949	1:4,907
616	Triyono	26,931	1:4,911
617	Suyanto	26,888	1:4,919
618	Tahir	26,842	1:4,927
619	Tamba	26,817	1:4,932
620	Yeni	26,777	1:4,939
621	Darma	26,773	1:4,940
622	Ariyani	26,755	1:4,943
623	Nuryati	26,750	1:4,944
624	Herman	26,645	1:4,963
625	Yulia	26,546	1:4,982
626	Fajar	26,365	1:5,016
627	Rusmana	26,353	1:5,018
628	Yuniarti	26,344	1:5,020
629	Suganda	26,333	1:5,022
630	Rusmiati	26,327	1:5,023
631	Perdana	26,302	1:5,028
632	Faridah	26,264	1:5,035
633	Husain	26,256	1:5,037
634	Putro	26,198	1:5,048
635	Indah	26,069	1:5,073
636	Maimunah	26,055	1:5,076
637	Jamil	26,053	1:5,076
638	Ependi	26,050	1:5,077
639	Limbong	26,047	1:5,077
640	Fadli	26,014	1:5,084
641	Jayanti	26,012	1:5,084
642	Sunaryo	25,956	1:5,095
643	Hanifah	25,935	1:5,099
644	Muhamad	25,891	1:5,108
645	Syukur	25,842	1:5,118
646	Anita	25,831	1:5,120
647	Wirawan	25,791	1:5,128
648	Wijayanto	25,758	1:5,134
649	Mamonto	25,718	1:5,142
650	Wanimbo	25,705	1:5,145
651	Hadijah	25,701	1:5,146
652	Suseno	25,692	1:5,147
653	Pulungan	25,678	1:5,150
654	Jamaludin	25,632	1:5,160
655	Fadillah	25,587	1:5,169
656	Somantri	25,579	1:5,170
657	Agung	25,566	1:5,173
658	Udin	25,548	1:5,176
659	Sitohang	25,544	1:5,177
660	Riyanti	25,527	1:5,181
661	Utari	25,510	1:5,184
662	Hermawati	25,490	1:5,188
663	Rodiah	25,427	1:5,201
664	Kholis	25,414	1:5,204
665	Eka Putra	25,410	1:5,205
666	Y	25,348	1:5,217
667	Anisah	25,346	1:5,218
668	Sunarsih	25,343	1:5,218
669	Sibarani	25,341	1:5,219
670	Supriyatna	25,297	1:5,228
671	Hasyim	25,262	1:5,235
672	Abas	25,223	1:5,243
673	Fitriyah	25,181	1:5,252
674	Manullang	25,178	1:5,253
675	Ariyanti	25,159	1:5,257
676	Ilham	25,142	1:5,260
677	Jaenudin	25,050	1:5,279
677	Pangestu	25,050	1:5,279
679	Megawati	25,040	1:5,282
680	Asmara	25,034	1:5,283
681	Bakri	24,980	1:5,294
682	Husna	24,915	1:5,308
683	Febriani	24,825	1:5,327
684	Istiqomah	24,777	1:5,338
685	Rahmi	24,727	1:5,348
686	Sadiah	24,663	1:5,362
687	Solihah	24,531	1:5,391
688	Prakoso	24,473	1:5,404
689	Situmeang	24,446	1:5,410
690	Ginanjar	24,403	1:5,419
691	Ramadani	24,386	1:5,423
692	Paputungan	24,380	1:5,424
693	Mariani	24,354	1:5,430
694	Kurniadi	24,337	1:5,434
695	Sunandar	24,306	1:5,441
696	Irfan	24,303	1:5,442
697	Permadi	24,284	1:5,446
698	Hutasoit	24,261	1:5,451
699	Herdiana	24,198	1:5,465
700	Komala	24,147	1:5,477
701	Butar	24,141	1:5,478
702	Atmaja	24,116	1:5,484
703	Hendri	24,074	1:5,493
704	Abdillah	24,022	1:5,505
705	Sunardi	23,981	1:5,515
706	Seran	23,933	1:5,526
707	Prasetiyo	23,878	1:5,539
708	Sukmana	23,826	1:5,551
709	Ati	23,754	1:5,567
710	Pakaya	23,751	1:5,568
711	Suprihatin	23,692	1:5,582
712	Sopyan	23,677	1:5,586
713	Azhari	23,614	1:5,600
714	Kristanto	23,606	1:5,602
715	Yadi	23,571	1:5,611
716	Umam	23,552	1:5,615
717	Kosim	23,546	1:5,617
718	Devi	23,534	1:5,619
719	Hotimah	23,522	1:5,622
720	Widyawati	23,519	1:5,623
721	Afifah	23,483	1:5,632
722	Priatna	23,449	1:5,640
723	Septiana	23,447	1:5,640
724	Nengsih	23,411	1:5,649
725	Prayoga	23,351	1:5,664
726	Sinurat	23,315	1:5,672
727	Fatah	23,280	1:5,681
728	Jalil	23,236	1:5,692
729	Hermansyah	23,192	1:5,702
730	Setianingsih	23,165	1:5,709
731	Husin	23,161	1:5,710
732	Rochim	23,133	1:5,717
733	Faizah	23,073	1:5,732
734	Masruroh	23,053	1:5,737
735	Sugandi	23,008	1:5,748
736	Pawiro	23,006	1:5,748
737	Wartini	22,999	1:5,750
738	Apriyanti	22,995	1:5,751
739	Abdul	22,962	1:5,759
740	Karmila	22,902	1:5,775
741	Budiyanto	22,891	1:5,777
742	Hawa	22,860	1:5,785
743	Rani	22,820	1:5,795
744	Mutmainah	22,745	1:5,814
745	Rejo	22,695	1:5,827
746	Kamal	22,685	1:5,830
747	Rohmat	22,657	1:5,837
748	Sitinjak	22,623	1:5,846
749	Sumartini	22,598	1:5,852
750	Arsyad	22,565	1:5,861
751	Hartatik	22,547	1:5,865
752	Prayogo	22,513	1:5,874
753	Febrianto	22,512	1:5,875
754	Nikmah	22,477	1:5,884
755	Mustopa	22,417	1:5,900
756	Asri	22,399	1:5,904
757	Sunarto	22,389	1:5,907
758	Sp	22,347	1:5,918
759	Arief	22,326	1:5,924
760	Zalukhu	22,254	1:5,943
761	Drs	22,186	1:5,961
762	Sumarno	22,121	1:5,978
763	Harsono	22,101	1:5,984
764	Roni	22,049	1:5,998
765	Winarto	22,038	1:6,001
766	Aliyah	22,025	1:6,005
767	Sudirman	22,009	1:6,009
768	Ny	21,988	1:6,015
769	Agustian	21,979	1:6,017
770	Rohana	21,976	1:6,018
771	Sarah	21,972	1:6,019
772	Lan	21,940	1:6,028
773	Nuryanti	21,864	1:6,049
774	Kuswanto	21,861	1:6,050
775	Bahtiar	21,856	1:6,051
776	Jafar	21,835	1:6,057
777	Kholik	21,833	1:6,057
778	Apriyani	21,752	1:6,080
779	Saidah	21,728	1:6,087
780	Sipayung	21,672	1:6,102
781	Suprapti	21,652	1:6,108
782	Sutikno	21,644	1:6,110
783	Muin	21,564	1:6,133
784	Alim	21,556	1:6,135
785	Yuwono	21,537	1:6,141
786	Setiani	21,531	1:6,142
787	Hanum	21,507	1:6,149
788	Anisa	21,482	1:6,156
789	Sobari	21,481	1:6,157
790	Buulolo	21,424	1:6,173
791	Sukardi	21,400	1:6,180
792	Maryana	21,351	1:6,194
793	Ms	21,333	1:6,199
794	Nurdiansyah	21,316	1:6,204
795	Rahma	21,288	1:6,212
796	Simangunsong	21,266	1:6,219
797	Malau	21,241	1:6,226
798	Dahlia	21,207	1:6,236
799	Manan	21,196	1:6,239
800	Anto	21,168	1:6,248
801	Djafar	21,156	1:6,251
802	Dwi Lestari	21,130	1:6,259
803	Simanullang	21,127	1:6,260
804	Heryanto	21,126	1:6,260
805	Widyastuti	21,123	1:6,261
806	Hapsari	21,073	1:6,276
807	Rosmiati	21,014	1:6,293
808	Sulistyo	21,008	1:6,295
809	Ikhsan	20,978	1:6,304
810	Karo	20,963	1:6,309
811	Rohmawati	20,953	1:6,312
812	Wahono	20,951	1:6,312
813	Edi	20,927	1:6,320
814	Suharti	20,926	1:6,320
815	Rauf	20,909	1:6,325
816	Kaka	20,885	1:6,332
817	Maisaroh	20,881	1:6,333
818	Sihite	20,850	1:6,343
819	Pambudi	20,831	1:6,349
820	Septian	20,804	1:6,357
821	Saripah	20,786	1:6,362
822	Ismawati	20,783	1:6,363
823	Winarno	20,776	1:6,365
824	Rohanah	20,774	1:6,366
825	Maruf	20,765	1:6,369
825	Mendrofa	20,765	1:6,369
827	Andrianto	20,681	1:6,395
828	Taufiq	20,662	1:6,401
829	Sholihah	20,609	1:6,417
830	Mahendra	20,588	1:6,424
831	Nurlela	20,582	1:6,425
832	Fikri	20,539	1:6,439
832	Riani	20,539	1:6,439
834	Sumardi	20,510	1:6,448
835	Fatoni	20,500	1:6,451
836	Hasim	20,471	1:6,460
837	Ardianto	20,463	1:6,463
838	Iman	20,454	1:6,466
839	Amd	20,447	1:6,468
840	Aryanto	20,362	1:6,495
840	Rokhim	20,362	1:6,495
842	Sidabutar	20,349	1:6,499
843	Aprianti	20,339	1:6,502
844	Hariadi	20,299	1:6,515
845	Arisandi	20,266	1:6,526
846	Azmi	20,265	1:6,526
847	Supriyono	20,257	1:6,529
848	Alwi	20,239	1:6,534
849	Laili	20,181	1:6,553
850	Heryani	20,174	1:6,555
851	Rosyid	20,157	1:6,561
852	Pangaribuan	20,134	1:6,568
853	Kristianto	20,066	1:6,591
854	Mustafa	20,062	1:6,592
855	Wahyono	20,060	1:6,593
856	Budiarti	20,021	1:6,606
857	Saefudin	19,993	1:6,615
858	Hendrawan	19,981	1:6,619
859	Ratna	19,961	1:6,625
860	Suriani	19,934	1:6,634
861	Hasanudin	19,929	1:6,636
862	Giawa	19,869	1:6,656
863	Triyanto	19,865	1:6,657
864	Fajri	19,856	1:6,660
865	Anas	19,854	1:6,661
866	Laksono	19,842	1:6,665
867	Muttaqin	19,748	1:6,697
868	Toha	19,700	1:6,713
869	Mulyanto	19,692	1:6,716
870	Irwan	19,687	1:6,718
871	Badriyah	19,670	1:6,723
872	Gumilar	19,638	1:6,734
873	Diharjo	19,597	1:6,748
874	Syarifudin	19,582	1:6,754
875	Sugiono	19,559	1:6,762
876	Irwanto	19,521	1:6,775
877	Rangkuti	19,500	1:6,782
878	Rosid	19,494	1:6,784
879	Wiguna	19,480	1:6,789
880	Aryanti	19,479	1:6,789
881	Juanda	19,478	1:6,790
882	Ir	19,465	1:6,794
883	Alawiyah	19,437	1:6,804
884	Febrianti	19,404	1:6,816
885	Larasati	19,395	1:6,819
886	Sapitri	19,393	1:6,819
887	Supendi	19,387	1:6,822
888	Liana	19,376	1:6,825
889	Muis	19,374	1:6,826
890	Supandi	19,360	1:6,831
891	Supartini	19,331	1:6,841
892	Hia	19,325	1:6,843
893	Hidayatulloh	19,316	1:6,847
894	Kurniasari	19,309	1:6,849
895	Rukmini	19,232	1:6,877
896	Subandi	19,226	1:6,879
897	Suyono	19,195	1:6,890
898	Isa	19,192	1:6,891
899	Dalimunthe	19,154	1:6,905
900	Prasetio	19,150	1:6,906
901	Wibawa	19,122	1:6,916
902	Idrus	19,120	1:6,917
903	Fatonah	19,103	1:6,923
904	Afriani	19,095	1:6,926
905	Sugiyanto	19,059	1:6,939
906	Rahmadani	19,053	1:6,941
907	Handoyo	19,050	1:6,942
908	Mardiah	19,040	1:6,946
909	Yuliawati	19,013	1:6,956
910	Habibah	18,991	1:6,964
911	Arini	18,957	1:6,976
912	Saraswati	18,917	1:6,991
913	Ahmadi	18,889	1:7,001
914	Widiyanto	18,865	1:7,010
915	Mulya	18,805	1:7,033
916	Zuhri	18,795	1:7,036
917	Qomariyah	18,689	1:7,076
918	Warni	18,686	1:7,077
919	Pujiati	18,672	1:7,083
920	Ardi	18,650	1:7,091
921	Amanah	18,623	1:7,101
922	Triono	18,601	1:7,110
923	Santika	18,595	1:7,112
924	Suroso	18,586	1:7,116
925	Girsang	18,582	1:7,117
926	Rosdiana	18,566	1:7,123
927	Kuraesin	18,558	1:7,126
928	Andi	18,512	1:7,144
929	Arianti	18,508	1:7,146
930	Suryaningsih	18,501	1:7,148
931	Robiah	18,488	1:7,153
932	Hariyadi	18,444	1:7,170
933	Suryanti	18,431	1:7,175
934	Simanungkalit	18,422	1:7,179
935	Ba	18,420	1:7,180
936	Widayanti	18,405	1:7,186
937	Syaputra	18,387	1:7,193
938	Setiono	18,386	1:7,193
939	Pandiangan	18,377	1:7,196
940	Apriliani	18,376	1:7,197
941	Jayadi	18,365	1:7,201
942	Komara	18,338	1:7,212
943	Dwi	18,320	1:7,219
944	Andini	18,317	1:7,220
945	Basir	18,308	1:7,224
946	Kodir	18,307	1:7,224
947	Syamsudin	18,249	1:7,247
948	Widiawati	18,198	1:7,267
949	Yenti	18,175	1:7,276
950	Marzuki	18,153	1:7,285
951	Bani	18,127	1:7,296
952	Ihsan	18,118	1:7,299
953	Aris	18,104	1:7,305
954	Hariani	18,100	1:7,307
955	Dinata	18,040	1:7,331
956	Heriyanto	18,033	1:7,334
957	Kuncoro	18,005	1:7,345
958	Romadhon	17,998	1:7,348
959	Erawati	17,964	1:7,362
960	Sag	17,947	1:7,369
961	Suhaeni	17,946	1:7,369
962	Rofiq	17,933	1:7,375
963	Murti	17,922	1:7,379
963	Rozak	17,922	1:7,379
965	Apriyanto	17,913	1:7,383
966	Suparno	17,889	1:7,393
967	Lutfi	17,841	1:7,413
968	Ana	17,821	1:7,421
969	Muhtar	17,795	1:7,432
970	Abdulah	17,782	1:7,437
971	Abadi	17,760	1:7,446
972	Azhar	17,732	1:7,458
973	Rais	17,721	1:7,463
974	Dermawan	17,702	1:7,471
975	Surahman	17,694	1:7,474
976	Krisnawati	17,692	1:7,475
977	Johan	17,683	1:7,479
978	Samad	17,604	1:7,512
979	Barokah	17,603	1:7,513
980	Setyorini	17,593	1:7,517
981	Andrian	17,574	1:7,525
982	Ermawati	17,547	1:7,537
983	Bili	17,537	1:7,541
984	Rojak	17,524	1:7,547
985	Dwi Astuti	17,489	1:7,562
986	Gwijangge	17,488	1:7,562
986	Hutauruk	17,488	1:7,562
988	Sinambela	17,479	1:7,566
989	Antoni	17,461	1:7,574
990	Maarif	17,445	1:7,581
991	Hernawati	17,434	1:7,586
992	Cahyati	17,323	1:7,634
993	Yunengsih	17,319	1:7,636
994	Siswoyo	17,307	1:7,641
995	Ramdhani	17,277	1:7,655
996	Sugito	17,233	1:7,674
997	Irianto	17,232	1:7,675
998	Ismanto	17,205	1:7,687
999	Pujianto	17,198	1:7,690
1000	Hutagaol	17,182	1:7,697