1	Kelly	580	1:148
2	Smith	496	1:173
3	Jones	473	1:181
4	Quayle	453	1:189
5	Corlett	429	1:200
6	Christian	363	1:236
7	Moore	356	1:241
8	Cain	354	1:242
9	Davies	321	1:267
10	Brown	318	1:270
11	Williamson	311	1:276
12	Harrison	310	1:277
13	Wilson	309	1:278
14	Williams	305	1:281
15	Corkill	273	1:314
16	Kneale	272	1:316
17	Bell	264	1:325
18	Cowin	262	1:328
19	Jackson	261	1:329
20	Crellin	256	1:335
21	Quirk	255	1:337
22	Clague	254	1:338
23	Corrin	253	1:339
24	Shimmin	247	1:347
25	Callow	239	1:359
26	Taylor	238	1:361
27	Teare	236	1:364
28	Clarke	214	1:401
28	Hughes	214	1:401
30	Kneen	211	1:407
31	Callister	208	1:413
31	Faragher	208	1:413
33	Shaw	207	1:415
34	Wood	201	1:427
35	Clucas	199	1:431
36	Watson	196	1:438
37	Hall	194	1:442
38	Johnson	192	1:447
39	Watterson	191	1:449
40	Cowley	188	1:456
41	Morrison	186	1:461
42	Crowe	183	1:469
42	Evans	183	1:469
42	Murphy	183	1:469
45	Thomas	180	1:477
46	Brew	179	1:479
47	Bridson	178	1:482
48	Thompson	177	1:485
49	Martin	176	1:488
50	Corkish	175	1:490
51	Cubbon	171	1:502
52	Simpson	169	1:508
53	Cannell	167	1:514
54	Kewley	166	1:517
55	Walker	162	1:530
56	Harris	161	1:533
57	Cowell	158	1:543
58	Roberts	155	1:554
58	Turner	155	1:554
60	Kermode	154	1:557
61	Dawson	150	1:572
61	Kinrade	150	1:572
63	Quine	149	1:576
64	Leece	148	1:580
65	Campbell	147	1:584
65	Sayle	147	1:584
67	Clark	146	1:588
67	Collister	146	1:588
67	Green	146	1:588
67	Kennaugh	146	1:588
71	Garrett	143	1:600
71	Gelling	143	1:600
71	Robinson	143	1:600
74	Baker	142	1:604
75	Caley	141	1:609
76	Wright	140	1:613
77	Bailey	138	1:622
77	Doyle	138	1:622
77	Fargher	138	1:622
77	Howard	138	1:622
81	Morris	136	1:631
81	Oates	136	1:631
81	Young	136	1:631
84	Duggan	134	1:640
85	Anderson	133	1:645
86	Matthews	131	1:655
87	Bennett	130	1:660
87	Phillips	130	1:660
89	Wade	128	1:670
90	White	127	1:676
91	Skillicorn	125	1:687
92	Scott	124	1:692
93	Edwards	123	1:698
93	Ellis	123	1:698
93	Halsall	123	1:698
93	Kissack	123	1:698
93	Miller	123	1:698
93	Stewart	123	1:698
99	Caine	122	1:703
99	Craine	122	1:703
99	Quilliam	122	1:703
102	Lee	121	1:709
103	Keig	120	1:715
103	Lewis	120	1:715
105	Killey	119	1:721
106	Collins	118	1:727
107	Ward	117	1:734
108	Higgins	115	1:746
109	Cook	114	1:753
109	Cross	114	1:753
109	Mitchell	114	1:753
112	Gale	113	1:759
113	McDonald	112	1:766
114	King	110	1:780
115	Radcliffe	109	1:787
116	Allen	108	1:795
117	Perry	107	1:802
118	Cooper	106	1:810
119	Dixon	105	1:817
120	Howland	104	1:825
121	Graham	102	1:841
122	Butler	101	1:850
122	Hill	101	1:850
122	Osborne	101	1:850
125	Elliott	100	1:858
125	Maddrell	100	1:858
127	Carter	99	1:867
127	Fisher	99	1:867
127	O'Neill	99	1:867
130	Lace	98	1:876
130	Woods	98	1:876
132	Marshall	97	1:885
132	Nelson	97	1:885
134	Atkinson	96	1:894
134	Davidson	96	1:894
134	Knight	96	1:894
137	Baxter	95	1:903
137	Brennan	95	1:903
137	Goldsmith	95	1:903
137	Harding	95	1:903
141	Kennedy	94	1:913
142	Davis	93	1:923
143	Mills	92	1:933
143	Newton	92	1:933
145	Curphey	91	1:943
145	Gray	91	1:943
145	Kermeen	91	1:943
148	Berry	88	1:975
148	Fayle	88	1:975
148	Griffiths	88	1:975
148	Harvey	88	1:975
148	Kinley	88	1:975
148	Whitehead	88	1:975
154	Webb	87	1:986
155	Cleator	84	1:1,022
155	Creer	84	1:1,022
155	Magee	84	1:1,022
158	Coleman	83	1:1,034
158	Grant	83	1:1,034
158	Pugh	83	1:1,034
161	Atherton	82	1:1,047
161	Barlow	82	1:1,047
161	Dobson	82	1:1,047
161	Fox	82	1:1,047
165	Boyde	81	1:1,060
165	Bradley	81	1:1,060
165	Karran	81	1:1,060
165	Kenyon	81	1:1,060
165	Quinn	81	1:1,060
170	Doherty	80	1:1,073
170	Gawne	80	1:1,073
170	Long	80	1:1,073
173	Craig	79	1:1,086
173	Murray	79	1:1,086
175	Bates	78	1:1,100
175	Wild	78	1:1,100
177	Cox	77	1:1,115
177	Mason	77	1:1,115
177	Skinner	77	1:1,115
180	Adams	76	1:1,129
180	Ferguson	76	1:1,129
182	Buckley	75	1:1,144
182	Edge	75	1:1,144
182	Wilkinson	75	1:1,144
185	Corris	74	1:1,160
186	Douglas	73	1:1,176
186	Hamilton	73	1:1,176
186	Holmes	73	1:1,176
186	Keenan	73	1:1,176
190	Cooke	71	1:1,209
190	Jordan	71	1:1,209
190	Morgan	71	1:1,209
190	Richards	71	1:1,209
190	Stevens	71	1:1,209
195	Booth	70	1:1,226
195	Costain	70	1:1,226
195	Duff	70	1:1,226
195	Qualtrough	70	1:1,226
195	Reynolds	70	1:1,226
200	Clegg	69	1:1,244
200	Gill	69	1:1,244
200	Griffin	69	1:1,244
200	Naylor	69	1:1,244
200	Price	69	1:1,244
205	James	68	1:1,262
205	Lewin	68	1:1,262
205	Parker	68	1:1,262
205	Swales	68	1:1,262
209	Burns	67	1:1,281
209	Clayton	67	1:1,281
209	Gerrard	67	1:1,281
212	Ball	66	1:1,300
212	Hicks	66	1:1,300
212	Hudson	66	1:1,300
212	Joyce	66	1:1,300
212	Kaighin	66	1:1,300
212	Kennish	66	1:1,300
212	Lloyd	66	1:1,300
219	Black	65	1:1,320
219	Blackburn	65	1:1,320
219	Burrows	65	1:1,320
219	Glover	65	1:1,320
219	Hayes	65	1:1,320
219	Hunt	65	1:1,320
219	Pearson	65	1:1,320
226	Cottier	64	1:1,341
226	Farrell	64	1:1,341
226	Prince	64	1:1,341
226	Sykes	64	1:1,341
226	Thomson	64	1:1,341
231	Gallagher	63	1:1,362
231	Horne	63	1:1,362
231	Knowles	63	1:1,362
231	McKnight	63	1:1,362
231	Potts	63	1:1,362
231	Whittaker	63	1:1,362
237	McLean	62	1:1,384
237	Porter	62	1:1,384
237	Taggart	62	1:1,384
240	Barker	61	1:1,407
240	Boyle	61	1:1,407
240	Dale	61	1:1,407
240	Flint	61	1:1,407
240	Kerruish	61	1:1,407
240	Mylchreest	61	1:1,407
240	Sullivan	61	1:1,407
247	Armstrong	60	1:1,430
247	Arrowsmith	60	1:1,430
247	Boyd	60	1:1,430
247	Gordon	60	1:1,430
247	Platt	60	1:1,430
247	Russell	60	1:1,430
253	Chambers	59	1:1,455
253	Connolly	59	1:1,455
253	Dudley	59	1:1,455
253	Fletcher	59	1:1,455
257	Bolton	58	1:1,480
257	Chapman	58	1:1,480
257	Dunn	58	1:1,480
257	Gell	58	1:1,480
257	Gorry	58	1:1,480
257	Hannay	58	1:1,480
257	Lawrence	58	1:1,480
257	Mellor	58	1:1,480
257	Moffatt	58	1:1,480
257	Thorpe	58	1:1,480
267	Barton	57	1:1,506
267	Foster	57	1:1,506
267	Jenkins	57	1:1,506
267	Richardson	57	1:1,506
267	Welsh	57	1:1,506
267	Whelan	57	1:1,506
273	Allison	56	1:1,533
273	Gibson	56	1:1,533
273	Neill	56	1:1,533
273	Orton	56	1:1,533
277	Groves	55	1:1,560
277	Joughin	55	1:1,560
277	Shepherd	55	1:1,560
280	Byrne	54	1:1,589
280	Devlin	54	1:1,589
280	Kniveton	54	1:1,589
280	Rafferty	54	1:1,589
284	Andrews	53	1:1,619
284	Barrow	53	1:1,619
284	Greenwood	53	1:1,619
284	Harper	53	1:1,619
284	Horton	53	1:1,619
284	Parry	53	1:1,619
284	Peers	53	1:1,619
284	Pickett	53	1:1,619
284	Tate	53	1:1,619
284	West	53	1:1,619
294	Burden	52	1:1,650
294	Cannon	52	1:1,650
294	Dougherty	52	1:1,650
294	Hodgson	52	1:1,650
294	Hooper	52	1:1,650
294	Nicol	52	1:1,650
294	Quaye	52	1:1,650
294	Saunders	52	1:1,650
294	Sharp	52	1:1,650
294	Starkey	52	1:1,650
294	Sutton	52	1:1,650
305	Barnes	51	1:1,683
305	Birch	51	1:1,683
305	Brophy	51	1:1,683
305	Donaldson	51	1:1,683
305	Freeman	51	1:1,683
305	Gilmour	51	1:1,683
305	Kinvig	51	1:1,683
305	Lamb	51	1:1,683
305	Lund	51	1:1,683
305	Moffitt	51	1:1,683
305	O'Connor	51	1:1,683
305	Pitts	51	1:1,683
305	Spencer	51	1:1,683
318	Critchley	50	1:1,716
318	Ellison	50	1:1,716
318	Hope	50	1:1,716
318	Jennings	50	1:1,716
318	McLaren	50	1:1,716
323	Corran	49	1:1,751
323	Cringle	49	1:1,751
323	Cunningham	49	1:1,751
323	Ennett	49	1:1,751
323	Gilbert	49	1:1,751
323	Hartley	49	1:1,751
323	Johnston	49	1:1,751
323	Lucas	49	1:1,751
323	MacGregor	49	1:1,751
323	Rice	49	1:1,751
323	Sharpe	49	1:1,751
323	Stephens	49	1:1,751
335	Coulson	48	1:1,788
335	Dodd	48	1:1,788
335	Donnelly	48	1:1,788
335	Guest	48	1:1,788
335	Killip	48	1:1,788
335	MacDonald	48	1:1,788
335	Park	48	1:1,788
335	Reid	48	1:1,788
335	Stowell	48	1:1,788
344	Brooker	47	1:1,826
344	Duncan	47	1:1,826
344	Leonard	47	1:1,826
344	Lowe	47	1:1,826
344	Middleton	47	1:1,826
344	Owen	47	1:1,826
344	Quane	47	1:1,826
344	Stanley	47	1:1,826
352	Cavendish	46	1:1,866
352	Crean	46	1:1,866
352	Holt	46	1:1,866
352	Hutchinson	46	1:1,866
352	Kaneen	46	1:1,866
352	Lord	46	1:1,866
352	Marsden	46	1:1,866
352	Nicholson	46	1:1,866
352	Speers	46	1:1,866
352	Tomlinson	46	1:1,866
352	Wrigley	46	1:1,866
352	Yates	46	1:1,866
364	Carey	45	1:1,907
364	Coates	45	1:1,907
364	Colquitt	45	1:1,907
364	Ford	45	1:1,907
364	McCann	45	1:1,907
364	Morley	45	1:1,907
364	Reed	45	1:1,907
371	Cullen	44	1:1,950
371	Maddox	44	1:1,950
371	Ross	44	1:1,950
371	Walton	44	1:1,950
375	Bingham	43	1:1,996
375	Connor	43	1:1,996
375	Counsell	43	1:1,996
375	Cretney	43	1:1,996
375	Devereau	43	1:1,996
375	Dugdale	43	1:1,996
375	Gregory	43	1:1,996
375	Hennessy	43	1:1,996
375	Leach	43	1:1,996
375	McCabe	43	1:1,996
375	McCormick	43	1:1,996
375	McMullin	43	1:1,996
375	Riley	43	1:1,996
375	Rogerson	43	1:1,996
375	Saxon	43	1:1,996
375	Skillen	43	1:1,996
391	Callin	42	1:2,043
391	Colley	42	1:2,043
391	Coole	42	1:2,043
391	Crennell	42	1:2,043
391	Fryer	42	1:2,043
391	Herbert	42	1:2,043
391	Hibbert	42	1:2,043
391	Lyall	42	1:2,043
391	Mallon	42	1:2,043
391	Oliver	42	1:2,043
391	Powell	42	1:2,043
391	Rhodes	42	1:2,043
391	Skelly	42	1:2,043
391	Slater	42	1:2,043
405	Bray	41	1:2,093
405	Cannan	41	1:2,093
405	Cooil	41	1:2,093
405	Holden	41	1:2,093
405	Holland	41	1:2,093
405	Hurt	41	1:2,093
405	Kenny	41	1:2,093
405	Lowey	41	1:2,093
405	Manning	41	1:2,093
405	O'Brien	41	1:2,093
405	Stott	41	1:2,093
405	Venables	41	1:2,093
405	Walmsley	41	1:2,093
418	Daugherty	40	1:2,146
418	Fraser	40	1:2,146
418	Greggor	40	1:2,146
418	Hay	40	1:2,146
418	Heginbotham	40	1:2,146
418	Sheppard	40	1:2,146
418	Wells	40	1:2,146
425	Ackers	39	1:2,201
425	Beck	39	1:2,201
425	Beech	39	1:2,201
425	Bentham	39	1:2,201
425	Findlay	39	1:2,201
425	Gardiner	39	1:2,201
425	Kay	39	1:2,201
425	Lancaster	39	1:2,201
425	Lawson	39	1:2,201
425	Nicholls	39	1:2,201
425	O'Hare	39	1:2,201
425	Payne	39	1:2,201
425	Sexton	39	1:2,201
425	Taubman	39	1:2,201
425	Vincent	39	1:2,201
440	Carr	38	1:2,258
440	Corkhill	38	1:2,258
440	Crompton	38	1:2,258
440	Drew	38	1:2,258
440	Gardner	38	1:2,258
440	Langton	38	1:2,258
440	Savage	38	1:2,258
440	Tasker	38	1:2,258
440	Warren	38	1:2,258
440	Wheeler	38	1:2,258
450	Bradshaw	37	1:2,320
450	Crossley	37	1:2,320
450	Dickinson	37	1:2,320
450	Everett	37	1:2,320
450	Farrant	37	1:2,320
450	FitzGerald	37	1:2,320
450	Hardman	37	1:2,320
450	Lewthwaite	37	1:2,320
450	Moughtin	37	1:2,320
450	Neeson	37	1:2,320
450	Preston	37	1:2,320
450	Royle	37	1:2,320
450	Whiteman	37	1:2,320
463	Bowers	36	1:2,384
463	Boydell	36	1:2,384
463	Bull	36	1:2,384
463	Cameron	36	1:2,384
463	Chatel	36	1:2,384
463	Cheung	36	1:2,384
463	Cregeen	36	1:2,384
463	Durrant	36	1:2,384
463	Hastings	36	1:2,384
463	Jewell	36	1:2,384
463	Leadley	36	1:2,384
463	Lees	36	1:2,384
463	Masson	36	1:2,384
463	McGuinness	36	1:2,384
463	McMurray	36	1:2,384
463	Murtagh	36	1:2,384
463	Norris	36	1:2,384
463	Nuttall	36	1:2,384
463	O'Hanlon	36	1:2,384
463	Parsons	36	1:2,384
463	Pendlebury	36	1:2,384
463	Quick	36	1:2,384
463	Stevenson	36	1:2,384
463	Sweeney	36	1:2,384
463	Weir	36	1:2,384
488	Ashley	35	1:2,452
488	Ashton	35	1:2,452
488	Ashworth	35	1:2,452
488	Cassidy	35	1:2,452
488	Croft	35	1:2,452
488	Dean	35	1:2,452
488	Dear	35	1:2,452
488	Fleming	35	1:2,452
488	Gelder	35	1:2,452
488	Gleave	35	1:2,452
488	Hargreaves	35	1:2,452
488	Henderson	35	1:2,452
488	Hughan	35	1:2,452
488	May	35	1:2,452
488	McMeiken	35	1:2,452
488	Moffat	35	1:2,452
488	Montgomery	35	1:2,452
488	Mooney	35	1:2,452
488	Myers	35	1:2,452
488	Nolan	35	1:2,452
488	North	35	1:2,452
488	Pressley	35	1:2,452
488	Rimmer	35	1:2,452
488	Summers	35	1:2,452
488	Vernon	35	1:2,452
513	Bentley	34	1:2,524
513	Chadwick	34	1:2,524
513	Crebbin	34	1:2,524
513	Curtis	34	1:2,524
513	Davenport	34	1:2,524
513	Dentith	34	1:2,524
513	Duke	34	1:2,524
513	Gould	34	1:2,524
513	Grimshaw	34	1:2,524
513	Hardinge	34	1:2,524
513	Heath	34	1:2,524
513	Hodge	34	1:2,524
513	Hook	34	1:2,524
513	Lane	34	1:2,524
513	McNicholl	34	1:2,524
513	Molyneux	34	1:2,524
513	Owens	34	1:2,524
513	Roney	34	1:2,524
513	Salmon	34	1:2,524
513	Seed	34	1:2,524
513	Vaughan	34	1:2,524
513	Watts	34	1:2,524
535	Burgess	33	1:2,601
535	Cormode	33	1:2,601
535	Dennett	33	1:2,601
535	Ingham	33	1:2,601
535	Needham	33	1:2,601
535	Pearce	33	1:2,601
535	Peters	33	1:2,601
535	Postlethwaite	33	1:2,601
535	Scarffe	33	1:2,601
535	Uren	33	1:2,601
535	Whyte	33	1:2,601
546	Barry	32	1:2,682
546	Bassett	32	1:2,682
546	Brooks	32	1:2,682
546	Bullock	32	1:2,682
546	Carroon	32	1:2,682
546	Cochrane	32	1:2,682
546	Comish	32	1:2,682
546	Convery	32	1:2,682
546	Coward	32	1:2,682
546	Giles	32	1:2,682
546	Hawkins	32	1:2,682
546	Henthorn	32	1:2,682
546	Hind	32	1:2,682
546	Little	32	1:2,682
546	McDowell	32	1:2,682
546	Stephenson	32	1:2,682
546	Sweetman	32	1:2,682
546	Woodhead	32	1:2,682
564	Broadbent	31	1:2,768
564	Delaney	31	1:2,768
564	Downs	31	1:2,768
564	Heyes	31	1:2,768
564	Isaac	31	1:2,768
564	Kirkham	31	1:2,768
564	Looney	31	1:2,768
564	McGowan	31	1:2,768
564	Proctor	31	1:2,768
564	Sanders	31	1:2,768
564	Stokes	31	1:2,768
575	Batley	30	1:2,861
575	Bevan	30	1:2,861
575	Beynon	30	1:2,861
575	Boon	30	1:2,861
575	Brownlow	30	1:2,861
575	Cole	30	1:2,861
575	Conway	30	1:2,861
575	Darville	30	1:2,861
575	Eames	30	1:2,861
575	Eastwood	30	1:2,861
575	Forgie	30	1:2,861
575	Gaylor	30	1:2,861
575	Gilmore	30	1:2,861
575	Goddard	30	1:2,861
575	Hamer	30	1:2,861
575	Haworth	30	1:2,861
575	Hindley	30	1:2,861
575	Hirst	30	1:2,861
575	Hollis	30	1:2,861
575	Kinnin	30	1:2,861
575	Massey	30	1:2,861
575	McMahon	30	1:2,861
575	Merrick	30	1:2,861
575	Norman	30	1:2,861
575	Oldroyd	30	1:2,861
575	Parkes	30	1:2,861
575	Percival	30	1:2,861
575	Pinson	30	1:2,861
575	Purvis	30	1:2,861
575	Richmond	30	1:2,861
575	Rossiter	30	1:2,861
575	Rourke	30	1:2,861
575	Sanderson	30	1:2,861
575	Swift	30	1:2,861
575	Westwell	30	1:2,861
610	Applin	29	1:2,959
610	Bonner	29	1:2,959
610	Buchan	29	1:2,959
610	Byworth	29	1:2,959
610	Churcher	29	1:2,959
610	Coatalen	29	1:2,959
610	Cocker	29	1:2,959
610	Cresswell	29	1:2,959
610	Diamond	29	1:2,959
610	Dickenson	29	1:2,959
610	Ebbutt	29	1:2,959
610	Edgerton	29	1:2,959
610	Fernandes	29	1:2,959
610	Firth	29	1:2,959
610	Greenhow	29	1:2,959
610	Grenier	29	1:2,959
610	Hammond	29	1:2,959
610	Hampton	29	1:2,959
610	Hitchcock	29	1:2,959
610	Hutchin	29	1:2,959
610	Hyde	29	1:2,959
610	Jacob	29	1:2,959
610	Johnstone	29	1:2,959
610	Jolly	29	1:2,959
610	Keating	29	1:2,959
610	Kerrison	29	1:2,959
610	Kirby	29	1:2,959
610	Leckenby	29	1:2,959
610	Lennox	29	1:2,959
610	Levitt	29	1:2,959
610	Leyland	29	1:2,959
610	Lobb	29	1:2,959
610	Lockett	29	1:2,959
610	Lockwood	29	1:2,959
610	Longwith	29	1:2,959
610	Lynch	29	1:2,959
610	Mawson	29	1:2,959
610	Maynard	29	1:2,959
610	McAlister	29	1:2,959
610	Moriarty	29	1:2,959
610	Oxley	29	1:2,959
610	Pogson	29	1:2,959
610	Rostron	29	1:2,959
610	Salter	29	1:2,959
610	Sheridan	29	1:2,959
610	Shufflebotham	29	1:2,959
610	Smyth	29	1:2,959
610	Sommer	29	1:2,959
610	Southworth	29	1:2,959
610	Speak	29	1:2,959
610	Stephen	29	1:2,959
610	Towns	29	1:2,959
610	Welch	29	1:2,959
663	Best	28	1:3,065
663	Bond	28	1:3,065
663	Bucuris	28	1:3,065
663	Butterworth	28	1:3,065
663	Cawte	28	1:3,065
663	Crawford	28	1:3,065
663	Dutton	28	1:3,065
663	Forster	28	1:3,065
663	Godfrey	28	1:3,065
663	Hart	28	1:3,065
663	Hawley	28	1:3,065
663	Howe	28	1:3,065
663	Jopson	28	1:3,065
663	Marsh	28	1:3,065
663	Rodgers	28	1:3,065
663	Sharples	28	1:3,065
679	Barrett	27	1:3,179
679	Bowes	27	1:3,179
679	Cairney	27	1:3,179
679	Charnock	27	1:3,179
679	Crittenden	27	1:3,179
679	Crookall	27	1:3,179
679	Denton	27	1:3,179
679	Donegan	27	1:3,179
679	Earnshaw	27	1:3,179
679	Ferns	27	1:3,179
679	Fielding	27	1:3,179
679	Forbes	27	1:3,179
679	Hampson	27	1:3,179
679	Hazell	27	1:3,179
679	Humphreys	27	1:3,179
679	Hunter	27	1:3,179
679	Hurst	27	1:3,179
679	Keggin	27	1:3,179
679	Logan	27	1:3,179
679	MacKay	27	1:3,179
679	Maxwell	27	1:3,179
679	McClure	27	1:3,179
679	McHarrie	27	1:3,179
679	Rees	27	1:3,179
679	Reilly	27	1:3,179
679	Smart	27	1:3,179
679	Staples	27	1:3,179
679	Tait	27	1:3,179
679	Underwood	27	1:3,179
679	Unsworth	27	1:3,179
679	Vickers	27	1:3,179
679	Walsh	27	1:3,179
679	Wilkins	27	1:3,179
679	Willoughby	27	1:3,179
713	Barber	26	1:3,301
713	Beard	26	1:3,301
713	Colvin	26	1:3,301
713	Comber	26	1:3,301
713	Crawley	26	1:3,301
713	Culshaw	26	1:3,301
713	Cummins	26	1:3,301
713	Day	26	1:3,301
713	Freestone	26	1:3,301
713	Hewitt	26	1:3,301
713	Kaye	26	1:3,301
713	McCulloch	26	1:3,301
713	Millward	26	1:3,301
713	O'Toole	26	1:3,301
713	Oldham	26	1:3,301
713	Rogers	26	1:3,301
713	Townsend	26	1:3,301
713	Trimble	26	1:3,301
731	Breadner	25	1:3,433
731	Bregazzi	25	1:3,433
731	Bridge	25	1:3,433
731	Brookes	25	1:3,433
731	Cairns	25	1:3,433
731	Carty	25	1:3,433
731	Casement	25	1:3,433
731	Chamberlain	25	1:3,433
731	Christopher	25	1:3,433
731	Cojeen	25	1:3,433
731	Davison	25	1:3,433
731	Dunwell	25	1:3,433
731	East	25	1:3,433
731	Falconer	25	1:3,433
731	Feeney	25	1:3,433
731	Gulliver	25	1:3,433
731	Harrop	25	1:3,433
731	Hayward	25	1:3,433
731	Hulme	25	1:3,433
731	Hurstfield	25	1:3,433
731	Jarvis	25	1:3,433
731	Kean	25	1:3,433
731	Kearsley	25	1:3,433
731	Large	25	1:3,433
731	Makin	25	1:3,433
731	Mann	25	1:3,433
731	McLeod	25	1:3,433
731	Paterson	25	1:3,433
731	Pattinson	25	1:3,433
731	Plant	25	1:3,433
731	Redmayne	25	1:3,433
731	Rigg	25	1:3,433
731	Rooney	25	1:3,433
731	Steele	25	1:3,433
731	Toombs	25	1:3,433
731	Webster	25	1:3,433
767	Amos	24	1:3,576
767	Bannan	24	1:3,576
767	Barron	24	1:3,576
767	Beattie	24	1:3,576
767	Bellis	24	1:3,576
767	Boorman	24	1:3,576
767	Bowman	24	1:3,576
767	Broadhurst	24	1:3,576
767	Broughton	24	1:3,576
767	Bruce	24	1:3,576
767	Burke	24	1:3,576
767	Cartwright	24	1:3,576
767	Clay	24	1:3,576
767	Cohen	24	1:3,576
767	Condra	24	1:3,576
767	Corrie	24	1:3,576
767	Dooley	24	1:3,576
767	Duffy	24	1:3,576
767	Durber	24	1:3,576
767	English	24	1:3,576
767	Etherington	24	1:3,576
767	Fahey	24	1:3,576
767	Freeland	24	1:3,576
767	Garner	24	1:3,576
767	George	24	1:3,576
767	Grainger	24	1:3,576
767	Howell	24	1:3,576
767	Howie	24	1:3,576
767	Irvine	24	1:3,576
767	Kane	24	1:3,576
767	Mainwaring	24	1:3,576
767	Malarkey	24	1:3,576
767	Manley	24	1:3,576
767	McLaughlin	24	1:3,576
767	Metcalfe	24	1:3,576
767	Moody	24	1:3,576
767	Nation	24	1:3,576
767	Noble	24	1:3,576
767	Partridge	24	1:3,576
767	Patterson	24	1:3,576
767	Rowe	24	1:3,576
767	Sumner	24	1:3,576
767	Terry	24	1:3,576
767	Thornley	24	1:3,576
767	Tyrer	24	1:3,576
767	Unwin	24	1:3,576
767	Whybrew	24	1:3,576
767	Winn	24	1:3,576
815	Brough	23	1:3,731
815	Buck	23	1:3,731
815	Cadamy	23	1:3,731
815	Cashen	23	1:3,731
815	Corlet	23	1:3,731
815	Corteen	23	1:3,731
815	Cunliffe	23	1:3,731
815	Darbyshire	23	1:3,731
815	Dempsey	23	1:3,731
815	Downey	23	1:3,731
815	Drower	23	1:3,731
815	Finlay	23	1:3,731
815	Franklin	23	1:3,731
815	Gledhill	23	1:3,731
815	Gough	23	1:3,731
815	Hardy	23	1:3,731
815	Haslam	23	1:3,731
815	Haywood	23	1:3,731
815	Hilton	23	1:3,731
815	Hume	23	1:3,731
815	Irving	23	1:3,731
815	Midghall	23	1:3,731
815	Moorhouse	23	1:3,731
815	Musgrove	23	1:3,731
815	Newbold	23	1:3,731
815	Nightingale	23	1:3,731
815	Osborn	23	1:3,731
815	Palmer	23	1:3,731
815	Robertson	23	1:3,731
815	Spenser	23	1:3,731
815	Waters	23	1:3,731
846	Austin	22	1:3,901
846	Barden	22	1:3,901
846	Bird	22	1:3,901
846	Bishop	22	1:3,901
846	Boothman	22	1:3,901
846	Bridges	22	1:3,901
846	Calladine	22	1:3,901
846	Chalk	22	1:3,901
846	Crooks	22	1:3,901
846	Dalton	22	1:3,901
846	Dyson	22	1:3,901
846	Egan	22	1:3,901
846	Forsyth	22	1:3,901
846	Garside	22	1:3,901
846	Goss	22	1:3,901
846	Hitchen	22	1:3,901
846	Kirk	22	1:3,901
846	Meredith	22	1:3,901
846	Morton	22	1:3,901
846	Moss	22	1:3,901
846	Oldfield	22	1:3,901
846	Parslow	22	1:3,901
846	Read	22	1:3,901
846	Sloane	22	1:3,901
846	Squires	22	1:3,901
846	Storey	22	1:3,901
846	Stringer	22	1:3,901
846	Thornton	22	1:3,901
846	Willis	22	1:3,901
875	Allan	21	1:4,087
875	Beckett	21	1:4,087
875	Bottomley	21	1:4,087
875	Braithwaite	21	1:4,087
875	Brogan	21	1:4,087
875	Burnett	21	1:4,087
875	Cope	21	1:4,087
875	Cryer	21	1:4,087
875	Downing	21	1:4,087
875	Ellwood	21	1:4,087
875	Flack	21	1:4,087
875	Geddes	21	1:4,087
875	Hanson	21	1:4,087
875	Hetherington	21	1:4,087
875	Hogg	21	1:4,087
875	Kerr	21	1:4,087
875	Latham	21	1:4,087
875	Moran	21	1:4,087
875	Muir	21	1:4,087
875	Neil	21	1:4,087
875	Pollard	21	1:4,087
875	Stirling	21	1:4,087
875	Whiteway	21	1:4,087
875	Wilcock	21	1:4,087
899	Boulton	20	1:4,291
899	Bowen	20	1:4,291
899	Brain	20	1:4,291
899	Bright	20	1:4,291
899	Browne	20	1:4,291
899	Camp	20	1:4,291
899	Cardew	20	1:4,291
899	Chilcott	20	1:4,291
899	Coffey	20	1:4,291
899	Collings	20	1:4,291
899	Coyle	20	1:4,291
899	Crocker	20	1:4,291
899	Curran	20	1:4,291
899	Daly	20	1:4,291
899	de Backer	20	1:4,291
899	Dowling	20	1:4,291
899	Egerton	20	1:4,291
899	Fenlon	20	1:4,291
899	Frisby	20	1:4,291
899	Frost	20	1:4,291
899	Galt	20	1:4,291
899	Gore	20	1:4,291
899	Gregg	20	1:4,291
899	Grogan	20	1:4,291
899	Hannah	20	1:4,291
899	Heaton	20	1:4,291
899	Hinds	20	1:4,291
899	Hodson	20	1:4,291
899	Howarth	20	1:4,291
899	Jay	20	1:4,291
899	Keown	20	1:4,291
899	Knott	20	1:4,291
899	Losh	20	1:4,291
899	Malone	20	1:4,291
899	Mazzone	20	1:4,291
899	McGrath	20	1:4,291
899	Meehan	20	1:4,291
899	Mulhern	20	1:4,291
899	Munro	20	1:4,291
899	Newman	20	1:4,291
899	O'Donohue	20	1:4,291
899	O'Grady	20	1:4,291
899	O'Neil	20	1:4,291
899	Pass	20	1:4,291
899	Popplewell	20	1:4,291
899	Ramsey	20	1:4,291
899	Redmond	20	1:4,291
899	Sims	20	1:4,291
899	Skillan	20	1:4,291
899	Smallwood	20	1:4,291
899	Stutt	20	1:4,291
899	Travis	20	1:4,291
899	Ventre	20	1:4,291
899	Wasley	20	1:4,291
899	Waterhouse	20	1:4,291
899	Weaver	20	1:4,291
899	Wilcox	20	1:4,291
899	Wolstenholme	20	1:4,291
899	Yewdall	20	1:4,291
958	Ali	19	1:4,517
958	Ashford	19	1:4,517
958	Ashurst	19	1:4,517
958	Ballard	19	1:4,517
958	Beale	19	1:4,517
958	Burton	19	1:4,517
958	Collier	19	1:4,517
958	Creasey	19	1:4,517
958	Crook	19	1:4,517
958	Dakin	19	1:4,517
958	Daniels	19	1:4,517
958	Drinkwater	19	1:4,517
958	Fergusson	19	1:4,517
958	Flanagan	19	1:4,517
958	Garvey	19	1:4,517
958	Glaister	19	1:4,517
958	Goodwin	19	1:4,517
958	Hacking	19	1:4,517
958	Heap	19	1:4,517
958	Herschell-Kelly	19	1:4,517
958	Hopkins	19	1:4,517
958	Horsthuis	19	1:4,517
958	Jensen	19	1:4,517
958	Jerry	19	1:4,517
958	John	19	1:4,517
958	Lyons	19	1:4,517
958	McElhinney	19	1:4,517
958	McKinlay	19	1:4,517
958	McQuillan	19	1:4,517
958	Molloy	19	1:4,517
958	Nash	19	1:4,517
958	Peace	19	1:4,517
958	Peel	19	1:4,517
958	Piekalns	19	1:4,517
958	Poole	19	1:4,517
958	Pringle	19	1:4,517
958	Prior	19	1:4,517
958	Rand	19	1:4,517
958	Robson	19	1:4,517
958	Ronan	19	1:4,517
958	Roper	19	1:4,517
958	Rutter	19	1:4,517
958	Ryan	19	1:4,517
958	Sewell	19	1:4,517
958	Shand	19	1:4,517
958	Speed	19	1:4,517
958	Talbot	19	1:4,517
958	Wallace	19	1:4,517
958	Whitelegg	19	1:4,517
958	Wiseman	19	1:4,517