1	Devi	70,362,192	1:11
2	Singh	34,838,027	1:22
3	Kumar	31,111,248	1:25
4	Das	11,368,810	1:67
5	Kaur	9,480,229	1:81
6	Ram	7,228,601	1:106
7	Yadav	6,993,402	1:110
8	Kumari	6,615,155	1:116
9	Lal	5,669,679	1:135
10	Bai	5,339,803	1:144
11	Khatun	5,276,481	1:145
12	Mandal	5,168,020	1:148
13	Ali	5,119,011	1:150
14	Sharma	5,025,045	1:153
15	Ray	4,740,466	1:162
16	Mondal	4,655,155	1:165
17	Khan	4,569,403	1:168
18	Sah	4,551,188	1:169
19	Patel	4,215,909	1:182
20	Prasad	3,934,526	1:195
21	Patil	3,680,454	1:208
22	Ghosh	3,640,391	1:211
23	Pal	2,968,653	1:258
24	Sahu	2,841,127	1:270
25	Gupta	2,835,996	1:270
26	Shaikh	2,814,126	1:273
27	Bibi	2,770,989	1:277
28	Sekh	2,367,491	1:324
29	Begam	2,345,927	1:327
30	Biswas	2,256,464	1:340
31	Sarkar	2,247,125	1:341
32	Paramar	2,246,677	1:341
33	Khatoon	2,203,395	1:348
34	Mahto	2,174,470	1:353
35	Ansari	2,096,249	1:366
36	Nayak	2,078,522	1:369
37	Ma	2,068,573	1:371
38	Rathod	2,054,799	1:373
39	Jadhav	2,054,727	1:373
40	Mahato	2,003,812	1:383
41	Rani	1,998,518	1:384
42	Barman	1,961,488	1:391
43	Behera	1,948,478	1:394
44	Mishra	1,917,079	1:400
45	Chand	1,915,664	1:400
46	Roy	1,914,389	1:401
47	Begum	1,907,677	1:402
48	Saha	1,879,529	1:408
49	Paswan	1,843,568	1:416
50	Thakur	1,815,968	1:422
51	Thakor	1,646,907	1:466
52	Ahamad	1,626,496	1:472
53	Chauhan	1,592,333	1:482
54	Pawar	1,578,907	1:486
55	Majhi	1,571,251	1:488
56	Bano	1,563,848	1:490
57	Naik	1,535,390	1:500
58	Pradhan	1,493,792	1:514
59	Alam	1,398,760	1:548
60	Shinde	1,350,189	1:568
61	Malik	1,334,790	1:575
62	Sardar	1,251,202	1:613
63	Nath	1,221,582	1:628
64	Raut	1,201,391	1:638
65	Bauri	1,146,373	1:669
66	Shaik	1,117,587	1:686
67	Chandra	1,117,494	1:686
68	Patra	1,114,838	1:688
69	Jha	1,112,929	1:689
70	Murmu	1,099,561	1:698
71	Solanki	1,081,015	1:710
72	Cauhan	1,043,183	1:735
73	Shah	1,039,805	1:738
74	Prakash	1,036,854	1:740
75	Sinh	1,025,018	1:748
76	Pandey	1,021,399	1:751
77	Patal	1,002,362	1:765
78	Munda	996,606	1:770
79	Dutta	993,827	1:772
80	Chaudhari	973,422	1:788
81	Raj	965,682	1:794
82	Pandit	965,309	1:795
83	Jain	944,114	1:812
84	Kamble	941,078	1:815
85	Manjhi	938,578	1:817
86	Rana	935,595	1:820
87	Molla	904,591	1:848
88	Chaudhary	896,004	1:856
89	Makavan	890,167	1:862
90	Jena	890,023	1:862
91	Chakraborty	881,399	1:870
92	Hussain	869,396	1:882
93	Pathan	859,148	1:893
94	Gayakwad	817,151	1:939
95	Nisha	811,780	1:945
96	Vasav	793,673	1:966
97	Debnath	780,253	1:983
98	Rai	778,770	1:985
99	More	762,382	1:1,006
100	Varma	761,718	1:1,007
101	Uddin	758,067	1:1,012
102	Karmakar	747,664	1:1,026
103	Bag	742,649	1:1,033
104	Jana	732,723	1:1,047
105	Sih	732,286	1:1,047
106	Mohammed	721,566	1:1,063
107	Oraon	714,946	1:1,073
108	Kadam	714,793	1:1,073
109	Giri	703,395	1:1,091
110	Barik	701,667	1:1,093
111	Reddy	700,217	1:1,095
112	Tudu	696,230	1:1,102
113	Mi	687,498	1:1,116
114	Husain	679,712	1:1,129
115	Bhagat	669,212	1:1,146
116	Islam	660,984	1:1,160
117	Sinha	656,098	1:1,169
118	Kanwar	645,799	1:1,188
119	Ahmed	644,675	1:1,190
120	De	639,821	1:1,199
121	Sekha	638,006	1:1,202
122	Sing	632,248	1:1,213
123	Tiwari	622,795	1:1,232
124	Mallik	622,711	1:1,232
125	Swain	614,512	1:1,248
126	Dey	614,336	1:1,249
127	Verma	611,605	1:1,254
128	Ti	607,140	1:1,263
129	Jahan	601,075	1:1,276
130	Basumatary	596,199	1:1,287
131	Bera	587,244	1:1,306
132	Saw	586,831	1:1,307
133	Mali	578,004	1:1,327
134	Paul	577,534	1:1,328
135	Shankar	573,238	1:1,338
136	Bhoi	572,405	1:1,340
137	Sheik	570,076	1:1,346
138	Dei	566,192	1:1,355
139	Ahmad	564,840	1:1,358
140	Mal	561,133	1:1,367
141	Sangma	560,051	1:1,370
142	Gogoi	558,584	1:1,373
143	Vaghel	551,177	1:1,392
144	Joshi	550,973	1:1,392
145	Mohammad	542,776	1:1,413
146	Panda	542,008	1:1,415
147	Sahoo	539,404	1:1,422
148	Rathav	537,256	1:1,428
149	Bagdi	536,625	1:1,429
150	Mukherjee	530,814	1:1,445
151	Ta	527,967	1:1,453
152	Banerjee	519,711	1:1,476
153	Marak	516,576	1:1,485
154	Vati	514,227	1:1,492
155	Pramanik	513,527	1:1,494
156	Sahani	510,966	1:1,501
157	Soren	506,293	1:1,515
158	Narayan	502,970	1:1,525
159	Mistri	502,637	1:1,526
160	Rao	502,449	1:1,527
161	Manna	500,043	1:1,534
162	Boro	497,712	1:1,541
163	Laskar	493,469	1:1,554
164	Kale	491,163	1:1,562
165	Rabha	487,639	1:1,573
166	Mohanty	477,330	1:1,607
167	Bala	475,206	1:1,614
168	Rahman	472,159	1:1,625
169	Shukla	468,047	1:1,639
170	Soni	467,246	1:1,642
171	Koli	462,997	1:1,657
172	Halder	455,622	1:1,684
173	Miya	455,245	1:1,685
174	Deshmukh	451,454	1:1,699
175	Naskar	446,553	1:1,718
176	Tivari	446,001	1:1,720
177	Pathak	443,901	1:1,728
178	Debbarma	443,767	1:1,729
179	Mane	443,598	1:1,729
180	Deka	439,289	1:1,746
181	Rajak	439,281	1:1,746
182	Nair	438,957	1:1,747
183	Sawant	437,896	1:1,752
184	Sen	432,074	1:1,775
185	Babu	425,950	1:1,801
186	Shek	425,010	1:1,805
187	Tanti	420,312	1:1,825
188	Cavad	415,922	1:1,844
189	Mallick	414,734	1:1,850
190	Maity	411,017	1:1,866
191	Sonvane	410,750	1:1,867
192	Shaw	409,980	1:1,871
193	Raval	407,755	1:1,881
194	Maiti	407,508	1:1,882
195	Shrivastav	405,648	1:1,891
196	Maji	403,359	1:1,902
197	Ya	401,952	1:1,908
198	Choudhary	398,139	1:1,927
199	Mahanta	397,438	1:1,930
200	Kundu	396,704	1:1,934
201	Sahni	392,806	1:1,953
202	Harijan	392,613	1:1,954
203	Hembram	392,591	1:1,954
204	Samanta	391,567	1:1,959
205	Desai	389,710	1:1,968
206	Kour	387,716	1:1,978
207	Bahadur	379,482	1:2,021
208	Singha	378,629	1:2,026
209	Pande	378,551	1:2,026
210	Waghmare	377,708	1:2,031
211	Saini	376,256	1:2,039
212	Kalita	376,173	1:2,039
213	Sethy	374,148	1:2,050
214	Saikia	371,446	1:2,065
215	Sayyed	369,062	1:2,078
216	Mahapatra	367,577	1:2,087
217	Pasavan	367,260	1:2,089
218	Ra	366,524	1:2,093
219	Haldar	363,130	1:2,112
220	Adhikari	360,641	1:2,127
221	Lohar	360,159	1:2,130
222	Chatterjee	359,181	1:2,136
223	Biswal	358,443	1:2,140
224	Saren	356,097	1:2,154
225	Jhala	356,091	1:2,154
226	Haladar	355,985	1:2,155
227	Baria	353,090	1:2,172
228	Parida	350,961	1:2,186
229	Kishor	348,927	1:2,198
230	Bhosle	340,529	1:2,253
231	Bi	339,110	1:2,262
232	Hasan	338,780	1:2,264
233	Pa	336,171	1:2,282
234	Miyan	335,330	1:2,287
235	Solank	334,760	1:2,291
236	Mehta	332,746	1:2,305
237	Areddy	331,908	1:2,311
238	Kisku	331,836	1:2,312
239	Bora	331,183	1:2,316
240	Bhattacharya	330,905	1:2,318
241	Thakare	329,948	1:2,325
242	Dabhi	329,669	1:2,327
243	Tripathi	328,195	1:2,337
244	Sheikh	327,056	1:2,345
245	Caudhari	324,478	1:2,364
246	Kar	322,247	1:2,380
247	Majumdar	321,146	1:2,389
248	Agarwal	320,802	1:2,391
249	Mohan	317,915	1:2,413
250	Hoque	317,550	1:2,416
251	Brahma	315,476	1:2,431
252	Gamit	312,309	1:2,456
253	Kulkarni	308,713	1:2,485
254	Lata	307,740	1:2,493
255	Kumbhar	305,016	1:2,515
256	Mandi	303,051	1:2,531
257	Sada	302,780	1:2,533
258	Hansda	302,377	1:2,537
259	Goswami	296,842	1:2,584
260	Jagtap	296,698	1:2,585
261	Lakshmi	293,538	1:2,613
262	Pujari	293,027	1:2,618
263	Gope	292,737	1:2,620
264	Raja	291,937	1:2,628
265	Samal	291,231	1:2,634
266	Pravin	291,211	1:2,634
267	Sk	291,080	1:2,635
268	Rahaman	290,572	1:2,640
269	Damor	290,397	1:2,641
270	Momin	289,410	1:2,650
271	Gaud	289,211	1:2,652
272	Mahajan	289,132	1:2,653
273	Gazi	282,286	1:2,717
274	Prajapati	282,050	1:2,720
275	Meshram	281,970	1:2,720
276	Bewa	281,450	1:2,725
277	Nandi	280,076	1:2,739
278	Nag	277,333	1:2,766
279	Suryavanshi	276,443	1:2,775
280	Cami	275,449	1:2,785
281	Maurya	274,665	1:2,793
282	Dev	272,166	1:2,818
283	Dash	271,908	1:2,821
284	Rabari	271,554	1:2,825
285	Shamar	268,761	1:2,854
286	Maharana	267,606	1:2,866
287	Hazra	266,655	1:2,877
288	Mukhiya	264,605	1:2,899
289	Chowdhury	263,860	1:2,907
290	Syed	262,540	1:2,922
291	Kali	261,747	1:2,931
292	Nessa	261,562	1:2,933
293	Sutar	257,980	1:2,973
294	Arora	256,687	1:2,988
295	Tira	256,229	1:2,994
296	Ravidas	255,764	1:2,999
297	Rawat	252,537	1:3,037
298	Parkash	252,445	1:3,039
299	Marandi	250,889	1:3,057
300	Vagh	250,874	1:3,058
301	Bhuiya	249,003	1:3,081
302	Saiekh	248,958	1:3,081
303	Borah	245,990	1:3,118
304	Pati	244,651	1:3,135
305	Narzary	243,774	1:3,147
306	Ingle	243,540	1:3,150
307	Goyal	242,400	1:3,164
308	Bhandari	242,372	1:3,165
309	Chowdhuri	242,113	1:3,168
310	Sau	241,439	1:3,177
311	Pegu	238,738	1:3,213
312	Dhara	234,095	1:3,277
313	Gautam	233,387	1:3,287
314	Meher	231,845	1:3,309
315	Haque	231,424	1:3,315
316	Bhat	230,300	1:3,331
317	Mitra	230,225	1:3,332
318	Pancal	228,895	1:3,351
319	Raju	228,474	1:3,357
320	Bhil	228,309	1:3,360
321	Bharti	228,125	1:3,362
322	Ojha	228,047	1:3,364
323	Dasari	227,673	1:3,369
324	Josi	226,872	1:3,381
325	Dehuri	226,269	1:3,390
326	Basak	224,965	1:3,410
327	Umara	222,295	1:3,451
328	Kanvar	220,377	1:3,481
329	Samant	219,360	1:3,497
330	Bharavad	218,013	1:3,518
331	Sutradhar	217,949	1:3,519
332	Sethi	217,497	1:3,527
333	Tadavi	216,593	1:3,542
334	Mulla	216,432	1:3,544
335	Prajapit	215,500	1:3,559
336	Padhan	215,274	1:3,563
337	Doley	214,992	1:3,568
338	Bee	214,633	1:3,574
339	Thorat	214,233	1:3,581
340	Dubey	213,657	1:3,590
341	Nikam	213,460	1:3,593
342	Pratap	213,418	1:3,594
343	Mollya	213,143	1:3,599
344	Kunvar	212,059	1:3,617
345	Din	211,683	1:3,624
346	Garg	211,217	1:3,632
347	Ruidas	209,736	1:3,657
348	Maiiti	209,471	1:3,662
349	Ara	209,468	1:3,662
350	Parvin	208,140	1:3,685
351	Thapa	207,603	1:3,695
352	Shelke	206,212	1:3,720
353	Kha	205,866	1:3,726
354	Bhuyan	205,294	1:3,736
355	Santra	204,802	1:3,745
356	Tamang	204,652	1:3,748
357	Jaiswal	204,279	1:3,755
358	Gauda	204,191	1:3,757
359	Baitha	203,870	1:3,763
360	Jadav	202,553	1:3,787
361	Santara	201,866	1:3,800
362	Chaudhri	201,495	1:3,807
363	Ranjan	199,185	1:3,851
364	Jadej	198,795	1:3,859
365	Hajara	198,350	1:3,867
366	Debi	198,054	1:3,873
367	Sa	197,828	1:3,877
368	Malek	196,815	1:3,897
369	Dube	196,712	1:3,899
370	Malakar	196,132	1:3,911
371	Agrawal	195,872	1:3,916
372	Tyagi	195,540	1:3,923
373	Banu	195,065	1:3,932
374	Dolai	194,629	1:3,941
375	Gayen	193,653	1:3,961
376	Upadhyay	193,091	1:3,973
377	Na	191,822	1:3,999
378	Dayal	191,763	1:4,000
379	Akhtar	191,223	1:4,011
380	Sagar	190,450	1:4,028
381	Shekh	190,332	1:4,030
382	Kashyap	189,756	1:4,042
383	Bariy	189,163	1:4,055
384	Gopal	188,108	1:4,078
385	Modak	187,267	1:4,096
386	Modi	186,638	1:4,110
387	Bhowmick	186,211	1:4,119
388	Gurav	184,987	1:4,147
389	Paravin	184,979	1:4,147
390	Goihal	183,996	1:4,169
391	Rajput	183,597	1:4,178
392	Agraval	182,977	1:4,192
393	Seth	179,956	1:4,263
394	Jani	179,746	1:4,267
395	Mati	179,300	1:4,278
396	Aggarwal	178,132	1:4,306
397	Mala	178,127	1:4,306
398	Mardi	177,603	1:4,319
399	Pillai	177,570	1:4,320
400	Halapit	177,034	1:4,333
401	Mohite	176,468	1:4,347
402	Bhila	175,919	1:4,360
403	Sihan	175,905	1:4,361
404	Baidya	175,152	1:4,379
405	Thomas	175,033	1:4,382
406	Kujur	173,103	1:4,431
407	Vishwakarma	172,628	1:4,443
408	Sayyad	172,568	1:4,445
409	Poddar	171,331	1:4,477
410	Bansal	170,944	1:4,487
411	Mir	170,386	1:4,502
412	Lokhande	169,147	1:4,535
413	Shri	167,906	1:4,568
414	Choudhury	167,832	1:4,570
415	Pradhana	166,492	1:4,607
416	Pita	166,287	1:4,613
417	Mahata	166,146	1:4,617
418	Deb	165,840	1:4,625
419	Basu	165,611	1:4,632
420	Vaghari	165,495	1:4,635
421	Saiyad	164,916	1:4,651
422	Ravat	164,893	1:4,652
423	Paramanik	163,865	1:4,681
424	Pandeya	163,707	1:4,686
425	Dhar	163,456	1:4,693
426	Bose	162,612	1:4,717
427	Rishi	161,905	1:4,738
428	Ka	160,662	1:4,774
429	Vegam	160,640	1:4,775
430	Shabar	160,542	1:4,778
431	Joseph	160,015	1:4,794
432	Datta	159,839	1:4,799
433	Gorai	159,118	1:4,821
434	Masih	158,725	1:4,833
435	Senapati	158,345	1:4,844
436	Panday	157,902	1:4,858
437	Hazarika	157,344	1:4,875
438	Qureshi	157,313	1:4,876
439	Gandhi	156,436	1:4,903
440	Akhter	155,807	1:4,923
441	Ci	155,223	1:4,942
442	Shetty	154,513	1:4,964
443	Biradar	154,353	1:4,970
444	Kunwar	153,993	1:4,981
445	Karan	153,747	1:4,989
446	Husen	153,675	1:4,991
447	Muduli	153,243	1:5,006
448	Srivastava	153,041	1:5,012
449	Turi	152,914	1:5,016
450	Tripura	151,990	1:5,047
451	Lakra	151,966	1:5,048
452	Kol	151,689	1:5,057
453	Salunkhe	151,196	1:5,073
454	Sonowal	151,160	1:5,075
455	La	151,096	1:5,077
456	Vanakar	150,971	1:5,081
457	Garai	150,761	1:5,088
458	Mana	150,481	1:5,097
459	Anand	150,017	1:5,113
460	Dalvi	149,952	1:5,115
461	Jamadar	148,836	1:5,154
462	Gavli	148,702	1:5,158
463	Negi	147,784	1:5,190
464	Ahire	147,039	1:5,217
465	Nayek	146,818	1:5,225
466	Hak	146,359	1:5,241
467	Rout	146,327	1:5,242
468	Kant	145,872	1:5,258
469	Majumder	145,658	1:5,266
470	Amma	145,427	1:5,275
471	Vara	145,380	1:5,276
472	Reang	145,182	1:5,283
473	Kambale	144,916	1:5,293
474	Bhalerao	144,348	1:5,314
475	Mia	144,251	1:5,318
476	Shende	143,927	1:5,330
477	Hansada	143,793	1:5,335
478	Mudi	143,207	1:5,356
479	Baruah	142,510	1:5,383
480	Madar	142,252	1:5,392
481	Pavar	142,045	1:5,400
482	Bandi	141,758	1:5,411
483	Valvi	141,487	1:5,421
484	Kishan	141,017	1:5,440
485	Dalui	140,943	1:5,442
486	Bhattacharjee	139,948	1:5,481
487	Mo	139,774	1:5,488
488	Gohel	139,541	1:5,497
489	Gawde	139,479	1:5,500
490	Hiremath	139,313	1:5,506
491	Kala	138,985	1:5,519
492	Kamat	138,629	1:5,533
493	Khant	138,481	1:5,539
494	Baraiy	138,132	1:5,553
495	Parveen	137,517	1:5,578
496	Vala	137,460	1:5,580
497	Nesha	137,270	1:5,588
498	Mathew	136,997	1:5,599
499	Dar	136,818	1:5,606
500	Kharat	136,621	1:5,615
501	Kisan	136,463	1:5,621
502	Gurung	135,954	1:5,642
503	Chavan	135,125	1:5,677
504	Sable	135,058	1:5,680
505	Gavit	134,089	1:5,721
506	Bhoir	133,724	1:5,736
507	Chanda	133,146	1:5,761
508	Rane	133,032	1:5,766
509	Mani	132,991	1:5,768
510	Chhetri	132,701	1:5,780
511	Go	132,512	1:5,789
512	Dulari	131,312	1:5,842
513	Naidu	131,279	1:5,843
514	Gore	130,851	1:5,862
515	Sultana	130,604	1:5,873
516	Laxmi	130,417	1:5,882
517	Sil	130,220	1:5,891
518	Tayde	130,204	1:5,891
519	Nayka	130,131	1:5,895
520	Sarma	130,037	1:5,899
521	Thota	129,989	1:5,901
522	Mar	129,937	1:5,903
523	Bhatt	129,544	1:5,921
524	Dalai	129,173	1:5,938
525	Shelar	128,984	1:5,947
526	Fatma	128,828	1:5,954
527	Fernandes	128,655	1:5,962
528	Murmmu	128,177	1:5,984
529	Salve	127,994	1:5,993
530	Bhunia	127,669	1:6,008
531	Panigrahi	127,204	1:6,030
532	Krishna	126,934	1:6,043
533	Talukdar	126,898	1:6,045
534	Dave	126,648	1:6,057
535	Acharya	126,617	1:6,058
536	Adak	126,331	1:6,072
537	Bansode	126,277	1:6,074
538	Pavra	126,270	1:6,075
539	Ekka	126,108	1:6,083
540	Toppo	125,864	1:6,094
541	Lamani	125,172	1:6,128
542	Mahtre	125,004	1:6,136
543	Caudhar	124,669	1:6,153
544	Dolui	124,447	1:6,164
545	Beg	124,372	1:6,168
546	Barbhuiya	124,326	1:6,170
547	Salunke	124,002	1:6,186
548	Madavi	123,771	1:6,197
549	Chaurasiya	123,626	1:6,205
550	Rashid	123,327	1:6,220
551	Rajaput	122,773	1:6,248
552	Besra	122,523	1:6,261
553	Bhumij	122,485	1:6,263
554	Gohal	122,467	1:6,263
555	Gaikwad	122,360	1:6,269
556	Nahak	121,878	1:6,294
557	Hossain	121,831	1:6,296
558	Aalam	121,562	1:6,310
559	Vasave	121,480	1:6,314
560	Chutia	121,285	1:6,324
561	Nanda	121,163	1:6,331
562	Rabidas	121,138	1:6,332
563	Bhue	120,371	1:6,373
564	Rajbhar	120,137	1:6,385
565	Beevi	120,136	1:6,385
566	Karri	119,925	1:6,396
567	Chouhan	119,357	1:6,427
568	Rishidev	119,321	1:6,429
569	Charan	119,263	1:6,432
570	Pyari	118,855	1:6,454
571	Kapoor	118,665	1:6,464
572	Mochi	118,646	1:6,465
573	Miah	118,484	1:6,474
574	Maya	118,097	1:6,495
575	Mehata	117,983	1:6,501
576	Kui	117,877	1:6,507
577	Boruah	117,293	1:6,540
578	Sonar	117,156	1:6,547
579	Kakde	117,025	1:6,555
580	Shil	116,852	1:6,564
581	Caughari	116,594	1:6,579
582	Salim	116,149	1:6,604
583	Parab	115,976	1:6,614
584	Sama	115,964	1:6,615
585	Pagi	115,883	1:6,619
586	Bisht	115,824	1:6,623
587	Za	115,719	1:6,629
588	Abdul	115,643	1:6,633
589	Baro	115,580	1:6,637
590	Manzi	115,155	1:6,661
591	Fatima	115,105	1:6,664
592	Bordoloi	114,980	1:6,671
593	Puri	114,839	1:6,679
594	Chakma	114,821	1:6,681
595	Ganguly	114,219	1:6,716
596	Sav	113,946	1:6,732
597	George	113,684	1:6,747
598	Urang	113,325	1:6,769
599	Dongre	113,280	1:6,771
600	Banik	113,021	1:6,787
601	Kshetrapal	112,987	1:6,789
602	Mittal	112,843	1:6,798
603	Nisa	112,707	1:6,806
604	Goud	112,588	1:6,813
605	Chavhan	110,993	1:6,911
606	Pattnayak	110,818	1:6,922
607	Urao	110,707	1:6,929
608	Lenka	110,219	1:6,959
609	Basha	109,696	1:6,993
610	Yadv	109,650	1:6,996
611	Dass	109,640	1:6,996
612	Sundar	109,593	1:6,999
613	Chetry	109,207	1:7,024
614	Gaddam	108,802	1:7,050
615	Borkar	108,788	1:7,051
616	Varghese	108,704	1:7,056
617	Salam	108,406	1:7,076
618	Parmar	107,935	1:7,107
619	Sahay	107,673	1:7,124
620	Orain	107,653	1:7,125
621	Bharati	107,531	1:7,133
622	Challa	107,434	1:7,140
623	Talavar	107,433	1:7,140
624	Praveen	107,363	1:7,145
625	Khatua	106,936	1:7,173
626	Swami	106,852	1:7,179
627	Suthar	106,649	1:7,192
628	Badiger	106,363	1:7,212
629	Saxena	106,337	1:7,214
630	Tara	106,152	1:7,226
631	Nishad	106,121	1:7,228
632	Shyam	105,624	1:7,262
633	Padhi	105,566	1:7,266
634	Tambe	105,398	1:7,278
635	Pardeshi	105,066	1:7,301
636	Vishvakarma	104,803	1:7,319
637	Mohanta	104,684	1:7,327
638	Kayal	104,598	1:7,333
639	Ghorai	104,492	1:7,341
640	Mule	104,491	1:7,341
641	Prkash	104,362	1:7,350
642	Nakka	103,962	1:7,378
643	Kurmi	103,123	1:7,438
644	Adhikary	103,056	1:7,443
645	Ramesh	102,412	1:7,490
646	Padvi	102,127	1:7,511
647	Aira	102,124	1:7,511
648	Khandare	102,033	1:7,518
649	John	101,527	1:7,555
650	Mate	101,522	1:7,556
651	Naresh	101,425	1:7,563
652	Bandaru	101,363	1:7,568
653	Bhoyar	101,231	1:7,577
654	Hajong	101,223	1:7,578
655	Meena	101,003	1:7,594
656	Vankhade	100,701	1:7,617
657	Isah	100,473	1:7,635
658	Vankhede	100,350	1:7,644
659	Hemaram	100,345	1:7,644
660	Barot	100,168	1:7,658
661	Lohara	100,150	1:7,659
662	Rajwar	100,043	1:7,667
663	Saksena	99,840	1:7,683
664	Hemram	99,448	1:7,713
665	Trivedi	99,310	1:7,724
666	Bhatara	99,212	1:7,732
667	Paik	98,745	1:7,768
668	Tandel	98,517	1:7,786
669	Gade	98,458	1:7,791
670	Mansuri	98,223	1:7,809
671	Bariha	98,046	1:7,824
672	Golla	98,006	1:7,827
673	Patani	97,936	1:7,832
674	Subba	97,903	1:7,835
675	Bind	97,710	1:7,850
676	Gohil	97,534	1:7,865
677	Vano	97,111	1:7,899
678	Dalei	97,060	1:7,903
679	Kho	96,828	1:7,922
680	Mekala	96,772	1:7,927
681	Mirdha	96,723	1:7,931
682	Bihari	95,970	1:7,993
683	Lama	95,520	1:8,030
684	Kara	95,406	1:8,040
685	Bha	95,366	1:8,043
686	Krishnan	95,212	1:8,056
687	Bhowmik	95,155	1:8,061
688	Raul	95,053	1:8,070
689	Bhatra	94,702	1:8,100
690	Vaidya	94,539	1:8,114
691	Dikshit	94,099	1:8,152
692	Londhe	93,955	1:8,164
693	Chakali	93,725	1:8,184
694	Khanna	93,640	1:8,192
695	Kalam	93,614	1:8,194
696	Saroj	93,520	1:8,202
697	Kahar	93,364	1:8,216
698	Tirki	93,317	1:8,220
699	Saravaiy	93,287	1:8,223
700	Kole	93,186	1:8,232
701	Mahali	93,070	1:8,242
702	Bathula	93,065	1:8,242
703	Gosavi	92,911	1:8,256
704	Panja	92,907	1:8,256
705	Ghadge	92,544	1:8,289
706	Sathe	92,485	1:8,294
707	Chaugule	92,371	1:8,304
708	Arya	92,309	1:8,310
709	Sonkar	91,642	1:8,370
710	Mahakud	91,390	1:8,393
711	Barui	91,349	1:8,397
712	Krishn	90,976	1:8,432
713	Rabar	90,776	1:8,450
714	Jan	90,448	1:8,481
715	Mukhi	90,406	1:8,485
716	Ingole	90,229	1:8,501
717	Bhardwaj	90,218	1:8,502
718	Ravi	89,942	1:8,528
719	Satpute	89,711	1:8,550
720	Chander	89,707	1:8,551
721	Dhali	89,670	1:8,554
722	Rastogi	89,255	1:8,594
723	Nadaf	88,920	1:8,626
724	Khanam	88,716	1:8,646
725	Bagul	88,656	1:8,652
726	Gond	88,639	1:8,654
727	Surve	88,634	1:8,654
728	Mahale	88,594	1:8,658
729	Tomar	88,361	1:8,681
730	Patar	88,131	1:8,704
731	Baishya	87,859	1:8,731
732	Bhati	87,651	1:8,751
733	Lepcha	87,588	1:8,758
734	Boddu	87,355	1:8,781
735	Rajbanshi	87,182	1:8,798
736	Uike	86,918	1:8,825
737	Katta	86,881	1:8,829
738	Gavande	86,696	1:8,848
739	Tadvi	86,415	1:8,877
740	Nand	86,291	1:8,889
741	Kishore	86,136	1:8,905
742	Bar	85,882	1:8,932
743	Bairagi	85,880	1:8,932
744	Marathe	85,632	1:8,958
745	Sonavane	85,344	1:8,988
746	Vora	85,245	1:8,998
747	Konwar	85,027	1:9,021
748	Kalindi	84,919	1:9,033
749	Baray	84,859	1:9,039
750	Barla	84,817	1:9,044
751	Kuvar	84,559	1:9,071
752	Bhabhor	84,249	1:9,105
753	Sabar	84,206	1:9,109
754	Borase	84,158	1:9,115
755	Rama	84,128	1:9,118
756	Panchaal	84,031	1:9,128
757	Wai	83,922	1:9,140
758	Khade	83,818	1:9,152
759	Vadhel	83,498	1:9,187
760	Routh	83,464	1:9,190
760	Siddiqui	83,464	1:9,190
762	Gamar	83,342	1:9,204
763	Suna	83,265	1:9,212
764	Kushvaha	83,256	1:9,213
765	Dhumal	83,225	1:9,217
765	Malhotra	83,225	1:9,217
767	Magar	83,153	1:9,225
768	Bhan	83,150	1:9,225
769	Shekhar	83,144	1:9,226
770	Gouda	83,056	1:9,236
771	Dixit	82,982	1:9,244
772	Mura	82,975	1:9,245
773	Mahet	82,957	1:9,247
774	Ganda	82,816	1:9,262
775	Dasai	82,606	1:9,286
776	Bhise	82,505	1:9,297
777	Oram	82,395	1:9,310
778	Shit	82,387	1:9,311
779	Tamboli	82,143	1:9,338
780	Mili	82,012	1:9,353
781	Nadaph	81,906	1:9,365
782	Bari	81,896	1:9,366
783	Ghodke	81,874	1:9,369
784	Kaushik	81,846	1:9,372
785	Yasa	81,786	1:9,379
786	Malla	81,724	1:9,386
787	Bhutia	81,717	1:9,387
788	Teli	81,692	1:9,390
789	Ga	81,566	1:9,404
790	Lone	81,515	1:9,410
791	Konda	81,387	1:9,425
792	Kutty	81,349	1:9,429
793	Parekh	81,254	1:9,440
794	Rajan	81,234	1:9,443
795	Wani	81,207	1:9,446
796	Jose	81,155	1:9,452
797	Thakkar	81,105	1:9,458
798	Goel	80,952	1:9,476
799	Baral	80,789	1:9,495
800	Cudasam	80,677	1:9,508
801	Guha	80,646	1:9,512
802	Bagvan	80,603	1:9,517
803	Palli	80,592	1:9,518
804	Ubena	80,578	1:9,520
805	Deshpandey	80,354	1:9,546
806	Sadhukhan	80,007	1:9,587
807	Khatri	79,939	1:9,596
808	Suman	79,899	1:9,600
809	Katar	79,889	1:9,602
810	Bouri	79,875	1:9,603
811	Ji	79,856	1:9,606
812	Bhatia	79,851	1:9,606
813	Dutt	79,848	1:9,607
814	Mathur	79,729	1:9,621
815	Teron	79,726	1:9,621
816	Samad	79,611	1:9,635
817	Rath	79,402	1:9,661
818	Krishan	79,381	1:9,663
819	Thombare	79,318	1:9,671
820	Dhal	79,150	1:9,691
821	Panchal	79,098	1:9,698
822	Kuwar	79,090	1:9,699
823	Talapad	79,071	1:9,701
824	Veca	79,059	1:9,702
825	Parween	79,058	1:9,703
826	Sodha	78,860	1:9,727
827	Bhukya	78,385	1:9,786
828	Imi	78,210	1:9,808
829	Medhi	78,192	1:9,810
830	Bhakta	78,153	1:9,815
831	Ramana	78,091	1:9,823
832	Kolhe	77,812	1:9,858
833	Minz	77,673	1:9,876
834	Vani	77,641	1:9,880
835	Ganjhu	77,615	1:9,883
836	Da	77,567	1:9,889
837	Bhushan	77,540	1:9,893
838	Maske	77,473	1:9,901
839	Kummari	77,192	1:9,937
840	U	77,002	1:9,962
841	A	76,954	1:9,968
842	Bagum	76,594	1:10,015
843	Bhuiyan	76,367	1:10,044
844	Gain	76,223	1:10,063
845	Kothari	76,205	1:10,066
846	Pardhi	76,112	1:10,078
847	Chettri	76,003	1:10,093
848	Simha	75,946	1:10,100
849	Kota	75,835	1:10,115
850	Aher	75,809	1:10,118
851	Iqbal	75,783	1:10,122
852	Khot	75,772	1:10,123
853	Singhal	75,722	1:10,130
854	Gangurde	75,582	1:10,149
855	Hasda	75,514	1:10,158
856	Manda	75,444	1:10,167
857	Devre	75,319	1:10,184
858	Ghoshal	75,268	1:10,191
859	Dhibar	75,048	1:10,221
860	Ramteke	74,665	1:10,273
861	Barad	74,537	1:10,291
862	Arif	74,307	1:10,323
863	Mahadik	74,105	1:10,351
864	Topno	74,042	1:10,360
865	Mankar	74,037	1:10,361
866	Mahammad	73,898	1:10,380
867	Gedam	73,864	1:10,385
868	Ramani	73,862	1:10,385
869	Pidhayar	73,768	1:10,398
870	Daimary	73,728	1:10,404
871	Lad	73,652	1:10,415
872	Jagdale	73,267	1:10,469
873	Reddi	73,095	1:10,494
874	Mistry	73,004	1:10,507
875	Ahuja	72,907	1:10,521
876	Aslam	72,894	1:10,523
877	Ganta	72,491	1:10,582
878	Pahan	72,364	1:10,600
879	Bhanu	72,356	1:10,601
880	Khedkar	72,283	1:10,612
881	Gadekar	72,204	1:10,624
882	Rathi	72,121	1:10,636
883	Kandi	72,104	1:10,638
884	Sai	72,079	1:10,642
885	Choudhari	71,796	1:10,684
886	Bhai	71,762	1:10,689
887	Atram	71,756	1:10,690
888	Svarup	71,692	1:10,699
889	Mazumder	71,683	1:10,701
890	Ramar	71,570	1:10,718
891	Pujar	71,463	1:10,734
892	Ade	71,357	1:10,750
893	Rathaur	71,167	1:10,778
894	Kshirsagar	70,998	1:10,804
895	Valand	70,982	1:10,806
896	Shrivastava	70,829	1:10,830
897	Jaha	70,552	1:10,872
898	Bankar	70,322	1:10,908
899	Devkar	70,237	1:10,921
900	Khairnar	70,198	1:10,927
901	Purohit	70,166	1:10,932
902	Daimari	70,143	1:10,936
903	Amin	70,108	1:10,941
904	Dhangar	70,037	1:10,952
905	Purkait	69,995	1:10,959
906	Pilli	69,980	1:10,961
907	Vir	69,922	1:10,970
908	Dava	69,911	1:10,972
909	Dasgupta	69,896	1:10,974
910	Suresh	69,801	1:10,989
911	Eva	69,721	1:11,002
912	Kadu	69,707	1:11,004
913	Avasthi	69,506	1:11,036
914	Kuresi	69,484	1:11,039
915	Talari	69,463	1:11,043
916	Tina	69,361	1:11,059
917	Kumbar	69,240	1:11,078
918	Sha	69,201	1:11,085
919	Hembrom	69,162	1:11,091
920	Misal	69,147	1:11,093
921	Vi	69,118	1:11,098
922	Koch	69,063	1:11,107
923	Khanra	68,908	1:11,132
924	Dvivedi	68,825	1:11,145
925	Chetia	68,808	1:11,148
926	Niwas	68,807	1:11,148
927	Seikh	68,554	1:11,189
928	Nagar	68,330	1:11,226
929	Cavhan	68,213	1:11,245
930	Tirkey	68,109	1:11,262
931	Eka	67,784	1:11,316
932	Sengupta	67,643	1:11,340
933	Dara	67,612	1:11,345
934	Gaur	67,590	1:11,349
935	Bajaj	67,526	1:11,360
936	Banoo	67,471	1:11,369
937	Jaya	67,349	1:11,389
938	Hosen	67,254	1:11,405
939	Kushwaha	67,248	1:11,407
940	Kulakarni	67,232	1:11,409
941	Patole	67,222	1:11,411
942	Datt	67,122	1:11,428
943	Vyas	67,029	1:11,444
944	Ubhai	66,975	1:11,453
945	Pasupuleti	66,913	1:11,464
946	Koley	66,906	1:11,465
947	Mehra	66,471	1:11,540
948	Anjum	66,251	1:11,578
949	Bhosale	66,213	1:11,585
950	Tela	66,196	1:11,588
951	Rokade	66,125	1:11,600
952	Haq	65,966	1:11,628
953	Lyngdoh	65,954	1:11,630
954	Parsad	65,913	1:11,638
955	Paya	65,886	1:11,642
956	Dantani	65,855	1:11,648
957	Landage	65,840	1:11,650
958	Ghorpade	65,813	1:11,655
959	Shafi	65,730	1:11,670
960	Babar	65,727	1:11,670
961	Dalal	65,577	1:11,697
962	Vamar	65,553	1:11,701
963	Kushavaha	65,550	1:11,702
964	Priya	65,497	1:11,711
965	Pala	65,469	1:11,716
965	Tarafdar	65,469	1:11,716
967	Hirajan	65,322	1:11,743
968	Kapur	65,259	1:11,754
969	Bhangi	65,202	1:11,764
970	Taka	65,172	1:11,770
971	Chaube	65,155	1:11,773
972	Gharami	65,095	1:11,784
973	Chaturvedi	65,021	1:11,797
974	Honsa	64,641	1:11,867
975	Abbas	64,611	1:11,872
976	Jangam	64,609	1:11,872
977	Bambhaniy	64,532	1:11,887
978	Shirke	64,434	1:11,905
979	Hasada	64,387	1:11,913
980	Dhage	64,275	1:11,934
981	Gurram	64,173	1:11,953
982	Mamidi	64,168	1:11,954
983	Meman	63,995	1:11,986
984	Dangar	63,805	1:12,022
985	Gosai	63,682	1:12,045
986	Midya	63,615	1:12,058
987	Kamal	63,480	1:12,084
988	Pi	63,424	1:12,094
989	Baske	63,366	1:12,105
990	Sontakke	63,312	1:12,116
991	Kumhar	63,121	1:12,152
992	Barde	62,941	1:12,187
993	Aakula	62,845	1:12,206
994	Dwivedi	62,778	1:12,219
995	Mahananda	62,775	1:12,219
996	Ghule	62,758	1:12,223
997	Dip	62,714	1:12,231
998	Kola	62,653	1:12,243
999	Chaupal	62,519	1:12,269
1000	Parjapit	62,474	1:12,278