1	Jónsdóttir	7,260	1:52
2	Jónsson	6,767	1:56
3	Sigurðardóttir	5,441	1:70
4	Guðmundsdóttir	5,284	1:72
5	Guðmundsson	5,252	1:72
6	Sigurðsson	4,728	1:80
7	Gunnarsdóttir	3,712	1:102
8	Gunnarsson	3,525	1:108
9	Ólafsson	3,295	1:115
10	Ólafsdóttir	3,053	1:124
11	Magnúsdóttir	2,892	1:131
12	Magnússon	2,853	1:133
13	Einarsson	2,805	1:136
14	Einarsdóttir	2,631	1:144
15	Kristjánsdóttir	2,483	1:153
16	Kristjánsson	2,429	1:156
17	Björnsdóttir	2,265	1:168
18	Stefánsson	2,080	1:183
19	Jóhannsson	2,050	1:185
20	Jóhannsdóttir	2,049	1:186
21	Björnsson	2,017	1:188
22	Stefánsdóttir	1,963	1:194
23	Bjarnason	1,805	1:211
23	Árnadóttir	1,805	1:211
25	Bjarnadóttir	1,780	1:214
26	Árnason	1,700	1:224
27	Halldórsson	1,692	1:225
28	Helgason	1,683	1:226
29	Halldórsdóttir	1,649	1:230
30	Gísladóttir	1,560	1:244
31	Helgadóttir	1,539	1:247
32	Sveinsson	1,535	1:248
33	Ragnarsdóttir	1,534	1:248
34	Kristinsson	1,503	1:253
35	Pétursdóttir	1,487	1:256
36	Pálsson	1,484	1:256
37	Guðjónsdóttir	1,467	1:259
38	Kristinsdóttir	1,457	1:261
39	Pálsdóttir	1,427	1:266
40	Karlsson	1,419	1:268
41	Guðjónsson	1,396	1:272
42	Pétursson	1,373	1:277
43	Gíslason	1,350	1:282
44	Þorsteinsson	1,320	1:288
45	Þorsteinsdóttir	1,316	1:289
46	Sveinsdóttir	1,290	1:295
47	Ragnarsson	1,281	1:297
48	Óskarsson	1,213	1:313
49	Óskarsdóttir	1,175	1:323
50	Karlsdóttir	1,173	1:324
51	Haraldsson	1,166	1:326
52	Jóhannesson	1,157	1:329
53	Jóhannesdóttir	1,147	1:331
54	Sigurjónsdóttir	1,038	1:366
55	Birgisson	1,017	1:374
56	Birgisdóttir	991	1:384
57	Hauksson	966	1:393
58	Harðardóttir	947	1:401
59	Þórðardóttir	928	1:410
60	Ásgeirsdóttir	926	1:410
61	Haraldsdóttir	904	1:420
62	Jónasdóttir	903	1:421
63	Hauksdóttir	902	1:421
64	Harðarson	865	1:439
64	Jónasson	865	1:439
66	Sigurjónsson	855	1:445
67	Kjartansdóttir	844	1:450
68	Kjartansson	841	1:452
69	Ágústsson	819	1:464
70	Þórðarson	810	1:469
71	Arnarson	809	1:470
72	Friðriksson	790	1:481
73	Baldursdóttir	780	1:487
74	Baldursson	773	1:492
75	Ágústsdóttir	771	1:493
76	Sverrisson	749	1:507
77	Hilmarsson	729	1:521
78	Ásgeirsson	724	1:525
79	Eiríksdóttir	714	1:532
80	Friðriksdóttir	704	1:540
81	Guðnadóttir	688	1:552
82	Ingólfsson	686	1:554
83	Eiríksson	685	1:555
84	Guðnason	676	1:562
85	Ingólfsdóttir	673	1:565
86	Arnardóttir	669	1:568
87	Benediktsdóttir	656	1:579
88	Hilmarsdóttir	652	1:583
89	Sverrisdóttir	649	1:586
90	Valdimarsdóttir	648	1:587
91	Þórarinsdóttir	628	1:605
92	Reynisson	624	1:609
93	Benediktsson	617	1:616
94	Björgvinsdóttir	615	1:618
95	Gunnlaugsson	601	1:632
96	Jonsson	595	1:639
97	Gunnlaugsdóttir	574	1:662
98	Reynisdóttir	573	1:663
99	Aðalsteinsdóttir	571	1:666
100	Þórisdóttir	570	1:667
101	Skúladóttir	556	1:684
102	Hafsteinsdóttir	552	1:689
103	Ómarsdóttir	547	1:695
104	Sævarsdóttir	546	1:696
105	Sigurðarson	543	1:700
106	Valdimarsson	539	1:705
106	Þórisson	539	1:705
108	Rúnarsdóttir	537	1:708
109	Snorrason	531	1:716
110	Vilhjálmsdóttir	528	1:720
111	Þórarinsson	527	1:721
112	Hermannsson	518	1:734
113	Svavarsdóttir	516	1:737
114	Tryggvason	514	1:739
115	Sævarsson	511	1:744
116	Garðarsdóttir	507	1:750
117	Þorvaldsdóttir	504	1:754
118	Rúnarsson	499	1:762
119	Bragason	498	1:763
120	Hannesdóttir	488	1:779
120	Þorvaldsson	488	1:779
122	Vilhjálmsson	481	1:790
123	Björgvinsson	477	1:797
123	Bragadóttir	477	1:797
125	Egilsson	474	1:802
126	Ingvarsdóttir	473	1:804
127	Gylfason	472	1:805
128	Hallgrímsdóttir	469	1:810
129	Skúlason	466	1:816
130	Hjartardóttir	461	1:824
131	Hjartarson	458	1:830
132	Hannesson	455	1:835
132	Ingvarsson	455	1:835
134	Júlíusson	453	1:839
135	Guðlaugsdóttir	451	1:843
135	Lárusdóttir	451	1:843
135	Ómarsson	451	1:843
138	Garðarsson	450	1:845
139	Gylfadóttir	449	1:847
140	Hallgrímsson	448	1:848
141	Guðlaugsson	447	1:850
142	Grétarsson	446	1:852
143	Snorradóttir	440	1:864
144	Aðalsteinsson	439	1:866
144	Lárusson	439	1:866
146	Tryggvadóttir	438	1:868
147	Júlíusdóttir	435	1:874
147	Nguyen	435	1:874
147	Tómasson	435	1:874
150	Jakobsdóttir	432	1:880
150	Jakobsson	432	1:880
152	Svavarsson	423	1:899
153	Erlingsson	422	1:901
154	Grétarsdóttir	421	1:903
155	Geirsdóttir	418	1:909
156	Hermannsdóttir	416	1:914
157	Sveinbjörnsdóttir	414	1:918
157	Viðarsson	414	1:918
159	Hafsteinsson	410	1:927
160	Tómasdóttir	409	1:929
161	Sigurdsson	407	1:934
162	Geirsson	405	1:938
163	Arnarsson	402	1:945
164	Óladóttir	398	1:955
165	Hjaltadóttir	395	1:962
166	Gudmundsson	394	1:965
167	Erlingsdóttir	389	1:977
168	Arnarsdóttir	387	1:982
169	Ingason	384	1:990
170	Sigurbjörnsson	381	1:998
171	Ólason	380	1:1,000
172	Eggertsson	377	1:1,008
173	Eggertsdóttir	375	1:1,014
174	Hjaltason	365	1:1,041
175	Sigurbjörnsdóttir	362	1:1,050
176	Andrésdóttir	356	1:1,068
176	Elíasdóttir	356	1:1,068
178	Traustason	354	1:1,074
179	Sigfúsdóttir	353	1:1,077
180	Sæmundsdóttir	351	1:1,083
181	Olafsson	350	1:1,086
182	Aradóttir	349	1:1,089
183	Eyjólfsson	347	1:1,095
184	Sigurgeirsdóttir	346	1:1,099
185	Valsdóttir	345	1:1,102
186	Eyjólfsdóttir	344	1:1,105
186	Gestsdóttir	344	1:1,105
188	Pálmadóttir	341	1:1,115
188	Þórsdóttir	341	1:1,115
190	Davíðsson	339	1:1,121
190	Leifsdóttir	339	1:1,121
190	Oddsson	339	1:1,121
193	Sigfússon	338	1:1,125
193	Þórhallsdóttir	338	1:1,125
195	Thorsteinsson	337	1:1,128
196	Arason	336	1:1,131
196	Davíðsdóttir	336	1:1,131
198	Hjálmarsdóttir	335	1:1,135
198	Leifsson	335	1:1,135
198	Steinarsson	335	1:1,135
201	Baldvinsson	332	1:1,145
202	Jensson	331	1:1,148
203	Andrésson	330	1:1,152
204	Blöndal	329	1:1,155
204	Sigurgeirsson	329	1:1,155
206	Oddsdóttir	327	1:1,162
207	Hreinsson	319	1:1,192
207	Sveinbjörnsson	319	1:1,192
209	Thorarensen	317	1:1,199
210	Gestsson	315	1:1,207
210	Steingrímsson	315	1:1,207
212	Hansen	312	1:1,218
212	Ingadóttir	312	1:1,218
212	Þrastardóttir	312	1:1,218
215	Viðarsdóttir	311	1:1,222
216	Valgeirsdóttir	310	1:1,226
217	Hreinsdóttir	307	1:1,238
218	Hjálmarsson	301	1:1,263
218	Þórsson	301	1:1,263
220	Egilsdóttir	300	1:1,267
220	Steinarsdóttir	300	1:1,267
222	Rafnsson	299	1:1,271
223	Axelsson	296	1:1,284
224	Jonsdottir	295	1:1,288
224	Magnusson	295	1:1,288
224	Pálmason	295	1:1,288
227	Valsson	289	1:1,315
228	Steingrímsdóttir	287	1:1,324
228	Traustadóttir	287	1:1,324
230	Matthíasdóttir	286	1:1,329
231	Erlendsdóttir	283	1:1,343
232	Sæmundsson	282	1:1,348
233	Heimisson	281	1:1,353
233	Smáradóttir	281	1:1,353
235	Torfason	280	1:1,357
236	Ingimarsson	279	1:1,362
237	Atlason	276	1:1,377
238	Jensdóttir	274	1:1,387
239	Rafnsdóttir	273	1:1,392
240	Agnarsson	269	1:1,413
241	Finnbogadóttir	267	1:1,424
242	Þorgeirsdóttir	265	1:1,434
243	Axelsdóttir	264	1:1,440
243	Elíasson	264	1:1,440
245	Róbertsdóttir	262	1:1,451
246	Waage	259	1:1,468
247	Daníelsson	258	1:1,473
247	Ásmundsson	258	1:1,473
249	Gudmundsdottir	254	1:1,496
249	Sigurdardottir	254	1:1,496
251	Matthíasson	253	1:1,502
251	Sigmundsson	253	1:1,502
253	Daníelsdóttir	251	1:1,514
253	Þrastarson	251	1:1,514
255	Brynjarsson	250	1:1,520
255	Þorkelsdóttir	250	1:1,520
257	Kárason	248	1:1,533
258	Nielsen	246	1:1,545
259	Möller	245	1:1,551
259	Rögnvaldsdóttir	245	1:1,551
261	Briem	242	1:1,571
261	Brynjólfsdóttir	242	1:1,571
261	Brynjólfsson	242	1:1,571
264	Brynjarsdóttir	240	1:1,584
264	Heimisdóttir	240	1:1,584
266	Agnarsdóttir	239	1:1,590
266	Þorgeirsson	239	1:1,590
268	Lúðvíksdóttir	238	1:1,597
269	Valgeirsson	236	1:1,611
270	Andersen	234	1:1,624
270	Emilsdóttir	234	1:1,624
272	Finnsson	233	1:1,631
273	Ármannsdóttir	232	1:1,638
274	Ívarsdóttir	231	1:1,645
275	Steinsson	230	1:1,653
276	Finnbogason	229	1:1,660
277	Baldvinsdóttir	228	1:1,667
277	Jnsdttir	228	1:1,667
277	Ásmundsdóttir	228	1:1,667
277	Þórhallsson	228	1:1,667
281	Kvaran	223	1:1,704
281	Thoroddsen	223	1:1,704
283	Ingimarsdóttir	221	1:1,720
284	Atladóttir	219	1:1,736
284	Guðbrandsdóttir	219	1:1,736
286	Hrafnsson	218	1:1,744
286	Olsen	218	1:1,744
286	Sigmundsdóttir	218	1:1,744
289	Bergmann	217	1:1,752
289	Ingimundardóttir	217	1:1,752
289	Kristjansson	217	1:1,752
292	Antonsson	215	1:1,768
293	Albertsson	214	1:1,776
293	Emilsson	214	1:1,776
293	Káradóttir	214	1:1,776
296	Þorleifsdóttir	213	1:1,784
297	Antonsdóttir	212	1:1,793
298	Ingvadóttir	210	1:1,810
298	Vigfúsdóttir	210	1:1,810
300	Heiðarsdóttir	208	1:1,827
301	Smárason	207	1:1,836
302	Erlendsson	206	1:1,845
302	Jensen	206	1:1,845
304	Sigmarsdóttir	204	1:1,863
305	Eyþórsson	202	1:1,882
305	Þorkelsson	202	1:1,882
307	Torfadóttir	201	1:1,891
308	Albertsdóttir	200	1:1,900
308	Marteinsdóttir	200	1:1,900
310	Bergsson	197	1:1,929
310	Guðbjörnsson	197	1:1,929
310	Sigmarsson	197	1:1,929
313	Ingimundarson	196	1:1,939
313	Ármannsson	196	1:1,939
315	Hjaltalín	195	1:1,949
316	Georgsson	194	1:1,959
317	Úlfarsson	193	1:1,969
318	Másdóttir	192	1:1,980
319	Marteinsson	190	1:2,000
320	Þráinsdóttir	189	1:2,011
321	Bjarkadóttir	188	1:2,022
322	Svansdóttir	187	1:2,033
323	Finnsdóttir	186	1:2,043
323	Konráðsson	186	1:2,043
323	Vignisdóttir	186	1:2,043
326	Bergsdóttir	185	1:2,055
326	Hákonarson	185	1:2,055
328	Hinriksson	184	1:2,066
329	Þorleifsson	183	1:2,077
330	Halldorsson	182	1:2,088
330	Konráðsdóttir	182	1:2,088
330	Steinþórsson	182	1:2,088
333	Hafþórsson	181	1:2,100
334	Guðbjörnsdóttir	180	1:2,112
334	Róbertsson	180	1:2,112
336	Ívarsson	179	1:2,123
337	Guðbjartsson	177	1:2,147
337	Höskuldsdóttir	177	1:2,147
339	Ingvason	176	1:2,160
340	Steinsdóttir	175	1:2,172
341	Svansson	173	1:2,197
342	Eyþórsdóttir	172	1:2,210
342	Gústafsson	172	1:2,210
344	Palsson	171	1:2,223
345	Hreiðarsson	170	1:2,236
346	Sigtryggsson	169	1:2,249
347	Fjeldsted	168	1:2,262
347	Steindórsdóttir	168	1:2,262
347	Sturludóttir	168	1:2,262
350	Auðunsdóttir	167	1:2,276
350	Marinósdóttir	167	1:2,276
350	Vignisson	167	1:2,276
353	Vigfússon	166	1:2,290
354	Lafsson	164	1:2,318
354	Másson	164	1:2,318
356	Hreiðarsdóttir	163	1:2,332
356	Úlfarsdóttir	163	1:2,332
358	Einarsdottir	162	1:2,346
358	Grímsdóttir	162	1:2,346
358	Guðbjartsdóttir	162	1:2,346
358	Hall	162	1:2,346
362	Georgsdóttir	161	1:2,361
362	Heiðarsson	161	1:2,361
362	Hjaltested	161	1:2,361
365	Johnson	160	1:2,376
365	Scheving	160	1:2,376
365	Ævarsdóttir	160	1:2,376
368	Kolbeinsson	159	1:2,391
368	Loftsson	159	1:2,391
368	Schram	159	1:2,391
371	Grímsson	158	1:2,406
372	Alfreðsdóttir	156	1:2,436
372	Gunnarsdottir	156	1:2,436
372	Hlynsson	156	1:2,436
372	Hákonardóttir	156	1:2,436
372	Valgarðsdóttir	156	1:2,436
372	Ægisdóttir	156	1:2,436
378	Símonardóttir	155	1:2,452
379	Steinþórsdóttir	153	1:2,484
380	Gissurarson	152	1:2,501
380	Pedersen	152	1:2,501
382	Alfreðsson	151	1:2,517
382	Marinósson	151	1:2,517
384	Steindórsson	150	1:2,534
385	Böðvarsson	147	1:2,586
385	Ellertsson	147	1:2,586
387	Sigurþórsson	146	1:2,603
388	Gislason	145	1:2,621
388	Hansdóttir	145	1:2,621
388	Kristmundsdóttir	145	1:2,621
391	Beck	144	1:2,640
392	Eysteinsson	143	1:2,658
392	Kolbeinsdóttir	143	1:2,658
394	Gústafsdóttir	142	1:2,677
394	Samúelsson	142	1:2,677
394	Skarphéðinsson	142	1:2,677
394	Vu	142	1:2,677
398	Friðjónsson	139	1:2,734
398	Lúðvíksson	139	1:2,734
400	Böðvarsdóttir	138	1:2,754
400	Sigvaldason	138	1:2,754
400	Sturluson	138	1:2,754
403	Hansson	137	1:2,774
404	Arnórsson	136	1:2,795
404	Bjornsson	136	1:2,795
404	Sigtryggsdóttir	136	1:2,795
407	Arnason	135	1:2,815
407	Gröndal	135	1:2,815
407	Ottesen	135	1:2,815
410	Arnórsdóttir	134	1:2,836
410	Samúelsdóttir	134	1:2,836
410	Ásgrímsson	134	1:2,836
413	Stefansson	133	1:2,858
413	Ægisson	133	1:2,858
415	Berndsen	132	1:2,879
415	Kristmundsson	132	1:2,879
415	Skarphéðinsdóttir	132	1:2,879
415	Þorbjörnsson	132	1:2,879
419	de Sousa	131	1:2,901
419	Sigþórsdóttir	131	1:2,901
419	Sölvason	131	1:2,901
422	Petersen	130	1:2,924
422	Runólfsdóttir	130	1:2,924
424	Ásbjörnsdóttir	129	1:2,946
425	Arngrímsson	128	1:2,969
425	Bui	128	1:2,969
425	Clausen	128	1:2,969
425	Norðdahl	128	1:2,969
425	Ottósson	128	1:2,969
425	Sigþórsson	128	1:2,969
425	Thorlacius	128	1:2,969
432	Jósefsdóttir	127	1:2,993
432	Larsen	127	1:2,993
432	Símonarson	127	1:2,993
435	Viktorsson	126	1:3,017
436	Johannsson	125	1:3,041
436	Kristjansdottir	125	1:3,041
436	Smith	125	1:3,041
439	Indriðadóttir	124	1:3,065
439	Ævarsson	124	1:3,065
441	Hinriksdóttir	123	1:3,090
441	Magnusdottir	123	1:3,090
441	Michelsen	123	1:3,090
441	Viggósdóttir	123	1:3,090
445	Auðunsson	122	1:3,115
445	Friðjónsdóttir	122	1:3,115
445	Rögnvaldsson	122	1:3,115
448	Bogason	121	1:3,141
448	Guðbrandsson	121	1:3,141
448	Höskuldsson	121	1:3,141
451	Hallsdóttir	119	1:3,194
451	Hlynsdóttir	119	1:3,194
451	Thordarson	119	1:3,194
454	Agustsson	118	1:3,221
454	Eysteinsdóttir	118	1:3,221
454	Oskarsson	118	1:3,221
454	Þorvarðarson	118	1:3,221
458	Petursson	117	1:3,249
459	Diego	116	1:3,277
459	Þorgrímsson	116	1:3,277
461	Hafþórsdóttir	115	1:3,305
461	Sandholt	115	1:3,305
463	Bjarnadottir	114	1:3,334
463	Knútsdóttir	114	1:3,334
463	Ottósdóttir	114	1:3,334
463	Sigvaldadóttir	114	1:3,334
463	Þráinsson	114	1:3,334
468	Hallsson	113	1:3,364
468	Hrafnsdóttir	113	1:3,364
468	Indriðason	113	1:3,364
468	Víðisdóttir	113	1:3,364
472	Bjornsdottir	112	1:3,394
472	da Silva	112	1:3,394
472	Kumar	112	1:3,394
472	Ásbjörnsson	112	1:3,394
476	Hardarson	111	1:3,424
476	Valgarðsson	111	1:3,424
478	Hafstein	110	1:3,455
479	Hafliðadóttir	109	1:3,487
480	Kolbeins	107	1:3,552
481	Ríkharðsdóttir	106	1:3,586
481	Valtýsson	106	1:3,586
483	Benjamínsdóttir	105	1:3,620
483	Friðgeirsson	105	1:3,620
483	Runólfsson	105	1:3,620
483	Thors	105	1:3,620
483	Vilbergsson	105	1:3,620
488	Gudjonsson	104	1:3,655
488	Hjörleifsdóttir	104	1:3,655
488	Hjörleifsson	104	1:3,655
488	Snæbjörnsdóttir	104	1:3,655
492	Bjarkason	103	1:3,690
492	Sighvatsson	103	1:3,690
492	Þorbjörnsdóttir	103	1:3,690
492	Þorgrímsdóttir	103	1:3,690
492	Þorvarðardóttir	103	1:3,690
497	Eiðsson	102	1:3,726
497	Johannsdottir	102	1:3,726
497	Ásgrímsdóttir	102	1:3,726
500	Gudjonsdottir	101	1:3,763
500	Palsdottir	101	1:3,763
500	Þorláksdóttir	101	1:3,763
500	Þorláksson	101	1:3,763
504	Flosason	100	1:3,801
504	Gisladottir	100	1:3,801
504	Kjerúlf	100	1:3,801
504	Theodórsdóttir	100	1:3,801
504	Unnarsdóttir	100	1:3,801
504	Óðinsson	100	1:3,801
510	Arnadottir	99	1:3,839
510	Arnþórsdóttir	99	1:3,839
510	Markúsdóttir	99	1:3,839
510	Tulinius	99	1:3,839
514	Högnason	98	1:3,878
514	Kristófersson	98	1:3,878
514	Viggósson	98	1:3,878
514	Ársælsson	98	1:3,878
518	Bachmann	97	1:3,918
519	Gunnarsdttir	96	1:3,959
519	Hrafnkelsdóttir	96	1:3,959
521	Högnadóttir	95	1:4,001
521	Laxdal	95	1:4,001
521	Ísleifsdóttir	95	1:4,001
524	Eiriksson	94	1:4,044
525	Abdullahi	93	1:4,087
525	Bergþórsdóttir	93	1:4,087
525	Edvardsson	93	1:4,087
525	Hafliðason	93	1:4,087
525	Óttarsdóttir	93	1:4,087
530	Gudnason	92	1:4,131
530	Loftsdóttir	92	1:4,131
530	Petursdottir	92	1:4,131
533	Dungal	91	1:4,177
533	Friðgeirsdóttir	91	1:4,177
533	Lund	91	1:4,177
533	Van	91	1:4,177
533	Ársælsdóttir	91	1:4,177
533	Óðinsdóttir	91	1:4,177
539	Daðadóttir	90	1:4,223
539	Ellertsdóttir	90	1:4,223
539	Elísson	90	1:4,223
539	Halldorsdottir	90	1:4,223
539	Njálsdóttir	90	1:4,223
544	Elvarsdóttir	89	1:4,271
544	Hálfdánarson	89	1:4,271
544	Kjærnested	89	1:4,271
544	Níelsson	89	1:4,271
548	Guðfinnsson	88	1:4,319
548	Olgeirsson	88	1:4,319
548	Snæbjörnsson	88	1:4,319
548	Sölvadóttir	88	1:4,319
548	Yngvason	88	1:4,319
548	Örnólfsdóttir	88	1:4,319
554	Hlöðversdóttir	87	1:4,369
554	Johannesson	87	1:4,369
554	Jósepsdóttir	87	1:4,369
554	Skulason	87	1:4,369
558	Elísdóttir	86	1:4,420
558	Ingibergsson	86	1:4,420
558	Löve	86	1:4,420
558	Ragnarsdottir	86	1:4,420
558	Sigurþórsdóttir	86	1:4,420
558	Stefansdottir	86	1:4,420
558	Thorvaldsson	86	1:4,420
558	Unnarsson	86	1:4,420
558	Valtýsdóttir	86	1:4,420
558	Ástvaldsson	86	1:4,420
568	Markússon	85	1:4,472
568	Moyo	85	1:4,472
568	Norðfjörð	85	1:4,472
571	Hafberg	84	1:4,525
571	Jósefsson	84	1:4,525
571	Melsted	84	1:4,525
574	Fridriksson	83	1:4,579
574	Frímannsdóttir	83	1:4,579
574	Guttormsdóttir	83	1:4,579
574	Levy	83	1:4,579
574	Ámundadóttir	83	1:4,579
574	Ísleifsson	83	1:4,579
580	Hardardottir	82	1:4,635
580	Hlöðversson	82	1:4,635
580	Jósepsson	82	1:4,635
580	Níelsdóttir	82	1:4,635
580	Ríkharðsson	82	1:4,635
585	Arngrímsdóttir	81	1:4,692
585	Sigurvinsson	81	1:4,692
585	Thorarinsson	81	1:4,692
585	Thorisson	81	1:4,692
589	Bogadóttir	80	1:4,751
589	Christensen	80	1:4,751
589	Eiðsdóttir	80	1:4,751
589	Hrafnkelsson	80	1:4,751
589	Olgeirsdóttir	80	1:4,751
589	Stephensen	80	1:4,751
589	Þorbergsdóttir	80	1:4,751
589	Þormar	80	1:4,751
589	Þór	80	1:4,751
589	Þórólfsson	80	1:4,751
599	Birkisdóttir	79	1:4,811
599	Elvarsson	79	1:4,811
599	Helgadottir	79	1:4,811
599	Héðinsdóttir	79	1:4,811
599	Ingibergsdóttir	79	1:4,811
599	Renegado	79	1:4,811
599	Sigurjonsson	79	1:4,811
606	Emmanuel	78	1:4,873
606	Njálsson	78	1:4,873
606	Theódórsson	78	1:4,873
609	Birgisdottir	77	1:4,936
609	Eðvarðsson	77	1:4,936
609	Gissurardóttir	77	1:4,936
609	Kristjnsson	77	1:4,936
609	Kristófersdóttir	77	1:4,936
609	Ástvaldsdóttir	77	1:4,936
615	Hólm	76	1:5,001
615	Þorbergsson	76	1:5,001
617	Bergþórsson	75	1:5,068
617	Guðmannsdóttir	75	1:5,068
617	Guðrúnardóttir	75	1:5,068
617	Malmquist	75	1:5,068
617	Munoz	75	1:5,068
617	Sigurvinsdóttir	75	1:5,068
623	Barkardóttir	74	1:5,136
623	Hrólfsson	74	1:5,136
623	Ngo	74	1:5,136
623	Tomasson	74	1:5,136
623	Vilhelmsson	74	1:5,136
628	Daðason	73	1:5,207
628	Ndlovu	73	1:5,207
628	Proppé	73	1:5,207
628	Thordardottir	73	1:5,207
628	Unnsteinsson	73	1:5,207
628	Yngvadóttir	73	1:5,207
634	Alexandersdóttir	72	1:5,279
634	Arndal	72	1:5,279
634	Arnþórsson	72	1:5,279
634	Hrólfsdóttir	72	1:5,279
634	Johnsen	72	1:5,279
634	Lilliendahl	72	1:5,279
634	Logason	72	1:5,279
634	Pham	72	1:5,279
634	Ísaksdóttir	72	1:5,279
634	Þórólfsdóttir	72	1:5,279
644	Arnalds	71	1:5,353
644	Hagalín	71	1:5,353
644	Holm	71	1:5,353
644	Sighvatsdóttir	71	1:5,353
644	Vilbergsdóttir	71	1:5,353
644	Ögmundsson	71	1:5,353
650	Jacobsen	70	1:5,430
650	Líndal	70	1:5,430
650	Richter	70	1:5,430
653	Guðbergsson	69	1:5,509
653	Halldrsson	69	1:5,509
653	Herbertsson	69	1:5,509
653	Héðinsson	69	1:5,509
653	Kristinsdottir	69	1:5,509
653	Le	69	1:5,509
653	Pereira	69	1:5,509
653	Rnason	69	1:5,509
653	Thorisdottir	69	1:5,509
653	Thorsteinsdottir	69	1:5,509
663	Benjamínsson	68	1:5,590
663	Jónatansson	68	1:5,590
663	Snædal	68	1:5,590
663	Viktorsdóttir	68	1:5,590
667	Eydal	67	1:5,673
667	Hálfdánardóttir	67	1:5,673
667	Ketilsdóttir	67	1:5,673
667	Pálmarsdóttir	67	1:5,673
667	Rodriguez	67	1:5,673
672	Bárðarson	66	1:5,759
672	Eðvarðsdóttir	66	1:5,759
672	Guðjohnsen	66	1:5,759
672	Hreggviðsdóttir	66	1:5,759
672	Karlsdottir	66	1:5,759
672	Kristmannsdóttir	66	1:5,759
672	Oskarsdottir	66	1:5,759
679	de Luna	65	1:5,848
679	Eyjolfsson	65	1:5,848
679	Logadóttir	65	1:5,848
679	Schiöth	65	1:5,848
683	Adebayo	64	1:5,939
683	dos Santos	64	1:5,939
683	Kristínardóttir	64	1:5,939
683	Sívertsen	64	1:5,939
683	Unnsteinsdóttir	64	1:5,939
683	Víðisson	64	1:5,939
689	Friðfinnsdóttir	63	1:6,033
689	Jack	63	1:6,033
689	Sveinsdottir	63	1:6,033
689	Theódórsdóttir	63	1:6,033
693	Adalsteinsson	62	1:6,130
693	Aðalbjörnsson	62	1:6,130
693	Bergsveinsdóttir	62	1:6,130
693	Breiðfjörð	62	1:6,130
693	Flosadóttir	62	1:6,130
693	Frímannsson	62	1:6,130
693	Jörundsson	62	1:6,130
693	Sigursteinsdóttir	62	1:6,130
693	Sigursteinsson	62	1:6,130
702	Bárðardóttir	61	1:6,231
702	Einarsdttir	61	1:6,231
702	Ferreira	61	1:6,231
702	Gurung	61	1:6,231
702	Hilmisdóttir	61	1:6,231
702	Jörgensen	61	1:6,231
702	Jörundsdóttir	61	1:6,231
702	Pálmarsson	61	1:6,231
710	Banda	60	1:6,335
710	Duong	60	1:6,335
710	Garcia	60	1:6,335
710	Guðbergsdóttir	60	1:6,335
710	Kaaber	60	1:6,335
710	Magnadóttir	60	1:6,335
710	Mogensen	60	1:6,335
710	Steingrimsson	60	1:6,335
710	Vilhelmsdóttir	60	1:6,335
710	Þormóðsson	60	1:6,335
720	Alexandersson	59	1:6,442
720	Hreggviðsson	59	1:6,442
720	Maack	59	1:6,442
720	Malana	59	1:6,442
720	Singh	59	1:6,442
725	Dagbjartsdóttir	58	1:6,553
725	de Fontenay	58	1:6,553
725	Engilbertsson	58	1:6,553
725	Johansen	58	1:6,553
725	Theodórsson	58	1:6,553
730	Fridriksdottir	57	1:6,668
730	Gardarsson	57	1:6,668
730	Gomes	57	1:6,668
730	Haraldsdottir	57	1:6,668
730	Hjálmtýsson	57	1:6,668
730	Ingolfsson	57	1:6,668
730	Martin	57	1:6,668
730	Sigurardttir	57	1:6,668
730	Tran	57	1:6,668
739	Adolfsson	56	1:6,787
739	Andradóttir	56	1:6,787
739	Birkisson	56	1:6,787
739	Eiriksdottir	56	1:6,787
739	Eðvaldsdóttir	56	1:6,787
739	Geirdal	56	1:6,787
739	Heiðberg	56	1:6,787
739	Hoang	56	1:6,787
739	Jökulsson	56	1:6,787
739	Magnason	56	1:6,787
739	Morthens	56	1:6,787
739	Peter	56	1:6,787
739	Ringsted	56	1:6,787
739	Rosento	56	1:6,787
739	Siggeirsdóttir	56	1:6,787
739	Sveinbjarnardóttir	56	1:6,787
739	Wiium	56	1:6,787
739	Óttarsson	56	1:6,787
757	Arnar	55	1:6,911
757	Bjarnarson	55	1:6,911
757	Björk	55	1:6,911
757	Hjarðar	55	1:6,911
757	Jhannsson	55	1:6,911
757	Joensen	55	1:6,911
757	Jonasson	55	1:6,911
757	Ketilsson	55	1:6,911
757	Stefnsson	55	1:6,911
757	Örnólfsson	55	1:6,911
767	Gautason	54	1:7,039
767	Jónatansdóttir	54	1:7,039
767	Knútsson	54	1:7,039
767	Leósson	54	1:7,039
767	Lis	54	1:7,039
767	Magnsdttir	54	1:7,039
767	Sibanda	54	1:7,039
767	Sörensen	54	1:7,039
767	Vilhjalmsson	54	1:7,039
776	Bjrnsdttir	53	1:7,172
776	Eðvaldsson	53	1:7,172
776	Gardarsdottir	53	1:7,172
776	Kristjnsdttir	53	1:7,172
780	Adamu	52	1:7,309
780	Asgeirsson	52	1:7,309
780	Aðalgeirsdóttir	52	1:7,309
780	Christiansen	52	1:7,309
780	Dagbjartsson	52	1:7,309
780	Hjelm	52	1:7,309
780	Khan	52	1:7,309
780	Knudsen	52	1:7,309
780	Kristbjörnsdóttir	52	1:7,309
780	Long	52	1:7,309
780	Nikulásson	52	1:7,309
780	Richardsson	52	1:7,309
780	Önnudóttir	52	1:7,309
793	Caamic	51	1:7,453
793	Calderon	51	1:7,453
793	Eymundsson	51	1:7,453
793	Gudlaugsson	51	1:7,453
793	Gumundsdttir	51	1:7,453
793	Guðfinnsdóttir	51	1:7,453
793	Hjörvar	51	1:7,453
793	Hólmgeirsson	51	1:7,453
793	Lýðsdóttir	51	1:7,453
793	Margeirsson	51	1:7,453
793	Nikulásdóttir	51	1:7,453
793	Ojo	51	1:7,453
793	Plsson	51	1:7,453
793	Sigurdarson	51	1:7,453
793	Silva	51	1:7,453
793	Víkingsson	51	1:7,453
809	Friðþjófsdóttir	50	1:7,602
809	Hallgrimsson	50	1:7,602
809	Hauksdottir	50	1:7,602
809	Ingolfsdottir	50	1:7,602
809	Oddgeirsson	50	1:7,602
809	Svanbergsson	50	1:7,602
809	Thomsen	50	1:7,602
809	Williams	50	1:7,602
817	Bridde	49	1:7,757
817	Eyvindsson	49	1:7,757
817	Frederiksen	49	1:7,757
817	Freysdóttir	49	1:7,757
817	Hólmgeirsdóttir	49	1:7,757
817	Johannesdottir	49	1:7,757
817	Martins	49	1:7,757
817	Schmidt	49	1:7,757
817	Sigurmundsson	49	1:7,757
817	Skaftadóttir	49	1:7,757
817	Thor	49	1:7,757
817	Ísaksson	49	1:7,757
817	Ögmundsdóttir	49	1:7,757
817	Þóroddsdóttir	49	1:7,757
831	Elínardóttir	48	1:7,919
831	Kærnested	48	1:7,919
831	Santos	48	1:7,919
831	Sigurpálsdóttir	48	1:7,919
835	Asgeirsdottir	47	1:8,087
835	Berg	47	1:8,087
835	Bóasdóttir	47	1:8,087
835	Claessen	47	1:8,087
835	Godwin	47	1:8,087
835	Guðgeirsdóttir	47	1:8,087
835	Guðgeirsson	47	1:8,087
835	Huynh	47	1:8,087
835	Leósdóttir	47	1:8,087
835	Lyngmo	47	1:8,087
835	Mikaelsdóttir	47	1:8,087
835	Mýrdal	47	1:8,087
835	Sgeirsson	47	1:8,087
835	Sigursveinsson	47	1:8,087
835	Styrmisdóttir	47	1:8,087
835	Sverrisdottir	47	1:8,087
851	Barðadóttir	46	1:8,263
851	Búason	46	1:8,263
851	Elmarsdóttir	46	1:8,263
851	Guðsteinsson	46	1:8,263
851	Hannesdottir	46	1:8,263
851	Idowu	46	1:8,263
851	Jones	46	1:8,263
851	Oddgeirsdóttir	46	1:8,263
851	Valberg	46	1:8,263
860	Cruz	45	1:8,446
860	Elfarsson	45	1:8,446
860	Gunnsteinsson	45	1:8,446
860	Herbertsdóttir	45	1:8,446
860	Isaksen	45	1:8,446
860	Okafor	45	1:8,446
860	Rodrigues	45	1:8,446
860	Skaftason	45	1:8,446
860	Thorarinsdottir	45	1:8,446
860	Víkingsdóttir	45	1:8,446
860	Ámundason	45	1:8,446
871	Adeyemi	44	1:8,638
871	Bergsveinsson	44	1:8,638
871	Blomsterberg	44	1:8,638
871	Eyvindsdóttir	44	1:8,638
871	Margrétardóttir	44	1:8,638
871	Martinez	44	1:8,638
871	Melsteð	44	1:8,638
871	Nilsson	44	1:8,638
871	Ríkarðsson	44	1:8,638
871	Sigurfinnsson	44	1:8,638
871	Skaptason	44	1:8,638
871	Skjaldarson	44	1:8,638
883	Arnbjörnsson	43	1:8,839
883	Barðdal	43	1:8,839
883	Geirsdottir	43	1:8,839
883	Mohamed	43	1:8,839
883	Sigbjörnsdóttir	43	1:8,839
883	Sigurbergsdóttir	43	1:8,839
883	Thorvaldsdottir	43	1:8,839
883	Ycot	43	1:8,839
891	Araujo	42	1:9,050
891	Benónýsson	42	1:9,050
891	Bjorgvinsson	42	1:9,050
891	Egilson	42	1:9,050
891	Helgadttir	42	1:9,050
891	Helgudóttir	42	1:9,050
891	Juliusson	42	1:9,050
891	Jóelsson	42	1:9,050
891	Karvelsson	42	1:9,050
891	Mikaelsson	42	1:9,050
891	Moreno	42	1:9,050
891	Paraiso	42	1:9,050
891	Snæland	42	1:9,050
891	Trinidad	42	1:9,050
891	Valendez	42	1:9,050
891	Ófeigsdóttir	42	1:9,050
891	Þorbjarnardóttir	42	1:9,050
908	Adeniyi	41	1:9,270
908	Arnaldsson	41	1:9,270
908	Backman	41	1:9,270
908	Barðason	41	1:9,270
908	Bender	41	1:9,270
908	Blondal	41	1:9,270
908	Ellingsen	41	1:9,270
908	Felixdóttir	41	1:9,270
908	Gray	41	1:9,270
908	Imsland	41	1:9,270
908	Jökulsdóttir	41	1:9,270
908	Jörgensson	41	1:9,270
908	Matthiasson	41	1:9,270
908	Omarsson	41	1:9,270
908	Orrason	41	1:9,270
908	Ríkarðsdóttir	41	1:9,270
908	Ström	41	1:9,270
908	Sturlaugsson	41	1:9,270
908	Ákason	41	1:9,270
908	Ísberg	41	1:9,270
908	Þorfinnsdóttir	41	1:9,270
929	Agustsdottir	40	1:9,502
929	Arnbjörnsdóttir	40	1:9,502
929	Aspelund	40	1:9,502
929	Bjorgvinsdottir	40	1:9,502
929	de Oliveira	40	1:9,502
929	Hólmarsdóttir	40	1:9,502
929	Ingjaldsson	40	1:9,502
929	Konradsdottir	40	1:9,502
929	Musa	40	1:9,502
929	Ragnars	40	1:9,502
929	Reynisdottir	40	1:9,502
929	Sani	40	1:9,502
929	Sigfusson	40	1:9,502
929	Skarsson	40	1:9,502
929	Teitsdóttir	40	1:9,502
929	Thorhallsdottir	40	1:9,502
929	Valdimarsdottir	40	1:9,502
929	Ástþórsson	40	1:9,502
929	Ólafs	40	1:9,502
948	Anderson	39	1:9,746
948	Aðalbjörnsdóttir	39	1:9,746
948	Diðriksdóttir	39	1:9,746
948	Filippusdóttir	39	1:9,746
948	Grettisdóttir	39	1:9,746
948	Gunnsteinsdóttir	39	1:9,746
948	Gunnþórsdóttir	39	1:9,746
948	Ingi	39	1:9,746
948	Jósafatsson	39	1:9,746
948	Linnet	39	1:9,746
948	Njarðvík	39	1:9,746
948	Ptursson	39	1:9,746
948	Roberts	39	1:9,746
948	Sigurbergsson	39	1:9,746
948	Sigurpálsson	39	1:9,746
948	Sithole	39	1:9,746
948	Thorstensen	39	1:9,746
948	Yusuf	39	1:9,746
948	Ófeigsson	39	1:9,746
948	Þóroddsson	39	1:9,746
968	Borgarsdóttir	38	1:10,002
968	Flygenring	38	1:10,002
968	Gudnadottir	38	1:10,002
968	Kaldalóns	38	1:10,002
968	Kemp	38	1:10,002
968	Kjeld	38	1:10,002
968	Kristiansen	38	1:10,002
968	Larusson	38	1:10,002
968	Olason	38	1:10,002
968	Valdemarsdóttir	38	1:10,002
968	Vigfusson	38	1:10,002
968	Áskelsson	38	1:10,002
968	Ástþórsdóttir	38	1:10,002
968	Þorgilsson	38	1:10,002
982	Almeida	37	1:10,273
982	Arnardottir	37	1:10,273
982	Baldursdottir	37	1:10,273
982	Borgþórsdóttir	37	1:10,273
982	Borgþórsson	37	1:10,273
982	Chipa	37	1:10,273
982	Do	37	1:10,273
982	Fannarsson	37	1:10,273
982	Huldudóttir	37	1:10,273
982	Jhannesson	37	1:10,273
982	Jimoh	37	1:10,273
982	Sarmiento	37	1:10,273
982	Sigrúnardóttir	37	1:10,273
982	Sousa	37	1:10,273
982	Víglundsson	37	1:10,273
982	Zoëga	37	1:10,273
998	Ansari	36	1:10,558
998	Benónýsdóttir	36	1:10,558
998	Bergvinsdóttir	36	1:10,558
998	Bernharðsdóttir	36	1:10,558
998	Bollason	36	1:10,558
998	Dlamini	36	1:10,558
998	Fossdal	36	1:10,558
998	Gottskálksson	36	1:10,558
998	Guðmannsson	36	1:10,558
998	Hróbjartsson	36	1:10,558
998	Jóelsdóttir	36	1:10,558
998	Lorange	36	1:10,558
998	Okeke	36	1:10,558
998	Poulsen	36	1:10,558
998	Shaikh	36	1:10,558
998	Thorkelsson	36	1:10,558
998	Victorsson	36	1:10,558
998	Vilmundardóttir	36	1:10,558
998	Yakubu	36	1:10,558
998	Örlygsson	36	1:10,558