1	Cohen	159,596	1:54
2	Levy	97,892	1:87
3	Mizrahi	29,131	1:294
4	Peretz	25,764	1:332
5	Bitton	24,461	1:350
6	Dahan	20,555	1:416
7	Agbaria	18,944	1:452
8	Avraham	18,684	1:458
9	Friedman	18,465	1:463
10	Katz	17,219	1:497
11	Yosef	17,107	1:500
12	Omer	16,876	1:507
13	Mhamid	16,379	1:522
14	Schwartz	16,261	1:526
15	David	15,860	1:540
16	Azulay	15,608	1:548
17	Malkah	15,518	1:551
18	Zoabi	15,079	1:568
19	Jabarin	14,644	1:584
20	Weiss	13,683	1:625
21	Gaby	13,297	1:644
22	Shapiro	13,219	1:647
23	Chided	13,168	1:650
24	Ohayon	12,954	1:661
25	Reuben	12,514	1:684
26	Lavyan	12,458	1:687
27	Mahagna	12,226	1:700
28	Masarweh	12,197	1:702
29	Vaknin	12,165	1:703
30	Khatib	11,824	1:724
31	Ben Dod	11,289	1:758
32	Isaac	11,266	1:760
33	Adri	11,163	1:767
34	Klein	10,930	1:783
35	Yaakv	10,843	1:789
36	Segel	10,804	1:792
37	Moshe	10,758	1:795
38	Ashknaziy	10,564	1:810
39	Tal	10,502	1:815
40	Hasna	10,027	1:853
41	Goldstein	10,001	1:856
42	Hen	9,950	1:860
43	Ohana	9,790	1:874
44	Suad	9,759	1:877
45	Golan	9,569	1:894
46	Suissa	9,495	1:901
47	Shalom	9,291	1:921
48	Eliyahu	9,221	1:928
49	Rosenberg	9,216	1:929
50	Elbaz	9,196	1:931
51	Ber	9,139	1:936
52	Bekher	9,088	1:942
53	Greenberg	9,035	1:947
54	Khoury	8,764	1:976
55	Mor	8,746	1:978
56	Attias	8,682	1:986
57	Shemesh	8,612	1:994
58	Feldman	8,584	1:997
59	Dayan	8,521	1:1,004
60	Sharabi	8,433	1:1,015
61	Benhamou	8,392	1:1,020
62	Stern	8,379	1:1,021
63	Maman	8,283	1:1,033
64	Nachum	8,212	1:1,042
65	Rabinovitch	8,179	1:1,046
66	Sason	8,064	1:1,061
67	Barukh	8,042	1:1,064
68	Darawshi	8,000	1:1,070
69	Taha	7,941	1:1,078
70	Laviy	7,933	1:1,079
71	Meiyr	7,921	1:1,080
72	Obadiah	7,919	1:1,081
73	Samuel	7,798	1:1,097
74	Maimon	7,794	1:1,098
75	Alon	7,662	1:1,117
76	Shahar	7,649	1:1,119
77	Sharon	7,566	1:1,131
78	Tourgeman	7,536	1:1,136
79	Shoshan	7,499	1:1,141
80	Asulin	7,347	1:1,165
81	Zohar	7,220	1:1,185
82	Goldberg	7,207	1:1,187
83	Leibowitz	7,143	1:1,198
84	Hassan	6,905	1:1,239
85	Ezra	6,855	1:1,248
86	Amsalem	6,810	1:1,257
87	Mansoor	6,807	1:1,257
88	Haim	6,709	1:1,276
89	Amash	6,691	1:1,279
90	Berkowitz	6,689	1:1,279
91	Abramov	6,674	1:1,282
92	Awad	6,663	1:1,284
93	Savage	6,641	1:1,289
94	Jacoby	6,640	1:1,289
95	Ibrahim	6,604	1:1,296
96	Kadosh	6,439	1:1,329
97	Saad	6,424	1:1,332
98	Tzur	6,396	1:1,338
99	Selima	6,368	1:1,344
100	Oren	6,293	1:1,360
101	Hershkowitz	6,236	1:1,372
102	Solomon	6,209	1:1,378
103	Kaplan	6,193	1:1,382
104	Horowitz	6,160	1:1,389
105	Yifrach	6,156	1:1,390
106	Shehadeh	6,099	1:1,403
107	Hason	6,056	1:1,413
108	Haj Yahya	6,005	1:1,425
109	Yisrael	5,989	1:1,429
110	Rachamiym	5,987	1:1,429
111	Raz	5,983	1:1,430
112	Lev	5,972	1:1,433
113	Atiyah	5,867	1:1,459
114	Yehezkel	5,866	1:1,459
115	Yitzhaki	5,843	1:1,465
116	Davidov	5,814	1:1,472
117	Harel	5,810	1:1,473
118	Aharoni	5,775	1:1,482
119	Naiym	5,743	1:1,490
120	Sofer	5,741	1:1,491
121	Ganaim	5,730	1:1,493
122	Daniyel	5,679	1:1,507
123	Millar	5,666	1:1,510
124	Garus	5,656	1:1,513
125	Salomon	5,655	1:1,513
126	Isa	5,642	1:1,517
127	Koren	5,629	1:1,520
128	Helvi	5,627	1:1,521
129	Yishoreliy	5,573	1:1,536
130	Dadoun	5,571	1:1,536
131	Harroch	5,523	1:1,549
132	Yasin	5,502	1:1,555
133	Weiner	5,492	1:1,558
134	Berek	5,476	1:1,563
135	Rozen	5,475	1:1,563
136	Gutman	5,461	1:1,567
137	Deri	5,455	1:1,569
138	Mary	5,446	1:1,571
139	Gal	5,409	1:1,582
140	Binyamiyn	5,301	1:1,614
141	Nigar	5,300	1:1,615
142	Kogan	5,289	1:1,618
143	Aumur	5,266	1:1,625
144	Aharn	5,220	1:1,639
145	Sela	5,206	1:1,644
146	Hayon	5,204	1:1,644
147	Melloul	5,185	1:1,650
148	Peled	5,171	1:1,655
148	Shelby	5,171	1:1,655
150	Amiyr	5,162	1:1,658
151	Tzarfatiy	5,151	1:1,661
152	Nasir	5,131	1:1,668
153	Berger	5,129	1:1,668
154	Saleh	5,120	1:1,671
155	Lifshitz	5,108	1:1,675
156	Heibe	5,103	1:1,677
157	Pisher	5,102	1:1,677
158	Frenkel	5,100	1:1,678
159	Erez	5,095	1:1,680
160	Yhudah	5,084	1:1,683
161	Weizman	4,994	1:1,714
162	Goldman	4,947	1:1,730
163	Watad	4,899	1:1,747
164	Odah	4,868	1:1,758
165	Fuchs	4,867	1:1,758
166	Ben Shushan	4,858	1:1,762
167	Ghanem	4,838	1:1,769
168	Weisman	4,815	1:1,777
169	Asaraf	4,812	1:1,778
170	Elias	4,787	1:1,788
171	Elmaleh	4,762	1:1,797
172	Rosenfeld	4,722	1:1,812
173	Lugassy	4,703	1:1,820
174	Abramowitz	4,687	1:1,826
175	Yakubov	4,683	1:1,827
176	Nisim	4,668	1:1,833
177	Markovitz	4,645	1:1,842
178	Eliy	4,614	1:1,855
179	Streit	4,610	1:1,856
180	Moyal	4,595	1:1,862
181	Schechter	4,571	1:1,872
182	Shalev	4,567	1:1,874
183	Stein	4,558	1:1,877
184	Sulaiman	4,537	1:1,886
185	Ilpas	4,534	1:1,887
186	Adler	4,528	1:1,890
187	Gurevich	4,498	1:1,903
187	Zidane	4,498	1:1,903
189	Lieberman	4,491	1:1,906
190	Meser	4,489	1:1,906
191	Ziyv	4,483	1:1,909
192	Peleg	4,459	1:1,919
193	Hijazi	4,445	1:1,925
194	Said	4,430	1:1,932
195	Abu Lil	4,423	1:1,935
196	Pollack	4,419	1:1,937
197	Hadad	4,404	1:1,943
198	Mouallem	4,399	1:1,945
199	Rubinstein	4,397	1:1,946
200	Neesar	4,394	1:1,948
201	Hujirat	4,391	1:1,949
202	Zadock	4,379	1:1,954
203	Weinstein	4,376	1:1,956
204	Shuqrun	4,361	1:1,962
205	Sabah	4,338	1:1,973
206	Bernstein	4,324	1:1,979
207	Abu Kaf	4,318	1:1,982
208	Twito	4,304	1:1,988
209	Dagan	4,290	1:1,995
210	Maon	4,279	1:2,000
211	Hunas	4,276	1:2,001
212	Ruth	4,273	1:2,003
213	Abu Moch	4,267	1:2,006
214	Zubaidat	4,263	1:2,007
215	Avitan	4,243	1:2,017
216	Hilel	4,229	1:2,024
217	Salman	4,197	1:2,039
218	Gaber	4,191	1:2,042
219	Niyr	4,185	1:2,045
220	Mihaly	4,184	1:2,045
221	Aharon	4,176	1:2,049
222	Harry	4,172	1:2,051
223	Ozer	4,165	1:2,055
224	Melamed	4,154	1:2,060
225	Yahya	4,148	1:2,063
226	Hadar	4,123	1:2,076
227	Kahlon	4,121	1:2,077
228	Weinberg	4,118	1:2,078
229	Menachem	4,103	1:2,086
230	Saul	4,095	1:2,090
231	Guetta	4,084	1:2,095
232	Mardkhay	4,083	1:2,096
233	Saadi	4,082	1:2,096
234	Abergel	4,052	1:2,112
235	Ben Chaim	4,048	1:2,114
236	Demery	4,034	1:2,121
237	Yusupov	4,013	1:2,132
238	Brakhah	4,005	1:2,137
239	Selma	3,991	1:2,144
240	Abbas	3,988	1:2,146
241	Shweky	3,977	1:2,152
242	Kaufman	3,971	1:2,155
243	Zilberman	3,969	1:2,156
244	Goldenberg	3,968	1:2,157
245	Diab	3,943	1:2,170
246	Menashe	3,937	1:2,174
247	Shabtay	3,919	1:2,184
248	Amriy	3,918	1:2,184
249	Shitrit	3,916	1:2,185
250	Rosenthal	3,914	1:2,186
251	Karen	3,909	1:2,189
252	Schneider	3,879	1:2,206
253	Tzbary	3,875	1:2,208
254	Ron	3,848	1:2,224
255	Qasim	3,836	1:2,231
256	Illouz	3,835	1:2,231
257	Sarhan	3,820	1:2,240
258	Epstein	3,818	1:2,241
259	Halaile	3,816	1:2,243
260	Zen	3,807	1:2,248
261	Abitbol	3,774	1:2,268
262	Steinberg	3,773	1:2,268
263	Asala	3,769	1:2,271
264	Bouzaglou	3,761	1:2,275
265	Avrahami	3,757	1:2,278
265	Ben Ami	3,757	1:2,278
267	Shmueli	3,756	1:2,278
268	Marciano	3,733	1:2,292
269	Perach	3,729	1:2,295
269	Pinchas	3,729	1:2,295
271	Yonah	3,726	1:2,297
272	Habib	3,705	1:2,310
272	Musa	3,705	1:2,310
274	Shlomo	3,702	1:2,312
275	Karmel	3,688	1:2,320
276	Porat	3,675	1:2,329
277	Hamo	3,665	1:2,335
278	Abu Arar	3,653	1:2,343
279	Dror	3,639	1:2,352
280	Sheniy	3,627	1:2,359
281	Danino	3,608	1:2,372
282	Ben Simon	3,603	1:2,375
283	Segev	3,580	1:2,390
284	Abdullah	3,578	1:2,392
285	Priy	3,573	1:2,395
286	Shor	3,572	1:2,396
287	Sadeh	3,565	1:2,400
288	Pariyd	3,560	1:2,404
289	Shaked	3,555	1:2,407
290	Wulf	3,535	1:2,421
291	Masalha	3,534	1:2,422
292	Hirsch	3,527	1:2,426
293	Hagag	3,521	1:2,430
294	Gur	3,517	1:2,433
295	Haimov	3,516	1:2,434
296	Pinto	3,510	1:2,438
297	Aviytal	3,508	1:2,439
298	Nichem	3,507	1:2,440
299	Esberga	3,504	1:2,442
299	Samir	3,504	1:2,442
301	Gottlieb	3,492	1:2,451
302	Zehaviy	3,483	1:2,457
303	Asher	3,476	1:2,462
304	Paz	3,473	1:2,464
305	Shiper	3,469	1:2,467
306	Grossman	3,464	1:2,470
307	Elkayam	3,463	1:2,471
308	Tamiyr	3,462	1:2,472
309	Angel	3,442	1:2,486
310	Arbib	3,428	1:2,496
310	Berman	3,428	1:2,496
312	Habibullah	3,427	1:2,497
313	Hamide	3,424	1:2,499
314	Ben Moshe	3,417	1:2,504
315	Lerner	3,412	1:2,508
316	Qaadan	3,402	1:2,515
317	Zinger	3,398	1:2,518
318	Eliane	3,396	1:2,520
319	Bouskila	3,386	1:2,527
320	Badran	3,381	1:2,531
320	Doetsch	3,381	1:2,531
322	Abu Saleh	3,365	1:2,543
323	Fishman	3,350	1:2,555
323	Kerem	3,350	1:2,555
325	Neuman	3,342	1:2,561
326	Ester	3,332	1:2,568
327	Siben	3,327	1:2,572
328	Sapiyr	3,323	1:2,575
329	Hofmann	3,320	1:2,578
330	Amara	3,316	1:2,581
331	Natan	3,311	1:2,585
332	Badarneh	3,299	1:2,594
333	Chatib	3,297	1:2,596
334	Moskowitz	3,281	1:2,608
335	Gadir	3,278	1:2,611
336	Ezer	3,269	1:2,618
337	Abu El Hija	3,256	1:2,628
338	Gren	3,255	1:2,629
339	Amram	3,249	1:2,634
340	Brown	3,247	1:2,636
341	Shem Tov	3,246	1:2,636
342	Hamdan	3,244	1:2,638
343	Shimon	3,221	1:2,657
344	Eisenberg	3,218	1:2,659
345	Regev	3,212	1:2,664
346	Eliymelekh	3,209	1:2,667
347	Kraemer	3,199	1:2,675
348	Serus	3,197	1:2,677
349	Elkouby	3,195	1:2,678
350	Revivo	3,186	1:2,686
351	Bohbot	3,184	1:2,688
352	Finkelstein	3,181	1:2,690
353	Saada	3,166	1:2,703
354	Zamiyr	3,161	1:2,707
355	Matar	3,157	1:2,711
356	Mansour	3,154	1:2,713
357	Garyan	3,135	1:2,730
358	Breda	3,131	1:2,733
359	Blum	3,116	1:2,746
360	Aboutboul	3,109	1:2,753
361	Braunstein	3,102	1:2,759
362	Nahmias	3,099	1:2,761
362	Sibley	3,099	1:2,761
364	Mazarib	3,083	1:2,776
365	Pe'er	3,079	1:2,779
366	Dviyr	3,065	1:2,792
366	Hehiyn	3,065	1:2,792
368	Ronen	3,061	1:2,796
369	Ben Shitrit	3,054	1:2,802
370	Azzam	3,050	1:2,806
371	Azarian	3,043	1:2,812
372	Ryan	3,027	1:2,827
373	Moscovici	3,014	1:2,839
374	Mashiycha	2,994	1:2,858
375	Jacobowitz	2,989	1:2,863
376	Kahane	2,985	1:2,867
377	Margaliyt	2,979	1:2,873
378	Atrash	2,976	1:2,876
379	Gamliyel	2,975	1:2,877
380	Hegge	2,969	1:2,882
381	Zagury	2,966	1:2,885
382	Davidovich	2,959	1:2,892
383	Griffith	2,948	1:2,903
384	Isakov	2,928	1:2,923
385	Abed	2,926	1:2,925
386	Hai	2,918	1:2,933
387	Aloni	2,914	1:2,937
388	Atamna	2,903	1:2,948
389	Husin	2,902	1:2,949
390	Ben Ezra	2,901	1:2,950
391	Hamoud	2,890	1:2,961
392	Azem	2,880	1:2,971
393	Avniy	2,874	1:2,978
393	Awisat	2,874	1:2,978
395	Lahav	2,871	1:2,981
395	Mider	2,871	1:2,981
397	Sagiy	2,870	1:2,982
398	Kaspiy	2,869	1:2,983
399	Meshulam	2,867	1:2,985
400	Ben Lulu	2,860	1:2,992
401	Bishara	2,858	1:2,994
402	Garban	2,854	1:2,998
403	Ben Harush	2,846	1:3,007
404	Param	2,828	1:3,026
405	Zemach	2,826	1:3,028
406	Zkharyah	2,824	1:3,030
407	Ben Yosef	2,813	1:3,042
408	Kimhi	2,812	1:3,043
409	Moses	2,811	1:3,044
410	Gilad	2,801	1:3,055
411	Simon	2,799	1:3,057
412	Elkrinawi	2,797	1:3,060
413	Makhlouf	2,792	1:3,065
414	Resnick	2,788	1:3,069
415	Halil	2,772	1:3,087
416	Abu Tir	2,767	1:3,093
417	Sharviyt	2,765	1:3,095
418	Iyov	2,763	1:3,097
419	Sharf	2,761	1:3,099
420	Abu Ras	2,756	1:3,105
420	Server	2,756	1:3,105
422	Shulman	2,754	1:3,107
423	Dekel	2,753	1:3,108
423	Doron	2,753	1:3,108
425	Toledano	2,749	1:3,113
426	Yafeh	2,748	1:3,114
427	Maor	2,743	1:3,120
428	Aviyv	2,736	1:3,128
428	Mendel	2,736	1:3,128
430	Fehima	2,729	1:3,136
431	Barzilai	2,725	1:3,140
432	Pinhasov	2,701	1:3,168
433	Edwy	2,698	1:3,172
433	Lindo	2,698	1:3,172
435	Gordon	2,694	1:3,177
436	Abu Ramila	2,688	1:3,184
437	Schwartzman	2,686	1:3,186
438	Burstein	2,680	1:3,193
439	Bakar	2,679	1:3,194
440	Rottmann	2,666	1:3,210
441	Ophir	2,660	1:3,217
442	Daoud	2,653	1:3,226
443	Jaber	2,652	1:3,227
444	Ifergan	2,649	1:3,231
445	Rosenbaum	2,646	1:3,234
446	Salem	2,635	1:3,248
447	Mazor	2,630	1:3,254
448	Glick	2,627	1:3,258
449	Japhet	2,614	1:3,274
450	Naor	2,604	1:3,286
451	Ginzburg	2,602	1:3,289
452	Drewry	2,601	1:3,290
453	Sultan	2,593	1:3,300
454	Esde	2,587	1:3,308
455	Natasha	2,584	1:3,312
456	Betzalel	2,583	1:3,313
457	Azize	2,581	1:3,316
458	Shaviyt	2,580	1:3,317
459	Samara	2,576	1:3,322
460	Halfon	2,575	1:3,323
461	Atar	2,569	1:3,331
462	Aboud	2,568	1:3,332
463	Kabha	2,561	1:3,342
464	Bader	2,558	1:3,345
465	Rothenberg	2,553	1:3,352
466	Ehrlich	2,551	1:3,355
467	Fogel	2,550	1:3,356
468	Wasserman	2,534	1:3,377
469	Bokobza	2,532	1:3,380
470	Padida	2,517	1:3,400
471	Bedir	2,512	1:3,407
472	Itzkowitz	2,495	1:3,430
473	Almog	2,492	1:3,434
474	Obed	2,483	1:3,446
475	Sherman	2,478	1:3,453
476	Shay	2,474	1:3,459
477	Amrani	2,457	1:3,483
478	Chaliyl	2,454	1:3,487
479	Farkas	2,448	1:3,496
480	Arad	2,445	1:3,500
481	Wexler	2,443	1:3,503
482	Abid	2,438	1:3,510
483	Niysan	2,422	1:3,533
484	Cainan	2,417	1:3,541
485	Gobeli	2,412	1:3,548
486	Rosenzweig	2,407	1:3,555
486	Yehoshua	2,407	1:3,555
488	Ivgi	2,404	1:3,560
489	Samoilov	2,403	1:3,561
490	Mustafa	2,395	1:3,573
491	Sadyah	2,390	1:3,581
492	Ilos	2,388	1:3,584
493	Siynay	2,382	1:3,593
494	Mula	2,380	1:3,596
494	Pearl	2,380	1:3,596
496	Sarsur	2,373	1:3,606
496	Zilberstein	2,373	1:3,606
498	Imre	2,372	1:3,608
499	Abu Sneineh	2,361	1:3,625
500	Mahmood	2,350	1:3,642
501	Hisiyk	2,349	1:3,643
502	Giyl	2,345	1:3,649
503	Zuckerman	2,344	1:3,651
504	Kagan	2,333	1:3,668
505	Bashir	2,329	1:3,674
505	Marium	2,329	1:3,674
507	Amira	2,324	1:3,682
508	Gilboa	2,321	1:3,687
508	Schlesinger	2,321	1:3,687
510	Gabara	2,320	1:3,689
511	Amiyt	2,318	1:3,692
511	Kearney	2,318	1:3,692
513	Alside	2,316	1:3,695
514	Ahmad	2,312	1:3,701
514	Bochniak	2,312	1:3,701
516	Habashi	2,305	1:3,713
517	Gershon	2,302	1:3,717
518	Schott	2,291	1:3,735
519	Yamiyn	2,290	1:3,737
520	Greenfield	2,289	1:3,739
520	He	2,289	1:3,739
522	Amitiy	2,286	1:3,743
522	Gaz	2,286	1:3,743
524	Oz	2,278	1:3,757
525	Baswell	2,274	1:3,763
526	Shafiyr	2,267	1:3,775
527	Saadoun	2,265	1:3,778
528	Awada	2,255	1:3,795
529	Nahar	2,253	1:3,798
530	Yrushalmiy	2,242	1:3,817
531	Tannenbaum	2,233	1:3,832
532	Sayad	2,227	1:3,843
533	Sebag	2,226	1:3,844
534	Dahari	2,225	1:3,846
535	Ben Zaken	2,223	1:3,850
535	Raphael	2,223	1:3,850
537	Hayat	2,222	1:3,851
538	Abu Raya	2,219	1:3,857
539	Nakash	2,217	1:3,860
539	Verdie	2,217	1:3,860
541	Noy	2,214	1:3,865
542	Kokhaviy	2,211	1:3,870
543	Schreiber	2,204	1:3,883
544	Navon	2,202	1:3,886
545	Garah	2,201	1:3,888
546	Lazar	2,198	1:3,893
547	Barnes	2,194	1:3,900
547	Siyman Tov	2,194	1:3,900
549	Abu Rabia	2,191	1:3,906
549	Bar	2,191	1:3,906
551	Taibe	2,190	1:3,908
552	Murad	2,185	1:3,917
553	Avad El Kader	2,181	1:3,924
554	Naitor	2,168	1:3,947
555	Manor	2,164	1:3,955
556	Weinberger	2,159	1:3,964
557	Raviv	2,154	1:3,973
558	Bloch	2,152	1:3,977
558	Halperin	2,152	1:3,977
560	Eyniy	2,151	1:3,978
561	Refaeli	2,149	1:3,982
562	Sami	2,147	1:3,986
563	Ben Shabbat	2,146	1:3,988
564	Zan	2,143	1:3,993
565	Chagav	2,141	1:3,997
566	Ganon	2,135	1:4,008
567	Towle	2,134	1:4,010
568	Amos	2,131	1:4,016
568	Naftali	2,131	1:4,016
570	Harman	2,130	1:4,018
571	Ben Yaakov	2,126	1:4,025
572	Geva	2,124	1:4,029
573	Authman	2,120	1:4,037
574	Min	2,118	1:4,040
575	Giladi	2,110	1:4,056
575	Heller	2,110	1:4,056
577	Dvash	2,109	1:4,058
577	Pereg	2,109	1:4,058
579	Frank	2,105	1:4,065
580	Golani	2,095	1:4,085
581	Ben Abu	2,094	1:4,087
582	Dobah	2,092	1:4,091
583	Nazal	2,091	1:4,093
584	Ben Yehuda	2,089	1:4,097
584	Or	2,089	1:4,097
584	Shechem	2,089	1:4,097
587	Joamis	2,083	1:4,108
588	Ayalon	2,079	1:4,116
589	Eyal	2,077	1:4,120
590	Bergmann	2,071	1:4,132
591	Naveh	2,070	1:4,134
592	Razon	2,069	1:4,136
593	Gabriel	2,062	1:4,150
594	Awida	2,058	1:4,158
595	Franco	2,053	1:4,168
596	Altouri	2,051	1:4,172
597	Reubeni	2,048	1:4,179
597	Zrihan	2,048	1:4,179
599	Baron	2,046	1:4,183
600	Edery	2,044	1:4,187
601	Eitan	2,043	1:4,189
601	Geller	2,043	1:4,189
603	Inbar	2,042	1:4,191
604	Belo	2,040	1:4,195
605	Katzav	2,037	1:4,201
606	Arbel	2,034	1:4,207
607	Partos	2,032	1:4,211
608	Mazuz	2,030	1:4,216
609	Shoham	2,024	1:4,228
610	Nujeidat	2,023	1:4,230
611	Efratiy	2,021	1:4,234
612	Amzaleg	2,016	1:4,245
612	Yanay	2,016	1:4,245
614	Ben Yishai	2,013	1:4,251
614	Chasiyd	2,013	1:4,251
616	Altman	2,004	1:4,270
616	Gosselin	2,004	1:4,270
616	Shabat	2,004	1:4,270
619	Glazer	1,999	1:4,281
620	Steiner	1,997	1:4,285
621	Rotem	1,996	1:4,287
622	Botbol	1,995	1:4,290
623	Naman	1,993	1:4,294
624	Pearlman	1,991	1:4,298
625	Ben Zvi	1,989	1:4,302
626	H'Usseen	1,983	1:4,315
627	Somchay	1,982	1:4,318
628	Hamouda	1,979	1:4,324
629	Ben Shimon	1,978	1:4,326
630	Hilf	1,976	1:4,331
631	Diamante	1,971	1:4,342
631	Morad	1,971	1:4,342
633	Lancieri	1,963	1:4,359
634	Trebia	1,962	1:4,362
635	Amouyal	1,961	1:4,364
635	Benisty	1,961	1:4,364
637	Trabelsi	1,960	1:4,366
638	Al-Nabari	1,958	1:4,371
638	Magen	1,958	1:4,371
638	Rosenbloom	1,958	1:4,371
641	Borukhov	1,955	1:4,377
642	Gevald	1,954	1:4,380
643	Itach	1,952	1:4,384
644	Brener	1,951	1:4,386
644	Viy	1,951	1:4,386
646	Nasasreh	1,949	1:4,391
647	Gonen	1,947	1:4,395
648	Win	1,943	1:4,404
649	Borenstein	1,941	1:4,409
650	Reich	1,939	1:4,413
651	Ismail	1,938	1:4,416
652	Spektor	1,932	1:4,429
653	Haimowitz	1,929	1:4,436
654	Asker	1,928	1:4,439
655	Zebidat	1,924	1:4,448
656	Chakham	1,921	1:4,455
656	Dan	1,921	1:4,455
658	Noah	1,920	1:4,457
659	Abu Hussein	1,918	1:4,462
660	Kabaha	1,916	1:4,466
661	Sibony	1,915	1:4,469
662	Spady	1,913	1:4,473
663	Gerev	1,910	1:4,480
664	Sar	1,908	1:4,485
665	Faleh	1,905	1:4,492
666	Piers	1,902	1:4,499
667	Nejar	1,896	1:4,514
668	Sip	1,893	1:4,521
669	Azaria	1,890	1:4,528
670	Sariy	1,887	1:4,535
671	Abu Rakayk	1,886	1:4,537
672	Schuster	1,880	1:4,552
673	Marzok	1,878	1:4,557
674	Zakay	1,870	1:4,576
675	Tamiym	1,867	1:4,584
676	Barzani	1,864	1:4,591
676	Zaltzman	1,864	1:4,591
678	Rosenblatt	1,860	1:4,601
679	Gefen	1,852	1:4,621
680	Ben Ari	1,844	1:4,641
681	Ariyel	1,835	1:4,664
682	Zimmerman	1,834	1:4,666
683	Aflalo	1,832	1:4,671
684	Roitman	1,831	1:4,674
684	Yaish	1,831	1:4,674
686	Ziadna	1,830	1:4,676
687	Freeman	1,828	1:4,681
688	Markus	1,826	1:4,687
689	Kraus	1,825	1:4,689
690	Ida	1,822	1:4,697
690	Saide	1,822	1:4,697
692	Abu Sabit	1,821	1:4,699
692	Aminov	1,821	1:4,699
692	Shaaban	1,821	1:4,699
695	Siyeg	1,819	1:4,705
696	Eleyha	1,817	1:4,710
697	Rigbye	1,810	1:4,728
698	Abu	1,809	1:4,731
699	Aryeh	1,808	1:4,733
700	Abu Asa	1,806	1:4,738
700	Eliasam	1,806	1:4,738
700	Kayal	1,806	1:4,738
703	Toby	1,801	1:4,752
704	Mikhailov	1,793	1:4,773
705	Kanaan	1,791	1:4,778
706	Ephraim	1,790	1:4,781
707	Ackerman	1,786	1:4,792
708	Zuberi	1,782	1:4,802
709	Luria	1,779	1:4,810
710	Ben Baruch	1,777	1:4,816
711	Katan	1,775	1:4,821
712	Ben Nvn	1,774	1:4,824
713	Jacobson	1,772	1:4,829
714	Mor Yosef	1,769	1:4,838
715	Yaron	1,768	1:4,840
716	Miykhael	1,767	1:4,843
717	Mugrabiy	1,765	1:4,849
718	Darviysh	1,762	1:4,857
719	Guite	1,761	1:4,860
720	Abu Ghanem	1,759	1:4,865
720	Kedem	1,759	1:4,865
722	Git	1,756	1:4,873
723	Aronov	1,749	1:4,893
723	Dothan	1,749	1:4,893
725	Brodsky	1,748	1:4,896
726	Teboul	1,746	1:4,901
727	Ram	1,738	1:4,924
728	Chefetz	1,737	1:4,927
729	Muasi	1,736	1:4,930
730	Ostrowski	1,733	1:4,938
731	Tobol	1,728	1:4,952
732	Aharonov	1,715	1:4,990
732	Padilla	1,715	1:4,990
734	Levkovich	1,713	1:4,996
734	Livshits	1,713	1:4,996
734	Zaken	1,713	1:4,996
737	Spiegel	1,710	1:5,004
738	Dweck	1,709	1:5,007
739	Aase	1,706	1:5,016
740	Gaziyt	1,705	1:5,019
741	Kushnir	1,699	1:5,037
742	Levitt	1,696	1:5,046
742	Ymiyniy	1,696	1:5,046
744	Danieli	1,695	1:5,049
744	Edelstein	1,695	1:5,049
744	Koopman	1,695	1:5,049
747	Dalal	1,694	1:5,052
748	Alter	1,692	1:5,058
748	Barhoum	1,692	1:5,058
750	Uziel	1,690	1:5,064
751	Ariely	1,684	1:5,082
752	Beck	1,681	1:5,091
752	Heiyr	1,681	1:5,091
754	Marcus	1,679	1:5,097
755	Gallmann	1,678	1:5,100
755	Portnoy	1,678	1:5,100
757	Musayev	1,675	1:5,109
758	Cooperman	1,673	1:5,115
759	Eshel	1,670	1:5,124
760	Luzon	1,669	1:5,127
761	Selim	1,668	1:5,130
762	Khalfon	1,665	1:5,140
763	Hamed	1,664	1:5,143
764	Selaima	1,662	1:5,149
765	Chalef	1,657	1:5,165
765	Edris	1,657	1:5,165
767	Chimem	1,656	1:5,168
767	Gorelick	1,656	1:5,168
769	Neiman	1,652	1:5,180
770	Rosner	1,651	1:5,183
771	Eliysha	1,646	1:5,199
772	Bar On	1,644	1:5,205
773	Guy	1,641	1:5,215
774	Meyerowitz	1,639	1:5,221
775	Abecassis	1,635	1:5,234
776	Yupah	1,633	1:5,240
777	Maz	1,627	1:5,260
777	Melekh	1,627	1:5,260
779	Ben Naim	1,626	1:5,263
780	Kleiman	1,622	1:5,276
781	Laufer	1,621	1:5,279
782	Hervé	1,620	1:5,282
782	Rahmany	1,620	1:5,282
782	Wiesman	1,620	1:5,282
782	Zilberberg	1,620	1:5,282
786	Itzhakov	1,619	1:5,286
787	Fitoussi	1,618	1:5,289
788	Graber	1,617	1:5,292
789	Beybiy	1,615	1:5,299
789	Zaid	1,615	1:5,299
791	Kedar	1,612	1:5,309
792	Sternberg	1,608	1:5,322
793	Fine	1,606	1:5,329
793	Hmed	1,606	1:5,329
795	Biytan	1,605	1:5,332
795	Nakar	1,605	1:5,332
797	Masoud	1,601	1:5,345
797	Rappaport	1,601	1:5,345
799	Abd Al-Hadi	1,596	1:5,362
799	Chekh	1,596	1:5,362
799	Katziyr	1,596	1:5,362
802	Birnbaum	1,595	1:5,365
803	Ben Shimol	1,594	1:5,369
804	Abu Karinat	1,592	1:5,375
804	Shubael	1,592	1:5,375
806	Zeviy	1,587	1:5,392
807	Mekonnen	1,583	1:5,406
808	Rosine	1,582	1:5,409
809	Muhammad	1,577	1:5,427
810	Mdiynah	1,574	1:5,437
811	Abu Hamed	1,573	1:5,440
811	Ungar	1,573	1:5,440
813	Avad El Chay	1,572	1:5,444
814	Dakhla	1,571	1:5,447
814	Kaduriy	1,571	1:5,447
816	Chaziyz	1,568	1:5,458
817	Alhoaslh	1,564	1:5,472
817	Oliel	1,564	1:5,472
817	Saar	1,564	1:5,472
820	Zafrani	1,558	1:5,493
821	Od	1,556	1:5,500
822	Benyamini	1,555	1:5,503
822	Elalouf	1,555	1:5,503
822	Parvar	1,555	1:5,503
825	Talkar	1,553	1:5,510
826	Aviydan	1,549	1:5,525
827	Rothstein	1,547	1:5,532
828	Gigi	1,546	1:5,535
829	Abassi	1,545	1:5,539
829	Barbiy	1,545	1:5,539
831	Hasin	1,544	1:5,543
832	Tziyun	1,542	1:5,550
833	Abu Hamad	1,541	1:5,553
834	Rabiy	1,540	1:5,557
835	Sana	1,535	1:5,575
836	Yishai	1,534	1:5,579
837	Awadallah	1,533	1:5,582
838	Hershko	1,532	1:5,586
838	Malm	1,532	1:5,586
840	Beyadse	1,530	1:5,593
840	Yaniyv	1,530	1:5,593
842	Nadav	1,529	1:5,597
843	Mark	1,526	1:5,608
843	Weintraub	1,526	1:5,608
845	Adar	1,524	1:5,615
846	Auerbach	1,519	1:5,634
846	Gliyliy	1,519	1:5,634
846	Libni	1,519	1:5,634
849	Ausman	1,517	1:5,641
850	Barend	1,516	1:5,645
850	Barkay	1,516	1:5,645
850	Reichman	1,516	1:5,645
853	Rahal	1,515	1:5,649
854	Claire	1,514	1:5,652
855	Dor	1,511	1:5,664
856	Balas	1,507	1:5,679
856	Nitzan	1,507	1:5,679
858	Bason	1,506	1:5,682
859	Morisot	1,502	1:5,697
860	Madmun	1,500	1:5,705
861	Ben Shalom	1,499	1:5,709
861	Greenspoon	1,499	1:5,709
861	Greenstein	1,499	1:5,709
864	Shalem	1,497	1:5,717
865	Hasan	1,496	1:5,720
866	Aviyviy	1,494	1:5,728
867	Elatrash	1,493	1:5,732
867	Rapoport	1,493	1:5,732
867	Silber	1,493	1:5,732
870	Shaar	1,491	1:5,740
871	Zucker	1,489	1:5,747
872	Sare	1,487	1:5,755
873	Sandlar	1,486	1:5,759
874	Turgeman	1,485	1:5,763
875	Elgrably	1,483	1:5,770
875	Elharrar	1,483	1:5,770
875	Miron	1,483	1:5,770
878	Dar	1,481	1:5,778
879	Lazarus	1,477	1:5,794
879	Yogev	1,477	1:5,794
881	Rubinov	1,474	1:5,806
882	Nassef	1,470	1:5,822
882	Yayin	1,470	1:5,822
884	Sasi	1,468	1:5,829
885	Sharabani	1,467	1:5,833
886	Gavrilov	1,466	1:5,837
887	Akiyva	1,465	1:5,841
887	Hagge	1,465	1:5,841
889	Aton	1,464	1:5,845
889	Sabo	1,464	1:5,845
891	Siyvan	1,462	1:5,853
892	Tzviy	1,461	1:5,857
893	Zerbib	1,456	1:5,877
894	Mishayev	1,454	1:5,886
894	Qablan	1,454	1:5,886
896	Israilov	1,453	1:5,890
897	Binyaminov	1,451	1:5,898
897	Magadla	1,451	1:5,898
899	Reis	1,449	1:5,906
900	Berdugo	1,446	1:5,918
901	Ngaere	1,444	1:5,926
901	Tziyoniy	1,444	1:5,926
903	Abu Romi	1,438	1:5,951