1	Allen	141	1:35
2	Ryan	106	1:47
3	Lee	103	1:48
4	Weekes	101	1:49
5	White	97	1:51
6	Greenaway	93	1:53
7	Williams	88	1:56
8	Meade	80	1:62
9	Tuitt	74	1:67
10	Daley	62	1:80
10	Farrell	62	1:80
12	Cabey	56	1:88
12	Fenton	56	1:88
14	Duberry	55	1:90
15	Gerald	52	1:95
15	Silcott	52	1:95
17	Lewis	49	1:101
18	Sweeney	48	1:103
19	Bramble	47	1:105
19	Browne	47	1:105
21	Irish	45	1:110
22	Cassell	43	1:115
23	O'Garro	41	1:121
24	Riley	39	1:127
24	Thomas	39	1:127
26	Lindsey	36	1:137
26	Wade	36	1:137
28	Francis	35	1:141
28	Skerritt	35	1:141
30	Aymer	34	1:146
30	Osborne	34	1:146
32	Fergus	33	1:150
32	Joseph	33	1:150
34	Buffonge	32	1:155
34	Martin	32	1:155
36	James	28	1:177
36	Johnson	28	1:177
38	Dyer	27	1:183
38	West	27	1:183
40	Brown	26	1:190
40	Galloway	26	1:190
40	Piper	26	1:190
43	Barzey	24	1:206
43	Brade	24	1:206
43	Lynch	24	1:206
43	Roach	24	1:206
47	Blake	23	1:215
47	Smith	23	1:215
49	Howe	22	1:225
50	Hixon	21	1:236
50	Phillip	21	1:236
52	Kirwan	20	1:247
53	Harris	19	1:260
53	Henry	19	1:260
53	Taylor	19	1:260
56	Jeffers	18	1:275
56	John	18	1:275
58	Chambers	17	1:291
58	Thompson	17	1:291
60	Gibbons	16	1:309
60	Semper	16	1:309
62	Chalmers	15	1:330
62	Daniel	15	1:330
62	Dyett	15	1:330
62	Halley	15	1:330
62	Hogan	15	1:330
67	Grant	14	1:353
67	Morgan	14	1:353
67	Murrain	14	1:353
67	Pond	14	1:353
67	Samuel	14	1:353
72	Boatswain	13	1:381
72	Charles	13	1:381
72	Corbette	13	1:381
72	Daly	13	1:381
72	Greer	13	1:381
72	Layne	13	1:381
72	Morris	13	1:381
72	O'Brien	13	1:381
72	Wilson	13	1:381
81	Baker	12	1:412
81	Carty	12	1:412
81	Edwards	12	1:412
81	Greaves	12	1:412
81	Hyman	12	1:412
81	Kelly	12	1:412
81	Kirnon	12	1:412
81	Peters	12	1:412
81	Ponde	12	1:412
81	Winspeare	12	1:412
91	Edgecombe	11	1:450
91	Sinclair	11	1:450
91	Sullivan	11	1:450
91	Walters	11	1:450
91	Woodley	11	1:450
96	Clarke	10	1:495
96	Daway	10	1:495
96	Fagan	10	1:495
96	Watts	10	1:495
100	Buntin	9	1:550
100	Christopher	9	1:550
100	Cumberbatch	9	1:550
100	Davis	9	1:550
100	Douglas	9	1:550
100	Frye	9	1:550
100	Gordon	9	1:550
100	Jarrett	9	1:550
100	Moore	9	1:550
100	Richards	9	1:550
100	Rodney	9	1:550
111	Alexander	8	1:618
111	Archer	8	1:618
111	Burns	8	1:618
111	Griffith	8	1:618
111	Hunte	8	1:618
111	Mcphoy	8	1:618
111	Miller	8	1:618
111	Perkins	8	1:618
111	Ponteen	8	1:618
111	Willock	8	1:618
111	Wright	8	1:618
111	Yearwood	8	1:618
123	Barnes	7	1:707
123	Bass	7	1:707
123	Bobb	7	1:707
123	Campbell	7	1:707
123	David	7	1:707
123	Dorsette	7	1:707
123	Durand	7	1:707
123	Furlonge	7	1:707
123	Marshall	7	1:707
123	Prince	7	1:707
123	Ryner	7	1:707
123	Shiell	7	1:707
123	Simpson	7	1:707
123	Thornhill	7	1:707
123	Turner	7	1:707
123	Valechha	7	1:707
139	Adams	6	1:824
139	Agard	6	1:824
139	Darroux	6	1:824
139	Foster	6	1:824
139	Gerrald	6	1:824
139	Hickson	6	1:824
139	Hobson	6	1:824
139	Jarvis	6	1:824
139	Lane	6	1:824
139	Lea	6	1:824
139	Lindsay	6	1:824
139	Malone	6	1:824
139	McDonald	6	1:824
139	Molyneaux	6	1:824
139	Pollard	6	1:824
139	Romeo	6	1:824
139	William	6	1:824
156	Braithwaite	5	1:989
156	Cameron	5	1:989
156	Collins	5	1:989
156	Corbett	5	1:989
156	Crandon	5	1:989
156	Cush	5	1:989
156	Duke	5	1:989
156	Estwick	5	1:989
156	Francois	5	1:989
156	Hoyte	5	1:989
156	Hughes	5	1:989
156	Jeffrey	5	1:989
156	Jones	5	1:989
156	Lawrence	5	1:989
156	Maloney	5	1:989
156	Mason	5	1:989
156	McPherson	5	1:989
156	Mendes	5	1:989
156	Morson	5	1:989
156	Oliver	5	1:989
156	Paul	5	1:989
156	Payne	5	1:989
156	Phyll	5	1:989
156	Queeley	5	1:989
156	Rankin	5	1:989
156	Reece	5	1:989
156	Roache	5	1:989
156	Robinson	5	1:989
156	Semple	5	1:989
156	Small	5	1:989
156	Stewart	5	1:989
187	Aaron	4	1:1,237
187	Abrams	4	1:1,237
187	Armstrong	4	1:1,237
187	Bacchus	4	1:1,237
187	Barnwell	4	1:1,237
187	Boston	4	1:1,237
187	Brand	4	1:1,237
187	Brandt	4	1:1,237
187	Bruno	4	1:1,237
187	Cooper	4	1:1,237
187	Cox	4	1:1,237
187	Frith	4	1:1,237
187	George	4	1:1,237
187	Haley	4	1:1,237
187	Halloran	4	1:1,237
187	Hercules	4	1:1,237
187	Jemmotte	4	1:1,237
187	Jeswani	4	1:1,237
187	Julius	4	1:1,237
187	Liburd	4	1:1,237
187	Locker	4	1:1,237
187	McKay	4	1:1,237
187	McKenzie	4	1:1,237
187	McLean	4	1:1,237
187	Mehring	4	1:1,237
187	Mullings	4	1:1,237
187	Reid	4	1:1,237
187	Richmond	4	1:1,237
187	Rogers	4	1:1,237
187	Samuels	4	1:1,237
187	Scipio	4	1:1,237
187	Scotland	4	1:1,237
187	Wallace	4	1:1,237
187	Warner	4	1:1,237
187	Webster	4	1:1,237
187	Wilburgh	4	1:1,237
187	Willet	4	1:1,237
224	Ackie	3	1:1,649
224	Anderson	3	1:1,649
224	Andrew	3	1:1,649
224	Antoine	3	1:1,649
224	Bailey	3	1:1,649
224	Beni	3	1:1,649
224	Benjamin	3	1:1,649
224	Black	3	1:1,649
224	Blair	3	1:1,649
224	Bodkin	3	1:1,649
224	Braithwait	3	1:1,649
224	Bretton	3	1:1,649
224	Bryan	3	1:1,649
224	Butler	3	1:1,649
224	Chandiramani	3	1:1,649
224	Cole	3	1:1,649
224	Dee	3	1:1,649
224	Destouche	3	1:1,649
224	Dhera	3	1:1,649
224	Donaldson	3	1:1,649
224	Dublin	3	1:1,649
224	Egan	3	1:1,649
224	Ellis	3	1:1,649
224	Emptage	3	1:1,649
224	Fraser	3	1:1,649
224	French	3	1:1,649
224	Gilford	3	1:1,649
224	Glover	3	1:1,649
224	Graham	3	1:1,649
224	Gray	3	1:1,649
224	Green	3	1:1,649
224	Hackett	3	1:1,649
224	Harewood	3	1:1,649
224	Hemraj	3	1:1,649
224	Henriquo	3	1:1,649
224	Herbert	3	1:1,649
224	Hilton	3	1:1,649
224	Hintzen	3	1:1,649
224	Hussey	3	1:1,649
224	Jackson	3	1:1,649
224	Khan	3	1:1,649
224	Laryea	3	1:1,649
224	Livan	3	1:1,649
224	Lovett	3	1:1,649
224	Madu	3	1:1,649
224	Margetson	3	1:1,649
224	Markham	3	1:1,649
224	Menzies	3	1:1,649
224	Molyeaux	3	1:1,649
224	Morrison	3	1:1,649
224	Mulcare	3	1:1,649
224	Murraine	3	1:1,649
224	Nelson	3	1:1,649
224	Newell	3	1:1,649
224	Ogle	3	1:1,649
224	Okereke	3	1:1,649
224	Pollidore	3	1:1,649
224	Pyke	3	1:1,649
224	Reynolds	3	1:1,649
224	Rhys-Williams	3	1:1,649
224	Romain	3	1:1,649
224	Rudolph	3	1:1,649
224	Sadhwani	3	1:1,649
224	Sam	3	1:1,649
224	Sargeant	3	1:1,649
224	Shortte	3	1:1,649
224	Shoy	3	1:1,649
224	Skerrit	3	1:1,649
224	Stanley	3	1:1,649
224	Stephenson	3	1:1,649
224	Uthaya Kumar	3	1:1,649
224	Vyphuis	3	1:1,649
224	Walker	3	1:1,649
224	Ward	3	1:1,649
224	Weeks	3	1:1,649
299	Akuma	2	1:2,474
299	Albert	2	1:2,474
299	Ali	2	1:2,474
299	Allison	2	1:2,474
299	Andre	2	1:2,474
299	Arthurton	2	1:2,474
299	Aspin	2	1:2,474
299	Augustin	2	1:2,474
299	Bagley	2	1:2,474
299	Baird	2	1:2,474
299	Barry	2	1:2,474
299	Beardsley	2	1:2,474
299	Benn	2	1:2,474
299	Bennett	2	1:2,474
299	Bentick	2	1:2,474
299	Berry	2	1:2,474
299	Bishop	2	1:2,474
299	Blackstock	2	1:2,474
299	Bourne	2	1:2,474
299	Bradford	2	1:2,474
299	Bradshaw	2	1:2,474
299	Breedy	2	1:2,474
299	Breuer	2	1:2,474
299	Bridgewater	2	1:2,474
299	Caesar	2	1:2,474
299	Caleb	2	1:2,474
299	Carbon	2	1:2,474
299	Carmona	2	1:2,474
299	Chadwick	2	1:2,474
299	Christian	2	1:2,474
299	Coburn	2	1:2,474
299	Craig	2	1:2,474
299	Dahlen	2	1:2,474
299	Dawkins	2	1:2,474
299	Deane	2	1:2,474
299	Dias	2	1:2,474
299	Dick	2	1:2,474
299	Dinehart	2	1:2,474
299	Dodson	2	1:2,474
299	Donoghue	2	1:2,474
299	Dorsett	2	1:2,474
299	Elwin	2	1:2,474
299	Esberry	2	1:2,474
299	Estriado	2	1:2,474
299	Evelyn	2	1:2,474
299	Ferreira	2	1:2,474
299	Figueroa	2	1:2,474
299	Filleul	2	1:2,474
299	Fort	2	1:2,474
299	Germain	2	1:2,474
299	González	2	1:2,474
299	Greer-Lee	2	1:2,474
299	Halloran-Crichlow	2	1:2,474
299	Hamilton	2	1:2,474
299	Harper	2	1:2,474
299	Harry	2	1:2,474
299	Harvey	2	1:2,474
299	Hastings	2	1:2,474
299	Haynes	2	1:2,474
299	Hazel	2	1:2,474
299	Heath	2	1:2,474
299	Hermanstein	2	1:2,474
299	Hodgson	2	1:2,474
299	Holder	2	1:2,474
299	Hollender	2	1:2,474
299	Horsford	2	1:2,474
299	Howson	2	1:2,474
299	Innis	2	1:2,474
299	Inniss	2	1:2,474
299	Isaacs	2	1:2,474
299	Isles	2	1:2,474
299	Jailall	2	1:2,474
299	Jean	2	1:2,474
299	Jno-Baptiste	2	1:2,474
299	Jnofinn	2	1:2,474
299	Joyce	2	1:2,474
299	Jules	2	1:2,474
299	Kay	2	1:2,474
299	Krogh	2	1:2,474
299	Kumar	2	1:2,474
299	Laborde	2	1:2,474
299	Lake	2	1:2,474
299	Lees	2	1:2,474
299	Lidbetter	2	1:2,474
299	Limage	2	1:2,474
299	Lindo	2	1:2,474
299	Livingstone	2	1:2,474
299	Lloyd	2	1:2,474
299	Lugo	2	1:2,474
299	Lyn	2	1:2,474
299	Malcoon	2	1:2,474
299	Malik	2	1:2,474
299	Mathew	2	1:2,474
299	Matthew	2	1:2,474
299	McArthur	2	1:2,474
299	McFarlane	2	1:2,474
299	McRae	2	1:2,474
299	Mendez	2	1:2,474
299	Messam	2	1:2,474
299	Moinnodeen	2	1:2,474
299	Morales	2	1:2,474
299	Moulon	2	1:2,474
299	Munroe	2	1:2,474
299	Murphy	2	1:2,474
299	Neptune	2	1:2,474
299	Nicholson	2	1:2,474
299	Norman	2	1:2,474
299	Nunns	2	1:2,474
299	Nurse	2	1:2,474
299	O'Donoghue	2	1:2,474
299	Ogarro	2	1:2,474
299	Okeke	2	1:2,474
299	Owen	2	1:2,474
299	Paddy	2	1:2,474
299	Patterson	2	1:2,474
299	Peakes	2	1:2,474
299	Perez	2	1:2,474
299	Persaud	2	1:2,474
299	Persuad	2	1:2,474
299	Pierre	2	1:2,474
299	Pinnock	2	1:2,474
299	Placide	2	1:2,474
299	Plato	2	1:2,474
299	Powell	2	1:2,474
299	Pritchard	2	1:2,474
299	Punter	2	1:2,474
299	Rasool	2	1:2,474
299	Raymond	2	1:2,474
299	Reddock	2	1:2,474
299	Remy	2	1:2,474
299	Ross	2	1:2,474
299	Rowe	2	1:2,474
299	Sabbadini	2	1:2,474
299	Samsair	2	1:2,474
299	Santana	2	1:2,474
299	Sappleton	2	1:2,474
299	Schroer	2	1:2,474
299	Seville	2	1:2,474
299	Spencer	2	1:2,474
299	Spycalla	2	1:2,474
299	St Jean	2	1:2,474
299	Stoute	2	1:2,474
299	Sutton	2	1:2,474
299	Syers	2	1:2,474
299	Talreja	2	1:2,474
299	Tareen	2	1:2,474
299	Telesford	2	1:2,474
299	Theodore	2	1:2,474
299	Tolan	2	1:2,474
299	Toledo	2	1:2,474
299	Tomme	2	1:2,474
299	Tonge	2	1:2,474
299	Trotman	2	1:2,474
299	Tucker	2	1:2,474
299	Tuitt-Kirnon	2	1:2,474
299	Tulp	2	1:2,474
299	Turton	2	1:2,474
299	Tyson	2	1:2,474
299	Underwood	2	1:2,474
299	Watson	2	1:2,474
299	Watts-Laborde	2	1:2,474
299	Wild	2	1:2,474
299	Wilkins	2	1:2,474
299	Willett	2	1:2,474
299	Williamson	2	1:2,474
299	Wisdom	2	1:2,474
299	Witter	2	1:2,474
299	Woods	2	1:2,474
299	Woods-Garness	2	1:2,474
299	Woolcock	2	1:2,474
299	Zapata-Galan	2	1:2,474
299	van Doiman	2	1:2,474
471	Abel	1	1:4,947
471	Abisogun	1	1:4,947
471	Acosta-Watts	1	1:4,947
471	Alcantara	1	1:4,947
471	Aldinger	1	1:4,947
471	Alexandra	1	1:4,947
471	Alfred	1	1:4,947
471	Algie	1	1:4,947
471	Alhassan	1	1:4,947
471	Allen-Corbett	1	1:4,947
471	Allen-Davis	1	1:4,947
471	Allicock	1	1:4,947
471	Alvarez-Alfonseca	1	1:4,947
471	Ambrose	1	1:4,947
471	Amedee	1	1:4,947
471	Amsterdam	1	1:4,947
471	Anatole	1	1:4,947
471	Anthony	1	1:4,947
471	Aquino-Mena	1	1:4,947
471	Archer-Joseph	1	1:4,947
471	Archibald	1	1:4,947
471	Arzuz	1	1:4,947
471	Ashby	1	1:4,947
471	Attidore	1	1:4,947
471	Auguiste	1	1:4,947
471	Augustus	1	1:4,947
471	Austin	1	1:4,947
471	Awe	1	1:4,947
471	Awudo	1	1:4,947
471	Aymer-Greenaway	1	1:4,947
471	Azan	1	1:4,947
471	Azeez	1	1:4,947
471	Azis	1	1:4,947
471	Baetion	1	1:4,947
471	Bain	1	1:4,947
471	Baird-Sampson	1	1:4,947
471	Baker-Weekes	1	1:4,947
471	Bakshani	1	1:4,947
471	Banton	1	1:4,947
471	Baptiste	1	1:4,947
471	Barber	1	1:4,947
471	Barker	1	1:4,947
471	Baron	1	1:4,947
471	Barrett	1	1:4,947
471	Barrs	1	1:4,947
471	Barzey-Weekes	1	1:4,947
471	Bascom	1	1:4,947
471	Bass-Ponde	1	1:4,947
471	Bayda-Bethell	1	1:4,947
471	Bayley	1	1:4,947
471	Beacher	1	1:4,947
471	Beattie	1	1:4,947
471	Benjamin-Flunte	1	1:4,947
471	Benson	1	1:4,947
471	Berique Delma	1	1:4,947
471	Berkis	1	1:4,947
471	Berrique-Attidore	1	1:4,947
471	Bertrand-Lee	1	1:4,947
471	Beveney	1	1:4,947
471	Bevney	1	1:4,947
471	Bholo	1	1:4,947
471	Bledze	1	1:4,947
471	Blomquist	1	1:4,947
471	Bloyce	1	1:4,947
471	Blyden	1	1:4,947
471	Blye	1	1:4,947
471	Boatswain-Piper	1	1:4,947
471	Bobb-Greenaway	1	1:4,947
471	Bonafino	1	1:4,947
471	Boodhoo	1	1:4,947
471	Boucher	1	1:4,947
471	Bouyea	1	1:4,947
471	Bowen	1	1:4,947
471	Bowman	1	1:4,947
471	Brade Kentish	1	1:4,947
471	Brade-Julius	1	1:4,947
471	Brade-White	1	1:4,947
471	Bradley	1	1:4,947
471	Braithewaite	1	1:4,947
471	Bramble-Browne	1	1:4,947
471	Bramble-Sweeney	1	1:4,947
471	Brandford	1	1:4,947
471	Brewer	1	1:4,947
471	Briscoe	1	1:4,947
471	Brookes	1	1:4,947
471	Brooks	1	1:4,947
471	Brown White	1	1:4,947
471	Brumble	1	1:4,947
471	Bruney	1	1:4,947
471	Buckley	1	1:4,947
471	Budham	1	1:4,947
471	Budram	1	1:4,947
471	Buntin-Irish	1	1:4,947
471	Burnett	1	1:4,947
471	Busowopko	1	1:4,947
471	Busset	1	1:4,947
471	Buswopko	1	1:4,947
471	Butters	1	1:4,947
471	Bynoe	1	1:4,947
471	Candy	1	1:4,947
471	Canon	1	1:4,947
471	Carlisle	1	1:4,947
471	Carlos	1	1:4,947
471	Carlton	1	1:4,947
471	Carrydice	1	1:4,947
471	Carter	1	1:4,947
471	Casimir	1	1:4,947
471	Cassell-Cabey	1	1:4,947
471	Cassell-Sealy	1	1:4,947
471	Cavanaugh	1	1:4,947
471	Celestine	1	1:4,947
471	Chance	1	1:4,947
471	Chapman	1	1:4,947
471	Charlemagne	1	1:4,947
471	Chester	1	1:4,947
471	Chharph	1	1:4,947
471	Chishholm	1	1:4,947
471	Chisholm	1	1:4,947
471	Christian-Francis	1	1:4,947
471	Christmas	1	1:4,947
471	Claxton	1	1:4,947
471	Clayton	1	1:4,947
471	Clovis	1	1:4,947
471	Coats	1	1:4,947
471	Coffey	1	1:4,947
471	Collin	1	1:4,947
471	Collymore	1	1:4,947
471	Combs-Allen	1	1:4,947
471	Comminges	1	1:4,947
471	Cone	1	1:4,947
471	Connage	1	1:4,947
471	Constatldey	1	1:4,947
471	Cook	1	1:4,947
471	Cooke	1	1:4,947
471	Corbbett	1	1:4,947
471	Corbin	1	1:4,947
471	Corso	1	1:4,947
471	Cottle	1	1:4,947
471	Counciler	1	1:4,947
471	Crichlow	1	1:4,947
471	Cross	1	1:4,947
471	Cruden	1	1:4,947
471	Crump	1	1:4,947
471	Cuffy	1	1:4,947
471	Cummings	1	1:4,947
471	Daley-William	1	1:4,947
471	Daniel-Bourne	1	1:4,947
471	Darlington	1	1:4,947
471	Darroux-Baron	1	1:4,947
471	Dasent	1	1:4,947
471	Dash	1	1:4,947
471	Dean	1	1:4,947
471	Deherte	1	1:4,947
471	Delplesche	1	1:4,947
471	Denis	1	1:4,947
471	Dennis	1	1:4,947
471	Destoche	1	1:4,947
471	Dewar	1	1:4,947
471	Dias-Weekes	1	1:4,947
471	Dibdin	1	1:4,947
471	Diggs	1	1:4,947
471	Dolcy	1	1:4,947
471	Dorisca	1	1:4,947
471	Dorsette-Grant	1	1:4,947
471	Dorsette-Hector	1	1:4,947
471	Douglas-Gibbons	1	1:4,947
471	Dove	1	1:4,947
471	Dowdy	1	1:4,947
471	Dowdye	1	1:4,947
471	Downie	1	1:4,947
471	Drew	1	1:4,947
471	Duberry-James	1	1:4,947
471	Dubery	1	1:4,947
471	Dubreus	1	1:4,947
471	Duggan	1	1:4,947
471	Duke-Hackett	1	1:4,947
471	Dumar	1	1:4,947
471	Dunsmore	1	1:4,947
471	Dupont	1	1:4,947
471	Durrant	1	1:4,947
471	Dutchin	1	1:4,947
471	Dworka	1	1:4,947
471	Dyer-Fiixon	1	1:4,947
471	Dyer-Howe	1	1:4,947
471	Dyett-Morgan	1	1:4,947
471	Eakin	1	1:4,947
471	Earle	1	1:4,947
471	Eccleston	1	1:4,947
471	Edgings	1	1:4,947
471	Edmund	1	1:4,947
471	Ellis-Lynch	1	1:4,947
471	Enmore	1	1:4,947
471	Erlandson	1	1:4,947
471	Esberry-Williamson	1	1:4,947
471	Espirit	1	1:4,947
471	Espirite	1	1:4,947
471	Fagan-Williams	1	1:4,947
471	Farara	1	1:4,947
471	Farley	1	1:4,947
471	Farrell Daway	1	1:4,947
471	Farrell-Taylor	1	1:4,947
471	Fearon	1	1:4,947
471	Felipe	1	1:4,947
471	Fenton Ryan	1	1:4,947
471	Fenton-Archer	1	1:4,947
471	Fenton-Riley	1	1:4,947
471	Fenton-Thomas	1	1:4,947
471	Ferguson	1	1:4,947
471	Fergusson	1	1:4,947
471	Ferm	1	1:4,947
471	Fernand	1	1:4,947
471	Fernandel	1	1:4,947
471	Field	1	1:4,947
471	Flood	1	1:4,947
471	Flores	1	1:4,947
471	Florian-Pineda	1	1:4,947
471	Forde	1	1:4,947
471	Foreshaw	1	1:4,947
471	Forrester	1	1:4,947
471	Forrrester	1	1:4,947
471	Francis-Lee	1	1:4,947
471	Frechou	1	1:4,947
471	Frederick	1	1:4,947
471	Frink	1	1:4,947
471	Frye-Rowe	1	1:4,947
471	Gabriel White	1	1:4,947
471	Gage	1	1:4,947
471	Gall	1	1:4,947
471	Garcia-Andre	1	1:4,947
471	Gardener	1	1:4,947
471	Gavesande	1	1:4,947
471	Gavin	1	1:4,947
471	Gayle	1	1:4,947
471	Gentle	1	1:4,947
471	Gerald-Ryan	1	1:4,947
471	Getfield	1	1:4,947
471	Gibbs	1	1:4,947
471	Gibson	1	1:4,947
471	Giddings	1	1:4,947
471	Gildersleeve	1	1:4,947
471	Giles	1	1:4,947
471	Gill	1	1:4,947
471	Gillette	1	1:4,947
471	Gillis	1	1:4,947
471	Ginelsy	1	1:4,947
471	Gingerbread	1	1:4,947
471	Godfrey	1	1:4,947
471	Golden	1	1:4,947
471	Goodridge	1	1:4,947
471	Gordon Rasool	1	1:4,947
471	Graham-Barzey	1	1:4,947
471	Grantley	1	1:4,947
471	Gravesande	1	1:4,947
471	Greenaway-Duberry	1	1:4,947
471	Greenaway-Farrell	1	1:4,947
471	Greene	1	1:4,947
471	Greenway	1	1:4,947
471	Grewe	1	1:4,947
471	Griffith Joseph	1	1:4,947
471	Gsponer	1	1:4,947
471	Guest	1	1:4,947
471	Guinn	1	1:4,947
471	Hadman	1	1:4,947
471	Handscombe	1	1:4,947
471	Hardwick	1	1:4,947
471	Harewood-Lewis	1	1:4,947
471	Harley	1	1:4,947
471	Harmer	1	1:4,947
471	Harney	1	1:4,947
471	Hartley	1	1:4,947
471	Hazlewood	1	1:4,947
471	Headley	1	1:4,947
471	Healy	1	1:4,947
471	Hector	1	1:4,947
471	Henderson	1	1:4,947
471	Hendiville	1	1:4,947
471	Hendricks	1	1:4,947
471	Hendrickson	1	1:4,947
471	Hennenger	1	1:4,947
471	Henry-Lee	1	1:4,947
471	Henville	1	1:4,947
471	Hilltop	1	1:4,947
471	Hitzen	1	1:4,947
471	Hodd	1	1:4,947
471	Hodges	1	1:4,947
471	Holley	1	1:4,947
471	Holloran	1	1:4,947
471	Holloway	1	1:4,947
471	Homer	1	1:4,947
471	Hooper	1	1:4,947
471	Hopkinson	1	1:4,947
471	How	1	1:4,947
471	Howes	1	1:4,947
471	Hudson	1	1:4,947
471	Huggins	1	1:4,947
471	Hunter	1	1:4,947
471	Hutchinson	1	1:4,947
471	Hutson	1	1:4,947
471	Hyacinth	1	1:4,947
471	Ingram	1	1:4,947
471	Irish-Larose	1	1:4,947
471	Jaganaught	1	1:4,947
471	Jaime	1	1:4,947
471	James-Connell	1	1:4,947
471	James-Smith	1	1:4,947
471	Jarvis-Daley	1	1:4,947
471	Jauss	1	1:4,947
471	Jeane	1	1:4,947
471	Jeffers-Lee	1	1:4,947
471	Jemmote-Rodney	1	1:4,947
471	Jemmotte Buffonge	1	1:4,947
471	Jemmotte-Rodney	1	1:4,947
471	Jennerich	1	1:4,947
471	Jervier	1	1:4,947
471	Jethro	1	1:4,947
471	Johan-Fiest	1	1:4,947
471	John-Baptiste	1	1:4,947
471	Joseph-Foster	1	1:4,947
471	Joseph-West	1	1:4,947
471	Junor	1	1:4,947
471	Kani	1	1:4,947
471	Kassie	1	1:4,947
471	Kassim	1	1:4,947
471	Kassim-Vidabul	1	1:4,947
471	Kelsick	1	1:4,947
471	Kemp	1	1:4,947
471	Kennedy	1	1:4,947
471	Kerr	1	1:4,947
471	Kersch	1	1:4,947
471	Kilkenny	1	1:4,947
471	King	1	1:4,947
471	Kirton	1	1:4,947
471	Krakower	1	1:4,947
471	Kready	1	1:4,947
471	Krishnathiruvaran	1	1:4,947
471	Krueger	1	1:4,947
471	Langlais	1	1:4,947
471	Larell	1	1:4,947
471	Larose	1	1:4,947
471	Laurie	1	1:4,947
471	Lausa	1	1:4,947
471	Layton	1	1:4,947
471	Lazarus	1	1:4,947
471	Lee-Fenton	1	1:4,947
471	Lee-O'Garro	1	1:4,947
471	Leeanne	1	1:4,947
471	Leibbrand	1	1:4,947
471	Lempriere	1	1:4,947
471	Leonard	1	1:4,947
471	Lester	1	1:4,947
471	Level	1	1:4,947
471	Lewis-Lynch	1	1:4,947
471	Lindeland	1	1:4,947
471	Lindesay	1	1:4,947
471	Lindsey-Lee	1	1:4,947
471	Locker-Tuitt	1	1:4,947
471	London	1	1:4,947
471	Louis	1	1:4,947
471	Louis-Celius	1	1:4,947
471	Louissaint-Limage	1	1:4,947
471	Luzy	1	1:4,947
471	Lyght	1	1:4,947
471	Lynch-Mason	1	1:4,947
471	Lynt	1	1:4,947
471	Lyons	1	1:4,947
471	Lythe	1	1:4,947
471	Mack	1	1:4,947
471	Madu-Ihuoma	1	1:4,947
471	Mahaffey	1	1:4,947
471	Maharajah	1	1:4,947
471	Maher-Loughnan	1	1:4,947
471	Maillard	1	1:4,947
471	Major	1	1:4,947
471	Malancon	1	1:4,947
471	Marglin	1	1:4,947
471	Mark	1	1:4,947
471	Markham Riley	1	1:4,947
471	Marse	1	1:4,947
471	Marson	1	1:4,947
471	Marston	1	1:4,947
471	Martin-Tuitt	1	1:4,947
471	Mattioli	1	1:4,947
471	Maynard	1	1:4,947
471	McAllister	1	1:4,947
471	McAlllister	1	1:4,947
471	McCarty	1	1:4,947
471	McChesney	1	1:4,947
471	McCormick	1	1:4,947
471	McDaniel	1	1:4,947
471	McGregor	1	1:4,947
471	McIntosh	1	1:4,947
471	McKeand	1	1:4,947
471	McLeod	1	1:4,947
471	McMillan	1	1:4,947
471	McNichols	1	1:4,947
471	Meade-Aymer	1	1:4,947
471	Meade-Hickson	1	1:4,947
471	Mehta	1	1:4,947
471	Melander	1	1:4,947
471	Menzies-Pond	1	1:4,947
471	Merchant	1	1:4,947
471	Minaya	1	1:4,947
471	Mingo	1	1:4,947
471	Miranda	1	1:4,947
471	Mitchell	1	1:4,947
471	Moinndeen	1	1:4,947
471	Montero	1	1:4,947
471	Monzee	1	1:4,947
471	Moodie	1	1:4,947
471	Morancie	1	1:4,947
471	Morande	1	1:4,947
471	Mordus	1	1:4,947
471	Morgan-Baptiste	1	1:4,947
471	Morris-Robinson	1	1:4,947
471	Morton	1	1:4,947
471	Mowry	1	1:4,947
471	Munsey	1	1:4,947
471	Murrain-Buntin	1	1:4,947
471	Murraine-Buntin	1	1:4,947
471	Murray	1	1:4,947
471	Murrell	1	1:4,947
471	Nambiar	1	1:4,947
471	Nangle	1	1:4,947
471	Nanton	1	1:4,947
471	Narine	1	1:4,947
471	Natoli	1	1:4,947
471	Nicholas	1	1:4,947
471	Nithyanaatham	1	1:4,947
471	Nithyanantham	1	1:4,947
471	North	1	1:4,947
471	Nurse-Ponteen	1	1:4,947
471	O'Garro-Daley	1	1:4,947
471	Ohiagu	1	1:4,947
471	Pactin	1	1:4,947
471	Pantlitz	1	1:4,947
471	Parillon-Mcarthur	1	1:4,947
471	Parkinson	1	1:4,947
471	Parson	1	1:4,947
471	Parsons	1	1:4,947
471	Payano	1	1:4,947
471	Peart	1	1:4,947
471	Pedre-Kassim	1	1:4,947
471	Pemberton	1	1:4,947
471	Penny	1	1:4,947
471	Percival	1	1:4,947
471	Perez-Diaz	1	1:4,947
471	Peter	1	1:4,947
471	Phanor	1	1:4,947
471	Philadelphia	1	1:4,947
471	Pilgrim	1	1:4,947
471	Piper-Wade	1	1:4,947
471	Playter	1	1:4,947
471	Plenderleith	1	1:4,947
471	Poligadu	1	1:4,947
471	Pozo	1	1:4,947
471	Prince-Martin	1	1:4,947
471	Ranchandani	1	1:4,947
471	Reada	1	1:4,947
471	Reed	1	1:4,947
471	Reider	1	1:4,947
471	Remi	1	1:4,947
471	Remond	1	1:4,947
471	Renbeck	1	1:4,947
471	Renton	1	1:4,947
471	Reynolds-Reece	1	1:4,947
471	Reynosa	1	1:4,947
471	Richardson	1	1:4,947
471	Richmond-Grant	1	1:4,947
471	Ridley	1	1:4,947
471	Riley-Darroux	1	1:4,947
471	Riley-Fenton	1	1:4,947
471	Riley-Fergus	1	1:4,947
471	Rivera	1	1:4,947
471	Roacher	1	1:4,947
471	Robbins	1	1:4,947
471	Roberts	1	1:4,947
471	Robertson	1	1:4,947
471	Rocklyn-Spencer	1	1:4,947
471	Rodrigues	1	1:4,947
471	Rodriques	1	1:4,947
471	Rodwell	1	1:4,947
471	Roffey	1	1:4,947
471	Rosemary	1	1:4,947
471	Rosenberg	1	1:4,947
471	Royer	1	1:4,947
471	Rozon	1	1:4,947
471	Ruiz-Watts	1	1:4,947
471	Russell	1	1:4,947
471	Rvner	1	1:4,947
471	Ryan-Bramble	1	1:4,947
471	Ryan-Molyneaux	1	1:4,947
471	Ryner-Fagan	1	1:4,947
471	Salmon	1	1:4,947
471	Samms	1	1:4,947
471	Sampson	1	1:4,947
471	Samuel-White	1	1:4,947
471	Satkunarajah	1	1:4,947
471	Saul	1	1:4,947
471	Saunders	1	1:4,947
471	Schiele	1	1:4,947
471	Scurci	1	1:4,947
471	Seebalak	1	1:4,947
471	Seraphine	1	1:4,947
471	Sergeant	1	1:4,947
471	Seymour	1	1:4,947
471	Shepard	1	1:4,947
471	Shields	1	1:4,947
471	Shields-Gayle	1	1:4,947
471	Shovers	1	1:4,947
471	Silcott-Greaves	1	1:4,947
471	Simmonds	1	1:4,947
471	Singh	1	1:4,947
471	Singh-Weekes	1	1:4,947
471	Skeete	1	1:4,947
471	Slephney	1	1:4,947
471	Smartt	1	1:4,947
471	Soans	1	1:4,947
471	Soans-Dyer	1	1:4,947
471	Sobres	1	1:4,947
471	Solomon	1	1:4,947
471	Spence	1	1:4,947
471	Spence-Fearon	1	1:4,947
471	Springer	1	1:4,947
471	St Fleur	1	1:4,947
471	St Hill	1	1:4,947
471	Stanyon	1	1:4,947
471	Stephaney	1	1:4,947
471	Stephney	1	1:4,947
471	Stevens	1	1:4,947
471	Stinton	1	1:4,947
471	Sutton-Buckley	1	1:4,947
471	Sweeney-Aaron	1	1:4,947
471	Sweeney-Dyer	1	1:4,947
471	Sweeney-Piper	1	1:4,947
471	Sweeny	1	1:4,947
471	Taber	1	1:4,947
471	Talbert	1	1:4,947
471	Taylor-Benjamin	1	1:4,947
471	Taylor-Farrell	1	1:4,947
471	Taylor-Hilton	1	1:4,947
471	Thomas-Azeez	1	1:4,947
471	Thomas-Buffonge	1	1:4,947
471	Thomas-Smeikle	1	1:4,947
471	Thornhill-Payne	1	1:4,947
471	Thurainayeadam	1	1:4,947
471	Thuraisingham	1	1:4,947
471	Thurisingam	1	1:4,947
471	Timal	1	1:4,947
471	Tinnell	1	1:4,947
471	Toal	1	1:4,947
471	Toles	1	1:4,947
471	Trant	1	1:4,947
471	Tuitt-Chambers	1	1:4,947
471	Tuitt-Irish	1	1:4,947
471	Tuitt-Lynch	1	1:4,947
471	Vaeth	1	1:4,947
471	Valenta	1	1:4,947
471	Valiahha	1	1:4,947
471	Van-Dyck	1	1:4,947
471	Vargas	1	1:4,947
471	Verner	1	1:4,947
471	Vesztróczi	1	1:4,947
471	Wade-Bramble	1	1:4,947
471	Wade-Piper	1	1:4,947
471	Walcott	1	1:4,947
471	Wall	1	1:4,947
471	Wallace-Lewis	1	1:4,947
471	Walmer	1	1:4,947
471	Walshe	1	1:4,947
471	Walters-Thomas	1	1:4,947
471	Washington	1	1:4,947
471	Watt	1	1:4,947
471	Watts-George	1	1:4,947
471	Watts-White	1	1:4,947
471	Waugh	1	1:4,947
471	Weakley	1	1:4,947
471	Wedderbun	1	1:4,947
471	Weekes-Barzey	1	1:4,947
471	Weekes-Lewis	1	1:4,947
471	Weekes-Wade	1	1:4,947
471	Welch	1	1:4,947
471	White-Samuels	1	1:4,947
471	Whitley	1	1:4,947
471	Whitmer	1	1:4,947
471	Whyte	1	1:4,947
471	Wilburg	1	1:4,947
471	Willaims	1	1:4,947
471	Williams-Kirnon	1	1:4,947
471	Wills	1	1:4,947
471	Wilston	1	1:4,947
471	Winsperare	1	1:4,947
471	Wise	1	1:4,947
471	Witter-Gage	1	1:4,947
471	Wojcik	1	1:4,947
471	Woodward	1	1:4,947
471	Wray	1	1:4,947
471	Wyke	1	1:4,947
471	Yearwood-Williams	1	1:4,947
471	Young	1	1:4,947
471	Yulisa	1	1:4,947