1	Smith	13,667	1:331
2	Williams	8,814	1:514
3	Jones	8,563	1:529
4	Brown	8,365	1:541
5	Taylor	8,048	1:563
6	Wilson	8,044	1:563
7	Scott	7,010	1:646
8	Anderson	6,986	1:648
9	Young	6,887	1:658
10	Singh	6,880	1:658
11	Thompson	6,705	1:675
12	King	6,489	1:698
13	Walker	6,485	1:698
14	Harris	6,379	1:710
15	White	6,311	1:718
16	Lee	6,297	1:719
17	Robinson	6,198	1:731
18	Edwards	6,160	1:735
19	Johnson	6,145	1:737
20	Stewart	6,108	1:741
21	Davis	6,052	1:748
22	Robertson	5,987	1:756
23	Mitchell	5,897	1:768
24	Johnston	5,866	1:772
25	Martin	5,838	1:776
26	Thomas	5,802	1:780
27	Watson	5,777	1:784
28	Turner	5,764	1:786
29	Simpson	5,751	1:787
30	Morgan	5,745	1:788
31	Cooper	5,682	1:797
32	Clark	5,668	1:799
33	Phillips	5,630	1:804
34	Murray	5,616	1:806
35	Reid	5,572	1:813
36	Miller	5,567	1:813
37	Jackson	5,550	1:816
38	Campbell	5,549	1:816
39	McDonald	5,539	1:818
40	Moore	5,529	1:819
41	Hill	5,499	1:823
42	Clarke	5,442	1:832
43	Baker	5,425	1:835
44	Gray	5,402	1:838
45	Thomson	5,399	1:839
46	Evans	5,361	1:845
47	McKenzie	5,357	1:845
48	Ward	5,351	1:846
49	Roberts	5,310	1:853
50	McLean	5,309	1:853
51	Parker	5,292	1:856
52	MacDonald	5,280	1:858
53	Marshall	5,263	1:860
54	Morris	5,191	1:872
55	Davies	5,186	1:873
56	Grant	5,169	1:876
57	Wright	5,096	1:889
58	Bell	5,090	1:890
59	Green	5,037	1:899
60	Hughes	5,033	1:900
61	Allen	5,020	1:902
62	Henderson	4,993	1:907
63	Kelly	4,991	1:907
64	Carter	4,990	1:907
65	Shaw	4,945	1:916
66	Bennett	4,921	1:920
67	Hall	4,911	1:922
68	Ross	4,908	1:923
69	Russell	4,851	1:933
70	Lewis	4,848	1:934
71	Cook	4,739	1:956
72	Collins	4,731	1:957
73	James	4,726	1:958
74	Sutherland	4,704	1:963
75	Gibson	4,661	1:972
76	Fraser	4,634	1:977
77	Duncan	4,624	1:979
78	Wallace	4,599	1:985
79	Graham	4,597	1:985
80	Wood	4,576	1:990
81	Paterson	4,494	1:1,008
82	Cameron	4,490	1:1,009
83	Hunt	4,473	1:1,012
84	Sinclair	4,428	1:1,023
85	Stevenson	4,418	1:1,025
86	McKay	4,352	1:1,041
87	Harrison	4,323	1:1,047
88	Murphy	4,295	1:1,054
89	Mason	4,259	1:1,063
90	Adams	4,257	1:1,064
91	Wells	4,183	1:1,083
92	Gordon	4,177	1:1,084
93	Bailey	4,154	1:1,090
94	Ryan	4,121	1:1,099
95	Black	4,119	1:1,099
96	Stevens	4,074	1:1,112
97	Harvey	4,068	1:1,113
98	Kennedy	4,038	1:1,121
99	Hunter	4,032	1:1,123
100	McGregor	4,000	1:1,132
101	Crawford	3,999	1:1,132
102	Williamson	3,990	1:1,135
103	Hansen	3,955	1:1,145
104	Mills	3,954	1:1,145
105	Price	3,945	1:1,148
106	Jenkins	3,940	1:1,149
107	Nelson	3,932	1:1,152
108	Foster	3,923	1:1,154
109	Richardson	3,915	1:1,157
110	Rogers	3,905	1:1,160
111	Kerr	3,896	1:1,162
112	Allan	3,881	1:1,167
113	Wilkinson	3,860	1:1,173
114	Morrison	3,850	1:1,176
115	Andrews	3,815	1:1,187
116	O'Connor	3,810	1:1,189
117	Burgess	3,724	1:1,216
118	Munro	3,722	1:1,217
119	Patel	3,713	1:1,220
120	Dunn	3,699	1:1,224
121	McLeod	3,685	1:1,229
122	Hamilton	3,683	1:1,230
123	Lawrence	3,682	1:1,230
124	Pearce	3,667	1:1,235
125	Bradley	3,659	1:1,238
126	Walsh	3,624	1:1,250
127	Matthews	3,618	1:1,252
128	Boyd	3,592	1:1,261
129	Armstrong	3,584	1:1,263
130	Davidson	3,577	1:1,266
131	Richards	3,552	1:1,275
132	Rowe	3,526	1:1,284
133	Fletcher	3,523	1:1,285
134	Jamieson	3,506	1:1,292
134	MacKenzie	3,506	1:1,292
134	Palmer	3,506	1:1,292
137	Cox	3,503	1:1,293
138	Ellis	3,494	1:1,296
139	Saunders	3,491	1:1,297
140	Alexander	3,470	1:1,305
140	Dawson	3,470	1:1,305
142	West	3,459	1:1,309
143	Fisher	3,453	1:1,311
144	McMillan	3,452	1:1,312
145	Griffiths	3,427	1:1,321
146	Oliver	3,415	1:1,326
147	Butler	3,401	1:1,331
148	Chapman	3,333	1:1,359
148	Elliott	3,333	1:1,359
148	Sutton	3,333	1:1,359
151	Knight	3,322	1:1,363
152	Ford	3,307	1:1,369
153	Patterson	3,299	1:1,373
154	Douglas	3,269	1:1,385
155	Kumar	3,259	1:1,389
156	Ferguson	3,239	1:1,398
157	Milne	3,238	1:1,398
158	Craig	3,232	1:1,401
159	Barker	3,211	1:1,410
160	Bishop	3,210	1:1,411
161	Barnes	3,203	1:1,414
162	Perry	3,202	1:1,414
163	Payne	3,182	1:1,423
164	Webster	3,172	1:1,428
165	Hart	3,169	1:1,429
166	Rose	3,147	1:1,439
167	Dixon	3,141	1:1,442
168	Cole	3,140	1:1,442
169	Marsh	3,136	1:1,444
170	Holmes	3,132	1:1,446
171	Millar	3,116	1:1,453
172	Peters	3,101	1:1,460
173	MacKay	3,100	1:1,461
174	Reynolds	3,094	1:1,464
175	Paul	3,077	1:1,472
176	Donaldson	3,074	1:1,473
176	O'Brien	3,074	1:1,473
178	Hay	3,055	1:1,482
179	Woods	3,047	1:1,486
180	Muir	3,021	1:1,499
181	Webb	3,014	1:1,502
182	Fleming	3,010	1:1,504
183	Pearson	2,994	1:1,512
184	Todd	2,989	1:1,515
185	Booth	2,970	1:1,525
185	Powell	2,970	1:1,525
187	Johnstone	2,962	1:1,529
187	O'Neill	2,962	1:1,529
189	Cunningham	2,961	1:1,529
190	Hayes	2,944	1:1,538
191	Lloyd	2,907	1:1,558
192	Fox	2,900	1:1,561
193	Osborne	2,891	1:1,566
194	Gardiner	2,887	1:1,569
195	Buchanan	2,877	1:1,574
196	Burns	2,845	1:1,592
197	Stephens	2,833	1:1,598
198	Day	2,818	1:1,607
199	Holland	2,815	1:1,609
200	Barrett	2,795	1:1,620
201	Atkinson	2,769	1:1,635
202	Nicholson	2,748	1:1,648
203	Henry	2,743	1:1,651
204	Read	2,726	1:1,661
205	Maxwell	2,716	1:1,667
206	Gibbs	2,712	1:1,670
207	McIntosh	2,708	1:1,672
208	Barnett	2,701	1:1,677
209	Coleman	2,696	1:1,680
210	McIntyre	2,686	1:1,686
211	Shepherd	2,681	1:1,689
212	Gill	2,679	1:1,690
213	Stuart	2,678	1:1,691
214	Jensen	2,660	1:1,702
215	George	2,654	1:1,706
216	Cross	2,648	1:1,710
217	Bryant	2,629	1:1,722
218	Page	2,614	1:1,732
219	Hawkins	2,594	1:1,746
220	Francis	2,582	1:1,754
221	Harper	2,580	1:1,755
222	Berry	2,575	1:1,759
223	Griffin	2,572	1:1,761
224	Aitken	2,564	1:1,766
225	Hammond	2,555	1:1,772
226	Carr	2,554	1:1,773
227	Lindsay	2,553	1:1,774
228	Gardner	2,552	1:1,774
228	Lawson	2,552	1:1,774
230	Lowe	2,543	1:1,781
231	Warren	2,538	1:1,784
232	Hooper	2,529	1:1,791
233	Newton	2,528	1:1,791
234	Watts	2,524	1:1,794
235	Sharp	2,522	1:1,796
236	Stone	2,508	1:1,806
237	Porter	2,507	1:1,806
238	Sullivan	2,476	1:1,829
239	Dickson	2,473	1:1,831
240	Blair	2,470	1:1,833
241	Harding	2,466	1:1,836
242	Lynch	2,457	1:1,843
243	Browne	2,449	1:1,849
244	Hudson	2,437	1:1,858
244	Joyce	2,437	1:1,858
246	Nicholls	2,429	1:1,864
247	May	2,419	1:1,872
248	Little	2,412	1:1,877
249	Parsons	2,409	1:1,880
250	Wong	2,408	1:1,881
251	Austin	2,407	1:1,881
252	Burton	2,399	1:1,888
253	Hayward	2,390	1:1,895
254	Ritchie	2,385	1:1,899
255	Jordan	2,382	1:1,901
256	Frost	2,375	1:1,907
257	FitzGerald	2,363	1:1,916
258	Newman	2,362	1:1,917
259	McCarthy	2,360	1:1,919
260	Bruce	2,358	1:1,920
261	Fowler	2,337	1:1,938
262	Hopkins	2,304	1:1,965
263	Owen	2,302	1:1,967
264	Kemp	2,299	1:1,970
265	Curtis	2,293	1:1,975
266	Goodwin	2,278	1:1,988
267	Riley	2,257	1:2,006
268	Wheeler	2,253	1:2,010
269	Weir	2,252	1:2,011
270	Spencer	2,249	1:2,013
271	Olsen	2,244	1:2,018
272	Hodgson	2,236	1:2,025
273	Gilbert	2,227	1:2,033
274	Howard	2,225	1:2,035
275	Christie	2,222	1:2,038
276	Bartlett	2,216	1:2,043
277	Currie	2,214	1:2,045
278	O'Sullivan	2,199	1:2,059
279	Vincent	2,191	1:2,067
280	Reed	2,181	1:2,076
281	Bird	2,161	1:2,095
282	Watt	2,158	1:2,098
283	Larsen	2,156	1:2,100
284	Tait	2,149	1:2,107
285	Kay	2,145	1:2,111
286	Willis	2,126	1:2,130
287	Dean	2,105	1:2,151
287	Field	2,105	1:2,151
289	Sue	2,100	1:2,156
290	Brooks	2,091	1:2,166
291	Freeman	2,089	1:2,168
292	Sanders	2,082	1:2,175
293	Wills	2,072	1:2,185
294	Gallagher	2,066	1:2,192
295	Kim	2,058	1:2,200
296	Wang	2,046	1:2,213
297	Tucker	2,038	1:2,222
298	Johns	2,035	1:2,225
299	Ball	2,031	1:2,230
300	Parkinson	2,029	1:2,232
301	Andrew	2,027	1:2,234
302	Baxter	2,025	1:2,236
303	Kaur	2,015	1:2,247
304	Herbert	2,006	1:2,257
305	Blake	1,995	1:2,270
306	Kirk	1,993	1:2,272
307	Watkins	1,990	1:2,276
308	Chambers	1,980	1:2,287
309	Cooke	1,968	1:2,301
310	Davey	1,955	1:2,316
311	Walters	1,952	1:2,320
312	Burke	1,945	1:2,328
313	Robson	1,943	1:2,331
314	Chand	1,940	1:2,334
315	Beattie	1,931	1:2,345
316	Cochrane	1,929	1:2,347
317	Rae	1,925	1:2,352
318	Law	1,924	1:2,354
319	Lucas	1,921	1:2,357
320	Drummond	1,919	1:2,360
321	Quinn	1,917	1:2,362
322	Lamb	1,916	1:2,363
323	Corbett	1,911	1:2,370
324	Chen	1,910	1:2,371
325	Baird	1,909	1:2,372
325	Barton	1,909	1:2,372
327	Bates	1,908	1:2,373
328	Arnold	1,907	1:2,375
328	Higgins	1,907	1:2,375
330	Potter	1,900	1:2,383
331	Steele	1,898	1:2,386
332	Tan	1,896	1:2,388
333	Park	1,892	1:2,393
334	Morton	1,885	1:2,402
335	Banks	1,884	1:2,404
336	Manning	1,882	1:2,406
337	Cullen	1,881	1:2,407
338	Savage	1,875	1:2,415
339	Long	1,855	1:2,441
340	Logan	1,851	1:2,446
341	Winter	1,850	1:2,448
342	Preston	1,841	1:2,460
343	O'Donnell	1,840	1:2,461
344	O'Connell	1,836	1:2,466
345	Buckley	1,833	1:2,470
346	Small	1,831	1:2,473
347	Hutchinson	1,829	1:2,476
348	Lambert	1,825	1:2,481
349	Yates	1,818	1:2,491
350	Waters	1,816	1:2,494
351	Peterson	1,815	1:2,495
352	Spence	1,812	1:2,499
353	Whyte	1,811	1:2,500
354	Yang	1,810	1:2,502
355	Bond	1,806	1:2,507
356	Carroll	1,802	1:2,513
356	Sharma	1,802	1:2,513
358	Pratt	1,792	1:2,527
359	Edmonds	1,785	1:2,537
360	Gregory	1,783	1:2,540
361	Forbes	1,769	1:2,560
362	Hewitt	1,758	1:2,576
363	Smart	1,748	1:2,591
364	Hancock	1,747	1:2,592
364	Pope	1,747	1:2,592
366	Li	1,745	1:2,595
367	Miles	1,737	1:2,607
368	Giles	1,734	1:2,611
369	Matheson	1,729	1:2,619
370	Dobson	1,726	1:2,624
371	Lal	1,720	1:2,633
372	Irvine	1,718	1:2,636
373	Huang	1,715	1:2,640
374	Low	1,714	1:2,642
375	Ng	1,713	1:2,644
376	Barlow	1,709	1:2,650
377	Turnbull	1,701	1:2,662
378	Stokes	1,699	1:2,665
379	Donald	1,697	1:2,668
380	McGrath	1,695	1:2,672
380	Whitehead	1,695	1:2,672
382	Wall	1,693	1:2,675
383	Murdoch	1,690	1:2,679
384	Margaret	1,685	1:2,687
385	McLaren	1,684	1:2,689
386	Malcolm	1,681	1:2,694
387	Lane	1,678	1:2,699
388	Jennings	1,674	1:2,705
389	Skinner	1,673	1:2,707
390	Rhodes	1,672	1:2,708
391	McFarlane	1,669	1:2,713
392	Davison	1,663	1:2,723
393	Christensen	1,661	1:2,726
394	Bain	1,660	1:2,728
395	Prasad	1,658	1:2,731
396	Calder	1,652	1:2,741
397	Shirley	1,649	1:2,746
398	Knowles	1,647	1:2,749
399	Carson	1,641	1:2,759
400	Lin	1,638	1:2,765
401	Dick	1,636	1:2,768
402	Zhang	1,633	1:2,773
403	Manson	1,629	1:2,780
404	Burt	1,627	1:2,783
404	Norton	1,627	1:2,783
406	Dyer	1,620	1:2,795
407	Irwin	1,614	1:2,806
408	Wu	1,610	1:2,813
409	Archer	1,601	1:2,828
409	Findlay	1,601	1:2,828
411	Farrell	1,599	1:2,832
412	French	1,597	1:2,836
413	Barclay	1,594	1:2,841
414	Norris	1,592	1:2,844
415	Webber	1,587	1:2,853
416	McCallum	1,583	1:2,861
417	Caldwell	1,581	1:2,864
417	Hope	1,581	1:2,864
419	McPherson	1,579	1:2,868
419	Stephenson	1,579	1:2,868
421	Cowan	1,578	1:2,870
422	Hartley	1,574	1:2,877
423	Laing	1,571	1:2,882
424	Mann	1,567	1:2,890
425	Rodgers	1,565	1:2,893
426	Nicholas	1,564	1:2,895
427	Liu	1,563	1:2,897
428	Stanley	1,560	1:2,903
429	Rutherford	1,553	1:2,916
430	Ashton	1,552	1:2,918
430	Gillespie	1,552	1:2,918
430	John	1,552	1:2,918
433	Norman	1,551	1:2,920
434	Allison	1,547	1:2,927
435	Gibbons	1,546	1:2,929
435	Jacobs	1,546	1:2,929
437	Dale	1,543	1:2,935
438	MacKie	1,542	1:2,937
439	Burrows	1,541	1:2,939
440	Barr	1,538	1:2,944
441	Middleton	1,537	1:2,946
441	Nicol	1,537	1:2,946
443	Ashby	1,535	1:2,950
443	Boyle	1,535	1:2,950
443	Neal	1,535	1:2,950
443	Ramsay	1,535	1:2,950
447	Casey	1,531	1:2,958
447	McCormick	1,531	1:2,958
447	Wallis	1,531	1:2,958
450	Chan	1,530	1:2,960
451	Bull	1,529	1:2,962
451	Hogg	1,529	1:2,962
453	Grace	1,525	1:2,969
453	Simmons	1,525	1:2,969
455	McRae	1,523	1:2,973
456	Walton	1,522	1:2,975
457	Lang	1,512	1:2,995
458	Franklin	1,506	1:3,007
459	Meyer	1,505	1:3,009
459	Robb	1,505	1:3,009
461	Barry	1,498	1:3,023
462	Gould	1,491	1:3,037
462	Pritchard	1,491	1:3,037
464	Collier	1,488	1:3,043
465	Chamberlain	1,485	1:3,049
466	Orr	1,472	1:3,076
466	Short	1,472	1:3,076
468	McLachlan	1,465	1:3,091
469	Atkins	1,464	1:3,093
470	Neilson	1,462	1:3,097
471	Houghton	1,459	1:3,104
472	Mead	1,453	1:3,117
473	Bowden	1,448	1:3,127
474	Cairns	1,445	1:3,134
475	Love	1,438	1:3,149
476	Reeves	1,430	1:3,167
477	MacFarlane	1,428	1:3,171
478	Holden	1,427	1:3,173
479	Hogan	1,421	1:3,187
480	Clayton	1,420	1:3,189
480	Gunn	1,420	1:3,189
482	Fuller	1,412	1:3,207
483	Hale	1,411	1:3,209
484	MacLean	1,410	1:3,212
485	Noble	1,409	1:3,214
486	Petersen	1,408	1:3,216
487	Howe	1,399	1:3,237
487	Poole	1,399	1:3,237
489	Pickering	1,395	1:3,246
490	Judd	1,394	1:3,248
491	Woodward	1,393	1:3,251
492	Hutton	1,388	1:3,262
493	Abbott	1,382	1:3,277
493	Lim	1,382	1:3,277
495	Hyde	1,380	1:3,281
496	Goodall	1,378	1:3,286
497	Heath	1,376	1:3,291
498	Boyce	1,372	1:3,301
499	Horne	1,371	1:3,303
499	Whittaker	1,371	1:3,303
501	Byrne	1,370	1:3,305
502	Khan	1,366	1:3,315
503	Hurley	1,365	1:3,317
504	Daly	1,364	1:3,320
505	Parkes	1,363	1:3,322
506	Moss	1,359	1:3,332
507	Molloy	1,358	1:3,335
508	Wilkins	1,357	1:3,337
509	Donovan	1,356	1:3,339
509	Foote	1,356	1:3,339
511	Arthur	1,355	1:3,342
512	Ireland	1,347	1:3,362
513	Townsend	1,345	1:3,367
514	Glover	1,341	1:3,377
515	Barber	1,338	1:3,384
516	Hardy	1,337	1:3,387
517	Steel	1,334	1:3,395
518	Montgomery	1,332	1:3,400
519	Mary	1,330	1:3,405
520	Keenan	1,327	1:3,412
521	Leslie	1,326	1:3,415
522	Jack	1,323	1:3,423
523	Hodge	1,320	1:3,431
523	Howell	1,320	1:3,431
525	Smyth	1,319	1:3,433
526	Brady	1,318	1:3,436
526	Paton	1,318	1:3,436
526	Reddy	1,318	1:3,436
529	MacPherson	1,316	1:3,441
530	Nixon	1,314	1:3,446
531	Doyle	1,310	1:3,457
532	Butcher	1,306	1:3,467
533	Greig	1,304	1:3,473
533	McLaughlin	1,304	1:3,473
535	Power	1,302	1:3,478
535	Searle	1,302	1:3,478
537	Connolly	1,301	1:3,481
538	Thorpe	1,298	1:3,489
539	Welch	1,297	1:3,491
540	Drake	1,296	1:3,494
540	Kingi	1,296	1:3,494
542	Garrett	1,292	1:3,505
542	Kidd	1,292	1:3,505
544	Hills	1,288	1:3,516
545	MacLeod	1,287	1:3,519
545	Thornton	1,287	1:3,519
547	Sim	1,286	1:3,521
548	Burnett	1,285	1:3,524
548	Forsyth	1,285	1:3,524
550	McKinnon	1,283	1:3,529
551	Nathan	1,276	1:3,549
552	Dalton	1,273	1:3,557
552	Joseph	1,273	1:3,557
554	Guy	1,272	1:3,560
554	Jury	1,272	1:3,560
556	Foley	1,268	1:3,571
557	Carey	1,264	1:3,583
557	Helen	1,264	1:3,583
559	Adamson	1,263	1:3,585
559	Rees	1,263	1:3,585
561	Weston	1,261	1:3,591
562	Simmonds	1,259	1:3,597
563	Wyatt	1,256	1:3,605
564	Grey	1,253	1:3,614
565	Shah	1,252	1:3,617
566	Hood	1,250	1:3,623
567	Jarvis	1,249	1:3,626
568	Pedersen	1,247	1:3,631
569	Wade	1,246	1:3,634
570	Jan	1,245	1:3,637
571	Broughton	1,244	1:3,640
571	Hobbs	1,244	1:3,640
573	Keen	1,243	1:3,643
574	Perkins	1,238	1:3,658
575	Kane	1,235	1:3,667
576	Bourke	1,232	1:3,676
577	Donnelly	1,231	1:3,679
577	Holt	1,231	1:3,679
579	Baldwin	1,230	1:3,682
579	Clements	1,230	1:3,682
581	Dunlop	1,228	1:3,688
582	Greenwood	1,227	1:3,691
583	Wilton	1,226	1:3,694
584	Dodd	1,223	1:3,703
585	Bolton	1,221	1:3,709
586	Ali	1,220	1:3,712
586	Bray	1,220	1:3,712
588	Anne	1,219	1:3,715
589	Mercer	1,217	1:3,721
590	Jane	1,216	1:3,724
591	Irving	1,214	1:3,730
592	Hicks	1,212	1:3,736
593	Chalmers	1,211	1:3,739
594	Meredith	1,209	1:3,746
595	Ryder	1,208	1:3,749
596	Monk	1,205	1:3,758
597	Duffy	1,204	1:3,761
598	Flynn	1,202	1:3,767
599	Bright	1,199	1:3,777
600	Godfrey	1,198	1:3,780
601	Vaughan	1,196	1:3,786
602	Knox	1,195	1:3,789
603	Waugh	1,194	1:3,793
604	McKee	1,193	1:3,796
604	Nielsen	1,193	1:3,796
606	Masters	1,192	1:3,799
606	McNamara	1,192	1:3,799
608	Clarkson	1,185	1:3,821
609	Shearer	1,183	1:3,828
610	Duff	1,175	1:3,854
611	Chang	1,174	1:3,857
612	Hickey	1,170	1:3,870
613	Gibb	1,169	1:3,874
614	Hampton	1,163	1:3,894
614	Menzies	1,163	1:3,894
616	Brewer	1,159	1:3,907
617	Heather	1,155	1:3,921
618	Gillies	1,154	1:3,924
618	Ingram	1,154	1:3,924
620	Doherty	1,153	1:3,927
621	Briggs	1,151	1:3,934
621	Lord	1,151	1:3,934
621	Wylie	1,151	1:3,934
624	McBride	1,146	1:3,951
625	O'Leary	1,142	1:3,965
626	Kenny	1,141	1:3,969
627	Beaumont	1,136	1:3,986
628	Lyons	1,135	1:3,990
629	Chandra	1,129	1:4,011
629	Nolan	1,129	1:4,011
631	McDowell	1,127	1:4,018
632	Welsh	1,126	1:4,022
632	Yu	1,126	1:4,022
634	Best	1,125	1:4,025
634	Guthrie	1,125	1:4,025
634	Leonard	1,125	1:4,025
637	Hanson	1,124	1:4,029
637	Leach	1,124	1:4,029
639	Cassidy	1,123	1:4,032
640	Hodges	1,122	1:4,036
640	Reeve	1,122	1:4,036
642	Hannah	1,121	1:4,040
643	Healey	1,118	1:4,050
644	Sims	1,116	1:4,058
645	Beck	1,115	1:4,061
646	McArthur	1,112	1:4,072
647	Haines	1,108	1:4,087
647	Nash	1,108	1:4,087
649	Fenton	1,107	1:4,091
650	Falconer	1,103	1:4,105
651	Dillon	1,098	1:4,124
652	Dennis	1,097	1:4,128
653	Agnew	1,093	1:4,143
654	Warner	1,091	1:4,151
655	Pollock	1,088	1:4,162
656	Choi	1,087	1:4,166
656	McLennan	1,087	1:4,166
658	Connor	1,085	1:4,174
659	McCabe	1,078	1:4,201
660	Karen	1,075	1:4,212
661	Andersen	1,065	1:4,252
662	Birch	1,064	1:4,256
662	Pollard	1,064	1:4,256
664	Seymour	1,063	1:4,260
665	Hinton	1,060	1:4,272
666	Callaghan	1,059	1:4,276
666	Solomon	1,059	1:4,276
668	Greer	1,057	1:4,284
669	Harrington	1,056	1:4,288
669	Narayan	1,056	1:4,288
671	North	1,055	1:4,292
671	Rayner	1,055	1:4,292
671	Stringer	1,055	1:4,292
674	Forrest	1,054	1:4,296
675	Finlay	1,052	1:4,304
675	Kent	1,052	1:4,304
677	Chisholm	1,049	1:4,317
678	Carpenter	1,048	1:4,321
679	Peacock	1,047	1:4,325
680	Cowie	1,046	1:4,329
680	Zhou	1,046	1:4,329
682	Hurst	1,043	1:4,342
683	Croft	1,039	1:4,358
683	Gee	1,039	1:4,358
683	Gilmour	1,039	1:4,358
686	McDougall	1,037	1:4,367
687	Coles	1,036	1:4,371
687	McKeown	1,036	1:4,371
689	Rennie	1,035	1:4,375
690	Faulkner	1,034	1:4,379
691	Parry	1,033	1:4,384
692	Goddard	1,030	1:4,396
693	Benson	1,028	1:4,405
694	FitzPatrick	1,025	1:4,418
694	McMahon	1,025	1:4,418
696	Slater	1,024	1:4,422
697	Kendall	1,023	1:4,427
698	Inglis	1,021	1:4,435
698	Shields	1,021	1:4,435
698	Weaver	1,021	1:4,435
701	Collett	1,020	1:4,440
702	Blackburn	1,012	1:4,475
702	Cumming	1,012	1:4,475
702	McCullough	1,012	1:4,475
705	Bentley	1,011	1:4,479
706	Goodman	1,009	1:4,488
707	Rice	1,008	1:4,492
708	Moody	1,006	1:4,501
709	Chandler	1,005	1:4,506
709	Christian	1,005	1:4,506
711	Good	1,004	1:4,510
711	Sheppard	1,004	1:4,510
713	Harwood	1,003	1:4,515
714	Humphries	1,002	1:4,519
715	Riddell	1,000	1:4,528
716	Jenny	999	1:4,533
717	Barron	997	1:4,542
717	Brunton	997	1:4,542
717	Main	997	1:4,542
720	Muller	992	1:4,565
721	Brennan	991	1:4,569
722	Skelton	990	1:4,574
723	Cotton	989	1:4,579
723	Hanna	989	1:4,579
723	Joy	989	1:4,579
723	Sheehan	989	1:4,579
727	Swan	988	1:4,583
728	Strong	987	1:4,588
729	Dickinson	986	1:4,593
729	Rush	986	1:4,593
731	Avery	984	1:4,602
732	Bush	983	1:4,607
733	McCormack	982	1:4,611
733	Stirling	982	1:4,611
735	Farmer	980	1:4,621
735	Houston	980	1:4,621
735	Wakefield	980	1:4,621
738	Joe	979	1:4,625
739	Adam	977	1:4,635
739	Aldridge	977	1:4,635
741	Julian	975	1:4,644
741	Shanks	975	1:4,644
741	Yee	975	1:4,644
744	Bradshaw	974	1:4,649
744	Neill	974	1:4,649
744	Pascoe	974	1:4,649
747	Morrow	971	1:4,664
747	Pringle	971	1:4,664
749	Cotter	969	1:4,673
750	Dempsey	968	1:4,678
751	McNeill	967	1:4,683
752	Marsden	966	1:4,688
752	Reilly	966	1:4,688
754	McEwan	965	1:4,693
755	Horton	964	1:4,697
755	Rankin	964	1:4,697
757	Mathews	962	1:4,707
757	McGowan	962	1:4,707
759	Schofield	961	1:4,712
760	Gilchrist	960	1:4,717
761	Lees	959	1:4,722
761	Lister	959	1:4,722
763	Hawke	958	1:4,727
763	Vickers	958	1:4,727
765	Moffat	957	1:4,732
766	Daniels	955	1:4,742
766	Hitchcock	955	1:4,742
768	Innes	954	1:4,747
769	Batchelor	952	1:4,757
770	David	948	1:4,777
770	Ormsby	948	1:4,777
770	Terry	948	1:4,777
773	Whiting	947	1:4,782
774	Moir	946	1:4,787
775	Tomlinson	945	1:4,792
776	Coates	938	1:4,828
776	McDermott	938	1:4,828
776	Neale	938	1:4,828
779	Chung	937	1:4,833
780	McConnell	934	1:4,848
781	McCulloch	933	1:4,854
782	Lamont	932	1:4,859
782	Thorburn	932	1:4,859
784	Rooney	931	1:4,864
785	Chin	930	1:4,869
786	Barbara	929	1:4,874
787	Sun	926	1:4,890
788	Somerville	925	1:4,895
789	Radford	924	1:4,901
790	Moran	922	1:4,911
791	Hardie	919	1:4,927
791	Rasmussen	919	1:4,927
793	Bowman	918	1:4,933
794	Clement	917	1:4,938
795	Stanton	916	1:4,944
796	Finlayson	914	1:4,954
796	Nguyen	914	1:4,954
798	Coutts	913	1:4,960
798	Dodds	913	1:4,960
798	Waite	913	1:4,960
801	Naidu	912	1:4,965
802	Cartwright	911	1:4,971
803	Patrick	910	1:4,976
803	Storey	910	1:4,976
805	Penny	908	1:4,987
806	Talbot	907	1:4,993
807	Judy	906	1:4,998
807	Xu	906	1:4,998
809	Fulton	901	1:5,026
809	Holloway	901	1:5,026
811	Forster	900	1:5,031
811	Sampson	900	1:5,031
813	Beale	899	1:5,037
814	Galloway	898	1:5,043
815	Moon	896	1:5,054
816	Bowen	895	1:5,060
816	Roper	895	1:5,060
818	Piper	894	1:5,065
819	Fry	893	1:5,071
820	Lu	892	1:5,077
820	Randall	892	1:5,077
822	Tate	891	1:5,082
823	Marks	889	1:5,094
824	Fenwick	887	1:5,105
824	Jansen	887	1:5,105
824	Laird	887	1:5,105
827	Hume	883	1:5,128
828	Trotter	880	1:5,146
829	McNeil	879	1:5,152
829	Thorne	879	1:5,152
829	Tyler	879	1:5,152
832	Sharpe	875	1:5,175
833	Julie	874	1:5,181
834	Hutchison	872	1:5,193
835	Pike	871	1:5,199
836	Ballantyne	870	1:5,205
837	Connell	869	1:5,211
838	Healy	868	1:5,217
838	Owens	868	1:5,217
840	Church	867	1:5,223
840	MacGregor	867	1:5,223
842	Tong	866	1:5,229
843	Bassett	865	1:5,235
844	Cowley	864	1:5,241
844	Fahey	864	1:5,241
844	Melville	864	1:5,241
847	Tanner	863	1:5,247
848	Bryan	862	1:5,253
848	Goldsmith	862	1:5,253
848	Petrie	862	1:5,253
851	Morley	860	1:5,265
852	Clare	859	1:5,272
852	Hodson	859	1:5,272
852	Simons	859	1:5,272
855	Duggan	857	1:5,284
855	Vercoe	857	1:5,284
857	Bremner	856	1:5,290
857	Rowland	856	1:5,290
857	Woolley	856	1:5,290
860	Dwyer	853	1:5,309
861	McGill	852	1:5,315
862	Calvert	849	1:5,334
862	Mathieson	849	1:5,334
862	Priest	849	1:5,334
865	Clifford	848	1:5,340
866	Hollis	846	1:5,353
867	O'Reilly	845	1:5,359
868	Roy	844	1:5,365
869	Dowling	842	1:5,378
869	Waller	842	1:5,378
871	Cavanagh	841	1:5,384
871	Ferris	841	1:5,384
873	Walter	840	1:5,391
874	Gilmore	839	1:5,397
874	Lovell	839	1:5,397
876	Halliday	834	1:5,430
876	Wild	834	1:5,430
878	Brodie	833	1:5,436
878	Hosking	833	1:5,436
880	Daniel	832	1:5,443
881	Galbraith	831	1:5,449
881	Hargreaves	831	1:5,449
883	Humphrey	830	1:5,456
884	Tang	828	1:5,469
885	Frew	826	1:5,482
885	Withers	826	1:5,482
885	Worthington	826	1:5,482
888	Sanderson	825	1:5,489
888	Sutcliffe	825	1:5,489
890	Cave	824	1:5,496
890	Hubbard	824	1:5,496
892	Ho	822	1:5,509
893	Cresswell	821	1:5,516
893	Keane	821	1:5,516
895	Parr	819	1:5,529
895	Wendy	819	1:5,529
897	Easton	818	1:5,536
898	Jill	816	1:5,549
898	Leigh	816	1:5,549
900	Hare	815	1:5,556
900	Lake	815	1:5,556
900	Mooney	815	1:5,556
903	Carol	814	1:5,563
903	Prince	814	1:5,563
905	Grieve	813	1:5,570
905	Templeton	813	1:5,570
907	Denton	812	1:5,577
907	Lancaster	812	1:5,577
909	Crowe	811	1:5,584
909	Eaton	811	1:5,584
909	Naidoo	811	1:5,584
909	Wilkie	811	1:5,584
913	Christine	810	1:5,591
914	Beckett	808	1:5,604
914	Costello	808	1:5,604
914	Gough	808	1:5,604
914	Lau	808	1:5,604
914	Lynn	808	1:5,604
919	Hull	805	1:5,625
919	Langley	805	1:5,625
919	Ram	805	1:5,625
922	Coulter	804	1:5,632
922	Dobbs	804	1:5,632
922	Maguire	804	1:5,632
922	McNaughton	804	1:5,632
926	Broad	803	1:5,639
926	Ray	803	1:5,639
928	Ellison	802	1:5,646
928	Lock	802	1:5,646
930	Brook	801	1:5,653
930	Stratford	801	1:5,653
932	Hooker	800	1:5,660
933	Langford	799	1:5,667
934	Sands	798	1:5,675
935	Cleland	797	1:5,682
936	Richmond	796	1:5,689
937	Howie	795	1:5,696
938	Cheng	794	1:5,703
938	Lawton	794	1:5,703
938	Nichols	794	1:5,703
941	Coombes	793	1:5,710
942	Fong	792	1:5,718
942	Gamble	792	1:5,718
942	McLellan	792	1:5,718
945	Biggs	791	1:5,725
946	Blackmore	789	1:5,739
946	Jo	789	1:5,739
948	Emery	788	1:5,747
948	Kearns	788	1:5,747
950	Davy	787	1:5,754
951	Shannon	786	1:5,761
952	Elder	785	1:5,769
952	England	785	1:5,769
954	Bedford	784	1:5,776
955	Ann	782	1:5,791
955	Sadler	782	1:5,791
957	Whitaker	781	1:5,798
958	Keith	780	1:5,806
959	Neil	779	1:5,813
960	Hutchings	778	1:5,820
960	Maher	778	1:5,820
962	Senior	777	1:5,828
963	Bayliss	776	1:5,835
964	Cummings	774	1:5,851
964	Kyle	774	1:5,851
964	Strachan	774	1:5,851
967	Chappell	773	1:5,858
967	Hawkes	773	1:5,858
969	Brough	772	1:5,866
970	Mulholland	771	1:5,873
970	Walls	771	1:5,873
972	McNabb	770	1:5,881
973	Lilley	769	1:5,889
973	Swain	769	1:5,889
975	Abraham	768	1:5,896
975	Edgar	768	1:5,896
977	Gleeson	767	1:5,904
978	Brooker	766	1:5,912
978	Han	766	1:5,912
978	Hyland	766	1:5,912
981	Elliot	765	1:5,919
982	Courtney	764	1:5,927
982	Lester	764	1:5,927
984	Porteous	763	1:5,935
985	Earl	762	1:5,943
985	Partridge	762	1:5,943
987	Boyes	761	1:5,950
987	Head	761	1:5,950
987	Street	761	1:5,950
990	Hobson	760	1:5,958
990	Rouse	760	1:5,958
992	Delaney	759	1:5,966
992	Hirst	759	1:5,966
992	Linda	759	1:5,966
992	Potts	759	1:5,966
996	Castle	758	1:5,974
996	Gower	758	1:5,974
996	Soper	758	1:5,974
999	Jeffery	757	1:5,982
999	Madden	757	1:5,982
999	Mark	757	1:5,982
999	Nair	757	1:5,982
999	Spooner	757	1:5,982
999	Stark	757	1:5,982