1	Ali	201,328	1:18
2	Yousuf	169,325	1:22
3	Sultan	104,902	1:35
4	Khan	88,727	1:42
5	Gawas	79,115	1:47
6	Al Balushi	59,592	1:62
7	Ramadan	59,359	1:62
8	Saeed	56,944	1:65
9	Singh	55,302	1:67
10	Ahmed	53,815	1:69
11	Kumar	46,569	1:79
12	Nair	43,113	1:86
13	Araba	40,590	1:91
14	Khawar	38,394	1:96
15	Hussain	34,988	1:105
16	Balochia	33,234	1:111
17	Thani	33,174	1:111
18	Varghese	27,102	1:136
19	Raj	26,009	1:142
20	Pillai	23,378	1:158
21	Salim	21,376	1:173
22	Sharma	20,069	1:184
23	Rahman	17,649	1:209
24	El Amery	17,305	1:213
25	Rashid	17,000	1:217
26	Sheikh	15,984	1:231
27	Babu	15,354	1:240
28	Abbas	14,635	1:252
29	Das	14,394	1:256
30	Krishnan	14,306	1:258
31	Amerieh	14,209	1:260
32	Zaidi	13,975	1:264
33	Menon	13,624	1:271
34	Mathew	13,197	1:279
35	Iqbal	11,668	1:316
36	Ramadani	11,617	1:317
37	Patel	11,401	1:323
38	Murad	11,223	1:329
39	Rajan	11,195	1:329
40	Albalushi	10,409	1:354
41	Rao	10,034	1:368
42	Malik	9,887	1:373
43	Jamil	9,692	1:381
44	Mohan	9,516	1:388
45	Rehan	9,214	1:400
46	Bakhsh	9,128	1:404
47	Abdul Latif	9,028	1:409
48	Ansari	8,806	1:419
49	Mohammed	8,750	1:421
50	Ahmad	8,682	1:425
51	Mohamed	8,345	1:442
52	Alam	8,030	1:459
53	Shah	8,025	1:460
54	Shetty	7,909	1:466
55	Muslim	7,872	1:468
56	Al Hinai	7,652	1:482
57	Thomas	7,453	1:495
58	Al-Zadjali	7,335	1:503
59	John	7,332	1:503
59	Shaikh	7,332	1:503
61	Mahmood	7,319	1:504
62	Al Jaafari	7,226	1:510
63	Hameed	7,083	1:521
64	Al Arimiyah	7,081	1:521
65	Dad	6,927	1:532
66	George	6,823	1:541
67	Chacko	6,750	1:546
68	Kannan	6,676	1:552
69	Raya	6,646	1:555
70	Joseph	6,621	1:557
71	Harthy	6,489	1:568
72	Sajwani	6,469	1:570
73	Nambiar	6,308	1:585
74	Siddiqui	6,290	1:586
75	Al Mukhini	6,260	1:589
76	Al-Balushi	6,255	1:590
77	Kurian	6,178	1:597
78	Ramachandran	6,087	1:606
79	Said	5,953	1:620
80	Al Kaabi	5,824	1:633
81	Lal	5,808	1:635
82	Raja	5,798	1:636
83	Hassan	5,757	1:641
84	Al Lawati	5,720	1:645
85	Antony	5,650	1:653
86	Al Jabri	5,591	1:660
87	Al Busaidi	5,569	1:662
88	Al-Mukhneia	5,512	1:669
89	Chandran	5,509	1:669
90	Al Harthy	5,492	1:672
91	Aljafaria	5,490	1:672
92	Narayanan	5,444	1:677
93	Balushi	5,320	1:693
94	Sirai	5,008	1:736
95	Prasad	5,000	1:738
96	Sulaiman	4,923	1:749
97	Raman	4,915	1:750
98	Iyer	4,830	1:764
99	Ghulam	4,828	1:764
100	Muscat	4,824	1:765
101	Joshi	4,819	1:765
102	Hendasy	4,775	1:772
103	Salam	4,765	1:774
104	Rehman	4,763	1:774
105	Fernandes	4,714	1:782
106	Habsi	4,691	1:786
107	Rana	4,655	1:792
108	Al Zadjali	4,608	1:800
109	Perera	4,563	1:808
110	Al-Zadjalieh	4,503	1:819
111	Gupta	4,501	1:819
112	Dsouza	4,455	1:828
113	Al Wahibi	4,453	1:828
114	Al Sananieh	4,416	1:835
115	Basheer	4,412	1:836
116	Abdullah	4,408	1:837
117	Ibrahim	4,371	1:844
118	Baqir	4,370	1:844
119	Abdul	4,340	1:850
120	Al Ghilani	4,332	1:851
121	Amin	4,316	1:854
122	Raza	4,306	1:856
123	Ahamed	4,261	1:866
124	Paul	4,236	1:871
125	Alabri	4,175	1:883
126	Madhavan	4,107	1:898
127	Mirza	4,071	1:906
128	Aziz	4,009	1:920
129	Jose	3,992	1:924
130	Al Rawahi	3,985	1:925
131	Uddin	3,971	1:929
132	Al Sayabi	3,937	1:937
133	Bilal	3,914	1:942
134	Albusaidi	3,900	1:946
135	Raju	3,892	1:948
136	Al-Lawati	3,888	1:949
137	Alzadjali	3,807	1:969
138	Mehta	3,716	1:992
139	Alamri	3,697	1:998
140	Vader	3,655	1:1,009
141	Farsi	3,625	1:1,017
142	Al Jahafi	3,612	1:1,021
143	Al Shabibi	3,568	1:1,034
144	Abraham	3,567	1:1,034
145	Abu	3,526	1:1,046
146	Rahma	3,524	1:1,047
147	Abdul Aziz	3,510	1:1,051
148	El Hassania	3,502	1:1,053
149	Alhabsi	3,433	1:1,074
150	Alhinayiya	3,425	1:1,077
151	Al Sayabiyah	3,349	1:1,101
152	Alhinai	3,276	1:1,126
153	Habib	3,247	1:1,136
154	Vijayan	3,223	1:1,144
155	Khalid	3,202	1:1,152
156	Alfarsi	3,195	1:1,154
157	Alharthy	3,183	1:1,159
158	Al Abri	3,172	1:1,163
159	Jacob	3,146	1:1,172
160	Al-Abri	3,134	1:1,177
161	Aljabri	3,109	1:1,186
162	Mani	3,071	1:1,201
163	Al-Riyami	3,061	1:1,205
164	Akhtar	3,046	1:1,211
165	Shaik	3,045	1:1,211
166	Baamer	3,044	1:1,212
167	D'Souza	3,043	1:1,212
168	Kazi	3,015	1:1,223
169	Saleem	3,012	1:1,224
170	Al-Busaidi	3,003	1:1,228
171	El Hassany	2,988	1:1,234
172	Mishra	2,987	1:1,235
173	Fadel	2,984	1:1,236
174	Al-Harthy	2,948	1:1,251
175	Al Ghilaniyah	2,944	1:1,253
176	Sankar	2,908	1:1,268
177	Ashraf	2,894	1:1,274
178	Gopal	2,879	1:1,281
178	Pasha	2,879	1:1,281
180	Al-Hinai	2,851	1:1,294
181	Naseeb	2,840	1:1,299
182	Hatemieh	2,838	1:1,299
183	Hashmi	2,829	1:1,304
184	Al Habsi	2,819	1:1,308
185	Jain	2,813	1:1,311
186	Rahbi	2,784	1:1,325
187	Al Sanani	2,771	1:1,331
188	Alkindi	2,750	1:1,341
189	Khalasi	2,739	1:1,346
190	Al Amri	2,731	1:1,350
191	Al-Alawi	2,730	1:1,351
192	Nasser	2,659	1:1,387
192	Suresh	2,659	1:1,387
194	Syed	2,658	1:1,387
195	Alalawi	2,639	1:1,397
196	Al Rawas	2,634	1:1,400
197	Almamari	2,627	1:1,404
198	Taya	2,625	1:1,405
199	Cherian	2,622	1:1,407
199	Krishnakumar	2,622	1:1,407
201	Al Masrouriyah	2,620	1:1,408
202	Kulkarni	2,614	1:1,411
203	Shaham	2,611	1:1,412
204	Anwar	2,601	1:1,418
205	Hossain	2,592	1:1,423
206	Al Badi	2,588	1:1,425
207	Islam	2,557	1:1,442
208	Sadiq	2,556	1:1,443
209	Ria	2,537	1:1,454
210	Srinivasan	2,517	1:1,465
211	Javed	2,509	1:1,470
212	Mohammad	2,497	1:1,477
213	Sukumaran	2,494	1:1,479
214	Al Jahafieh	2,478	1:1,488
215	Al-Rawahi	2,469	1:1,494
216	Saleh	2,467	1:1,495
217	Al Shanfari	2,423	1:1,522
218	Al-Latwiya	2,412	1:1,529
219	Verma	2,408	1:1,532
220	Krishna	2,407	1:1,532
221	Ravi	2,405	1:1,533
222	Al Mashani	2,400	1:1,537
223	Farooq	2,391	1:1,542
223	Juma	2,391	1:1,542
225	Joy	2,376	1:1,552
226	Hasan	2,368	1:1,557
227	Roy	2,363	1:1,561
228	Al Farsi	2,362	1:1,561
228	Shankar	2,362	1:1,561
230	Al Kathiri	2,351	1:1,569
231	Al Jabriya	2,346	1:1,572
232	Nayak	2,324	1:1,587
233	Qureshi	2,295	1:1,607
234	Kutty	2,287	1:1,613
235	Habssia	2,255	1:1,635
236	Shahzad	2,250	1:1,639
237	Alrawahi	2,240	1:1,646
238	Mian	2,230	1:1,654
239	Khamis	2,220	1:1,661
240	Moosa	2,218	1:1,663
241	Alhajri	2,207	1:1,671
242	Sariat	2,182	1:1,690
243	Gandhi	2,181	1:1,691
244	Naik	2,164	1:1,704
245	Al Khatria	2,153	1:1,713
246	Zadjali	2,130	1:1,731
247	Philip	2,126	1:1,735
248	Al-Qarniyah	2,122	1:1,738
249	Chauhan	2,119	1:1,740
249	Hamed	2,119	1:1,740
251	Fadhli	2,118	1:1,741
252	Subramanian	2,109	1:1,749
253	Fakir	2,104	1:1,753
254	Alajmi	2,089	1:1,765
255	Zain	2,082	1:1,771
256	Siddique	2,078	1:1,775
257	Rajendran	2,074	1:1,778
258	Al-Amri	2,068	1:1,783
259	Reddy	2,065	1:1,786
260	Aslam	2,059	1:1,791
260	El Sawafi	2,059	1:1,791
260	Yadav	2,059	1:1,791
263	Sunil	2,048	1:1,801
264	Anand	2,047	1:1,802
265	Akbar	2,037	1:1,810
266	Al Ajmi	2,036	1:1,811
267	Ghosh	2,033	1:1,814
268	Torsha	2,030	1:1,817
269	Al-Habsi	2,024	1:1,822
270	Ashar	2,003	1:1,841
271	Al Riyami	2,001	1:1,843
272	Duha	1,994	1:1,850
273	Al Kalbani	1,975	1:1,867
274	Saif	1,967	1:1,875
275	Salem	1,956	1:1,885
276	Raghavan	1,953	1:1,888
277	Panchal	1,946	1:1,895
278	Al Kindi	1,922	1:1,919
279	Allawati	1,918	1:1,923
280	Al Thahli	1,912	1:1,929
281	Al Maghrafy	1,905	1:1,936
282	Allah	1,902	1:1,939
283	Majeed	1,895	1:1,946
284	Al Masrouri	1,892	1:1,949
284	Alsaadi	1,892	1:1,949
286	Al Khatiri	1,887	1:1,954
287	Rai	1,885	1:1,956
288	Al Raisi	1,880	1:1,962
289	Ishaq	1,867	1:1,975
290	Bhatt	1,863	1:1,980
291	Al Azri	1,851	1:1,992
292	Balakrishnan	1,850	1:1,993
293	Al Saadi	1,849	1:1,995
294	Baig	1,848	1:1,996
295	Azam	1,836	1:2,009
296	Al Rashdi	1,823	1:2,023
297	Prakash	1,820	1:2,026
298	Al-Mamari	1,808	1:2,040
299	Chandy	1,804	1:2,044
300	Koshy	1,792	1:2,058
301	Patil	1,787	1:2,064
302	Riyami	1,775	1:2,078
303	Bose	1,774	1:2,079
304	Alwahaibi	1,766	1:2,088
305	Desai	1,765	1:2,090
306	Al Wahaibi	1,760	1:2,095
307	Toubia	1,758	1:2,098
308	Faisal	1,756	1:2,100
309	Hinai	1,751	1:2,106
310	Al Nabhani	1,742	1:2,117
311	Al Hajri	1,739	1:2,121
312	Venugopal	1,738	1:2,122
313	Al Bulushi	1,734	1:2,127
314	Bahader	1,731	1:2,131
315	Alrashdi	1,727	1:2,135
316	Alraisi	1,726	1:2,137
317	Nawaz	1,722	1:2,142
318	Rasheed	1,718	1:2,147
319	Al Barwani	1,716	1:2,149
320	Al Harthi	1,707	1:2,160
321	Al Shariya	1,706	1:2,162
322	Alriyami	1,702	1:2,167
323	Sinha	1,695	1:2,176
324	Ullah	1,690	1:2,182
325	Alhashmi	1,685	1:2,189
325	Alrahbi	1,685	1:2,189
327	Imran	1,671	1:2,207
328	Soban	1,664	1:2,216
329	Alsiyabi	1,652	1:2,232
330	Sane	1,647	1:2,239
331	Al Shizawi	1,639	1:2,250
331	Omar	1,639	1:2,250
333	Varma	1,634	1:2,257
334	Murugan	1,633	1:2,258
335	Baloch	1,631	1:2,261
336	Al-Farsi	1,627	1:2,267
337	Al Kaabiyah	1,626	1:2,268
338	Ismail	1,624	1:2,271
339	Al-Kindi	1,622	1:2,274
340	Al Hadidi	1,614	1:2,285
340	Balfour	1,614	1:2,285
342	Pereira	1,610	1:2,291
343	Al Mamari	1,606	1:2,296
344	Al-Rajhiya	1,600	1:2,305
345	Rasool	1,593	1:2,315
346	Amri	1,590	1:2,319
347	Mehmood	1,589	1:2,321
348	Al Rajhi	1,586	1:2,325
348	Bashir	1,586	1:2,325
350	Ganesan	1,584	1:2,328
351	Albulushi	1,581	1:2,333
352	Abri	1,578	1:2,337
353	Rizvi	1,573	1:2,345
354	Ateeq	1,567	1:2,354
355	Bastia	1,561	1:2,363
356	Rodriguês	1,550	1:2,379
357	Hussein	1,545	1:2,387
358	Pinto	1,541	1:2,393
359	Alawi	1,539	1:2,396
360	Narayan	1,534	1:2,404
360	Prabhakaran	1,534	1:2,404
362	Fernando	1,532	1:2,407
363	Chaudhary	1,527	1:2,415
364	Al Hashmi	1,522	1:2,423
364	Kader	1,522	1:2,423
366	Pandey	1,521	1:2,425
367	Ramakrishnan	1,504	1:2,452
368	Natarajan	1,502	1:2,455
369	Rafiq	1,494	1:2,469
370	Al Ghannbousi	1,493	1:2,470
371	Chakraborty	1,483	1:2,487
372	Lobo	1,476	1:2,499
373	Sebastian	1,474	1:2,502
374	Masood	1,473	1:2,504
375	Sam	1,464	1:2,519
376	Rahim	1,461	1:2,524
377	Albadi	1,456	1:2,533
378	Sarkar	1,448	1:2,547
379	Al Muqaimi	1,446	1:2,550
380	El Hadidi	1,441	1:2,559
381	Al Shuksi	1,439	1:2,563
382	Al-Harthi	1,434	1:2,572
383	Fadilan	1,430	1:2,579
383	Yahyaei	1,430	1:2,579
385	Al Oufia	1,426	1:2,586
386	Muhammad	1,425	1:2,588
387	Al Siyabi	1,415	1:2,606
388	Al Ghaithia	1,412	1:2,612
389	Bhat	1,408	1:2,619
390	Al Alawi	1,406	1:2,623
391	Suleiman	1,405	1:2,625
392	Samuel	1,397	1:2,640
393	Alhosni	1,396	1:2,642
393	Shafi	1,396	1:2,642
395	Daddam	1,393	1:2,648
396	Husain	1,391	1:2,651
397	Francis	1,390	1:2,653
398	Busaidi	1,389	1:2,655
399	Al Busaidia	1,386	1:2,661
400	Mubarak	1,382	1:2,669
401	Al Majarafi	1,379	1:2,674
401	Al-Jabri	1,379	1:2,674
403	Al Nuaimiyah	1,378	1:2,676
403	Deshmukh	1,378	1:2,676
405	Al-Hashmi	1,375	1:2,682
406	Al Rahbi	1,374	1:2,684
407	Sheth	1,367	1:2,698
408	Ram	1,358	1:2,716
409	Panicker	1,353	1:2,726
410	Abdul Majid	1,351	1:2,730
411	Khalil	1,349	1:2,734
412	Itha	1,346	1:2,740
413	Ismaily	1,339	1:2,754
414	Haider	1,337	1:2,758
415	Lawati	1,331	1:2,771
416	Oommen	1,326	1:2,781
417	Biswas	1,325	1:2,783
418	Rashdi	1,318	1:2,798
419	Vasudevan	1,290	1:2,859
420	Al-Wahaibi	1,288	1:2,863
421	Adnan	1,287	1:2,866
421	Rawahi	1,287	1:2,866
423	Al Mashrafi	1,286	1:2,868
424	Alharthi	1,272	1:2,899
425	Abdul Ghafoor	1,270	1:2,904
426	Kamath	1,268	1:2,908
427	Al Shizawia	1,261	1:2,925