1	Rodriguez	147,381	1:27
2	Gonzalez	147,164	1:27
3	Sanchez	69,736	1:56
4	Martinez	66,071	1:59
5	Castillo	64,486	1:61
6	Perez	58,263	1:67
7	Abrego	42,126	1:93
8	Hernandez	40,769	1:96
9	Garcia	37,995	1:103
10	Morales	36,555	1:107
11	Jimenez	34,310	1:114
12	Moreno	33,230	1:118
13	Quintero	31,564	1:124
14	Ortega	31,172	1:126
15	Lopez	30,859	1:127
16	Diaz	29,489	1:133
17	Guerra	28,934	1:135
18	Miranda	27,254	1:144
19	Mendoza	27,234	1:144
20	Gomez	26,176	1:149
21	Herrera	25,433	1:154
22	Cedeño	25,158	1:156
23	Batista	23,897	1:164
24	Santos	23,826	1:164
25	Caballero	23,678	1:165
26	Vasquez	23,357	1:167
27	Rivera	22,944	1:171
28	Valdes	22,220	1:176
29	Vega	22,031	1:178
30	de Leon	21,503	1:182
31	Rios	20,852	1:188
32	Nuñez	19,946	1:196
33	Flores	19,829	1:197
34	Ramos	19,820	1:197
35	Aguilar	19,405	1:202
36	Muñoz	18,994	1:206
37	Villarreal	18,426	1:212
38	Espinosa	18,384	1:213
39	Dominguez	18,324	1:214
40	Pineda	18,113	1:216
41	Torres	18,099	1:216
42	de Gracia	17,573	1:223
43	Ruiz	17,482	1:224
44	Gutierrez	16,834	1:232
45	Palacio	16,770	1:233
46	Vargas	16,240	1:241
47	Vergara	15,664	1:250
48	Reyes	15,550	1:252
49	Montenegro	15,020	1:260
50	Delgado	14,349	1:273
51	Barria	14,307	1:273
52	Montezuma	14,182	1:276
53	Navarro	13,863	1:282
54	Moran	13,727	1:285
55	Ortiz	13,726	1:285
56	Arauz	13,696	1:286
57	Serrano	13,562	1:288
58	Bonilla	13,414	1:292
59	Atencio	13,282	1:295
60	Acosta	12,689	1:308
61	Cruz	12,614	1:310
62	Santo	12,409	1:315
63	Fernandez	12,334	1:317
64	Pinto	12,093	1:324
65	Solis	11,604	1:337
66	Concepcion	11,448	1:342
67	Santamaria	11,444	1:342
68	Pimentel	11,058	1:354
69	Castro	10,965	1:357
70	Jaen	10,856	1:360
71	Alvarado	10,675	1:366
72	Medina	10,637	1:368
73	Pinzon	10,582	1:370
74	Guevara	10,491	1:373
75	Samaniego	10,429	1:375
76	Avila	10,353	1:378
77	Murillo	9,866	1:397
78	Cordoba	9,797	1:399
79	Barrios	9,671	1:405
80	Smith	9,602	1:407
81	Camarena	9,414	1:416
82	Samudio	9,303	1:421
83	Marin	9,255	1:423
84	Chavez	9,057	1:432
85	Bernal	9,028	1:433
86	Saldaña	8,921	1:439
87	Salazar	8,874	1:441
88	Soto	8,845	1:442
89	Sanjur	8,697	1:450
90	Rojas	8,675	1:451
91	Mojica	8,645	1:453
92	Romero	8,603	1:455
93	Aparicio	8,545	1:458
94	Jaramillo	8,411	1:465
95	Gallardo	8,320	1:470
96	Pitti	8,171	1:479
97	Campos	8,100	1:483
98	Bejerano	8,076	1:484
99	Urriola	8,036	1:487
100	Madrid	7,997	1:489
101	Alvarez	7,877	1:497
102	Fuentes	7,870	1:497
103	Franco	7,803	1:501
104	Montero	7,758	1:504
105	Rivas	7,674	1:510
106	Tuñon	7,198	1:544
107	Araúz	7,190	1:544
108	Guerrero	7,101	1:551
109	Mendez	7,066	1:554
110	Velasquez	7,009	1:558
111	Arosemena	6,963	1:562
112	Lorenzo	6,948	1:563
113	Peralta	6,917	1:566
114	Aguirre	6,896	1:567
115	Escobar	6,828	1:573
116	Arias	6,781	1:577
117	Lezcano	6,723	1:582
118	Tejada	6,656	1:588
119	Santana	6,626	1:590
120	Gil	6,615	1:591
121	Quiroz	6,522	1:600
122	Carpintero	6,381	1:613
123	Ramirez	6,250	1:626
124	Cerrud	6,248	1:626
125	Saavedra	6,218	1:629
126	Calderon	6,072	1:644
127	Hidalgo	6,004	1:652
128	Quiros	5,992	1:653
129	Peña	5,991	1:653
130	Arcia	5,903	1:663
131	Bethancourt	5,780	1:677
132	Palacios	5,709	1:685
133	Caceres	5,682	1:689
134	Cardenas	5,648	1:693
135	Ureña	5,635	1:694
136	Nieto	5,604	1:698
137	Chiru	5,600	1:699
138	Camaño	5,571	1:702
139	Magallon	5,556	1:704
140	Alveo	5,537	1:707
141	Lasso	5,487	1:713
142	Cortes	5,485	1:713
143	Camargo	5,443	1:719
144	Beitia	5,426	1:721
145	Arrocha	5,413	1:723
146	Gaitan	5,353	1:731
147	Almanza	5,313	1:736
148	Valencia	5,276	1:742
149	Osorio	5,255	1:744
150	de La Cruz	5,254	1:745
151	Cortez	5,148	1:760
152	Carrera	5,132	1:762
153	Robles	5,039	1:776
154	Coronado	4,941	1:792
155	Beker	4,809	1:814
156	Baker	4,783	1:818
157	Mosquera	4,770	1:820
158	Hurtado	4,746	1:824
159	Brown	4,726	1:828
160	Figueroa	4,694	1:833
161	Ibarra	4,681	1:836
162	Carrasco	4,673	1:837
163	Ojo	4,649	1:842
164	Gordon	4,620	1:847
165	Molina	4,572	1:856
166	Melendez	4,376	1:894
167	Chavarria	4,346	1:900
168	del Cid	4,328	1:904
169	Cubilla	4,301	1:910
170	Mendieta	4,271	1:916
171	Galvez	4,270	1:916
172	Espinoza	4,267	1:917
173	Toribio	4,228	1:925
174	Frias	4,212	1:929
175	Zambrano	4,150	1:943
176	Espino	4,148	1:943
177	Prado	4,121	1:949
178	Tenorio	4,099	1:954
179	Benitez	4,081	1:959
180	Salinas	4,052	1:966
181	Trejos	4,043	1:968
182	Contreras	3,997	1:979
183	Quiel	3,967	1:986
184	Henriquez	3,962	1:987
185	Rangel	3,909	1:1,001
186	Salina	3,861	1:1,013
187	Cabrera	3,858	1:1,014
188	Acevedo	3,695	1:1,059
189	Mora	3,666	1:1,067
190	Duarte	3,628	1:1,078
191	Williams	3,614	1:1,083
192	Saenz	3,607	1:1,085
193	Adames	3,573	1:1,095
194	Cano	3,569	1:1,096
195	Garrido	3,542	1:1,105
196	Valderrama	3,526	1:1,110
197	Rosales	3,521	1:1,111
198	Jordan	3,474	1:1,126
199	Meneses	3,444	1:1,136
200	Alonso	3,433	1:1,140
201	Ayala	3,429	1:1,141
202	González	3,400	1:1,151
203	Morris	3,393	1:1,153
204	Juarez	3,361	1:1,164
205	Barrera	3,329	1:1,175
206	Ceballos	3,305	1:1,184
207	Castrellon	3,254	1:1,202
208	Otero	3,250	1:1,204
209	Guillen	3,208	1:1,220
210	Mitre	3,183	1:1,229
211	Pitty	3,160	1:1,238
212	Marquez	3,153	1:1,241
213	Andrade	3,120	1:1,254
214	Pinilla	3,117	1:1,255
215	Guardia	3,088	1:1,267
216	Robinson	3,071	1:1,274
217	Sandoval	3,032	1:1,290
218	Guzman	3,012	1:1,299
219	Canto	3,002	1:1,303
220	Garay	2,999	1:1,305
221	Mejia	2,991	1:1,308
222	Jurado	2,967	1:1,319
223	Zapata	2,951	1:1,326
224	Correa	2,931	1:1,335
225	Bustamante	2,911	1:1,344
226	Rosas	2,887	1:1,355
227	Gondola	2,886	1:1,356
228	Almengor	2,859	1:1,368
229	Lara	2,858	1:1,369
230	Quijada	2,849	1:1,373
231	Chacon	2,824	1:1,385
232	Ledezma	2,813	1:1,391
233	Pino	2,785	1:1,405
234	Quintana	2,780	1:1,407
235	Chong	2,749	1:1,423
236	Escudero	2,732	1:1,432
237	Barahona	2,727	1:1,435
238	Cisneros	2,726	1:1,435
239	Valdez	2,724	1:1,436
240	Lee	2,711	1:1,443
241	Saez	2,701	1:1,448
242	Ovalle	2,693	1:1,453
243	Bravo	2,681	1:1,459
243	Vejerano	2,681	1:1,459
245	Serracin	2,675	1:1,463
246	Aizprua	2,668	1:1,466
247	Agrazal	2,655	1:1,474
248	Rodríguez	2,637	1:1,484
249	Carrillo	2,635	1:1,485
250	Suira	2,633	1:1,486
251	Zuñiga	2,603	1:1,503
252	Taylor	2,601	1:1,504
253	Villarreta	2,562	1:1,527
254	Alonzo	2,556	1:1,531
255	Chen	2,507	1:1,561
256	Tapia	2,495	1:1,568
257	Thomas	2,489	1:1,572
258	Polanco	2,484	1:1,575
259	Castillero	2,459	1:1,591
260	Justavino	2,455	1:1,594
261	Palma	2,454	1:1,594
262	Pardo	2,450	1:1,597
263	Peñalba	2,442	1:1,602
264	Estrada	2,422	1:1,615
265	Marciaga	2,421	1:1,616
266	Becerra	2,403	1:1,628
267	Melgar	2,401	1:1,629
268	Montilla	2,399	1:1,631
269	Carrion	2,380	1:1,644
270	Trujillo	2,364	1:1,655
271	Aviles	2,361	1:1,657
272	Bermudez	2,309	1:1,694
273	Zurdo	2,305	1:1,697
274	Reina	2,301	1:1,700
275	Villagra	2,300	1:1,701
276	Ballesteros	2,299	1:1,702
277	Patiño	2,298	1:1,702
278	Arjona	2,282	1:1,714
279	Macias	2,268	1:1,725
280	Tejeira	2,261	1:1,730
281	Wong	2,257	1:1,733
282	Zamora	2,224	1:1,759
283	Santiago	2,207	1:1,773
284	de La Rosa	2,205	1:1,774
285	Paredes	2,181	1:1,794
286	Grajales	2,165	1:1,807
287	Padilla	2,162	1:1,810
288	Troya	2,155	1:1,815
289	Barba	2,153	1:1,817
290	Tello	2,149	1:1,821
291	Navas	2,146	1:1,823
292	Mena	2,133	1:1,834
293	Caicedo	2,125	1:1,841
294	Candanedo	2,117	1:1,848
295	Giron	2,113	1:1,852
296	Cuevas	2,104	1:1,859
297	Asprilla	2,100	1:1,863
298	Carvajal	2,076	1:1,885
299	Paz	2,069	1:1,891
300	Ponce	2,065	1:1,895
301	Alabarca	2,040	1:1,918
302	Perea	2,035	1:1,922
303	Sosa	2,029	1:1,928
304	Salas	2,021	1:1,936
305	Quezada	2,011	1:1,945
306	Barsallo	2,007	1:1,949
307	Luna	1,986	1:1,970
308	del Rosario	1,981	1:1,975
309	Calvo	1,962	1:1,994
310	Corrales	1,919	1:2,039
311	Ayarza	1,892	1:2,068
312	Pacheco	1,888	1:2,072
313	Arroyo	1,880	1:2,081
314	Amaya	1,870	1:2,092
315	Chanis	1,865	1:2,098
316	Solano	1,833	1:2,134
317	Blanco	1,808	1:2,164
318	Bosquez	1,807	1:2,165
319	Chang	1,802	1:2,171
320	Reyna	1,795	1:2,180
321	Segura	1,792	1:2,183
322	Davis	1,785	1:2,192
323	Vigil	1,763	1:2,219
324	Cherigo	1,761	1:2,222
324	Suarez	1,761	1:2,222
326	Esquivel	1,755	1:2,229
327	Bordones	1,754	1:2,230
328	Amador	1,740	1:2,248
329	Tugri	1,733	1:2,258
330	Arenas	1,725	1:2,268
331	Arango	1,716	1:2,280
332	Rudas	1,714	1:2,283
333	Machado	1,700	1:2,301
334	Miller	1,689	1:2,316
335	Iglesias	1,684	1:2,323
336	Julio	1,678	1:2,332
337	Monterrey	1,669	1:2,344
338	Poveda	1,666	1:2,348
339	Chiari	1,658	1:2,360
340	Estribi	1,656	1:2,362
341	Anderson	1,649	1:2,373
342	Viquez	1,648	1:2,374
343	Salcedo	1,647	1:2,375
344	Montes	1,637	1:2,390
345	Silva	1,624	1:2,409
346	Alfaro	1,611	1:2,428
347	Bultron	1,600	1:2,445
348	Molinar	1,599	1:2,447
349	Dixon	1,593	1:2,456
349	Lewis	1,593	1:2,456
351	Arena	1,580	1:2,476
352	Polo	1,578	1:2,479
353	Centeno	1,574	1:2,486
354	Bellido	1,567	1:2,497
355	Caraballo	1,554	1:2,518
356	Cornejo	1,552	1:2,521
357	Linares	1,538	1:2,544
358	Yanguez	1,537	1:2,545
359	Wilson	1,536	1:2,547
360	Johnson	1,518	1:2,577
361	Torrero	1,517	1:2,579
362	Segundo	1,498	1:2,612
363	Rueda	1,491	1:2,624
364	Archibold	1,478	1:2,647
365	Duran	1,470	1:2,661
366	de Sedas	1,469	1:2,663
367	Alba	1,467	1:2,667
368	Buitrago	1,458	1:2,683
369	Marquinez	1,446	1:2,706
370	Berrio	1,438	1:2,721
371	Armuelles	1,433	1:2,730
372	Amores	1,427	1:2,742
373	Ng	1,423	1:2,749
374	Tamayo	1,421	1:2,753
375	Campbell	1,419	1:2,757
376	Garces	1,410	1:2,775
377	Olmos	1,409	1:2,777
378	Burgos	1,398	1:2,798
378	Rovira	1,398	1:2,798
378	Vanegas	1,398	1:2,798
381	Mela	1,392	1:2,811
382	Thompson	1,388	1:2,819
383	Sire	1,385	1:2,825
384	Young	1,368	1:2,860
385	Mariscal	1,348	1:2,902
386	Carrasquilla	1,343	1:2,913
387	Varela	1,340	1:2,920
388	Berrugate	1,331	1:2,939
389	Chami	1,329	1:2,944
390	Garibaldi	1,327	1:2,948
391	Leon	1,320	1:2,964
391	Lombardo	1,320	1:2,964
393	Corella	1,318	1:2,968
394	Victoria	1,313	1:2,980
395	Oses	1,305	1:2,998
396	Sánchez	1,304	1:3,000
396	Villalaz	1,304	1:3,000
398	Venado	1,283	1:3,049
399	Clara	1,282	1:3,052
399	Florez	1,282	1:3,052
399	Noriega	1,282	1:3,052
402	Degracia	1,280	1:3,056
403	Pereira	1,276	1:3,066
404	Saucedo	1,272	1:3,076
405	Aranda	1,271	1:3,078
406	Villamil	1,259	1:3,107
407	Hall	1,257	1:3,112
408	Higuera	1,254	1:3,120
408	Yau	1,254	1:3,120
410	Ulloa	1,247	1:3,137
411	Menchaca	1,236	1:3,165
412	Álvarez	1,226	1:3,191
413	Dogirama	1,213	1:3,225
414	Bedoya	1,201	1:3,258
415	Villalobos	1,195	1:3,274
416	Castañeda	1,182	1:3,310
417	Arguelles	1,176	1:3,327
418	Justiniani	1,175	1:3,330
419	Phillips	1,173	1:3,335
420	Olmedo	1,169	1:3,347
421	Lucero	1,168	1:3,350
422	Boniche	1,167	1:3,352
423	Gracia	1,161	1:3,370
424	Duque	1,151	1:3,399
424	Henry	1,151	1:3,399
426	Chan	1,145	1:3,417
427	Martínez	1,142	1:3,426
428	Cianca	1,140	1:3,432
428	Villar	1,140	1:3,432
430	Olivares	1,137	1:3,441
431	Valdespino	1,131	1:3,459
432	Harris	1,121	1:3,490
433	Broce	1,114	1:3,512
434	Jones	1,110	1:3,525
435	Obando	1,104	1:3,544
436	Gonzales	1,103	1:3,547
437	Barragan	1,102	1:3,550
438	Lizondro	1,096	1:3,570
438	Silvera	1,096	1:3,570
440	Urrutia	1,094	1:3,576
441	Fonseca	1,093	1:3,579
442	Barranco	1,087	1:3,599
443	Francis	1,083	1:3,612
444	Chung	1,080	1:3,622
444	Loo	1,080	1:3,622
446	Puga	1,079	1:3,626
447	Aizpurua	1,071	1:3,653
448	Coba	1,058	1:3,698
449	Peñaloza	1,057	1:3,701
450	Porras	1,050	1:3,726
451	Zarate	1,049	1:3,730
452	Scott	1,046	1:3,740
453	Lozano	1,042	1:3,755
454	Castrejon	1,041	1:3,758
455	Maure	1,040	1:3,762
456	Maldonado	1,035	1:3,780
457	Allen	1,032	1:3,791
458	Monrroy	1,029	1:3,802
459	Godoy	1,024	1:3,821
460	Aleman	1,023	1:3,824
460	Calles	1,023	1:3,824
460	Crespo	1,023	1:3,824
460	Pascual	1,023	1:3,824
464	Gudiño	1,021	1:3,832
464	Villamonte	1,021	1:3,832
466	Corro	1,020	1:3,836
467	Morgan	1,018	1:3,843
468	Degaiza	1,015	1:3,854
468	Hinestroza	1,015	1:3,854
470	Abadia	1,014	1:3,858
471	Angulo	1,013	1:3,862
472	Riquelme	1,008	1:3,881
473	Alain	1,006	1:3,889
474	Fajardo	1,004	1:3,897
475	Grant	1,001	1:3,908
476	Renteria	998	1:3,920
477	Matos	993	1:3,940
477	Mudarra	993	1:3,940
479	Murgas	991	1:3,948
480	Sevillano	985	1:3,972
481	Bethancourth	984	1:3,976
482	Gill	983	1:3,980
482	Rosario	983	1:3,980
484	Alfonso	973	1:4,021
485	Marcucci	972	1:4,025
486	Edwards	971	1:4,029
486	Iturralde	971	1:4,029
488	Falcon	970	1:4,033
489	Ellis	967	1:4,046
489	Tocamo	967	1:4,046
491	Apolayo	965	1:4,054
492	Botello	964	1:4,058
493	Martin	960	1:4,075
494	Green	958	1:4,084
495	Javilla	957	1:4,088
495	Pérez	957	1:4,088
497	Duncan	956	1:4,092
498	Echeverria	955	1:4,097
499	Watson	953	1:4,105
500	Hooker	951	1:4,114
501	Trotman	950	1:4,118
502	Ovalles	943	1:4,149
503	Yañez	941	1:4,158
504	Carrizo	940	1:4,162
504	Pedroza	940	1:4,162
506	Abrigo	930	1:4,207
507	King	926	1:4,225
508	Casas	925	1:4,229
509	Ellington	924	1:4,234
509	Flaco	924	1:4,234
511	Obaldia	919	1:4,257
512	Sierra	915	1:4,276
513	Brenes	910	1:4,299
514	Cumbrera	903	1:4,333
515	Bejarano	901	1:4,342
516	Monroy	897	1:4,361
517	Bolivar	896	1:4,366
517	Centella	896	1:4,366
519	Aguila	895	1:4,371
520	Mariano	894	1:4,376
521	Cajar	891	1:4,391
522	Garibaldo	889	1:4,401
523	Grimaldo	886	1:4,416
524	Sandoya	882	1:4,436
525	Gaona	880	1:4,446
526	Vallarino	877	1:4,461
526	Velasco	877	1:4,461
528	Mayorga	876	1:4,466
529	Velarde	874	1:4,476
530	Fong	873	1:4,481
531	Ariza	866	1:4,518
531	Cansari	866	1:4,518
533	Acuña	863	1:4,533
534	Fabrega	857	1:4,565
535	Orozco	856	1:4,570
536	Clarke	852	1:4,592
537	Andrades	851	1:4,597
537	Mata	851	1:4,597
539	James	850	1:4,603
539	Stanziola	850	1:4,603
541	Santander	846	1:4,624
542	de La Guardia	843	1:4,641
543	de Frias	842	1:4,646
544	Andrion	841	1:4,652
545	Guerrel	835	1:4,685
546	Boyd	831	1:4,708
547	Melo	830	1:4,714
548	Berrocal	829	1:4,719
548	de La Espada	829	1:4,719
548	Valdés	829	1:4,719
551	Escala	827	1:4,731
552	Bazan	824	1:4,748
553	Urieta	823	1:4,754
554	Ho	822	1:4,759
555	Cueto	819	1:4,777
556	Gómez	818	1:4,783
557	Real	816	1:4,794
558	Singh	815	1:4,800
559	Machuca	811	1:4,824
560	Valenzuela	809	1:4,836
561	Lam	806	1:4,854
562	Lay	804	1:4,866
563	Pascacio	802	1:4,878
564	Barroso	799	1:4,896
565	Portugal	793	1:4,933
566	Ardines	784	1:4,990
566	White	784	1:4,990
568	Chu	783	1:4,996
568	Ibarguen	783	1:4,996
570	Virola	782	1:5,003
571	Mitchell	779	1:5,022
572	Ballestero	774	1:5,055
572	Sucre	774	1:5,055
574	Bacorizo	773	1:5,061
574	Benavides	773	1:5,061
576	Barrigon	772	1:5,068
577	Vernaza	770	1:5,081
578	Zarco	767	1:5,101
579	de Los Rios	764	1:5,121
580	Cervantes	761	1:5,141
580	Graell	761	1:5,141
582	Small	760	1:5,148
583	Aponte	759	1:5,154
584	Escalante	758	1:5,161
584	Ordoñez	758	1:5,161
584	Reid	758	1:5,161
587	Joseph	755	1:5,182
588	Labrador	753	1:5,196
589	Conte	751	1:5,209
589	Nelson	751	1:5,209
591	Esturain	749	1:5,223
591	Gallego	749	1:5,223
593	Zurita	748	1:5,230
594	Barcenas	747	1:5,237
595	Cueva	745	1:5,251
596	Valdivieso	744	1:5,258
597	Velez	741	1:5,280
598	Soriano	740	1:5,287
599	Hernández	739	1:5,294
599	Villanueva	739	1:5,294
601	Quijano	737	1:5,308
602	Huertas	735	1:5,323
602	Rubio	735	1:5,323
604	Bocanegra	732	1:5,345
604	Tejedor	732	1:5,345
606	Collado	729	1:5,367
606	Ostia	729	1:5,367
608	Grenald	728	1:5,374
609	Caisamo	726	1:5,389
610	Luque	724	1:5,404
610	Marmolejo	724	1:5,404
612	Govea	719	1:5,441
612	Lozada	719	1:5,441
614	Barraza	717	1:5,456
614	Santimateo	717	1:5,456
616	Aguilera	716	1:5,464
617	Bailey	714	1:5,479
618	Arboleda	713	1:5,487
618	Molino	713	1:5,487
618	Rujano	713	1:5,487
621	Rose	712	1:5,495
622	Preciado	711	1:5,502
623	Casasola	710	1:5,510
624	Meza	707	1:5,534
625	Levy	706	1:5,541
626	Dutary	705	1:5,549
627	Agudo	704	1:5,557
628	Cedeo	702	1:5,573
629	Zeballos	701	1:5,581
630	Icaza	700	1:5,589
631	Cerceño	698	1:5,605
632	Cuesta	697	1:5,613
632	Herazo	697	1:5,613
634	Villa	689	1:5,678
635	Oliveros	688	1:5,686
636	Chifundo	687	1:5,695
637	Him	684	1:5,720
638	Villegas	683	1:5,728
639	Ruiloba	682	1:5,736
640	Sousa	681	1:5,745
641	Aldeano	679	1:5,762
642	Achurra	678	1:5,770
643	Lima	676	1:5,787
644	Banda	675	1:5,796
644	Forbes	675	1:5,796
646	Avecilla	674	1:5,805
646	Sarmiento	674	1:5,805
648	de Hoyos	673	1:5,813
648	Loaiza	673	1:5,813
648	Selles	673	1:5,813
651	Moore	671	1:5,830
652	Evans	669	1:5,848
653	Rengifo	667	1:5,865
654	Vallejos	665	1:5,883
655	Montoya	664	1:5,892
656	Bennett	663	1:5,901
657	Foster	661	1:5,919
658	Cuadra	660	1:5,928
659	Jiménez	658	1:5,946
660	Restrepo	656	1:5,964
661	Villaverde	655	1:5,973
662	Araya	654	1:5,982
662	García	654	1:5,982
664	Richards	652	1:6,000
665	Galvan	651	1:6,010
666	Membache	650	1:6,019
666	Mercado	650	1:6,019
666	Powell	650	1:6,019
669	Barrias	649	1:6,028
669	Gamboa	649	1:6,028
671	Alarcon	648	1:6,037
672	Tovar	647	1:6,047
673	Baules	646	1:6,056
674	Carranza	639	1:6,122
674	Cerezo	639	1:6,122
676	Cordero	636	1:6,151
677	Guainora	635	1:6,161
677	Walker	635	1:6,161
679	Guardado	633	1:6,181
680	Chuito	632	1:6,190
680	Wright	632	1:6,190
682	Ochoa	630	1:6,210
683	Forero	628	1:6,230
684	Campines	627	1:6,240
685	Baloy	622	1:6,290
686	Medianero	621	1:6,300
687	Kelly	618	1:6,331
688	Cheng	617	1:6,341
689	Antunez	616	1:6,351
689	Sam	616	1:6,351
689	Uribe	616	1:6,351
692	Beltran	614	1:6,372
692	Bryan	614	1:6,372
694	Leones	611	1:6,403
695	Carreño	610	1:6,414
696	Bello	607	1:6,445
697	Olivardia	605	1:6,467
698	Londoño	604	1:6,477
699	Howard	601	1:6,510
700	Panezo	600	1:6,520
700	Stewart	600	1:6,520
702	Filos	599	1:6,531
703	Cañizales	598	1:6,542
703	Echevers	598	1:6,542
705	Clark	595	1:6,575
706	Añino	589	1:6,642
707	Salado	588	1:6,654
708	Cohen	585	1:6,688
709	Galindo	584	1:6,699
710	Gantes	580	1:6,745
710	Jose	580	1:6,745
710	Zorrilla	580	1:6,745
713	Roman	578	1:6,769
713	Rosero	578	1:6,769
715	Vidal	577	1:6,780
716	Lau	574	1:6,816
717	Lino	573	1:6,828
717	Villalba	573	1:6,828
719	Hudson	571	1:6,852
720	del Mar	570	1:6,864
721	Montalvo	569	1:6,876
722	Brathwaite	567	1:6,900
723	Camacho	566	1:6,912
723	Vera	566	1:6,912
725	Isaza	564	1:6,937
726	Sagel	561	1:6,974
727	Ford	557	1:7,024
728	Roberts	555	1:7,049
729	Chambers	550	1:7,113
729	Franceschi	550	1:7,113
731	Catuy	549	1:7,126
732	Orocu	548	1:7,139
733	Mancilla	546	1:7,165
734	Teran	544	1:7,192
735	Avendaño	543	1:7,205
735	Chin	543	1:7,205
735	Mock	543	1:7,205
738	Oda	542	1:7,218
739	Denis	541	1:7,232
739	Urrunaga	541	1:7,232
741	Badillo	540	1:7,245
741	Coronel	540	1:7,245
743	Carles	539	1:7,258
743	Casama	539	1:7,258
745	Sabugara	538	1:7,272
746	Donado	537	1:7,285
747	de Obaldia	536	1:7,299
748	Ríos	535	1:7,313
749	Carmona	534	1:7,326
750	Solanilla	531	1:7,368
751	Escartin	530	1:7,382
751	Laguna	530	1:7,382
751	Mina	530	1:7,382
754	Alleyne	529	1:7,396
754	Martez	529	1:7,396
756	Araba	528	1:7,410
756	Blandon	528	1:7,410
756	Díaz	528	1:7,410
756	Valverde	528	1:7,410
760	Betegon	525	1:7,452
761	Hawkins	524	1:7,466
761	Prestan	524	1:7,466
761	Quiñones	524	1:7,466
764	Arce	522	1:7,495
765	McLean	519	1:7,538
765	Veliz	519	1:7,538
767	Esquina	518	1:7,553
768	Arrieta	515	1:7,597
769	Olivero	514	1:7,611
769	Vanega	514	1:7,611
771	Cabezon	511	1:7,656
771	Dimas	511	1:7,656
771	Griffith	511	1:7,656
774	Cardoze	508	1:7,701
775	Botacio	506	1:7,732
775	Moya	506	1:7,732
777	Chamorro	505	1:7,747
777	Chaverra	505	1:7,747
779	Ubarte	501	1:7,809
780	Deago	499	1:7,840
780	Diez	499	1:7,840
780	Wood	499	1:7,840
783	Barnett	497	1:7,872
784	Alcedo	496	1:7,888
784	Berroa	496	1:7,888
784	Cordova	496	1:7,888
787	Gobea	495	1:7,904
787	Medrano	495	1:7,904
787	Ocaña	495	1:7,904
790	Jovane	494	1:7,920
790	Salgado	494	1:7,920
792	Troetsch	493	1:7,936
793	Borbua	489	1:8,001
793	Charles	489	1:8,001
795	Alzamora	487	1:8,033
795	Douglas	487	1:8,033
795	Tristan	487	1:8,033
798	Staff	486	1:8,050
799	Santizo	485	1:8,067
800	Gongora	484	1:8,083
800	Naranjo	484	1:8,083
802	Becker	482	1:8,117
802	Castroverde	482	1:8,117
802	Niño	482	1:8,117
805	McKenzie	481	1:8,134
806	Hill	479	1:8,168
807	Cañate	478	1:8,185
807	Iguala	478	1:8,185
809	Anguizola	477	1:8,202
809	Araujo	477	1:8,202
809	Lucas	477	1:8,202
812	Vejarano	474	1:8,254
813	Burke	473	1:8,271
813	Gordillo	473	1:8,271
815	Sibala	472	1:8,289
815	Visuetti	472	1:8,289
817	Rodrguez	471	1:8,306
817	Sinclair	471	1:8,306
819	Corpas	469	1:8,342
819	Murray	469	1:8,342
819	Simpson	469	1:8,342
822	Cases	468	1:8,360
823	de La Torre	466	1:8,395
824	Rico	462	1:8,468
825	Stevenson	460	1:8,505
826	McFarlane	459	1:8,523
827	Alexander	458	1:8,542
827	Carcamo	458	1:8,542
827	Casis	458	1:8,542
827	Septimo	458	1:8,542
831	Campo	457	1:8,561
832	Samuels	455	1:8,598
833	Donoso	454	1:8,617
833	Fruto	454	1:8,617
835	Cigarruista	453	1:8,636
836	Checa	447	1:8,752
837	Gittens	446	1:8,772
837	Pedrol	446	1:8,772
839	Frago	443	1:8,831
840	Ricord	442	1:8,851
840	Sanapi	442	1:8,851
840	Yángüez	442	1:8,851
843	Berguido	440	1:8,891
843	Collins	440	1:8,891
845	Cunningham	438	1:8,932
845	Patel	438	1:8,932
847	Palomino	436	1:8,973
848	Gibbs	435	1:8,994
849	Dean	434	1:9,014
850	Salvatierra	433	1:9,035
851	Navarrete	432	1:9,056
852	Arquiñez	431	1:9,077
853	Best	430	1:9,098
854	Briceño	429	1:9,119
855	Sencion	427	1:9,162
856	Elizondro	424	1:9,227
856	Llerena	424	1:9,227
858	Menacho	423	1:9,249
858	Miro	423	1:9,249
860	Olea	422	1:9,271
860	Parra	422	1:9,271
862	Sobenis	421	1:9,293
863	Ariano	420	1:9,315
864	Famania	419	1:9,337
865	Blake	418	1:9,359
865	Branda	418	1:9,359
865	Luo	418	1:9,359
865	López	418	1:9,359
869	Ferrer	415	1:9,427
869	Sanguillen	415	1:9,427
871	Guizado	413	1:9,473
872	Prescott	412	1:9,496
873	Lindo	410	1:9,542
874	Portillo	409	1:9,565
874	Visuete	409	1:9,565
876	Duartes	407	1:9,612
877	Marcusi	406	1:9,636
877	Maxwell	406	1:9,636
879	Valle	405	1:9,660
880	Ibañez	404	1:9,684
881	Marshall	403	1:9,708
881	Pablo	403	1:9,708
883	Barrett	402	1:9,732
883	Pinzón	402	1:9,732
885	Bernard	401	1:9,756
885	Howell	401	1:9,756
885	Macho	401	1:9,756
888	Parris	400	1:9,781
889	Trottman	399	1:9,805
890	Andreve	397	1:9,855
891	Jaime	396	1:9,879
892	Baso	395	1:9,904
893	Fung	394	1:9,930
893	Manzane	394	1:9,930
895	Callender	393	1:9,955
896	del Rio	392	1:9,980
896	Knight	392	1:9,980
898	Liao	391	1:10,006
898	Mepaquito	391	1:10,006
900	Choy	388	1:10,083
901	Garzon	386	1:10,135
901	McKay	386	1:10,135
903	Binns	385	1:10,162
903	Quintanar	385	1:10,162
905	Martes	383	1:10,215
906	Cepeda	382	1:10,242
906	Fossatti	382	1:10,242
906	Oro	382	1:10,242
906	Ospino	382	1:10,242
910	Concepción	380	1:10,295
910	Navalo	380	1:10,295
910	Rowe	380	1:10,295
913	Llorente	379	1:10,323
913	Pinillo	379	1:10,323
913	Zarzavilla	379	1:10,323
916	Beckford	378	1:10,350
916	Davila	378	1:10,350
916	George	378	1:10,350
916	Moscoso	378	1:10,350
920	Garcia de Paredes	377	1:10,377
920	Lemos	377	1:10,377
922	Ferguson	376	1:10,405
922	Lowe	376	1:10,405
924	Sotillo	375	1:10,433
925	Bolaños	374	1:10,461
926	Graham	373	1:10,489
926	McDonald	373	1:10,489
928	Vivero	372	1:10,517
929	de León	371	1:10,545
929	Midi	371	1:10,545
929	Oliva	371	1:10,545
932	Achito	370	1:10,574
932	Moreira	370	1:10,574
934	Melgarejo	369	1:10,602
935	Aparício	368	1:10,631
936	Saturno	367	1:10,660
937	Jackson	366	1:10,689
938	Francisco	363	1:10,778
939	Harding	362	1:10,807
940	Opua	361	1:10,837
940	Simons	361	1:10,837
942	Cespedes	360	1:10,867
943	Anria	359	1:10,898
943	Cisnero	359	1:10,898
945	Migar	357	1:10,959
946	Hansell	356	1:10,989
946	Zhang	356	1:10,989
948	Brooks	355	1:11,020
948	Simmons	355	1:11,020
950	Anaya	354	1:11,052
951	Almillategui	353	1:11,083
951	Barreno	353	1:11,083
951	Carter	353	1:11,083
951	Dequia	353	1:11,083
955	Zapateiro	352	1:11,114
956	Boyce	349	1:11,210
956	Downer	349	1:11,210
958	Rogers	347	1:11,275
959	Morcillo	346	1:11,307
960	Archbold	345	1:11,340
961	Julian	344	1:11,373
961	Stocel	344	1:11,373
963	Aji	343	1:11,406
963	Camero	343	1:11,406
963	Parada	343	1:11,406
966	Holder	340	1:11,507
966	Shaw	340	1:11,507
968	Cooper	339	1:11,541
968	Liu	339	1:11,541
970	Abad	338	1:11,575
971	Austin	337	1:11,609
971	Guadamuz	337	1:11,609
973	Santamaría	336	1:11,644
974	Escalona	335	1:11,678
974	Mecha	335	1:11,678
976	Bell	334	1:11,713
976	Sinisterra	334	1:11,713
978	Aizpurúa	333	1:11,749
978	Chango	333	1:11,749
978	Dawkins	333	1:11,749
981	Lobo	332	1:11,784
982	Amor	331	1:11,820
982	Patterson	331	1:11,820
984	Cossio	329	1:11,891
984	Vásquez	329	1:11,891
986	Alcazar	328	1:11,928
986	Worrell	328	1:11,928
986	Zaldivar	328	1:11,928
989	Algandona	327	1:11,964
990	Barrantes	326	1:12,001
991	Fuller	325	1:12,038
991	Hinds	325	1:12,038
991	Sugasti	325	1:12,038
991	Wu	325	1:12,038
995	Allard	324	1:12,075
995	Chamarra	324	1:12,075
995	Lawrence	324	1:12,075
995	Sianca	324	1:12,075
999	Cosme	323	1:12,112
1000	Arancibia	322	1:12,150
1000	Huerta	322	1:12,150
1000	Ward	322	1:12,150