1	dela Cruz	625,640	1:162
2	Garcia	441,075	1:230
3	Reyes	412,750	1:245
4	Ramos	375,999	1:269
5	Mendoza	372,402	1:272
6	Santos	342,746	1:295
7	Flores	312,187	1:324
8	Gonzales	293,787	1:345
9	Bautista	287,625	1:352
10	Villanueva	277,730	1:365
11	Fernandez	269,820	1:375
12	Cruz	267,822	1:378
13	de Guzman	249,319	1:406
14	Lopez	230,958	1:438
15	Perez	220,113	1:460
16	Castillo	211,405	1:479
17	Francisco	207,840	1:487
18	Rivera	184,543	1:549
19	Aquino	183,088	1:553
20	Castro	173,686	1:583
21	Sanchez	162,886	1:622
22	Torres	162,353	1:624
23	de Leon	156,537	1:647
24	Domingo	147,352	1:687
25	Martinez	143,359	1:706
26	Rodriguez	143,072	1:708
27	Santiago	140,475	1:721
28	Soriano	140,203	1:722
29	Delos Santos	139,229	1:727
30	Diaz	136,449	1:742
31	Hernandez	135,744	1:746
32	Tolentino	133,010	1:761
33	Valdez	132,416	1:765
34	Ramirez	131,829	1:768
35	Morales	129,957	1:779
36	Mercado	125,314	1:808
37	Tan	123,290	1:821
38	Aguilar	121,635	1:832
39	Navarro	113,992	1:888
40	Manalo	111,336	1:909
41	Gomez	108,844	1:930
42	Dizon	106,507	1:951
43	del Rosario	105,210	1:962
44	Javier	104,515	1:969
45	Corpuz	104,026	1:973
46	Gutierrez	103,352	1:980
47	Salvador	103,117	1:982
48	Velasco	101,375	1:999
49	Miranda	101,258	1:1,000
50	David	100,641	1:1,006
51	Salazar	99,921	1:1,013
52	Ferrer	98,478	1:1,028
53	Alvarez	98,106	1:1,032
54	Sarmiento	98,088	1:1,032
55	Pascual	97,168	1:1,042
56	Lim	96,874	1:1,045
57	Delos Reyes	94,452	1:1,072
58	Marquez	94,245	1:1,074
59	Jimenez	93,181	1:1,086
60	Cortez	92,601	1:1,093
61	Antonio	92,386	1:1,096
62	Agustin	89,734	1:1,128
63	Rosales	89,334	1:1,133
64	Manuel	88,253	1:1,147
65	Mariano	86,485	1:1,171
66	Evangelista	86,054	1:1,176
67	Pineda	85,581	1:1,183
68	Enriquez	85,552	1:1,183
69	Ocampo	83,890	1:1,207
70	Alcantara	82,799	1:1,223
71	Pascua	81,319	1:1,245
72	de Vera	80,899	1:1,251
73	Romero	79,797	1:1,269
74	de Jesus	79,480	1:1,274
75	dela Peña	79,318	1:1,276
76	Valencia	79,036	1:1,281
77	Ignacio	78,864	1:1,284
78	Vergara	78,696	1:1,286
79	Padilla	78,451	1:1,290
80	Angeles	75,211	1:1,346
81	Espiritu	74,743	1:1,354
82	Fuentes	71,799	1:1,410
83	Legaspi	71,469	1:1,417
84	Cañete	71,378	1:1,418
85	Peralta	70,724	1:1,431
86	Vargas	69,507	1:1,457
87	Cabrera	69,376	1:1,459
88	Fajardo	67,984	1:1,489
89	Gonzaga	67,426	1:1,501
90	Espinosa	66,738	1:1,517
91	Guevarra	66,600	1:1,520
92	Samson	66,516	1:1,522
93	Ortega	66,509	1:1,522
94	Molina	65,980	1:1,534
95	Serrano	65,615	1:1,543
96	Chavez	65,323	1:1,550
97	Briones	65,211	1:1,552
98	Medina	64,941	1:1,559
99	Palma	62,019	1:1,632
100	Tamayo	60,536	1:1,672
101	Arellano	60,126	1:1,684
102	Atienza	59,769	1:1,694
103	Villegas	59,007	1:1,716
104	Estrada	58,636	1:1,727
105	Martin	58,470	1:1,731
106	Acosta	58,146	1:1,741
107	Ortiz	57,842	1:1,750
108	Sison	57,841	1:1,750
109	Trinidad	57,666	1:1,756
110	Zamora	57,346	1:1,765
111	Asuncion	57,251	1:1,768
112	Abad	57,177	1:1,771
113	Moreno	57,008	1:1,776
114	Valenzuela	57,007	1:1,776
115	Mallari	56,900	1:1,779
116	Caballero	56,291	1:1,798
117	Villamor	56,065	1:1,806
118	Bernardo	55,679	1:1,818
119	Robles	55,333	1:1,830
120	Concepcion	55,285	1:1,831
121	Fernando	54,920	1:1,843
122	Gregorio	54,648	1:1,853
123	Borja	54,323	1:1,864
124	Magbanua	54,125	1:1,870
125	de Castro	53,986	1:1,875
126	Panganiban	53,859	1:1,880
127	Galang	53,753	1:1,883
128	Nuñez	53,342	1:1,898
129	Roxas	53,100	1:1,907
130	Ruiz	52,494	1:1,929
131	Pangilinan	51,881	1:1,951
132	Vicente	51,780	1:1,955
133	Chua	51,380	1:1,970
134	Suarez	50,812	1:1,992
135	Avila	50,517	1:2,004
136	Ali	50,481	1:2,005
137	Austria	50,462	1:2,006
138	Magno	50,242	1:2,015
139	dela Torre	50,022	1:2,024
140	Luna	49,801	1:2,033
141	de La Cruz	49,551	1:2,043
142	Pepito	48,920	1:2,069
143	Solis	47,905	1:2,113
144	Uy	47,832	1:2,117
145	dela Rosa	47,256	1:2,142
146	Duran	47,019	1:2,153
147	Abella	46,928	1:2,157
148	Mahinay	46,677	1:2,169
149	Esguerra	46,068	1:2,198
150	Roque	46,021	1:2,200
151	Andres	45,724	1:2,214
152	Jose	45,585	1:2,221
153	Sevilla	45,427	1:2,229
154	Beltran	44,328	1:2,284
155	Gabriel	44,247	1:2,288
156	Mateo	44,052	1:2,298
157	Ybañez	43,852	1:2,309
158	Nicolas	43,386	1:2,333
159	Mendez	43,368	1:2,334
160	Cunanan	43,331	1:2,336
161	Vasquez	42,958	1:2,357
162	Ancheta	42,521	1:2,381
163	Ventura	42,475	1:2,383
164	Lorenzo	42,419	1:2,387
165	Cordero	42,086	1:2,406
166	Toledo	42,080	1:2,406
167	Galvez	41,892	1:2,417
168	Abdul	41,876	1:2,418
169	Natividad	41,775	1:2,423
170	Marasigan	41,706	1:2,427
171	Herrera	41,469	1:2,441
172	Silva	41,278	1:2,453
173	Miguel	40,866	1:2,477
174	Gamboa	40,849	1:2,478
175	Estrella	40,385	1:2,507
176	Villa	40,189	1:2,519
177	Bartolome	40,064	1:2,527
178	Usman	40,058	1:2,527
179	Sales	40,015	1:2,530
180	Custodio	39,768	1:2,546
181	Ong	39,650	1:2,553
182	Lucero	39,403	1:2,569
183	Abdullah	39,289	1:2,577
184	Manzano	38,719	1:2,615
185	Ibañez	38,713	1:2,615
186	Marcelo	38,642	1:2,620
187	Ponce	38,640	1:2,620
188	Gallardo	38,418	1:2,635
189	Rosario	38,383	1:2,638
190	Delgado	38,203	1:2,650
191	Canlas	37,937	1:2,669
192	Cariño	37,920	1:2,670
193	Yap	37,703	1:2,685
194	Go	37,354	1:2,710
195	Esteban	37,013	1:2,735
196	Ilagan	36,977	1:2,738
197	Tuazon	36,543	1:2,770
198	Carpio	36,508	1:2,773
199	Carreon	36,507	1:2,773
200	Baltazar	36,220	1:2,795
201	Pablo	35,997	1:2,812
202	Lozada	35,790	1:2,829
203	Guzman	35,693	1:2,836
204	Guerrero	35,609	1:2,843
205	Padua	35,272	1:2,870
206	Salcedo	35,255	1:2,872
207	Camacho	35,200	1:2,876
208	San Juan	34,874	1:2,903
209	Bueno	34,705	1:2,917
210	Blanco	34,651	1:2,922
211	Cuevas	34,130	1:2,966
212	Carlos	34,029	1:2,975
213	Andaya	33,954	1:2,982
214	Lozano	33,914	1:2,985
215	Aguirre	33,836	1:2,992
216	Baguio	33,744	1:3,000
217	Cervantes	33,562	1:3,016
218	Bernal	33,538	1:3,019
219	Bustamante	33,361	1:3,035
220	Arevalo	33,260	1:3,044
221	Villar	33,066	1:3,062
222	Sabado	32,841	1:3,083
223	Labrador	32,663	1:3,099
224	Ronquillo	32,576	1:3,108
225	Panes	32,554	1:3,110
226	Cristobal	32,365	1:3,128
227	Prado	32,359	1:3,129
228	Guillermo	32,343	1:3,130
229	Dulay	32,068	1:3,157
230	Apostol	32,043	1:3,159
231	Oliveros	31,833	1:3,180
232	Santillan	31,773	1:3,186
233	Abalos	31,719	1:3,192
234	Quinto	31,612	1:3,203
235	Montero	31,564	1:3,207
236	Alfonso	31,395	1:3,225
237	Umali	31,244	1:3,240
238	Campos	31,069	1:3,258
239	Constantino	31,048	1:3,261
240	Baylon	30,976	1:3,268
241	Malinao	30,920	1:3,274
242	Franco	30,453	1:3,324
243	Calderon	30,256	1:3,346
244	Quijano	30,177	1:3,355
245	Velasquez	30,141	1:3,359
246	Marcos	30,075	1:3,366
247	Alonzo	30,054	1:3,369
248	Lazaro	29,993	1:3,375
249	Mata	29,808	1:3,396
250	Cinco	29,718	1:3,407
251	Geronimo	29,509	1:3,431
252	Cordova	29,506	1:3,431
253	Eugenio	29,505	1:3,431
254	Rubio	29,492	1:3,433
255	Viray	29,474	1:3,435
256	Delfin	29,428	1:3,440
257	Canoy	29,351	1:3,449
258	Crisostomo	29,254	1:3,461
259	Mejia	29,253	1:3,461
260	Rico	29,083	1:3,481
261	Punzalan	28,996	1:3,491
262	Benitez	28,764	1:3,520
263	Bernabe	28,580	1:3,542
264	Buenaventura	28,395	1:3,565
265	Ballesteros	28,272	1:3,581
266	Clemente	28,175	1:3,593
267	Sy	28,038	1:3,611
268	Peña	28,014	1:3,614
269	Jacinto	27,881	1:3,631
270	Vidal	27,858	1:3,634
271	Salas	27,845	1:3,636
272	Tomas	27,826	1:3,638
273	Matias	27,782	1:3,644
274	Yu	27,732	1:3,651
275	de Asis	27,666	1:3,659
276	Andrade	27,398	1:3,695
277	Magallanes	27,380	1:3,698
278	Roldan	27,310	1:3,707
279	Asis	27,281	1:3,711
280	Ledesma	27,260	1:3,714
281	Cortes	26,854	1:3,770
281	Feliciano	26,854	1:3,770
283	Sayson	26,833	1:3,773
284	de Luna	26,730	1:3,787
285	Borromeo	26,648	1:3,799
286	del Mundo	26,467	1:3,825
287	Bello	26,459	1:3,826
288	Manansala	26,377	1:3,838
289	Bondoc	26,283	1:3,852
290	Lacson	26,182	1:3,867
291	Salinas	26,145	1:3,872
292	Barrientos	26,034	1:3,889
293	Conde	25,976	1:3,897
294	Collado	25,880	1:3,912
295	Juan	25,780	1:3,927
296	Villareal	25,685	1:3,942
297	Teves	25,642	1:3,948
298	Laurente	25,604	1:3,954
299	Quiambao	25,556	1:3,961
300	Mohammad	25,534	1:3,965
301	Oliva	25,509	1:3,969
302	Bonifacio	25,477	1:3,974
303	Rojas	25,389	1:3,987
304	Alejandro	25,331	1:3,997
305	Sebastian	25,258	1:4,008
306	Frias	25,250	1:4,009
307	Catalan	25,208	1:4,016
308	Espina	25,109	1:4,032
309	Lee	25,098	1:4,034
310	Lucas	25,078	1:4,037
311	Sali	25,044	1:4,042
312	Dominguez	25,005	1:4,049
313	Mangubat	24,934	1:4,060
314	Calma	24,920	1:4,063
315	Chan	24,837	1:4,076
316	Villarin	24,812	1:4,080
317	Cayabyab	24,773	1:4,087
318	Rosal	24,763	1:4,088
319	Basa	24,621	1:4,112
320	Basilio	24,608	1:4,114
321	Tejada	24,571	1:4,120
322	Samonte	24,561	1:4,122
323	Viernes	24,455	1:4,140
324	Plaza	24,425	1:4,145
325	Gallego	24,344	1:4,159
326	Castor	24,320	1:4,163
327	Dionisio	24,292	1:4,168
328	Musa	24,263	1:4,173
329	Sultan	24,204	1:4,183
330	Tenorio	24,175	1:4,188
331	Solomon	24,109	1:4,199
332	Española	24,090	1:4,202
333	Narciso	24,077	1:4,205
334	San Jose	23,996	1:4,219
335	Pangan	23,988	1:4,220
336	Pelayo	23,958	1:4,226
337	Romano	23,946	1:4,228
338	Lachica	23,937	1:4,229
339	Arcilla	23,904	1:4,235
340	Alba	23,894	1:4,237
341	Espino	23,857	1:4,244
342	Raymundo	23,826	1:4,249
343	Pilapil	23,784	1:4,257
344	Cuizon	23,732	1:4,266
345	Aragon	23,606	1:4,289
346	Medrano	23,457	1:4,316
347	Ang	23,341	1:4,337
348	Guinto	23,272	1:4,350
349	Castañeda	23,189	1:4,366
350	Paras	23,028	1:4,396
351	Alvarado	22,875	1:4,426
352	Omar	22,873	1:4,426
353	Hipolito	22,683	1:4,463
353	Porras	22,683	1:4,463
355	de Mesa	22,680	1:4,464
356	Tecson	22,679	1:4,464
357	Basco	22,643	1:4,471
358	Pimentel	22,564	1:4,487
359	Adriano	22,539	1:4,492
360	Santa Ana	22,492	1:4,501
361	Sagun	22,456	1:4,508
362	Pacheco	22,381	1:4,523
363	Muñoz	22,279	1:4,544
364	Landicho	22,161	1:4,568
365	Arroyo	22,157	1:4,569
366	Rodrigo	21,990	1:4,604
367	Neri	21,984	1:4,605
368	Malabanan	21,956	1:4,611
369	Bravo	21,937	1:4,615
370	Lara	21,936	1:4,615
371	dela Cerna	21,917	1:4,619
372	Villaflor	21,848	1:4,634
373	Galicia	21,791	1:4,646
374	Junio	21,770	1:4,650
375	de Los Santos	21,698	1:4,666
376	Villaruel	21,667	1:4,672
377	Hilario	21,470	1:4,715
378	Añonuevo	21,393	1:4,732
379	Felipe	21,390	1:4,733
380	Montes	21,316	1:4,749
381	Gaspar	21,303	1:4,752
382	Belen	21,229	1:4,769
383	Sotto	21,176	1:4,781
384	Patricio	21,088	1:4,801
385	Bernardino	21,086	1:4,801
386	Madrid	21,059	1:4,807
387	Alarcon	21,054	1:4,809
388	Verano	20,988	1:4,824
389	Casas	20,927	1:4,838
390	Barrios	20,905	1:4,843
391	Ariola	20,789	1:4,870
392	Cano	20,786	1:4,871
393	Advincula	20,668	1:4,898
394	Marcelino	20,576	1:4,920
395	Macaraeg	20,468	1:4,946
396	Alejo	20,466	1:4,947
397	Andal	20,398	1:4,963
398	Dalisay	20,340	1:4,977
399	Aguila	20,307	1:4,985
400	Lao	20,301	1:4,987
401	Sunga	20,275	1:4,993
402	de Chavez	20,273	1:4,994
403	Montemayor	20,232	1:5,004
404	Coronel	20,227	1:5,005
405	Silvestre	20,170	1:5,019
406	Carillo	20,166	1:5,020
407	Bermudez	20,083	1:5,041
408	Zapanta	20,020	1:5,057
409	Co	19,981	1:5,067
410	Murillo	19,972	1:5,069
411	Billones	19,868	1:5,096
412	Belarmino	19,781	1:5,118
413	Dimaano	19,762	1:5,123
414	Mahilum	19,699	1:5,139
415	Alegre	19,670	1:5,147
416	Nepomuceno	19,565	1:5,174
417	de Ocampo	19,564	1:5,175
418	Alberto	19,525	1:5,185
419	Abas	19,504	1:5,191
420	Manlangit	19,489	1:5,195
421	Vega	19,421	1:5,213
422	Manalang	19,391	1:5,221
423	Liwanag	19,381	1:5,224
424	Paglinawan	19,373	1:5,226
425	Meneses	19,370	1:5,227
426	Ibrahim	19,271	1:5,253
427	Aguinaldo	19,266	1:5,255
428	Bacani	19,221	1:5,267
429	Hassan	19,212	1:5,270
430	Cariaga	19,189	1:5,276
431	Burgos	19,068	1:5,309
432	Maranan	19,067	1:5,310
433	Recto	19,052	1:5,314
434	Villafuerte	19,051	1:5,314
435	Imperial	19,039	1:5,317
436	San Pedro	18,975	1:5,335
437	Manabat	18,938	1:5,346
438	Zabala	18,921	1:5,351
439	Figueroa	18,899	1:5,357
440	Amante	18,896	1:5,358
441	Paz	18,892	1:5,359
442	Sandoval	18,791	1:5,388
443	Delima	18,772	1:5,393
444	Urbano	18,754	1:5,398
445	Quiñones	18,666	1:5,424
446	Decena	18,638	1:5,432
447	de Villa	18,536	1:5,462
448	Salonga	18,529	1:5,464
449	Andrada	18,439	1:5,490
450	Policarpio	18,361	1:5,514
451	Pasion	18,358	1:5,515
451	Roa	18,358	1:5,515
453	Capistrano	18,313	1:5,528
454	Cabahug	18,282	1:5,538
455	Carandang	18,260	1:5,544
456	Madriaga	18,251	1:5,547
457	Ismael	18,249	1:5,548
458	Saavedra	18,236	1:5,552
459	Mama	18,199	1:5,563
460	dela Vega	18,165	1:5,573
461	Julian	18,156	1:5,576
462	de Los Reyes	18,144	1:5,580
463	Pancho	18,089	1:5,597
464	Nolasco	18,085	1:5,598
465	Jacob	18,079	1:5,600
466	Fontanilla	18,043	1:5,611
467	Tobias	18,028	1:5,616
468	Benito	18,026	1:5,616
469	Donato	18,000	1:5,624
470	Bacus	17,966	1:5,635
471	Magsino	17,945	1:5,642
472	Valerio	17,927	1:5,647
473	Dy	17,842	1:5,674
474	Rivas	17,810	1:5,684
475	Paraiso	17,800	1:5,688
476	Viloria	17,786	1:5,692
477	Paredes	17,752	1:5,703
478	Solano	17,751	1:5,703
479	Jumawan	17,716	1:5,715
479	Regala	17,716	1:5,715
481	Villena	17,709	1:5,717
482	Rojo	17,685	1:5,725
483	Magpantay	17,666	1:5,731
484	Arceo	17,653	1:5,735
485	Mina	17,625	1:5,744
486	Florendo	17,559	1:5,766
487	Centeno	17,550	1:5,769
488	Encarnacion	17,527	1:5,776
489	Mendiola	17,493	1:5,787
490	Regalado	17,456	1:5,800
491	Baluyot	17,408	1:5,816
492	Mojica	17,405	1:5,817
493	Mayo	17,381	1:5,825
494	Acuña	17,378	1:5,826
495	Alfaro	17,358	1:5,832
496	de Torres	17,345	1:5,837
497	Gatchalian	17,270	1:5,862
498	Mahusay	17,267	1:5,863
499	Soria	17,186	1:5,891
500	Osorio	17,123	1:5,912
501	Araneta	17,112	1:5,916
502	Divinagracia	17,026	1:5,946
503	Montaño	17,010	1:5,952
504	Barredo	17,002	1:5,954
505	Sumalinog	16,996	1:5,957
506	Akmad	16,989	1:5,959
507	Largo	16,951	1:5,972
508	Lauron	16,919	1:5,984
509	Simon	16,918	1:5,984
510	Sabanal	16,903	1:5,989
511	Hidalgo	16,848	1:6,009
512	Barrera	16,815	1:6,021
513	Valiente	16,770	1:6,037
514	Macapagal	16,764	1:6,039
515	Barcelona	16,757	1:6,042
516	Isidro	16,754	1:6,043
517	Bacalso	16,723	1:6,054
518	Rafael	16,719	1:6,055
519	Loyola	16,710	1:6,059
520	Resurreccion	16,663	1:6,076
521	Santa Maria	16,635	1:6,086
522	Razon	16,606	1:6,096
523	Capili	16,594	1:6,101
524	Felix	16,497	1:6,137
525	Velarde	16,491	1:6,139
526	Teodoro	16,458	1:6,151
527	Bernales	16,409	1:6,170
528	Infante	16,396	1:6,175
529	Navales	16,370	1:6,184
530	Dorado	16,367	1:6,186
531	Yabut	16,327	1:6,201
532	Duque	16,317	1:6,204
533	Caballes	16,306	1:6,209
534	Benedicto	16,228	1:6,238
535	Pastor	16,218	1:6,242
536	Abubakar	16,081	1:6,296
537	Mondejar	16,072	1:6,299
538	Faustino	16,056	1:6,305
539	Pasco	16,036	1:6,313
540	Estacio	16,033	1:6,314
541	Hermoso	16,031	1:6,315
541	Lazo	16,031	1:6,315
543	Buenaflor	16,023	1:6,318
544	Danao	16,014	1:6,322
545	Peñaflor	16,009	1:6,324
546	Mesa	15,914	1:6,362
547	Bantilan	15,900	1:6,367
548	Marzan	15,893	1:6,370
549	Dayrit	15,869	1:6,380
550	Bohol	15,867	1:6,380
551	Catacutan	15,832	1:6,395
552	Pagaduan	15,814	1:6,402
552	Palacio	15,814	1:6,402
554	Belleza	15,796	1:6,409
555	Dacanay	15,770	1:6,420
556	Magnaye	15,761	1:6,423
557	Peñaranda	15,760	1:6,424
558	Arguelles	15,743	1:6,431
559	Almazan	15,738	1:6,433
560	Pamintuan	15,697	1:6,450
561	Candelaria	15,683	1:6,455
562	Inocencio	15,674	1:6,459
563	Macatangay	15,672	1:6,460
564	Morillo	15,591	1:6,493
565	Lapuz	15,585	1:6,496
566	Palmes	15,561	1:6,506
567	Sarip	15,553	1:6,509
568	Amil	15,543	1:6,513
569	Suan	15,532	1:6,518
570	Borres	15,508	1:6,528
571	Sulit	15,498	1:6,532
572	Tadeo	15,486	1:6,537
573	Magat	15,479	1:6,540
574	Padernal	15,464	1:6,547
575	Dumlao	15,463	1:6,547
576	Balbuena	15,449	1:6,553
577	Villarosa	15,424	1:6,564
578	Guanzon	15,418	1:6,566
578	Parreño	15,418	1:6,566
580	Puno	15,416	1:6,567
581	Revilla	15,353	1:6,594
582	Cardenas	15,264	1:6,632
583	Paulino	15,255	1:6,636
584	Mijares	15,245	1:6,641
585	Panaligan	15,222	1:6,651
586	Alih	15,208	1:6,657
587	Manlapaz	15,149	1:6,683
588	Cabral	15,085	1:6,711
589	Manalili	15,051	1:6,726
590	Maravilla	14,998	1:6,750
591	Ampuan	14,996	1:6,751
592	Llagas	14,965	1:6,765
593	Arenas	14,949	1:6,772
594	Parcon	14,919	1:6,786
595	Leonardo	14,905	1:6,792
596	Alcala	14,853	1:6,816
597	Bermejo	14,847	1:6,819
598	Buenafe	14,791	1:6,845
599	Sangalang	14,787	1:6,846
600	Gallo	14,772	1:6,853
601	Diego	14,763	1:6,858
602	Fabian	14,758	1:6,860
603	Costales	14,724	1:6,876
604	Soliman	14,722	1:6,877
605	Jordan	14,714	1:6,880
606	de Guia	14,701	1:6,886
607	Salva	14,700	1:6,887
608	Tayag	14,666	1:6,903
609	Comia	14,630	1:6,920
610	Amor	14,620	1:6,925
611	Jayme	14,586	1:6,941
612	Rosete	14,572	1:6,947
613	Cuaresma	14,556	1:6,955
614	Nazareno	14,523	1:6,971
615	Abayon	14,513	1:6,976
616	Pastrana	14,461	1:7,001
617	Maglasang	14,458	1:7,002
618	Tupas	14,455	1:7,004
619	Catapang	14,454	1:7,004
620	Adam	14,446	1:7,008
621	Belmonte	14,441	1:7,010
622	Cayetano	14,423	1:7,019
622	Mamaril	14,423	1:7,019
624	Cacho	14,414	1:7,024
625	Dueñas	14,406	1:7,028
626	Florentino	14,405	1:7,028
627	San Diego	14,388	1:7,036
628	Barrameda	14,361	1:7,050
628	Poblete	14,361	1:7,050
630	Papa	14,357	1:7,051
631	Real	14,341	1:7,059
632	Laxamana	14,340	1:7,060
633	Abarquez	14,328	1:7,066
634	Cadiz	14,303	1:7,078
635	Amparo	14,275	1:7,092
636	Singson	14,266	1:7,096
637	Cueto	14,254	1:7,102
638	dela Paz	14,241	1:7,109
639	Moral	14,229	1:7,115
640	Abao	14,191	1:7,134
641	Banaag	14,185	1:7,137
642	Montoya	14,168	1:7,146
643	Pitogo	14,148	1:7,156
644	Campo	14,120	1:7,170
645	Valle	14,118	1:7,171
646	Gloria	14,106	1:7,177
647	Cuenca	14,092	1:7,184
648	Salik	14,085	1:7,188
649	Eusebio	14,071	1:7,195
650	Bulan	14,046	1:7,208
651	Ampaso	14,037	1:7,212
652	Arias	14,015	1:7,224
653	Rey	13,993	1:7,235
654	Victoria	13,986	1:7,239
655	Granada	13,925	1:7,270
656	Pama	13,915	1:7,275
657	Almonte	13,903	1:7,282
657	Celis	13,903	1:7,282
659	Malate	13,859	1:7,305
660	Almario	13,829	1:7,321
661	Balingit	13,814	1:7,329
662	Olivar	13,798	1:7,337
663	Joaquin	13,784	1:7,345
664	Tagalog	13,768	1:7,353
665	Sibayan	13,742	1:7,367
666	Contreras	13,728	1:7,375
667	Montejo	13,700	1:7,390
668	Palomo	13,698	1:7,391
669	Lagman	13,677	1:7,402
670	Quizon	13,622	1:7,432
671	Apolinario	13,578	1:7,456
672	Paragas	13,555	1:7,469
673	Gaviola	13,533	1:7,481
674	Dayao	13,487	1:7,506
675	Andales	13,484	1:7,508
676	Silvano	13,480	1:7,510
677	Montilla	13,462	1:7,520
678	Estrera	13,441	1:7,532
679	Aban	13,402	1:7,554
680	Alcaraz	13,394	1:7,558
681	Fronda	13,389	1:7,561
682	Ibarra	13,368	1:7,573
683	Morada	13,339	1:7,590
684	Diamante	13,331	1:7,594
685	Naval	13,329	1:7,595
686	Pulido	13,321	1:7,600
687	Balansag	13,309	1:7,607
688	Rosas	13,298	1:7,613
689	Mariñas	13,295	1:7,615
690	Cornelio	13,263	1:7,633
691	Bañez	13,251	1:7,640
692	Palomar	13,248	1:7,642
693	Adolfo	13,243	1:7,645
694	Amaro	13,217	1:7,660
695	Rendon	13,216	1:7,660
696	Sanico	13,208	1:7,665
697	Valera	13,206	1:7,666
698	Buan	13,162	1:7,692
699	Amores	13,147	1:7,700
700	Caro	13,123	1:7,715
701	Castillon	13,071	1:7,745
702	Mora	13,052	1:7,757
703	Ando	13,047	1:7,760
704	Baron	13,029	1:7,770
705	Coronado	13,025	1:7,773
706	Balmes	13,024	1:7,773
707	Nacario	13,019	1:7,776
708	Datu	12,996	1:7,790
709	Gorospe	12,985	1:7,797
710	Simbajon	12,936	1:7,826
711	Pantaleon	12,922	1:7,835
712	de Lara	12,913	1:7,840
713	Ceniza	12,878	1:7,861
714	Olarte	12,860	1:7,872
715	Samillano	12,858	1:7,874
716	Torio	12,850	1:7,878
717	Rama	12,844	1:7,882
718	Escalante	12,837	1:7,886
719	Tagle	12,829	1:7,891
720	Claro	12,798	1:7,910
721	Escobar	12,793	1:7,914
722	Avenido	12,788	1:7,917
723	Rabino	12,777	1:7,923
724	Salvacion	12,729	1:7,953
725	Pelaez	12,723	1:7,957
726	Yumul	12,708	1:7,966
727	Leal	12,698	1:7,973
728	Amar	12,697	1:7,973
729	Gerona	12,695	1:7,975
730	Nava	12,693	1:7,976
731	Zulueta	12,634	1:8,013
732	Tampus	12,625	1:8,019
733	Alferez	12,619	1:8,023
734	Aranas	12,600	1:8,035
735	Galvan	12,587	1:8,043
736	Francia	12,578	1:8,049
737	Agcaoili	12,569	1:8,055
738	Mirasol	12,540	1:8,073
739	Kasim	12,512	1:8,091
740	Nacion	12,487	1:8,107
741	Posadas	12,475	1:8,115
742	Canillo	12,470	1:8,119
743	de Dios	12,433	1:8,143
744	Estabillo	12,420	1:8,151
745	Gumban	12,409	1:8,158
746	Buena	12,392	1:8,170
747	Doria	12,380	1:8,178
747	Ilao	12,380	1:8,178
749	Alano	12,349	1:8,198
750	Velez	12,346	1:8,200
751	Daniel	12,338	1:8,205
752	Noble	12,335	1:8,207
753	Pardillo	12,329	1:8,211
754	Sarabia	12,318	1:8,219
755	Bayani	12,257	1:8,260
756	Llanes	12,237	1:8,273
757	Catubig	12,212	1:8,290
758	Quirante	12,196	1:8,301
759	Abbas	12,171	1:8,318
760	Vinluan	12,170	1:8,319
761	Villas	12,152	1:8,331
762	Salem	12,151	1:8,332
763	Dagohoy	12,143	1:8,337
764	Lariosa	12,119	1:8,354
765	Caparas	12,116	1:8,356
766	Verzosa	12,104	1:8,364
767	Sicat	12,099	1:8,367
768	Viñas	12,096	1:8,370
769	Buendia	12,065	1:8,391
770	Manalastas	12,046	1:8,404
771	Alipio	12,044	1:8,406
772	Candelario	12,026	1:8,418
773	Pareja	12,023	1:8,420
774	Esmael	12,021	1:8,422
775	Manahan	11,945	1:8,475
776	Amerol	11,934	1:8,483
777	Abello	11,927	1:8,488
778	Rivero	11,904	1:8,505
779	Nobleza	11,903	1:8,505
780	Coloma	11,889	1:8,515
781	Maceda	11,880	1:8,522
782	Marcial	11,850	1:8,543
783	Pamplona	11,847	1:8,545
784	Mauricio	11,842	1:8,549
785	Veloso	11,839	1:8,551
786	Balaba	11,825	1:8,561
787	Adlawan	11,822	1:8,564
787	Bañares	11,822	1:8,564
789	Aba	11,819	1:8,566
790	Daño	11,812	1:8,571
791	Arce	11,811	1:8,572
792	Magtibay	11,760	1:8,609
793	Alburo	11,755	1:8,612
794	Isip	11,752	1:8,615
795	Gervacio	11,747	1:8,618
796	Manatad	11,734	1:8,628
797	Jumao-As	11,726	1:8,634
798	Opeña	11,680	1:8,668
799	Parungao	11,678	1:8,669
800	Arnaiz	11,669	1:8,676
801	Cayanan	11,646	1:8,693
802	Abuan	11,643	1:8,695
803	Daud	11,619	1:8,713
804	Montecillo	11,612	1:8,718
805	Claveria	11,610	1:8,720
806	Gatdula	11,608	1:8,721
807	Royo	11,601	1:8,727
808	Galo	11,592	1:8,733
809	Biñas	11,589	1:8,736
810	Pedro	11,584	1:8,739
811	Celeste	11,583	1:8,740
812	Villaruz	11,577	1:8,745
813	Ayson	11,566	1:8,753
813	Rada	11,566	1:8,753
815	Palermo	11,492	1:8,809
816	Roble	11,426	1:8,860
817	Gallano	11,409	1:8,874
818	Miñoza	11,389	1:8,889
819	Suico	11,382	1:8,895
820	Barbosa	11,366	1:8,907
821	Arcega	11,353	1:8,917
822	Mission	11,352	1:8,918
823	Grande	11,343	1:8,925
824	Candido	11,336	1:8,931
825	Cerezo	11,323	1:8,941
826	Bolivar	11,303	1:8,957
827	Untalan	11,298	1:8,961
828	Pajarillo	11,278	1:8,977
829	Maquiling	11,272	1:8,981
830	Alim	11,268	1:8,985
831	Maghanoy	11,266	1:8,986
832	Tolosa	11,252	1:8,997
833	Cabiles	11,197	1:9,042
834	Tiu	11,195	1:9,043
835	Ordoñez	11,182	1:9,054
836	del Castillo	11,180	1:9,055
837	Palencia	11,157	1:9,074
838	Dimaculangan	11,149	1:9,080
839	Labajo	11,145	1:9,084
840	Guarin	11,135	1:9,092
841	Cagas	11,128	1:9,098
842	Dalida	11,115	1:9,108
843	Menor	11,077	1:9,139
843	Monte	11,077	1:9,139
845	Soliven	11,075	1:9,141
846	Garces	11,051	1:9,161
847	Mabini	11,035	1:9,174
848	Balbin	11,033	1:9,176
849	Celestial	11,012	1:9,193
850	Esmail	11,005	1:9,199
851	Balagtas	11,001	1:9,203
852	Sampang	10,991	1:9,211
853	Tejero	10,961	1:9,236
854	Camba	10,959	1:9,238
855	Villaflores	10,941	1:9,253
856	Barba	10,931	1:9,262
857	Joson	10,926	1:9,266
858	Abubacar	10,923	1:9,268
859	Paran	10,922	1:9,269
860	Espejo	10,907	1:9,282
861	Monares	10,895	1:9,292
862	Macalalad	10,879	1:9,306
862	Mayor	10,879	1:9,306
864	Cuyos	10,877	1:9,308
865	Mohamad	10,874	1:9,310
866	Somera	10,870	1:9,314
867	Malana	10,859	1:9,323
868	Marco	10,848	1:9,332
869	Pino	10,846	1:9,334
870	Brillantes	10,819	1:9,357
871	Barroga	10,804	1:9,370
872	Vallejo	10,771	1:9,399
873	Cantos	10,764	1:9,405
874	Segovia	10,717	1:9,447
875	Marfil	10,710	1:9,453
876	Abdulla	10,705	1:9,457
877	Paclibar	10,703	1:9,459
878	Piamonte	10,686	1:9,474
879	Baquiran	10,661	1:9,496
880	Bustillo	10,656	1:9,501
881	Tizon	10,647	1:9,509
882	Amper	10,644	1:9,511
883	Garay	10,643	1:9,512
884	Abordo	10,642	1:9,513
885	Palmares	10,609	1:9,543
886	Bayot	10,608	1:9,544
887	Formentera	10,606	1:9,545
888	Dacillo	10,601	1:9,550
889	Mallorca	10,596	1:9,554
890	Ricafort	10,577	1:9,572
891	Solaiman	10,560	1:9,587
892	Bacolod	10,522	1:9,622
893	Quintana	10,517	1:9,626
894	Montenegro	10,512	1:9,631
895	Agbayani	10,505	1:9,637
896	Manaloto	10,503	1:9,639
897	Paguio	10,494	1:9,647
898	Tumbaga	10,486	1:9,655
899	Pedrosa	10,480	1:9,660
900	Ubaldo	10,464	1:9,675
901	Baring	10,459	1:9,680
902	Dungca	10,437	1:9,700
903	Borbon	10,434	1:9,703
903	Mapa	10,434	1:9,703
905	Bobis	10,418	1:9,718
905	Villalobos	10,418	1:9,718
907	Pagulayan	10,417	1:9,719
908	Abo	10,412	1:9,723
909	Gascon	10,404	1:9,731
910	Alon	10,397	1:9,737
911	Vista	10,395	1:9,739
912	Galon	10,389	1:9,745
913	Badilla	10,386	1:9,748
914	Villaluz	10,384	1:9,749
915	Layug	10,381	1:9,752
916	Zafra	10,369	1:9,764
917	Abing	10,346	1:9,785
918	Dinglasan	10,344	1:9,787
919	Divina	10,320	1:9,810
920	Lanuza	10,315	1:9,815
921	Antolin	10,306	1:9,823
922	Evangelio	10,301	1:9,828
923	Rondina	10,296	1:9,833
924	Macaraig	10,294	1:9,835
925	Tapia	10,285	1:9,843
926	Baluyut	10,275	1:9,853
927	Cañada	10,265	1:9,862
928	Soberano	10,251	1:9,876
929	Madera	10,247	1:9,880
930	Sántos	10,242	1:9,885
931	Kusain	10,224	1:9,902
932	Español	10,210	1:9,916
933	Silverio	10,208	1:9,918
934	Abellana	10,202	1:9,923
935	Palad	10,189	1:9,936
936	Medalla	10,163	1:9,961
937	Ferolino	10,160	1:9,964
938	Cajes	10,152	1:9,972
938	Doctor	10,152	1:9,972
940	Azucena	10,141	1:9,983
941	Villagracia	10,139	1:9,985
942	Bato	10,138	1:9,986
943	Garrido	10,136	1:9,988
944	Cabarles	10,126	1:9,998
945	Ambrocio	10,125	1:9,999
946	Paloma	10,119	1:10,005
947	Padillo	10,111	1:10,013
948	Juarez	10,104	1:10,020
949	Prieto	10,099	1:10,025
950	Cabasag	10,084	1:10,039
951	Acob	10,079	1:10,044
952	de Juan	10,046	1:10,077
952	Montalban	10,046	1:10,077
954	Bulatao	10,036	1:10,088
955	Guerra	10,023	1:10,101
956	Morante	10,021	1:10,103
957	Escala	10,005	1:10,119
957	Palo	10,005	1:10,119
959	Yambao	9,995	1:10,129
960	Talib	9,994	1:10,130
961	Jocson	9,988	1:10,136
962	Amador	9,969	1:10,155
963	Alegado	9,959	1:10,166
963	Lising	9,959	1:10,166
963	Millan	9,959	1:10,166
966	Loreto	9,944	1:10,181
967	Maturan	9,916	1:10,210
968	Credo	9,896	1:10,230
969	Caringal	9,895	1:10,231
970	Wenceslao	9,879	1:10,248
971	Bernaldez	9,875	1:10,252
972	Laguna	9,872	1:10,255
973	Ebrahim	9,864	1:10,263
974	Tupaz	9,842	1:10,286
975	Sia	9,841	1:10,287
976	Yuson	9,837	1:10,292
977	Agravante	9,818	1:10,311
978	Joven	9,816	1:10,314
979	Balasabas	9,810	1:10,320
980	Nieva	9,805	1:10,325
981	Taruc	9,802	1:10,328
982	Capulong	9,797	1:10,334
983	Avelino	9,793	1:10,338
983	Leaño	9,793	1:10,338
985	Mira	9,790	1:10,341
986	Amora	9,786	1:10,345
987	Victoriano	9,771	1:10,361
988	Tiongson	9,752	1:10,381
989	Cabaluna	9,749	1:10,384
990	Simbulan	9,747	1:10,387
991	Wong	9,741	1:10,393
992	Laureta	9,728	1:10,407
993	Camposano	9,724	1:10,411
994	Mercader	9,704	1:10,433
995	Dolor	9,695	1:10,442
996	Usop	9,687	1:10,451
997	Guevara	9,681	1:10,457
998	Villacorta	9,678	1:10,461
999	Salgado	9,676	1:10,463
1000	Degamo	9,667	1:10,473