1	Sanchez	128,384	1:28
2	Rivera	114,777	1:31
3	Diaz	107,639	1:33
4	Rodriguez	102,137	1:35
5	Narvaez	70,764	1:50
6	Burgos	68,522	1:52
7	Colon	64,691	1:55
8	Vazquez	62,658	1:57
9	Ramos	60,232	1:59
10	Ortiz	60,230	1:59
11	Morales	56,574	1:63
12	Betancourt	53,974	1:66
13	Cruz	52,117	1:68
14	Santiago	51,371	1:69
15	Reyes	48,780	1:73
16	Perez	48,461	1:73
17	Agosto	47,860	1:74
18	Carrasquillo	47,847	1:74
19	Garcia	45,599	1:78
20	Ortega	45,420	1:78
21	Torres	44,349	1:80
22	Canales	44,253	1:80
23	Vega	44,144	1:80
24	Ayala	41,165	1:86
25	Gonzalez	40,474	1:88
26	Menendez	37,881	1:94
27	Martinez	35,396	1:100
28	Lopez	34,209	1:104
29	Hernandez	34,156	1:104
30	Rosa	34,061	1:104
31	Merced	33,855	1:105
32	Pagan	33,598	1:106
33	Valentin	32,870	1:108
34	Delgado	32,783	1:108
35	Velez	32,249	1:110
36	Quiñones	29,387	1:121
37	Malave	27,512	1:129
38	Rosado	26,452	1:134
39	Ogando	24,658	1:144
40	Pastrana	23,911	1:148
41	Sierra	23,623	1:150
42	Acevedo	23,386	1:152
43	Sanabria	22,693	1:156
44	Soler	21,291	1:167
45	Velazquez	20,997	1:169
46	Caballero	20,418	1:174
47	Panet	20,264	1:175
48	Ruiz	19,523	1:182
49	Marrero	19,216	1:185
50	Bordelies	19,097	1:186
51	Potter	19,068	1:186
52	Nieves	18,809	1:189
53	Soto	18,047	1:197
54	Miranda	16,212	1:219
55	Arroyo	15,352	1:231
56	Roman	14,472	1:245
57	Ramirez	14,410	1:246
58	Melendez	14,099	1:252
59	Cintron	13,864	1:256
60	Lugo	13,762	1:258
61	Robles	13,255	1:268
62	Mojica	13,115	1:271
63	Santos	13,039	1:272
64	Avila	12,984	1:273
65	Jimenez	12,666	1:280
66	Figueroa	12,635	1:281
67	Solis	12,499	1:284
68	Berrios	12,193	1:291
69	Negron	12,146	1:292
70	Aponte	12,073	1:294
71	Vargas	11,815	1:300
72	Serrano	10,878	1:326
73	Bruno	10,407	1:341
74	Medina	10,352	1:343
75	Guzman	10,332	1:344
76	Ferrer	10,209	1:348
77	Muñiz	10,202	1:348
78	Abreu	9,992	1:355
79	Montes	9,793	1:363
80	Castillo	9,592	1:370
81	Mercado	9,332	1:380
82	Maldonado	9,111	1:390
83	de Jesus	9,008	1:394
84	Espinosa	8,787	1:404
85	Montañez	8,560	1:415
86	Bibiloni	8,491	1:418
87	Lebron	7,839	1:453
88	Matos	7,785	1:456
89	Echevarria	7,767	1:457
90	del Valle	7,658	1:464
91	Mendez	7,323	1:485
92	Baez	7,317	1:485
93	Quinones	7,274	1:488
94	Gutierrez	6,782	1:523
95	Mendin	6,769	1:524
96	Ocasio	6,728	1:528
97	Alicea	6,633	1:535
98	Collazo	6,342	1:560
99	Bobe	6,318	1:562
100	Fontanez	6,221	1:571
101	Irizarry	6,167	1:576
102	Aviles	6,114	1:581
103	Fernandez	6,101	1:582
104	Rojas	6,091	1:583
105	Carrillo	6,072	1:585
106	Otero	5,981	1:594
107	Surillo	5,923	1:599
108	Rios	5,871	1:605
109	Quiles	5,699	1:623
110	Toral	5,637	1:630
111	Batista	5,556	1:639
112	Padilla	5,455	1:651
113	Colón	5,408	1:656
114	Brown	5,357	1:663
115	de La Torre	5,127	1:692
116	Trujillo	5,095	1:697
117	Alvarez	5,058	1:702
118	Flores	4,869	1:729
119	Davila	4,608	1:770
120	Barreto	4,570	1:777
121	Crespo	4,549	1:780
122	Nater	4,535	1:783
123	Gomez	4,532	1:783
124	Cortes	4,466	1:795
125	Benitez	4,152	1:855
126	Huertas	4,103	1:865
127	Quintana	3,997	1:888
128	Biaggi	3,936	1:902
129	Cordero	3,894	1:912
130	Cuevas	3,873	1:917
131	Castro	3,831	1:927
132	Braña	3,813	1:931
133	Nieto	3,793	1:936
134	Leon	3,729	1:952
135	Cardona	3,720	1:954
136	Santini	3,704	1:958
137	Alvarado	3,694	1:961
138	Díaz	3,586	1:990
139	Toro	3,582	1:991
140	Segarra	3,455	1:1,028
141	Camacho	3,443	1:1,031
142	Alamo	3,431	1:1,035
143	Barada	3,393	1:1,046
144	Santana	3,313	1:1,072
145	Laboy	3,282	1:1,082
146	Cosme	3,276	1:1,084
147	Arce	3,121	1:1,138
148	Pacheco	3,085	1:1,151
149	Navarro	3,060	1:1,160
150	Bermudez	2,981	1:1,191
151	Rodríguez	2,932	1:1,211
152	Acosta	2,918	1:1,217
153	Vera	2,884	1:1,231
154	Seda	2,834	1:1,253
155	Narváez	2,824	1:1,257
156	Zayas	2,823	1:1,258
157	Morales Rosa	2,815	1:1,261
158	Cabrera	2,814	1:1,262
159	Feliciano	2,804	1:1,266
160	Moret	2,784	1:1,275
161	Bauza	2,775	1:1,279
162	Valle	2,760	1:1,286
163	Moyano	2,715	1:1,308
164	Roldan	2,709	1:1,310
165	de Leon	2,705	1:1,312
166	Pérez	2,663	1:1,333
167	Fuentes	2,657	1:1,336
168	Rosário	2,611	1:1,360
169	Pabon	2,602	1:1,364
170	Chinea	2,564	1:1,385
171	Caraballo	2,507	1:1,416
172	Franco	2,502	1:1,419
173	Romero	2,491	1:1,425
174	Nuñez	2,472	1:1,436
175	Casanova	2,456	1:1,445
176	Sánchez	2,447	1:1,451
177	Silva	2,422	1:1,466
178	Galarza	2,339	1:1,518
179	San Miguel	2,314	1:1,534
180	Rolon	2,302	1:1,542
181	Vázquez	2,255	1:1,574
182	Rosario	2,251	1:1,577
183	Bonilla	2,244	1:1,582
184	Pizarro	2,235	1:1,588
185	Carrion	2,215	1:1,603
186	Amill	2,204	1:1,611
187	Muñoz	2,194	1:1,618
188	Andujar	2,175	1:1,632
189	Molina	2,132	1:1,665
190	Sola	2,116	1:1,678
191	Mendoza	2,112	1:1,681
192	Anca	2,071	1:1,714
193	Mangual	2,064	1:1,720
194	Montalvo	2,024	1:1,754
195	Cotto	2,008	1:1,768
196	Rosas	1,997	1:1,778
197	Marquez	1,976	1:1,797
198	López	1,939	1:1,831
199	Orozco	1,927	1:1,842
200	Falcon	1,888	1:1,880
201	Prado	1,834	1:1,936
202	Tirado	1,802	1:1,970
203	Marcano	1,784	1:1,990
204	Caban	1,779	1:1,996
204	Puig	1,779	1:1,996
206	González	1,748	1:2,031
207	Velázquez	1,734	1:2,047
208	Guevara	1,707	1:2,080
209	Rogiers	1,670	1:2,126
210	Matias	1,667	1:2,130
211	Suarez	1,605	1:2,212
212	Pagán	1,603	1:2,215
213	Brocco	1,586	1:2,238
214	Muniz	1,563	1:2,271
215	Rovira	1,529	1:2,322
216	Sántos	1,517	1:2,340
217	Orengo	1,497	1:2,372
218	Knight	1,494	1:2,376
219	Oliveras	1,491	1:2,381
220	Herrera	1,481	1:2,397
221	Nazario	1,480	1:2,399
222	Brens	1,464	1:2,425
222	Quiñonez	1,464	1:2,425
224	Pinela	1,452	1:2,445
225	Estrella	1,443	1:2,460
226	Galan	1,435	1:2,474
227	Alonso	1,433	1:2,477
228	García	1,428	1:2,486
229	Renta	1,424	1:2,493
230	Bolivar Aponte	1,423	1:2,495
230	Toledo	1,423	1:2,495
232	Pumarada Dahdah	1,422	1:2,497
233	Villanueva	1,417	1:2,505
234	Peña	1,403	1:2,530
235	Rentas	1,400	1:2,536
236	Amadeo	1,375	1:2,582
237	Cruzado	1,373	1:2,586
238	Marin	1,368	1:2,595
239	Viera	1,337	1:2,655
240	Longo	1,325	1:2,679
241	Pereira	1,305	1:2,720
242	Martínez	1,300	1:2,731
243	Fortuño	1,284	1:2,765
243	Guerrero	1,284	1:2,765
245	Striker	1,273	1:2,789
246	Betancort	1,271	1:2,793
247	Picorelli	1,265	1:2,806
248	Dominguez	1,263	1:2,811
248	Luna	1,263	1:2,811
250	Caride	1,241	1:2,861
251	Cordova	1,240	1:2,863
252	Gorbea	1,233	1:2,879
253	Fraguada	1,221	1:2,908
254	Lozada	1,211	1:2,932
255	Loperena	1,208	1:2,939
256	Juarbe	1,194	1:2,973
257	Howe	1,151	1:3,084
258	Quintero	1,142	1:3,109
259	Borrero	1,130	1:3,142
260	Carrero	1,128	1:3,147
261	Pinto	1,115	1:3,184
262	Tavarez	1,109	1:3,201
263	Ojeda	1,108	1:3,204
264	Amiama	1,101	1:3,224
264	Gines	1,101	1:3,224
266	Almodovar	1,089	1:3,260
267	Sepulveda	1,084	1:3,275
268	Hernández	1,081	1:3,284
269	Cartagena	1,075	1:3,302
270	Correa	1,072	1:3,312
271	Bartolomei	1,070	1:3,318
272	Badillo	1,060	1:3,349
273	Silvestrini	1,059	1:3,352
274	Maisonet	1,058	1:3,356
275	Candelaria	1,055	1:3,365
275	Umpierre	1,055	1:3,365
277	Vélez	1,051	1:3,378
278	Becerra	1,036	1:3,427
279	Lotti	1,033	1:3,437
280	Oquendo	1,028	1:3,453
281	Laureano	1,016	1:3,494
281	Soriano	1,016	1:3,494
283	Zamora	1,009	1:3,518
284	Felix	1,003	1:3,540
285	Dauhajre	993	1:3,575
286	Heredia	992	1:3,579
286	Parrilla	992	1:3,579
288	Salgado	986	1:3,601
289	Herrero	976	1:3,637
289	Rubero	976	1:3,637
291	Carreras	962	1:3,690
292	Olivencia	961	1:3,694
293	Bosque	958	1:3,706
294	Fajardo	940	1:3,777
295	Sosa	933	1:3,805
296	Placeres	932	1:3,809
297	Moreno	930	1:3,817
298	Trinidad	927	1:3,830
299	Gierbolini	918	1:3,867
299	n	918	1:3,867
301	Mateo	917	1:3,871
302	Segurola	914	1:3,884
303	Donate	898	1:3,953
304	Banuchi	893	1:3,976
305	Tollinchi	890	1:3,989
306	Munoz	881	1:4,030
307	Carmona	878	1:4,043
308	Casiano	877	1:4,048
309	Negrón	860	1:4,128
310	Sotomayor	857	1:4,143
311	Saliceti	853	1:4,162
312	Lebrón	848	1:4,186
313	Escalera	841	1:4,221
314	Moure	837	1:4,242
315	Albizu	835	1:4,252
315	Falero	835	1:4,252
317	Hilera	827	1:4,293
318	Aquino	824	1:4,308
319	Calderon	821	1:4,324
319	Machado	821	1:4,324
321	Villodas	815	1:4,356
322	Llorens	801	1:4,432
323	Vila	787	1:4,511
324	Rubio	782	1:4,540
325	Gelpi	779	1:4,557
326	Graulau	777	1:4,569
326	Jusino	777	1:4,569
328	Roche	776	1:4,575
329	Pamias	771	1:4,605
330	Troche	766	1:4,635
331	Esteves	761	1:4,665
332	Desarden	754	1:4,708
333	Caceres	749	1:4,740
334	Zapata	729	1:4,870
335	Cofresi	723	1:4,910
336	Claudio	721	1:4,924
337	Landrau	715	1:4,965
338	de Jesús	711	1:4,993
338	Vidal	711	1:4,993
340	Milan	710	1:5,000
341	Purcell	706	1:5,029
342	Portalatin	705	1:5,036
343	Noriega	703	1:5,050
344	Castrodad	700	1:5,072
345	Meléndez	694	1:5,115
346	Algarin	686	1:5,175
346	Irigoyen	686	1:5,175
348	Enriquez	685	1:5,183
348	Salas	685	1:5,183
350	Amador	684	1:5,190
351	Fontan	677	1:5,244
352	Bristol	671	1:5,291
353	Estrada	667	1:5,323
354	Cuadrado	665	1:5,339
355	Adorno	663	1:5,355
356	Andino	660	1:5,379
357	Orta	651	1:5,453
358	Esquilin	645	1:5,504
358	Lopez de Victoria	645	1:5,504
360	Collado	642	1:5,530
361	Abdelhadi	637	1:5,573
362	Riefkohl	635	1:5,591
363	Arocho	634	1:5,600
364	Armstrong	630	1:5,635
365	Cancel	622	1:5,708
365	del Rio	622	1:5,708
367	Morell	620	1:5,726
368	Rabell	619	1:5,735
369	Agostini	618	1:5,745
370	Beauchamp	615	1:5,773
371	Mateu	613	1:5,791
372	Ambert	611	1:5,810
373	del Toro	610	1:5,820
374	Centeno	608	1:5,839
375	Corrêa	607	1:5,849
375	Vilanova	607	1:5,849
377	Gerena	606	1:5,858
378	Igartua	605	1:5,868
379	Comas	601	1:5,907
380	Cameron	598	1:5,937
381	Archilla	592	1:5,997
382	Mauras	590	1:6,017
383	Moran	582	1:6,100
384	Menéndez	581	1:6,110
385	Ponce	580	1:6,121
386	Beltran	573	1:6,196
386	Febus	573	1:6,196
388	Roque	569	1:6,239
389	Borges	566	1:6,272
390	Encarnacion	565	1:6,283
391	Alfaro	564	1:6,295
392	Rivas	563	1:6,306
393	Varela	561	1:6,328
394	Carretero	559	1:6,351
395	Maysonet	553	1:6,420
395	Piñeiro	553	1:6,420
397	Olivera	551	1:6,443
398	Plaza	549	1:6,467
398	S	549	1:6,467
400	Luzon	547	1:6,490
401	Nater Rodriguez	546	1:6,502
401	Quinonez	546	1:6,502
403	Tapia	536	1:6,623
404	Sessarego	531	1:6,686
405	Sauri	528	1:6,724
406	Arrufat	524	1:6,775
406	Gil	524	1:6,775
408	Bernier	521	1:6,814
409	Garay	514	1:6,907
410	Navedo	512	1:6,934
411	Bravo	511	1:6,947
411	Goble	511	1:6,947
411	Valcarcel	511	1:6,947
414	Bizoso	510	1:6,961
415	Cláudio	507	1:7,002
416	Llinas	506	1:7,016
416	Ortíz	506	1:7,016
418	Campos	505	1:7,030
419	Pancorbo	503	1:7,058
420	Urbina	499	1:7,115
421	Chaar	496	1:7,158
422	Román	494	1:7,187
423	Chevere	493	1:7,201
424	Robledo	492	1:7,216
424	Valentín	492	1:7,216
426	Fermaint	488	1:7,275
427	Guadalupe	483	1:7,350
428	Mejias	480	1:7,396
428	Olmo	480	1:7,396
428	Sostre	480	1:7,396
431	Landing	479	1:7,412
431	Resto	479	1:7,412
433	Barrios	477	1:7,443
434	Pantojas	475	1:7,474
435	Febres	474	1:7,490
435	Zengotita	474	1:7,490
437	Valencia	472	1:7,521
438	Oyola	471	1:7,537
439	Labarca	467	1:7,602
440	Natal	466	1:7,618
441	Agrelo	465	1:7,635
442	Guevarez	464	1:7,651
443	Russe	462	1:7,684
444	Cardalda	460	1:7,718
445	Olivero	456	1:7,785
446	Alejandro	455	1:7,803
447	Arill	454	1:7,820
447	Lamboy	454	1:7,820
449	Walker	450	1:7,889
450	Arizmendi	449	1:7,907
450	Padro	449	1:7,907
452	McLaughlin	441	1:8,050
453	Hidalgo	440	1:8,068
453	Pedroza	440	1:8,068
453	Villafañe	440	1:8,068
456	Fuster	439	1:8,087
457	Biringer	438	1:8,105
458	Aleman	436	1:8,143
459	Olmeda	434	1:8,180
460	Rieckehoff	432	1:8,218
461	Aguirre	429	1:8,275
461	Precioso	429	1:8,275
463	Alayon	420	1:8,453
463	Monserrat	420	1:8,453
465	Nunez	418	1:8,493
466	Paralitici	416	1:8,534
467	Arrieta	413	1:8,596
468	Tomassini	410	1:8,659
468	Zambrana	410	1:8,659
470	Roca	405	1:8,766
471	Cerezo	402	1:8,831
471	Rafols	402	1:8,831
473	Boyrié	401	1:8,853
473	Jiminian	401	1:8,853
475	Prieto	399	1:8,898
476	Vilella	398	1:8,920
477	Martin	396	1:8,965
478	Beniquez	393	1:9,033
478	Espada	393	1:9,033
480	Franke	391	1:9,080
480	Millan	391	1:9,080
480	Sellas	391	1:9,080
483	Blas	390	1:9,103
484	Piñero	389	1:9,126
485	Manfredi	385	1:9,221
486	Alverio	384	1:9,245
487	Ramírez	383	1:9,269
488	Aguilar	380	1:9,342
488	Gregory	380	1:9,342
488	Mulero	380	1:9,342
491	Fraticelli	378	1:9,392
492	Contreras	376	1:9,442
492	Oliver	376	1:9,442
494	Chaves	374	1:9,492
494	Lamas	374	1:9,492
496	Ferrari	373	1:9,518
497	Mari	372	1:9,543
498	Bird	367	1:9,673
499	Duran	365	1:9,726
500	Berio	364	1:9,753
501	de La Rosa	362	1:9,807
502	Montanez	359	1:9,889
503	Libran	355	1:10,000
504	Feliu	354	1:10,029
504	Orama	354	1:10,029
506	Concepcion	353	1:10,057
507	Pijem	352	1:10,086
508	Fernandini	350	1:10,143
509	Galera	349	1:10,172
509	Lorenzo	349	1:10,172
511	Mora	342	1:10,381
512	Boria	341	1:10,411
513	Cepeda	340	1:10,442
514	Manzano	339	1:10,472
514	Torrado	339	1:10,472
516	Luciano	338	1:10,503
516	Maritnez	338	1:10,503
516	Osorio	338	1:10,503
516	Ramis	338	1:10,503
520	Ralat	337	1:10,535
521	Arvelo	334	1:10,629
522	Saldaña	331	1:10,725
523	Casillas	328	1:10,824
523	Dahdah	328	1:10,824
525	Dones	326	1:10,890
526	Andersson	324	1:10,957
527	Jiménez	323	1:10,991
528	Alvira	322	1:11,025
529	Brana	321	1:11,060
530	Roldán	320	1:11,094
531	Bigio	319	1:11,129
532	Casado	318	1:11,164
532	Lizardi	318	1:11,164
534	Linares	317	1:11,199
535	Saez	316	1:11,235
535	Solero	316	1:11,235
537	Arbona	313	1:11,342
537	Laguer	313	1:11,342
539	Clemente	312	1:11,379
540	de La Cruz	311	1:11,415
541	Bosques	307	1:11,564
542	Cajigas	306	1:11,602
542	S Aponte	306	1:11,602
544	Cubero	304	1:11,678
545	Mont	302	1:11,755
546	Rosenbaum	301	1:11,794
547	Méndez	300	1:11,834
547	Rodz	300	1:11,834
549	Vale	299	1:11,873
550	Bonet	298	1:11,913
550	Planadeball	298	1:11,913
552	Arraiza	296	1:11,994
552	Ibarra	296	1:11,994
554	Astacio	294	1:12,075
554	Fonsêca	294	1:12,075
556	Pena	293	1:12,117
556	Perea	293	1:12,117
558	Pellot	292	1:12,158
558	Pinales	292	1:12,158
560	Fortier	290	1:12,242
560	Guzmán	290	1:12,242
562	Lleras	288	1:12,327
563	Carrasco	287	1:12,370
564	Birriel	286	1:12,413
564	Meseguer	286	1:12,413
566	Frometa	282	1:12,589
566	S Rodriguez	282	1:12,589
568	Caro	281	1:12,634
569	Riefkolh	278	1:12,770
570	Conde	275	1:12,910
570	Olivares	275	1:12,910
572	Teissonniere	274	1:12,957
573	Cedeño	273	1:13,004
573	Gascot	273	1:13,004
575	Abdin Velazquez	272	1:13,052
575	Castellon	272	1:13,052
577	Coln	271	1:13,100
577	Quinoñes	271	1:13,100
579	Gómez	270	1:13,149
579	Laracuente	270	1:13,149
581	Santa Pagan	269	1:13,198
582	Justiniano	268	1:13,247
582	Villareal	268	1:13,247
584	Franceschi	266	1:13,346
584	Izquierdo	266	1:13,346
586	Palmer	264	1:13,447
587	Curbelo	262	1:13,550
587	Ithier	262	1:13,550
589	Fonseca	260	1:13,654
590	Cintrón	259	1:13,707
590	del Pilar	259	1:13,707
590	Machicote	259	1:13,707
590	Moro	259	1:13,707
590	Santaella	259	1:13,707
595	Barbosa	257	1:13,814
595	Calderón	257	1:13,814
597	Corchado	256	1:13,868
598	Traverso	255	1:13,922
599	Madera	253	1:14,032
599	Montero	253	1:14,032
601	Avilés	252	1:14,088
601	Longoria	252	1:14,088
603	Jose	251	1:14,144
604	Antonetty	248	1:14,315
605	Aguila	247	1:14,373
605	Blanco	247	1:14,373
605	Polanco	247	1:14,373
605	Valero	247	1:14,373
609	Escobar	244	1:14,550
610	Llanos	243	1:14,610
610	Marti	243	1:14,610
610	Padin	243	1:14,610
610	Villegas	243	1:14,610
614	Prats	241	1:14,731
615	Alcaraz	240	1:14,792
616	Vicente	239	1:14,854
617	Casalduc	238	1:14,917
618	Malavet	236	1:15,043
619	Abdal Ayala	235	1:15,107
620	Garriga	234	1:15,172
621	Loyola	233	1:15,237
621	Veguilla	233	1:15,237
621	Virella	233	1:15,237
624	Roig	231	1:15,369
625	Bolier	230	1:15,435
626	Arias	229	1:15,503
626	Latorre	229	1:15,503
626	Seise	229	1:15,503
629	Coss	228	1:15,571
629	Olivieri	228	1:15,571
631	Babilonia	225	1:15,778
631	Class	225	1:15,778
633	Brito	224	1:15,849
633	Yulfo	224	1:15,849
635	Aguayo	222	1:15,992
635	Cano	222	1:15,992
637	Febles	221	1:16,064
638	Acevedo Justo	219	1:16,211
638	Landron	219	1:16,211
640	Lazu	218	1:16,285
640	Malavé	218	1:16,285
642	Giorgi	217	1:16,360
642	Jorge	217	1:16,360
642	Mieses	217	1:16,360
645	Gauthier	216	1:16,436
646	Hadi	215	1:16,512
646	Lago	215	1:16,512
646	Matías	215	1:16,512
649	Navas	214	1:16,589
649	Samalot	214	1:16,589
651	Droz	213	1:16,667
651	Riera	213	1:16,667
651	Wilson	213	1:16,667
654	Candelario	211	1:16,825
655	Báez	210	1:16,905
655	Piovanetti	210	1:16,905
657	Ceballos	208	1:17,068
658	Adrover	207	1:17,150
658	Green	207	1:17,150
658	Salome	207	1:17,150
661	Garced	206	1:17,234
662	Carrión	205	1:17,318
662	Chacon	205	1:17,318
664	Bracero	204	1:17,403
664	Villoda	204	1:17,403
666	Domínguez	203	1:17,488
666	Font	203	1:17,488
666	Iguina	203	1:17,488
666	Márquez	203	1:17,488
666	Negroni	203	1:17,488
671	Cabassa	202	1:17,575
672	Verdejo	201	1:17,662
673	Bello	200	1:17,751
673	Medero	200	1:17,751
675	Connor	199	1:17,840
675	Guerra	199	1:17,840
675	Laborde	199	1:17,840
678	Arriaga	198	1:17,930
678	Gracia	198	1:17,930
680	Marie	197	1:18,021
680	Menay	197	1:18,021
680	Salichs	197	1:18,021
683	Navaez	196	1:18,113
684	Barnecet	195	1:18,206
684	Bobonis	195	1:18,206
684	Cacho	195	1:18,206
684	Vicens	195	1:18,206
688	Olivo	194	1:18,300
688	Rivero	194	1:18,300
690	Toucet	193	1:18,395
690	Vallejo	193	1:18,395
692	Texidor	192	1:18,490
693	Amaro	191	1:18,587
693	Jesus	191	1:18,587
695	Paraliticci	189	1:18,784
696	Bechore	188	1:18,884
696	Torrens	188	1:18,884
698	Cerrato	187	1:18,985
698	Defendini	187	1:18,985
700	Quiros	186	1:19,087
700	Romacho	186	1:19,087
702	Curet	182	1:19,506
702	N Mercado	182	1:19,506
704	Costas	181	1:19,614
704	Echevarría	181	1:19,614
704	Ledesma	181	1:19,614
704	Pichardo	181	1:19,614
708	Kolthoff	179	1:19,833
709	Espinoza	178	1:19,945
709	Mayol	178	1:19,945
711	Casablanca	176	1:20,171
711	Moralez	176	1:20,171
711	Pomales	176	1:20,171
711	Ruberte	176	1:20,171
711	Selman	176	1:20,171
716	Denis	175	1:20,287
716	Hernadez	175	1:20,287
716	Nevarez	175	1:20,287
716	Pinero	175	1:20,287
720	Graxirena	174	1:20,403
720	Ríos	174	1:20,403
720	Saavedra	174	1:20,403
720	Santa	174	1:20,403
724	Barcelo	173	1:20,521
724	Monge	173	1:20,521
724	Sintes	173	1:20,521
727	Abendaño	172	1:20,640
727	Cardec	172	1:20,640
727	Escribano	172	1:20,640
727	Nogueras	172	1:20,640
731	Krans	171	1:20,761
731	Mass	171	1:20,761
731	Neris	171	1:20,761
731	Pedraza	171	1:20,761
735	Bordlies	170	1:20,883
735	Canals	170	1:20,883
735	Mattei	170	1:20,883
738	Duprey	169	1:21,007
739	Allende	168	1:21,132
739	Segui	168	1:21,132
741	Rexach	167	1:21,258
742	Chico	166	1:21,386
742	Labrador	166	1:21,386
742	Tripari	166	1:21,386
745	Tosado	165	1:21,516
746	Emmanuelli	164	1:21,647
746	Fournier	164	1:21,647
746	Padron	164	1:21,647
746	Todd	164	1:21,647
750	Barja	163	1:21,780
750	Colorado	163	1:21,780
752	Orellana	162	1:21,914
753	Capo	161	1:22,051
753	Gueits	161	1:22,051
755	Adames	160	1:22,188
755	Boyrie	160	1:22,188
755	N Ramirez	160	1:22,188
755	Pimentel	160	1:22,188
759	Cay	159	1:22,328
759	Salazar	159	1:22,328
761	Godineaux	158	1:22,469
761	Monroig	158	1:22,469
763	Grajales	157	1:22,612
763	Santiago Tejada	157	1:22,612
763	Villamarzo	157	1:22,612
766	Benabe	156	1:22,757
766	Piza	156	1:22,757
766	Principe	156	1:22,757
769	Talavera	155	1:22,904
770	Nadal	154	1:23,053
771	Berastain	153	1:23,204
771	Cappas	153	1:23,204
771	Tous	153	1:23,204
771	Valdes	153	1:23,204
775	Fattah	152	1:23,356
775	Fernández	152	1:23,356
775	Jessica	152	1:23,356
778	Folch	151	1:23,511
778	Tania	151	1:23,511
778	Vizcarrondo	151	1:23,511
781	Iglesias	150	1:23,668
781	Yambo	150	1:23,668
783	Caez	148	1:23,987
783	Chamorro	148	1:23,987
783	Colls	148	1:23,987
786	Arzuaga	147	1:24,151
786	Dalmau	147	1:24,151
786	Pastor	147	1:24,151
786	Pons	147	1:24,151
786	Rolón	147	1:24,151
791	Dominicci	146	1:24,316
791	Dávila	146	1:24,316
791	Faccio	146	1:24,316
791	Lee	146	1:24,316
795	Bezares	145	1:24,484
795	Rosello	145	1:24,484
797	Hermina	144	1:24,654
797	Hornedo	144	1:24,654
797	Pico	144	1:24,654
797	Serra	144	1:24,654
801	Villarmarzo	143	1:24,826
802	Núñez	142	1:25,001
803	Bellaflores	140	1:25,358
803	Vital	140	1:25,358
805	Catala	139	1:25,541
805	Cuebas	139	1:25,541
805	Durand	139	1:25,541
805	Lajara	139	1:25,541
805	Marini	139	1:25,541
805	Reveron	139	1:25,541
805	Silvagnoli	139	1:25,541
812	Brahan	138	1:25,726
812	Newlin	138	1:25,726
814	Asencio	137	1:25,913
814	Burgo	137	1:25,913
814	Obergh	137	1:25,913
814	Vela	137	1:25,913
818	Albino	135	1:26,297
818	Guadron	135	1:26,297
818	Oller	135	1:26,297
818	Torrales	135	1:26,297
822	Banchs	134	1:26,494
822	Cerra	134	1:26,494
822	Domenech	134	1:26,494
822	Galloway	134	1:26,494
822	Limardo	134	1:26,494
827	Calcano	133	1:26,693
827	Dejesus	133	1:26,693
827	Estremera	133	1:26,693
827	Nolla	133	1:26,693
827	Pietri	133	1:26,693
832	Alsina	132	1:26,895
832	Añeses	132	1:26,895
832	Calo	132	1:26,895
832	Chaparro	132	1:26,895
832	Cumba	132	1:26,895
832	Landrove	132	1:26,895
832	Las	132	1:26,895
832	Rodrguez	132	1:26,895
840	Agron	131	1:27,100
840	Brignoni	131	1:27,100
840	Frau	131	1:27,100
840	Piña	131	1:27,100
840	Pujols	131	1:27,100
840	Rondon	131	1:27,100
840	Villalba	131	1:27,100
847	Mauroza	129	1:27,520
848	Fantauzzi	128	1:27,735
849	Bou	127	1:27,954
849	Martell	127	1:27,954
849	Padua	127	1:27,954
852	Calzada	126	1:28,176
853	Matos Pedro	125	1:28,401
854	Cortés	124	1:28,630
855	Aguiar	123	1:28,863
855	Menedez	123	1:28,863
855	Valladares	123	1:28,863
858	Cayetano	122	1:29,100
858	Leal	122	1:29,100
858	León	122	1:29,100
858	Moringlane	122	1:29,100
862	Albandoz	121	1:29,340
862	Monteagudo	121	1:29,340
862	Orosco	121	1:29,340
862	Vanga	121	1:29,340
866	Franqui	120	1:29,584
866	Nussa	120	1:29,584
868	Bado	119	1:29,833
868	Carlo	119	1:29,833
868	Echevaria	119	1:29,833
868	Fraga	119	1:29,833
868	Vincenty	119	1:29,833
873	Benet	118	1:30,086
873	Carames	118	1:30,086
873	Grau	118	1:30,086
873	Llaurador	118	1:30,086
873	Maestre	118	1:30,086
878	Chiclana	117	1:30,343
878	Clavell	117	1:30,343
878	Jordan	117	1:30,343
878	Miro	117	1:30,343
878	Pares	117	1:30,343
883	Broun	116	1:30,605
883	Calcaño	116	1:30,605
883	Cestero	116	1:30,605
886	Arzola	115	1:30,871
886	Cales	115	1:30,871
886	Llerena	115	1:30,871
889	Aldarondo	114	1:31,142
889	Baerga	114	1:31,142
889	Balzac	114	1:31,142
889	Corretjer	114	1:31,142
889	Ginard	114	1:31,142
894	Alomar	113	1:31,417
894	Barredo	113	1:31,417
894	Pino	113	1:31,417
894	Terrasa	113	1:31,417
894	Trabal	113	1:31,417
899	Gallardo	112	1:31,698
899	Jovet	112	1:31,698
899	Kuilan	112	1:31,698
899	Montijo	112	1:31,698
903	Danglada	111	1:31,983
903	Tellado	111	1:31,983
903	Uzdavinis	111	1:31,983
906	Aldea	110	1:32,274
906	Ballester	110	1:32,274
906	Falcón	110	1:32,274
906	Moreda	110	1:32,274
910	del Rio Maria	109	1:32,570
910	Girona	109	1:32,570
910	Goitia	109	1:32,570
910	Pineiro	109	1:32,570
914	Alers	108	1:32,872
914	Aresti	108	1:32,872
914	Dieppa	108	1:32,872
914	Mesonero	108	1:32,872
914	Viruet	108	1:32,872
919	Henriquez	107	1:33,179
919	N Lopez	107	1:33,179
919	Pabellon	107	1:33,179
919	Villafane	107	1:33,179
923	Arrivi	106	1:33,492
923	Pabón	106	1:33,492
923	Vergne	106	1:33,492
926	Bazan	105	1:33,811
926	Gaztambide	105	1:33,811
926	Opio	105	1:33,811
926	Salva	105	1:33,811
926	Villamil	105	1:33,811
931	Albarada	104	1:34,136
931	Anglero	104	1:34,136
931	Catalan	104	1:34,136
931	Such	104	1:34,136
935	Carillo	103	1:34,467
935	Quijano	103	1:34,467
935	Santamaria	103	1:34,467
938	Batiz	102	1:34,805
938	Carromero	102	1:34,805
938	Lausell	102	1:34,805
938	Muñis	102	1:34,805
942	Buzo	101	1:35,150
942	Castaing	101	1:35,150
942	Jaime	101	1:35,150
942	Llopiz	101	1:35,150
942	Osório	101	1:35,150
942	Pratts	101	1:35,150
942	Zanabria	101	1:35,150
949	Barriera	100	1:35,501
949	Berberena	100	1:35,501
949	Cedres	100	1:35,501
949	Couret	100	1:35,501
949	Maymi	100	1:35,501
949	Palou	100	1:35,501
955	Chavez	99	1:35,860
955	Joglar	99	1:35,860
955	Olan	99	1:35,860
955	Osuna	99	1:35,860
955	Plata	99	1:35,860
960	Arbelo	98	1:36,226
960	Bauer	98	1:36,226
960	Cardoza	98	1:36,226
960	Cervoni	98	1:36,226
960	Deliz	98	1:36,226
960	Gallegos	98	1:36,226
960	Puerto	98	1:36,226
960	Vina	98	1:36,226
968	Cora	97	1:36,599
968	Dastas	97	1:36,599
968	Lampon	97	1:36,599
968	Mariani	97	1:36,599
968	Pantoja	97	1:36,599
968	Soldevila	97	1:36,599
968	Vaz	97	1:36,599
975	Balaguer	96	1:36,981
975	Carrucini	96	1:36,981
975	Hiraldo	96	1:36,981
975	Novoa	96	1:36,981
975	Sandoval	96	1:36,981
980	Gaud	95	1:37,370
980	Laguna	95	1:37,370
980	Mantilla	95	1:37,370
980	Mena	95	1:37,370
980	Ros Hernandez	95	1:37,370
980	Roure	95	1:37,370
980	Rullan	95	1:37,370
980	Vicenty	95	1:37,370
988	Betances	94	1:37,767
988	Cepero	94	1:37,767
988	de Castro	94	1:37,767
988	de León	94	1:37,767
988	Ferra	94	1:37,767
988	Jurado	94	1:37,767
988	Lorenzana	94	1:37,767
988	Lozano	94	1:37,767
996	Cuesta	93	1:38,174
996	Fontánez	93	1:38,174
996	Moux	93	1:38,174
996	Raices	93	1:38,174
996	Siaca	93	1:38,174
996	Valles	93	1:38,174