1	Wong	1,369	1:205
2	Tetuanui	1,086	1:259
3	Richmond	933	1:301
4	Amaru	865	1:325
5	Mai	798	1:352
6	Lucas	749	1:375
7	Teuira	706	1:398
8	Lai	700	1:401
9	Salmon	694	1:405
10	Chung	669	1:420
11	Hauata	663	1:424
11	Lehartel	663	1:424
13	Chan	632	1:444
14	Bennett	608	1:462
15	Martin	589	1:477
15	Temauri	589	1:477
17	Flores	583	1:482
18	Ly	577	1:487
19	Frogier	540	1:520
20	Lee	534	1:526
21	Ebb	503	1:558
21	Utia	503	1:558
23	Teihotaata	491	1:572
23	Temarii	491	1:572
25	Teriipaia	485	1:579
26	Bonno	479	1:586
26	Tepa	479	1:586
28	Deane	473	1:594
28	Teheiura	473	1:594
30	Viriamu	466	1:603
31	Taerea	460	1:610
31	Tinorua	460	1:610
33	Clark	454	1:619
33	Lau	454	1:619
35	Mou	448	1:627
36	Tehei	442	1:635
37	Barff	436	1:644
38	Cheung	430	1:653
38	Doom	430	1:653
40	Teriierooiterai	417	1:673
41	Poroi	411	1:683
42	Guilloux	405	1:693
42	Manea	405	1:693
42	Siu	405	1:693
45	Hunter	399	1:704
45	Tamarii	399	1:704
47	Colombani	393	1:715
47	Lemaire	393	1:715
47	Tihoni	393	1:715
50	Taputu	387	1:726
50	Tauru	387	1:726
52	Rey	381	1:737
52	Teiho	381	1:737
54	Dauphin	374	1:751
54	Shan	374	1:751
56	Barsinas	368	1:763