1	Payet	28,961	1:29	73.79%	99
2	Grondin	17,842	1:48	74.62%	179
3	Hoarau	17,645	1:48	73.47%	176
4	Hoareau	15,242	1:56	76.50%	229
5	Robert	15,235	1:56	10.82%	3
6	Fontaine	13,188	1:65	23.26%	49
7	Boyer	12,702	1:67	20.56%	37
8	Maillot	10,878	1:78	51.31%	205
9	Dijoux	8,310	1:103	76.69%	514
10	Lebon	7,682	1:111	39.41%	241
11	Clain	6,263	1:136	76.24%	696
12	Riviere	6,046	1:141	21.50%	153
13	Turpin	5,999	1:142	34.12%	286
14	Techer	5,964	1:143	67.13%	652
15	Lauret	5,293	1:161	63.06%	685
16	Morel	4,737	1:180	5.13%	15
17	Mussard	3,856	1:221	68.83%	1,165
18	Picard	3,607	1:237	7.30%	68
19	Begue	3,599	1:237	41.01%	659
20	Nativel	3,493	1:244	78.48%	1,558
21	Gonthier	3,478	1:245	39.79%	664
22	Cadet	2,925	1:292	27.56%	524
23	Thomas	2,802	1:304	2.43%	12
24	Damour	2,755	1:310	49.01%	1,160
25	Huet	2,638	1:323	9.28%	152
26	Martin	2,522	1:338	0.80%	1
27	Etheve	2,511	1:340	72.72%	2,209
28	Pothin	2,451	1:348	71.75%	2,241
29	Sautron	2,399	1:356	81.32%	2,619
30	Barret	2,366	1:361	19.81%	459
31	Dalleau	2,160	1:395	77.45%	2,794
32	Benard	2,030	1:420	12.50%	316
33	Naze	1,990	1:429	73.32%	2,905
34	Vidot	1,935	1:441	77.43%	3,187
35	Lebreton	1,923	1:444	9.75%	236
36	Leperlier	1,907	1:447	78.16%	3,280
37	Vitry	1,869	1:456	47.24%	1,823
38	Baret	1,742	1:490	30.92%	1,156
39	Vienne	1,712	1:498	33.22%	1,284
40	Guichard	1,698	1:502	7.21%	184
41	Chane	1,663	1:513	71.80%	3,499
42	Hubert	1,638	1:521	3.85%	86
43	Lallemand	1,515	1:563	15.16%	560
44	Elisabeth	1,500	1:569	39.44%	1,927
45	Minatchy	1,495	1:571	53.66%	2,797
46	Collet	1,494	1:571	5.36%	156
47	Jean	1,466	1:582	2.59%	51
48	Sery	1,457	1:585	40.26%	2,046
49	Richard	1,424	1:599	1.03%	4
50	Malet	1,411	1:605	18.67%	775
51	Lebeau	1,409	1:605	15.14%	611
52	Marie	1,408	1:606	2.01%	29
53	Morin	1,403	1:608	1.94%	26
54	Nourry	1,362	1:626	23.19%	1,109
55	Gigan	1,329	1:642	66.09%	4,007
56	Pause	1,275	1:669	83.77%	5,510
57	Moutoussamy	1,236	1:690	47.37%	3,045
58	Zitte	1,231	1:693	91.46%	6,420
59	Folio	1,224	1:697	74.09%	5,030
60	Moreau	1,220	1:699	0.93%	7
61	Leveneur	1,210	1:705	71.77%	4,908
62	Blard	1,170	1:729	52.94%	3,669
63	Corre	1,142	1:747	11.47%	563
64	Bernard	1,112	1:767	0.66%	2
65	Michel	1,087	1:785	0.94%	10
66	Pitou	1,033	1:826	50.17%	3,925
67	Poudroux	1,029	1:829	71.91%	5,962
68	Baillif	1,025	1:832	59.63%	4,801
69	Marimoutou	1,023	1:834	43.66%	3,450
70	Hamilcaro	1,001	1:852	86.07%	7,606
71	Padre	992	1:860	79.68%	7,023
72	Cazal	986	1:865	35.91%	2,855
73	Gossard	952	1:896	71.85%	6,545
74	Zettor	940	1:908	89.44%	8,657
75	Plante	933	1:914	42.06%	3,658
76	Laravine	925	1:922	83.03%	8,024
77	Taochy	918	1:929	89.04%	8,857
78	Duchemann	911	1:936	77.07%	7,472
79	Chamand	908	1:939	74.67%	7,217
80	Gastrin	878	1:972	80.48%	8,253
81	Bertil	872	1:978	85.74%	8,995
81	Lambert	872	1:978	1.01%	19
83	Aure	869	1:982	74.27%	7,557
84	Lenclume	866	1:985	90.49%	9,648
85	Chevalier	858	1:994	1.42%	39
86	Laurent	857	1:995	0.71%	9
87	Grosset	852	1:1,001	21.33%	1,796
88	Gauvin	846	1:1,008	17.70%	1,418
89	Virassamy	845	1:1,010	52.52%	5,183
90	Caro	834	1:1,023	13.46%	1,051
90	Noel	834	1:1,023	3.21%	172
92	Gonneau	832	1:1,025	63.66%	6,653
93	Dennemont	820	1:1,040	86.41%	9,749
93	Gence	820	1:1,040	45.18%	4,495
95	Carron	819	1:1,042	19.06%	1,640
96	Araye	814	1:1,048	92.92%	10,645
97	Seychelles	801	1:1,065	90.00%	10,459
98	Adam	800	1:1,066	2.21%	116
99	Dugain	795	1:1,073	84.94%	9,902
100	Sorres	794	1:1,074	90.85%	10,674
101	Serveaux	785	1:1,087	77.88%	9,082
102	Nayagom	784	1:1,088	90.74%	10,804
103	Bigot	770	1:1,108	4.01%	247
103	Rousseau	770	1:1,108	1.10%	30
105	Angama	765	1:1,115	85.67%	10,410
106	Puylaurent	762	1:1,120	95.37%	11,798
107	Selly	753	1:1,133	88.69%	11,010
108	Dambreville	735	1:1,161	53.07%	6,205
109	Sinama	730	1:1,169	59.45%	7,144
110	Laup	728	1:1,172	89.99%	11,640
111	Ricquebourg	726	1:1,175	65.41%	8,058
112	Nirlo	724	1:1,178	78.27%	10,035
113	Boucher	723	1:1,180	2.48%	147
114	Ellama	716	1:1,191	95.85%	12,746
114	Ivoula	716	1:1,191	91.91%	12,133
116	Ramassamy	715	1:1,193	21.21%	2,283
116	Virama	715	1:1,193	92.14%	12,181
118	Atchama	708	1:1,205	93.04%	12,470
119	Severin	699	1:1,220	26.47%	3,003
120	Narayanin	698	1:1,222	79.05%	10,556
121	Apaya	695	1:1,227	97.89%	13,582
121	Catherine	695	1:1,227	9.31%	796
123	Lapierre	690	1:1,236	8.25%	688
124	Bluker	686	1:1,244	93.46%	13,026
125	Nassibou	678	1:1,258	95.22%	13,530
126	Kichenin	675	1:1,264	44.61%	5,548
127	Miranville	664	1:1,285	83.84%	11,910
128	Crescence	662	1:1,289	86.76%	12,430
129	Mazeau	654	1:1,304	14.02%	1,476
130	Javegny	653	1:1,306	95.05%	14,142
130	Louise	653	1:1,306	30.64%	3,792
130	Lucas	653	1:1,306	1.40%	75
133	Mardaye	648	1:1,316	81.41%	11,836
134	Lartin	646	1:1,321	94.17%	14,161
134	Law	646	1:1,321	62.36%	8,796
136	Taristas	638	1:1,337	88.86%	13,397
137	Ferrere	637	1:1,339	45.76%	6,154
138	Basque	629	1:1,356	42.27%	5,672
139	Bardeur	626	1:1,363	83.47%	12,685
139	Paris	626	1:1,363	1.54%	94
141	Latchimy	619	1:1,378	82.20%	12,616
142	Fruteau	616	1:1,385	78.07%	11,961
142	Silotia	616	1:1,385	96.86%	15,420
144	Cazanove	614	1:1,389	81.32%	12,582
145	Grimaud	612	1:1,394	6.28%	580
145	Thiburce	612	1:1,394	72.77%	11,125
147	Ramin	606	1:1,408	56.85%	8,502
148	Ablancourt	603	1:1,415	86.64%	13,920
149	Mounichy	602	1:1,417	85.15%	13,662
150	Agathe	601	1:1,419	68.30%	10,593
150	Lamy	601	1:1,419	2.63%	190
152	Carpaye	600	1:1,422	80.11%	12,704
152	Trules	600	1:1,422	89.82%	14,559
154	Orange	596	1:1,431	21.82%	2,876
155	Ligdamis	595	1:1,434	95.97%	15,882
156	Lorion	590	1:1,446	42.39%	6,154
157	Francoise	589	1:1,448	20.38%	2,680
157	Julie	589	1:1,448	33.52%	4,676
159	Malbrouck	583	1:1,463	93.13%	15,696
160	Suzanne	581	1:1,468	15.97%	2,027
161	Persee	580	1:1,471	94.00%	15,984
162	Panechou	577	1:1,478	98.46%	16,989
162	Sorlier	577	1:1,478	87.29%	14,745
164	Cerveaux	576	1:1,481	60.00%	9,621
164	Palama	576	1:1,481	96.16%	16,574
166	Baptiste	570	1:1,497	7.53%	770
167	Xavier	568	1:1,502	12.68%	1,549
168	Mithra	564	1:1,513	94.31%	16,600
169	Etienne	563	1:1,515	1.74%	130
170	Adrien	559	1:1,526	25.54%	3,704
171	Amouny	556	1:1,534	97.72%	17,584
172	Dupuy	555	1:1,537	1.39%	96
173	Cuvelier	554	1:1,540	9.89%	1,164
174	Kondoki	553	1:1,543	92.32%	16,574
175	Adeler	549	1:1,554	88.83%	15,949
176	Leichnig	546	1:1,562	87.22%	15,696
177	Souprayen	542	1:1,574	68.26%	11,876
178	Chan	541	1:1,577	17.25%	2,461
179	Dubard	538	1:1,586	58.93%	10,175
179	Rinaudo	538	1:1,586	30.83%	4,711
181	Banor	533	1:1,600	80.03%	14,621
182	Roger	530	1:1,610	1.28%	93
183	Marianne	526	1:1,622	56.68%	9,987
183	Masseaux	526	1:1,622	71.18%	12,930
185	Assani	525	1:1,625	9.32%	1,157
186	Itema	523	1:1,631	98.68%	19,051
187	Lucilly	520	1:1,640	97.01%	18,822
188	Olivier	518	1:1,647	1.33%	101
189	Vaitilingom	513	1:1,663	79.78%	15,226
190	Bataille	509	1:1,676	4.48%	490
191	Ferblantier	508	1:1,679	90.55%	17,872
192	Gravina	505	1:1,689	54.65%	10,045
193	Velia	500	1:1,706	76.22%	14,874
194	Leste	498	1:1,713	81.64%	16,211
195	Mondon	491	1:1,737	13.89%	2,125
196	Metro	490	1:1,741	69.70%	13,739
197	Aubras	487	1:1,752	75.27%	15,097
197	Paquiry	487	1:1,752	95.87%	19,988
199	Courtois	486	1:1,755	2.72%	281
199	Imache	486	1:1,755	86.48%	17,827
199	Mercier	486	1:1,755	0.61%	21
202	Boulanger	484	1:1,763	2.03%	181
202	Marka	484	1:1,763	90.64%	18,898
204	Armand	483	1:1,766	4.04%	458
205	Langevillier	481	1:1,774	92.86%	19,541
206	Pajaniaye	477	1:1,788	99.17%	21,198
207	Lefevre	471	1:1,811	0.93%	65
208	Rocrou	469	1:1,819	88.99%	19,176
209	Euphrasie	468	1:1,823	71.78%	14,980
209	Lioni	468	1:1,823	89.31%	19,317
211	Francois	464	1:1,838	1.32%	120
212	Edmond	461	1:1,850	16.87%	2,876
213	Gardebien	460	1:1,854	87.62%	19,275
214	Niobe	459	1:1,859	84.69%	18,551
214	Savigny	459	1:1,859	20.23%	3,578
214	Virapin	459	1:1,859	42.15%	8,271
217	Vergoz	458	1:1,863	61.56%	12,815
218	Ramsamy	457	1:1,867	65.01%	13,739
219	Viraye	455	1:1,875	85.53%	18,975
220	Merlo	454	1:1,879	24.66%	4,410
221	Ali	451	1:1,891	3.31%	388
222	Bijoux	450	1:1,896	67.47%	14,595
222	Hodgi	450	1:1,896	91.84%	20,736
222	Samaria	450	1:1,896	94.94%	21,567
225	Louis	449	1:1,900	0.94%	73
226	Dorval	448	1:1,904	33.38%	6,455
226	Lebihan	448	1:1,904	58.64%	12,413
228	Valentin	447	1:1,908	2.40%	261
229	Calpetard	446	1:1,913	87.97%	20,020
230	Laderval	443	1:1,926	92.87%	21,404
230	Moriscot	443	1:1,926	87.03%	19,934
232	Henry	441	1:1,934	0.67%	33
232	Mogalia	441	1:1,934	98.44%	22,961
232	Myrthe	441	1:1,934	87.15%	20,058
235	Acadine	440	1:1,939	95.24%	22,175
236	Said	439	1:1,943	3.74%	471
237	Durand	438	1:1,948	0.33%	5
238	Ramaye	436	1:1,957	76.36%	17,517
239	Dorla	435	1:1,961	94.57%	22,301
239	Pierre	435	1:1,961	1.23%	119
239	Vincent	435	1:1,961	0.64%	32
242	Rouget	429	1:1,988	10.34%	1,714
243	Vingadassalom	427	1:1,998	76.80%	18,050
244	Fruteau de Laclos	425	1:2,007	97.48%	23,645
245	Mara	423	1:2,017	45.68%	10,018
246	Arzac	421	1:2,026	87.53%	21,198
247	Pignolet	419	1:2,036	36.53%	7,740
248	Galais	418	1:2,041	26.92%	5,397
249	David	415	1:2,056	0.43%	14
249	Jebane	415	1:2,056	90.81%	22,476
251	Victoire	414	1:2,061	27.27%	5,525
252	Coupama	412	1:2,071	88.98%	22,124
253	Gasp	411	1:2,076	90.53%	22,633
253	Mezino	411	1:2,076	81.07%	20,020
255	Smith	410	1:2,081	6.88%	1,099
256	Auguste	409	1:2,086	6.61%	1,055
257	Phileas	408	1:2,091	81.27%	20,235
258	Arginthe	406	1:2,101	97.60%	24,815
258	Toussaint	406	1:2,101	2.46%	309
260	Incana	405	1:2,106	87.47%	22,124
260	Nicole	405	1:2,106	9.81%	1,724
262	Laude	402	1:2,122	11.77%	2,241
262	Vellayoudom	402	1:2,122	93.71%	24,024
264	Sevagamy	401	1:2,127	92.18%	23,696
265	Garcia	400	1:2,133	0.35%	11
266	Derfla	399	1:2,138	98.76%	25,618
266	Perfillon	399	1:2,138	96.14%	24,882
268	Alphonsine	398	1:2,143	59.67%	14,595
268	Deveaux	398	1:2,143	13.74%	2,670
270	Avril	397	1:2,149	4.38%	639
271	Cochard	396	1:2,154	6.98%	1,145
271	Doro	396	1:2,154	63.97%	15,912
273	Jean-Baptiste	389	1:2,193	5.96%	982
273	Madi	389	1:2,193	3.55%	508
275	Prianon	387	1:2,204	84.87%	22,532
276	Niclin	386	1:2,210	85.78%	22,852
277	Esparon	383	1:2,227	71.32%	18,779
277	Magdeleine	383	1:2,227	25.50%	5,600
279	Ancelly	382	1:2,233	90.74%	24,492
279	Brabant	382	1:2,233	10.51%	2,030
279	Lafosse	382	1:2,233	9.72%	1,843
282	Pougary	381	1:2,239	80.72%	21,665
283	Rochefeuille	379	1:2,251	83.30%	22,581
284	Gerville	377	1:2,263	90.19%	24,682
284	Mauve	377	1:2,263	44.09%	10,921
286	Gigant	376	1:2,269	49.02%	12,355
286	Tatel	376	1:2,269	92.61%	25,496
286	Testan	376	1:2,269	88.68%	24,308
289	Gerbith	375	1:2,275	82.60%	22,633
290	Somnica	374	1:2,281	99.47%	27,509
291	Lin	373	1:2,287	10.39%	2,070
292	Mariaye	372	1:2,293	86.71%	24,024
293	Carpin	371	1:2,299	49.60%	12,722
293	Dupuis	371	1:2,299	0.89%	91
293	Tilin	371	1:2,299	88.54%	24,620
296	Abelard	370	1:2,306	39.03%	9,760
296	Ichiza	370	1:2,306	91.58%	25,618
296	Pontalba	370	1:2,306	95.61%	26,703
299	Soupramanien	369	1:2,312	73.65%	20,271
300	Delgard	367	1:2,324	97.09%	27,351
300	Ouledi	367	1:2,324	84.56%	23,764
300	Picardo	367	1:2,324	70.44%	19,436
303	Faconnier	366	1:2,331	95.31%	26,937
304	Gerard	365	1:2,337	1.32%	160
305	Comtois	364	1:2,344	80.35%	22,692
306	K'Bidi	363	1:2,350	96.54%	27,509
306	Mercher	363	1:2,350	57.08%	15,420
306	Mouniapin	363	1:2,350	64.59%	17,827
306	Tacite	363	1:2,350	58.45%	15,848
310	Latchoumaya	362	1:2,357	76.05%	21,462
311	Cataye	361	1:2,363	94.75%	27,146
312	Dubois	358	1:2,383	0.27%	6
313	Imaho	356	1:2,396	85.37%	24,743
314	Bonin	355	1:2,403	3.62%	572
314	Calogine	355	1:2,403	86.37%	25,155
314	Ichane	355	1:2,403	95.69%	27,905
314	Moutama	355	1:2,403	46.83%	12,530
318	Poleya	351	1:2,430	92.13%	27,146
319	Dufour	349	1:2,444	0.59%	44
319	Festin	349	1:2,444	75.87%	22,301
321	Lamoly	348	1:2,451	93.55%	27,838
321	Latchoumanin	348	1:2,451	65.17%	18,898
323	Ducheman	346	1:2,465	96.92%	28,941
323	Dumont	346	1:2,465	0.75%	76
323	Francomme	346	1:2,465	42.25%	11,477
326	Patel	344	1:2,480	23.15%	5,682
327	Mascarel	343	1:2,487	77.25%	23,173
327	Masson	343	1:2,487	0.53%	34
329	Abdou	342	1:2,494	3.40%	553
329	Aipar	342	1:2,494	95.00%	28,709
329	Seusse	342	1:2,494	83.01%	25,089
332	Boulevard	341	1:2,502	91.18%	27,675
332	Calteau	341	1:2,502	69.17%	20,602
334	Benoit	340	1:2,509	0.99%	122
334	Marbois	340	1:2,509	65.38%	19,470
334	Treport	340	1:2,509	95.24%	28,941
337	Figuin	339	1:2,516	88.74%	27,071
337	Gamin	339	1:2,516	50.98%	14,644
337	Vavelin	339	1:2,516	86.04%	26,233
340	Didat	338	1:2,524	74.12%	22,532
340	Reboul	338	1:2,524	4.61%	824
340	Verbard	338	1:2,524	96.02%	29,353
343	Bordier	337	1:2,531	6.07%	1,181
343	Pedre	337	1:2,531	74.39%	22,692
345	Niflore	336	1:2,539	94.12%	28,941
346	Moutien	335	1:2,546	69.79%	21,255
347	Budel	334	1:2,554	88.36%	27,351
347	Taraconat	334	1:2,554	89.54%	27,761
349	Marie-Louise	332	1:2,569	14.17%	3,450
349	Simon	332	1:2,569	0.27%	8
351	Morby	331	1:2,577	75.57%	23,523
352	Araboux	330	1:2,585	93.75%	29,353
353	Andoche	329	1:2,593	82.66%	25,994
354	Dejean	328	1:2,601	4.50%	834
354	Galmar	328	1:2,601	79.81%	25,155
354	Vildeman	328	1:2,601	96.19%	30,294
357	Fatol	327	1:2,609	95.06%	30,043
357	Filaumart	327	1:2,609	99.09%	31,299
357	Mamode	327	1:2,609	52.57%	15,818
360	Alamelou	326	1:2,617	20.62%	5,281
360	Bulin	326	1:2,617	54.61%	16,626
362	Foudrin	325	1:2,625	97.60%	31,013
362	Potin	325	1:2,625	8.41%	1,888
364	Planesse	324	1:2,633	97.89%	31,214
365	Imize	322	1:2,649	89.94%	28,864
365	Mellon	322	1:2,649	51.27%	15,626
367	Clotilde	321	1:2,658	40.23%	11,816
367	Sincere	321	1:2,658	79.26%	25,556
369	Mangata	320	1:2,666	62.87%	19,934
369	Ruth	320	1:2,666	46.85%	14,212
371	Libelle	319	1:2,674	98.76%	31,948
372	Ango	317	1:2,691	52.14%	16,273
373	Samy	316	1:2,700	17.53%	4,537
374	Mouniama	314	1:2,717	92.08%	30,294
375	Labbe	313	1:2,725	3.31%	601
375	Telmar	313	1:2,725	74.35%	24,492
377	Latra	312	1:2,734	83.65%	27,761
377	Philippe	312	1:2,734	0.81%	102
377	Rafougilet	312	1:2,734	95.41%	31,564
380	Germain	311	1:2,743	1.14%	163
380	Natio	311	1:2,743	83.38%	27,761
382	Adolphe	310	1:2,752	18.54%	4,950
382	Sinapan	310	1:2,752	98.73%	32,901
384	Armougom	309	1:2,761	63.84%	21,031
384	Gaudens	309	1:2,761	58.19%	19,016
386	Alavin	307	1:2,779	87.71%	29,542
387	Guerin	305	1:2,797	0.59%	60
387	Langlade	305	1:2,797	10.59%	2,693
387	Rolland	305	1:2,797	0.69%	84
390	Nicolas	304	1:2,806	0.43%	28
391	Ajorque	303	1:2,815	75.75%	25,870
391	Jeannette	303	1:2,815	39.76%	12,450
393	Emma	302	1:2,825	53.64%	17,787
394	Perrot	301	1:2,834	1.14%	169
395	Batty	300	1:2,844	57.69%	19,470
395	Lai	300	1:2,844	16.35%	4,435
395	Latchoumy	300	1:2,844	94.04%	32,359
395	Mailly	300	1:2,844	12.28%	3,274
395	Naguin	300	1:2,844	95.85%	33,010
400	Arhel	299	1:2,853	83.99%	29,031
400	Bazaline	299	1:2,853	96.14%	33,224
402	Abdallah	298	1:2,863	3.34%	649
402	Drula	298	1:2,863	70.28%	24,308
404	Colin	297	1:2,872	0.58%	63
404	Lesquelin	297	1:2,872	91.38%	31,769
404	Velleyen	297	1:2,872	72.79%	25,359
407	Faustin	296	1:2,882	34.66%	10,934
407	Ortain	296	1:2,882	98.34%	34,242
409	Jams	294	1:2,902	97.35%	34,150
409	Marguerite	294	1:2,902	10.29%	2,714
411	Dolphin	293	1:2,911	63.01%	22,009
411	Ollivier	293	1:2,911	1.40%	214
413	Camatchy	290	1:2,942	73.42%	26,178
413	Eclapier	290	1:2,942	81.23%	28,941
413	Moullan	290	1:2,942	89.51%	31,862
413	Numa	290	1:2,942	34.20%	11,025
417	Annette	289	1:2,952	16.71%	4,753
417	Kbidi	289	1:2,952	83.05%	29,709
417	Omarjee	289	1:2,952	89.47%	31,948
417	Rangama	289	1:2,952	92.04%	32,901
421	Brasier	288	1:2,962	30.70%	9,884
421	Idmont	288	1:2,962	94.12%	33,722
421	Juvenal	288	1:2,962	58.66%	20,693
421	Paulo	288	1:2,962	20.43%	6,069
421	Vellin	288	1:2,962	83.24%	29,874
426	Hibon	287	1:2,972	18.22%	5,305
427	Fournier	286	1:2,983	0.33%	18
427	Victorine	286	1:2,983	43.47%	14,825
429	Justine	285	1:2,993	23.83%	7,373
430	Certat	284	1:3,004	93.73%	34,056
430	Roche	284	1:3,004	0.53%	54
432	Abner	283	1:3,014	81.79%	29,874
432	Tarby	283	1:3,014	41.19%	14,142
434	Imara	282	1:3,025	97.58%	35,639
434	Souton	282	1:3,025	46.15%	16,172
434	Trille	282	1:3,025	52.61%	18,822
437	Chellier	281	1:3,036	89.78%	33,010
437	Torpos	281	1:3,036	94.30%	34,564
439	Calcine	280	1:3,047	73.88%	27,289
439	Henriette	280	1:3,047	35.90%	12,117
441	Leocadie	279	1:3,058	63.99%	23,645
441	Promi	279	1:3,058	98.59%	36,380
441	Sarpedon	279	1:3,058	81.82%	30,294
441	Tetia	279	1:3,058	93.00%	34,354
445	Grenier	278	1:3,069	1.68%	310
445	Jalma	278	1:3,069	88.54%	32,901
445	Lagarrigue	278	1:3,069	7.84%	2,112
448	Audifax	277	1:3,080	85.76%	31,948
448	Ogire	277	1:3,080	93.27%	34,695
448	Tailame	277	1:3,080	72.89%	27,226
451	Clotagatide	276	1:3,091	94.20%	35,158
451	Denis	276	1:3,091	0.46%	40
451	Gardenat	276	1:3,091	75.00%	28,114
451	Venerosy	276	1:3,091	72.82%	27,289
455	Gabriel	275	1:3,102	2.60%	526
456	Savrimoutou	273	1:3,125	96.13%	36,253
457	Honorine	272	1:3,136	89.18%	33,834
458	Leroy	271	1:3,148	0.25%	13
459	Casimir	270	1:3,159	16.90%	5,216
459	Guezello	270	1:3,159	64.44%	24,620
459	Jaures	270	1:3,159	69.41%	26,566
459	Saint Alme	270	1:3,159	95.74%	36,504
463	Samelor	269	1:3,171	91.19%	34,941
464	Auberval	268	1:3,183	89.93%	34,564
464	Domitile	268	1:3,183	73.02%	28,195
464	Garnier	268	1:3,183	0.37%	27
464	Tourville	268	1:3,183	48.99%	18,380
468	Covindin	267	1:3,195	94.35%	36,380
468	Didier	267	1:3,195	1.30%	222
468	Judith	267	1:3,195	19.94%	6,475
468	Vinguedassalom	267	1:3,195	96.04%	37,046
472	Aragot	265	1:3,219	98.88%	38,285
472	Bassonville	265	1:3,219	91.07%	35,399
472	Defaud	265	1:3,219	77.71%	30,294
472	Etangsale	265	1:3,219	83.07%	32,359
472	Lemoing	265	1:3,219	32.60%	11,575
472	Quinot	265	1:3,219	30.36%	10,692
472	Sadeyen	265	1:3,219	98.88%	38,285
479	Antaya	264	1:3,231	93.29%	36,380
479	Barbier	264	1:3,231	0.59%	83
479	Moellon	264	1:3,231	94.96%	37,046
479	Sulliman	264	1:3,231	78.81%	30,839
483	Monteville	263	1:3,244	65.91%	25,943
484	Sadon	262	1:3,256	40.75%	15,226
485	Clapier	261	1:3,268	20.63%	6,903
485	Faure	261	1:3,268	0.35%	24
485	Mayot	261	1:3,268	18.89%	6,224
488	Ramouche	260	1:3,281	88.74%	35,158
489	Felix	259	1:3,294	3.48%	805
490	Araux	258	1:3,306	91.49%	36,504
490	Glenac	258	1:3,306	96.99%	38,568
490	Hivanhoe	258	1:3,306	86.00%	34,354
490	Indiana	258	1:3,306	94.51%	37,643
494	Ample	257	1:3,319	86.82%	34,808
494	Douanier	257	1:3,319	87.41%	35,048
494	Faivre	257	1:3,319	1.65%	333
497	Valin	256	1:3,332	9.03%	2,736
498	Leon	255	1:3,345	3.24%	732
499	Allamele	254	1:3,358	84.67%	34,354
499	Billaud	254	1:3,358	3.67%	904
499	Epiphana	254	1:3,358	98.45%	39,723
499	Revel	254	1:3,358	3.93%	998
499	Savignan	254	1:3,358	80.89%	32,901
499	Toinette	254	1:3,358	73.84%	30,043
505	Gaze	253	1:3,372	43.70%	17,255
505	Marcel	253	1:3,372	3.34%	768
507	Assing	252	1:3,385	81.55%	33,430
508	Delaunay	250	1:3,412	1.18%	206
508	Giraud	250	1:3,412	0.56%	82
510	Lefebvre	249	1:3,426	0.31%	20
510	Papaya	249	1:3,426	29.40%	11,036
512	Adras	248	1:3,440	92.54%	38,285
512	Larisson	248	1:3,440	83.22%	34,564
512	Rice	248	1:3,440	47.15%	19,223
512	Vimbouly	248	1:3,440	87.63%	36,380
516	Herraut	247	1:3,454	99.20%	41,114
516	Murat	247	1:3,454	3.76%	973
518	Derand	246	1:3,468	49.50%	20,433
519	Brouhan	245	1:3,482	95.70%	40,012
519	de Fondaumiere	245	1:3,482	70.81%	29,874
519	Georger	245	1:3,482	51.15%	21,313
519	Raymond	245	1:3,482	1.29%	252
523	Anguila	244	1:3,496	92.08%	38,735
524	Esther	243	1:3,511	46.46%	19,351
524	Manouvel	243	1:3,511	89.34%	37,781
526	Deurveilher	242	1:3,525	83.16%	35,399
526	Lacaille	242	1:3,525	8.41%	2,699
528	Maunier	241	1:3,540	18.62%	6,740
529	Lenormand	240	1:3,554	3.64%	968
530	de Boisvilliers	239	1:3,569	72.64%	31,384
530	Dompy	239	1:3,569	98.76%	42,205
530	Pose	239	1:3,569	48.68%	20,693
530	Salvan	239	1:3,569	16.16%	5,716
534	Bonneau	238	1:3,584	1.29%	264
534	Cascade	238	1:3,584	91.19%	39,305
534	Chopinet	238	1:3,584	30.51%	12,117
534	Moisson	238	1:3,584	7.97%	2,586
538	Arnal	237	1:3,599	3.54%	948
538	Dorique	237	1:3,599	95.18%	41,114
538	Singainy	237	1:3,599	81.16%	35,284
541	Blancard	235	1:3,630	23.55%	9,180
541	Bovalo	235	1:3,630	77.05%	33,834
541	Brun	235	1:3,630	0.52%	80
541	Daupiard	235	1:3,630	91.44%	39,879
545	Prugnieres	234	1:3,646	80.41%	35,399
546	D'Eurveilher	233	1:3,661	82.04%	36,253
546	Gilles	233	1:3,661	1.28%	269
546	Merion	233	1:3,661	84.42%	37,281
546	Vigne	233	1:3,661	4.14%	1,159
550	Cavane	232	1:3,677	99.15%	43,588
551	Mander	231	1:3,693	61.76%	27,675
552	Arnassalom	229	1:3,725	83.27%	37,410
552	Berfeuil	229	1:3,725	88.08%	39,438
552	Gruchet	229	1:3,725	61.73%	27,905
555	Dupont	228	1:3,741	0.29%	23
555	Mandrin	228	1:3,741	45.24%	20,133
555	Mola	228	1:3,741	34.23%	14,621
558	Baraka	227	1:3,758	34.34%	14,745
558	Pacca	227	1:3,758	87.31%	39,438
558	Roux	227	1:3,758	0.25%	16
561	Akhoun	226	1:3,775	85.93%	39,013
561	Badin	226	1:3,775	6.98%	2,369
561	Barbe	226	1:3,775	1.45%	334
561	Felicite	226	1:3,775	20.04%	7,903
565	Aubry	225	1:3,791	0.74%	137
565	Berfroi	225	1:3,791	76.01%	34,808
565	Charlettine	225	1:3,791	94.94%	43,035
565	Fos	225	1:3,791	48.49%	22,068
565	Lebian	225	1:3,791	66.57%	30,555
565	Montrouge	225	1:3,791	92.98%	42,205
565	Olivar	225	1:3,791	48.81%	22,250
565	Sornom	225	1:3,791	94.54%	42,874
573	Cocotier	224	1:3,808	91.80%	41,905
573	Garsany	224	1:3,808	90.32%	41,280
573	Roy	224	1:3,808	0.42%	55
573	Tantale	224	1:3,808	89.96%	41,114
577	Delnard	223	1:3,825	87.80%	40,317
577	Elie	223	1:3,825	4.11%	1,212
577	Louisin	223	1:3,825	41.07%	18,518
577	Rato	223	1:3,825	43.30%	19,668
577	Sinimale	223	1:3,825	92.53%	42,384
582	Bertin	222	1:3,843	0.61%	114
582	Lasaone	222	1:3,843	80.73%	37,410
582	Salai	222	1:3,843	91.36%	42,057
582	Sinacouty	222	1:3,843	96.94%	44,463
586	Baleya	221	1:3,860	96.09%	44,266
586	Comorassamy	221	1:3,860	92.86%	42,874
586	Mera	221	1:3,860	45.10%	20,736
586	Picot	221	1:3,860	1.81%	447
586	Zaneguy	221	1:3,860	98.22%	45,187
591	Francia	220	1:3,878	30.64%	13,397
592	Albac	219	1:3,895	66.97%	31,564
592	Georget	219	1:3,895	3.29%	951
594	Abrousse	218	1:3,913	84.17%	39,566
594	Beldan	218	1:3,913	76.49%	36,126
594	Rougemont	218	1:3,913	17.59%	7,064
597	Bellon	217	1:3,931	4.69%	1,492
597	Berrichon	217	1:3,931	80.07%	37,912
597	Doris	217	1:3,931	35.00%	15,882
600	Andy	216	1:3,949	58.70%	28,114
600	Carpanin	216	1:3,949	86.40%	40,939
600	Ho	216	1:3,949	3.35%	1,000
603	Beton	215	1:3,968	35.71%	16,470
603	Celeste	215	1:3,968	23.37%	10,095
603	Gauthier	215	1:3,968	0.37%	45
603	Jonzo	215	1:3,968	93.07%	44,088
603	K'Bidy	215	1:3,968	99.08%	46,684
603	Raynaud	215	1:3,968	1.08%	231
603	Renneville	215	1:3,968	66.98%	32,150
610	Changel	214	1:3,986	91.85%	43,747
610	Dary	214	1:3,986	22.11%	9,536
610	Imiza	214	1:3,986	89.54%	42,706
610	Labonne	214	1:3,986	9.30%	3,525
610	Mansard	214	1:3,986	13.30%	5,183
610	Perrine	214	1:3,986	27.44%	12,117
610	Seraphin	214	1:3,986	37.94%	17,756
610	Thermea	214	1:3,986	85.94%	41,114
618	Baronce	213	1:4,005	80.68%	38,869
618	Lafable	213	1:4,005	90.64%	43,409
618	Velna	213	1:4,005	91.42%	43,747
621	Javary	212	1:4,024	65.63%	31,948
621	Mareux	212	1:4,024	59.55%	29,031
621	Saint-Alme	212	1:4,024	91.77%	44,088
624	Auber	211	1:4,043	10.88%	4,173
624	Sababady	211	1:4,043	81.78%	39,723
626	Langlet	210	1:4,062	3.51%	1,092
626	Royer	210	1:4,062	0.57%	111
626	Timon	210	1:4,062	23.78%	10,556
626	Vilpont	210	1:4,062	78.07%	38,159
630	Ajaguin	209	1:4,082	89.32%	43,588
630	Aly	209	1:4,082	29.73%	13,739
630	Armouet	209	1:4,082	59.21%	29,257
630	Bourbon	209	1:4,082	3.16%	964
630	Burel	209	1:4,082	2.74%	759
630	Isautier	209	1:4,082	81.01%	39,723
630	Ledoyen	209	1:4,082	23.97%	10,703
630	Pelops	209	1:4,082	97.66%	47,306
630	Phalaris	209	1:4,082	95.87%	46,470
639	Delmas	208	1:4,101	1.05%	232
639	Mourouguin	208	1:4,101	81.89%	40,317
639	Paton	208	1:4,101	22.98%	10,278
642	Pariel	207	1:4,121	56.25%	28,114
642	Sinaman	207	1:4,121	84.15%	41,577
644	Joseph	206	1:4,141	1.09%	255
644	Laiton	206	1:4,141	99.52%	48,728
646	Belhomme	205	1:4,161	12.98%	5,286
646	Papou	205	1:4,161	80.08%	40,012
646	Papy	205	1:4,161	25.47%	11,718
646	Sophie	205	1:4,161	7.88%	3,052
646	Tanjon	205	1:4,161	98.09%	48,279
651	Bellune	204	1:4,182	39.69%	19,722
651	Cillon	204	1:4,182	89.87%	44,838
651	Daniel	204	1:4,182	0.56%	117
651	Grace	204	1:4,182	36.36%	17,872
651	M'Tima	204	1:4,182	95.77%	47,518
651	Thiancourt	204	1:4,182	98.08%	48,512
657	Amourdom	203	1:4,202	92.27%	46,106
657	Bancalin	203	1:4,202	85.29%	42,874
657	Bonnet	203	1:4,202	0.29%	31
657	Nabo	203	1:4,202	82.86%	41,730
657	Sidat	203	1:4,202	89.43%	44,838
662	Bacar	202	1:4,223	3.02%	943
662	Gastellier	202	1:4,223	55.34%	28,333
662	Ringuin	202	1:4,223	87.07%	43,905
662	Taffet	202	1:4,223	56.74%	29,031
662	Thionville	202	1:4,223	52.74%	27,010
667	Assoumani	201	1:4,244	17.48%	7,716
667	Basquaise	201	1:4,244	93.93%	47,306
667	Beauval	201	1:4,244	21.92%	10,132
667	Mallet	201	1:4,244	0.82%	174
667	Meyer	201	1:4,244	0.34%	41
667	Molly	201	1:4,244	79.45%	40,467
673	Benoite	200	1:4,265	92.17%	46,684
673	Dallery	200	1:4,265	18.12%	8,116
673	Fleury	200	1:4,265	0.65%	136
673	Ichambe	200	1:4,265	93.90%	47,518
673	Miquel	200	1:4,265	2.54%	730
673	Olivette	200	1:4,265	88.89%	45,187
673	Rickmounie	200	1:4,265	87.72%	44,676
680	Couteyen Carpaye	199	1:4,287	100.00%	50,418
680	Lagourde	199	1:4,287	99.00%	49,960
680	Lardal	199	1:4,287	95.22%	48,279
683	Abrantes	198	1:4,308	23.66%	11,195
683	Bardil	198	1:4,308	76.45%	39,566
683	Bertrand	198	1:4,308	0.27%	25
683	Couturier	198	1:4,308	1.12%	285
683	Darid	198	1:4,308	88.79%	45,546
683	Lavarel	198	1:4,308	78.88%	40,776
683	Lecomte	198	1:4,308	0.58%	123
683	Ponama	198	1:4,308	79.20%	40,939
683	Robiere	198	1:4,308	97.54%	49,567
692	Abouquir	197	1:4,330	86.78%	44,838
692	Lacouture	197	1:4,330	11.19%	4,666
694	Bigey	196	1:4,352	21.17%	10,018
694	Brandon	196	1:4,352	15.19%	6,761
694	Darty	196	1:4,352	37.26%	19,223
697	Ahamada	195	1:4,375	4.03%	1,391
697	Buchle	195	1:4,375	89.86%	46,684
697	Jouvenot	195	1:4,375	34.88%	17,948
697	Ousseni	195	1:4,375	4.08%	1,425
697	Poirier	195	1:4,375	0.87%	194
697	Racine	195	1:4,375	3.96%	1,362
703	Dorseuil	194	1:4,397	78.86%	41,577
703	Gevia	194	1:4,397	91.51%	47,708
703	Govindin	194	1:4,397	22.35%	10,751
703	Tiouira	194	1:4,397	97.49%	50,418
703	Trajean	194	1:4,397	81.51%	42,874
708	Clerville	193	1:4,420	74.81%	39,723
708	Pollux	193	1:4,420	57.78%	30,934
708	Thia	193	1:4,420	89.35%	46,888
711	Alibay	192	1:4,443	44.76%	24,024
711	Boisvilliers	192	1:4,443	91.00%	47,893
711	Duguin	192	1:4,443	83.48%	44,266
711	Ibao	192	1:4,443	97.96%	51,103
711	Irsapoulle	192	1:4,443	95.05%	49,763
711	Paviel	192	1:4,443	80.33%	42,706
711	Vandenesse	192	1:4,443	97.96%	51,103
718	Difernand	191	1:4,466	92.72%	48,940
718	Ognard	191	1:4,466	84.14%	44,838
720	Erudel	190	1:4,490	77.24%	41,577
720	Tionohoue	190	1:4,490	87.16%	46,470
720	Virade	190	1:4,490	97.44%	51,332
723	Camalon	189	1:4,514	63.21%	34,463
723	Martinez	189	1:4,514	0.30%	36
725	Bidois	188	1:4,538	24.16%	12,145
725	Lee	188	1:4,538	5.61%	2,300
725	Mamodaly	188	1:4,538	46.42%	25,556
725	Metanire	188	1:4,538	94.47%	50,418
725	Salez	188	1:4,538	26.74%	13,739
725	Tandrayen	188	1:4,538	95.43%	50,874
731	Allane	187	1:4,562	80.60%	43,905
731	Herode	187	1:4,562	61.72%	34,056
731	Ponin	187	1:4,562	20.22%	10,035
731	Valliame	187	1:4,562	76.33%	41,730
735	Arnaud	186	1:4,586	0.41%	81
735	Basson	186	1:4,586	16.77%	8,074
735	Cazet	186	1:4,586	33.94%	18,347
735	Idmond	186	1:4,586	95.88%	51,549
739	Bouc	185	1:4,611	24.63%	12,657
739	Moinache	185	1:4,611	62.29%	34,695
739	Rubegue	185	1:4,611	66.79%	37,155
742	Gilboire	184	1:4,636	90.64%	49,567
742	Luspot	184	1:4,636	87.20%	47,893
742	Mulot	184	1:4,636	3.78%	1,380
742	Tossam	184	1:4,636	100.00%	53,985
746	Abrador	183	1:4,662	92.42%	50,650
746	Audit	183	1:4,662	69.58%	39,013
746	Barege	183	1:4,662	38.53%	21,514
746	Bortel	183	1:4,662	94.82%	51,782
746	Moutounaick	183	1:4,662	98.92%	53,729
746	Peribe	183	1:4,662	92.89%	50,874
746	Soupou	183	1:4,662	93.85%	51,332
753	Faubourg	182	1:4,687	73.39%	41,280
754	Bourane	181	1:4,713	87.86%	48,940
754	Lhomond	181	1:4,713	41.61%	23,696
754	Padeau	181	1:4,713	75.42%	42,544
754	Perianayagom	181	1:4,713	84.98%	47,518
754	Plessier	181	1:4,713	24.36%	12,844
754	Valliamee	181	1:4,713	92.82%	51,332
760	Arthemise	180	1:4,739	63.16%	36,126
760	Belus	180	1:4,739	64.75%	37,046
760	Ellaya	180	1:4,739	95.24%	52,732
760	Issa	180	1:4,739	11.58%	5,395
760	Pallas	180	1:4,739	15.90%	7,876
760	Sanassy	180	1:4,739	85.31%	47,893
760	Themyr	180	1:4,739	98.36%	54,247
767	Perrin	179	1:4,766	0.31%	48
767	Tremoulu	179	1:4,766	73.97%	42,205
769	Bourhis	178	1:4,792	3.31%	1,228
769	Cyriaque	178	1:4,792	77.39%	44,266
769	Remphan	178	1:4,792	92.23%	51,782
769	Sam	178	1:4,792	11.84%	5,598
769	Valmy	178	1:4,792	32.13%	18,119
774	Doressamy	177	1:4,820	68.08%	39,438
774	Pellier	177	1:4,820	8.17%	3,744
776	Bazin	176	1:4,847	1.10%	321
776	Coukan	176	1:4,847	95.65%	53,985
776	Coutin	176	1:4,847	9.24%	4,243
776	Doxiville	176	1:4,847	92.15%	52,251
776	Evrin	176	1:4,847	91.19%	51,782
776	Montjol	176	1:4,847	98.32%	55,233
776	Ramakistin	176	1:4,847	96.70%	54,499
776	Rubens	176	1:4,847	35.99%	20,782
776	Tirano	176	1:4,847	63.77%	37,281
776	Wolff	176	1:4,847	1.84%	591
786	Bourgogne	175	1:4,875	8.61%	3,962
786	Deletre	175	1:4,875	21.37%	11,477
786	Philogene	175	1:4,875	34.25%	19,844
786	Piquet	175	1:4,875	1.93%	641
786	Roussel	175	1:4,875	0.33%	58
786	Souprayenmestry	175	1:4,875	88.38%	50,650
786	Surveillant	175	1:4,875	92.59%	52,732
793	Avaby	174	1:4,903	99.43%	56,305
793	Bret	174	1:4,903	2.80%	1,043
793	Equixor	174	1:4,903	95.08%	54,247
793	Fougeroux	174	1:4,903	20.59%	11,064
793	Jean-Jacques	174	1:4,903	17.04%	8,961
793	Paulin	174	1:4,903	3.51%	1,340
793	Peron	174	1:4,903	1.68%	533
793	Petit	174	1:4,903	0.48%	115
793	Roullin	174	1:4,903	32.40%	18,779
793	Tessier	174	1:4,903	0.75%	187
803	Abar	173	1:4,931	76.89%	45,187
803	Bima	173	1:4,931	88.27%	51,103
803	Cadi	173	1:4,931	33.53%	19,637
803	Cazeau	173	1:4,931	30.19%	17,442
803	Dafreville	173	1:4,931	82.78%	48,279
803	Desprairies	173	1:4,931	73.93%	43,588
803	Esperance	173	1:4,931	45.29%	27,071
803	Gonneville	173	1:4,931	72.69%	42,874
803	Julienne	173	1:4,931	9.08%	4,243
803	Laurence	173	1:4,931	3.49%	1,347
803	Lear	173	1:4,931	80.09%	46,888
803	Manieca	173	1:4,931	90.58%	52,251
803	Paros	173	1:4,931	96.65%	55,233
803	Potaya	173	1:4,931	100.00%	56,838
817	Perez	172	1:4,960	0.30%	47
817	Saidou	172	1:4,960	32.58%	19,137
817	Salah	172	1:4,960	9.76%	4,659
820	Brunet	171	1:4,989	0.37%	78
820	Cassam	171	1:4,989	50.59%	30,555
820	Houng	171	1:4,989	95.00%	54,985
820	Joron	171	1:4,989	17.70%	9,556
820	Lacroix	171	1:4,989	0.45%	104
820	Li	171	1:4,989	2.89%	1,107
820	Vidal	171	1:4,989	0.30%	46
827	Alcinous	170	1:5,018	98.84%	57,106
827	Lopez	170	1:5,018	0.33%	61
829	Antoinette	169	1:5,048	21.23%	11,836
829	Biclaire	169	1:5,048	100.00%	57,995
829	Brennus	169	1:5,048	69.26%	41,905
829	Clopon	169	1:5,048	83.66%	49,763
829	Cordonin	169	1:5,048	96.57%	56,305
829	Joly	169	1:5,048	0.30%	50
829	Narsou	169	1:5,048	86.22%	51,103
829	Sinope	169	1:5,048	77.88%	46,684
829	Songoro	169	1:5,048	82.84%	49,364
829	Thazar	169	1:5,048	97.13%	56,584
829	Tibere	169	1:5,048	83.66%	49,763
840	Jan	168	1:5,078	2.03%	694
840	Mansoor	168	1:5,078	66.40%	40,467
840	Paus	168	1:5,078	78.87%	47,518
843	Aboudou	167	1:5,108	8.08%	3,913
843	Adelin	167	1:5,108	47.18%	29,176
843	Bupto	167	1:5,108	66.80%	40,939
843	Claire	167	1:5,108	4.54%	1,998
843	Jista	167	1:5,108	81.46%	49,159
843	Mace	167	1:5,108	2.28%	826
843	Thevenin	167	1:5,108	3.51%	1,439
850	Aceldy	166	1:5,139	87.37%	52,489
850	Bello	166	1:5,139	8.13%	3,945
850	Ganofsky	166	1:5,139	76.15%	46,470
850	Garcin	166	1:5,139	2.23%	801
850	Girard	166	1:5,139	0.19%	17
850	Perianin	166	1:5,139	38.69%	24,024
850	Pongerard	166	1:5,139	50.76%	31,564
850	Tonru	166	1:5,139	92.74%	55,233
858	Camy	165	1:5,170	15.51%	8,527
858	Patche	165	1:5,170	89.67%	53,985
858	Sanchez	165	1:5,170	0.34%	70
861	Gourama	164	1:5,202	97.62%	58,261
861	Valgresy	164	1:5,202	86.77%	52,732
863	Arthur	163	1:5,233	11.78%	6,212
863	Augustine	163	1:5,233	15.92%	8,927
863	Baptisto	163	1:5,233	97.02%	58,261
863	Bavol	163	1:5,233	97.60%	58,569
863	Catan	163	1:5,233	42.34%	26,869
863	Florestan	163	1:5,233	92.09%	55,761
863	Galaor	163	1:5,233	66.53%	41,730
863	Lebot	163	1:5,233	18.80%	10,770
863	Ramjane	163	1:5,233	85.79%	52,489
863	Torney	163	1:5,233	73.09%	45,546
873	Ablezot	162	1:5,266	93.10%	56,584
873	Bolon	162	1:5,266	37.59%	23,915
873	Boristhene	162	1:5,266	92.57%	56,305
873	Cerveau	162	1:5,266	20.56%	11,971
873	Guillaume	162	1:5,266	0.39%	92
873	Guimbert	162	1:5,266	38.03%	24,194
873	Viry	162	1:5,266	6.84%	3,411
880	Bernot	161	1:5,299	9.49%	4,874
880	Coulama	161	1:5,299	97.58%	59,152
880	Juan	161	1:5,299	4.01%	1,778
880	Megarus	161	1:5,299	95.27%	57,995
880	Rodriguez	161	1:5,299	0.31%	62
880	Tamaya	161	1:5,299	83.42%	51,782
886	Chow	160	1:5,332	54.98%	35,399
886	Ferrier	160	1:5,332	2.08%	753
886	Fock	160	1:5,332	75.12%	47,518
886	Nerina	160	1:5,332	91.95%	56,584
886	Touneji	160	1:5,332	93.02%	57,106
891	Dobaria	159	1:5,365	85.48%	53,432
891	Gobalraja	159	1:5,365	72.60%	46,302
891	Gourde	159	1:5,365	39.36%	25,618
891	Ludovic	159	1:5,365	31.24%	19,934
891	Nelle	159	1:5,365	63.10%	40,616
891	Zilmia	159	1:5,365	86.89%	54,247
897	Chapelin	158	1:5,399	32.99%	21,313
897	Charles	158	1:5,399	0.37%	85
897	Hamon	158	1:5,399	0.52%	138
897	Rene	158	1:5,399	6.68%	3,413
897	Sisahaye	158	1:5,399	100.00%	61,236
902	Attama	157	1:5,433	92.35%	57,689
902	Florency	157	1:5,433	90.23%	56,584
902	Ghanty	157	1:5,433	74.41%	47,893
902	Rouveau	157	1:5,433	45.38%	29,874
902	Viadere	157	1:5,433	77.34%	49,567
907	Caroupaye	156	1:5,468	84.78%	53,985
908	Affejee	155	1:5,504	94.51%	59,459
908	Box	155	1:5,504	23.07%	14,460
908	Imouza	155	1:5,504	98.73%	61,574
908	Leclerc	155	1:5,504	0.41%	110
908	Soubadou	155	1:5,504	96.88%	60,629
908	Yong	155	1:5,504	33.92%	22,476
914	Albaret	154	1:5,539	10.58%	5,845
914	Aroumougom	154	1:5,539	84.15%	54,247
914	Baron	154	1:5,539	0.41%	109
914	Celestin	154	1:5,539	12.27%	6,960
914	Delphine	154	1:5,539	18.20%	11,048
914	Glamport	154	1:5,539	98.72%	61,887
914	Houssen	154	1:5,539	25.12%	16,102
921	Boudia	153	1:5,576	25.16%	16,273
921	Capounda	153	1:5,576	96.84%	61,236
921	Chassan	153	1:5,576	31.35%	20,841
921	Courteaud	153	1:5,576	49.51%	33,430
921	Janac	153	1:5,576	98.71%	62,172
921	Virin	153	1:5,576	76.12%	49,960
927	Aubert	152	1:5,612	0.30%	64
927	Dagard	152	1:5,612	60.80%	40,939
927	Folgoat	152	1:5,612	84.92%	55,233
927	Gautier	152	1:5,612	0.28%	53
927	Mamindy Pajany	152	1:5,612	99.35%	62,815
927	Nourly	152	1:5,612	85.88%	55,761
927	Sellier	152	1:5,612	2.01%	778
927	Sinan	152	1:5,612	32.41%	21,818
927	Testac	152	1:5,612	87.86%	56,838
936	Benoiton	151	1:5,649	20.57%	13,026
936	Cady	151	1:5,649	26.26%	17,391
936	Cavery	151	1:5,649	96.18%	61,574
936	Gercara	151	1:5,649	87.79%	57,106
936	Mammosa	151	1:5,649	98.05%	62,491
936	Oulia	151	1:5,649	65.09%	43,905
942	Bachelier	150	1:5,687	3.00%	1,324
942	Osiris	150	1:5,687	66.08%	44,838
942	Siampirave	150	1:5,687	96.15%	61,887
942	Thenor	150	1:5,687	97.40%	62,491
946	Barau	149	1:5,725	63.40%	43,409
946	Dany	149	1:5,725	9.68%	5,442
946	Grimoire	149	1:5,725	83.24%	55,233
946	Loricourt	149	1:5,725	65.07%	44,463
946	Mounoussamy	149	1:5,725	69.95%	47,518
951	Delort	148	1:5,764	4.65%	2,424
951	Gonfo	148	1:5,764	91.93%	60,334
951	Ichaye	148	1:5,764	96.73%	62,815
951	Josephine	148	1:5,764	20.19%	13,048
951	Robin	148	1:5,764	0.23%	35
951	Rococo	148	1:5,764	85.06%	56,584
951	Rollin	148	1:5,764	2.13%	903
951	Saminadin	148	1:5,764	38.44%	26,869
951	Sandance	148	1:5,764	95.48%	62,172
951	Sellaye	148	1:5,764	86.55%	57,373
951	Stanislas	148	1:5,764	16.50%	10,369
962	Dally	147	1:5,803	27.53%	18,898
962	Ibouth	147	1:5,803	84.00%	56,305
962	Sampoil	147	1:5,803	96.71%	63,144
965	Abriska	146	1:5,843	99.32%	64,822
965	Klenkle	146	1:5,843	92.99%	61,574
965	Mounien	146	1:5,843	52.52%	37,046
965	Nachiar	146	1:5,843	100.00%	65,144
965	Ravate	146	1:5,843	92.41%	61,236
965	Sigismeau	146	1:5,843	80.66%	54,730
965	Souevamanien	146	1:5,843	80.22%	54,499
972	Alagama	145	1:5,883	88.96%	59,752
972	Alecton	145	1:5,883	87.35%	58,863
972	Alexis	145	1:5,883	3.75%	1,886
972	Alidor	145	1:5,883	20.60%	13,724
972	Arive	145	1:5,883	97.32%	64,161
972	Boutchama	145	1:5,883	91.19%	60,954
972	Caron	145	1:5,883	0.30%	69
972	Delpech	145	1:5,883	1.90%	763
972	Govin	145	1:5,883	15.30%	9,760
972	Jacquemart	145	1:5,883	9.67%	5,612
972	Landry	145	1:5,883	2.09%	902
972	Patouma	145	1:5,883	99.32%	65,144
972	Sinien	145	1:5,883	85.29%	57,689
985	Ajagama	144	1:5,924	97.96%	64,822
985	Antoine	144	1:5,924	0.60%	180
985	Atchicanon	144	1:5,924	99.31%	65,490
985	Bache	144	1:5,924	18.65%	12,255
985	Balaya	144	1:5,924	71.64%	49,960
985	Bazile	144	1:5,924	6.24%	3,519
985	Bodzen	144	1:5,924	81.36%	55,761
985	Clement	144	1:5,924	0.32%	79
985	Deurweilher	144	1:5,924	77.42%	53,432
985	Gaulen	144	1:5,924	88.89%	60,039
985	Ibrahim	144	1:5,924	3.24%	1,558
985	Ignace	144	1:5,924	14.36%	9,134
985	Legros	144	1:5,924	5.51%	3,037
985	Manicon	144	1:5,924	91.72%	61,574
985	Tolsy	144	1:5,924	93.51%	62,491
985	Vu	144	1:5,924	3.63%	1,814