1	Novak	15,245	1:163
2	Horvat	13,308	1:187
3	Krajnc	7,671	1:324
4	Kovačič	7,633	1:326
5	Zupančič	6,730	1:370
6	Potočnik	6,440	1:386
7	Kovač	6,364	1:391
8	Mlakar	5,391	1:461
9	Kos	5,271	1:472
10	Golob	5,253	1:474
10	Vidmar	5,253	1:474
12	Turk	4,766	1:522
13	Božič	4,692	1:530
14	Kralj	4,659	1:534
15	Korošec	4,507	1:552
16	Bizjak	4,373	1:569
17	Zupan	4,275	1:582
18	Kotnik	4,260	1:584
19	Hribar	4,179	1:595
20	Kavčič	4,089	1:608
21	Rozman	4,071	1:611
22	Oblak	3,915	1:635
23	Petek	3,887	1:640
24	Kolar	3,877	1:642
25	Kastelic	3,836	1:649
26	Žagar	3,807	1:653
27	Hočevar	3,784	1:657
28	Košir	3,740	1:665
29	Koren	3,601	1:691
30	Klemenčič	3,285	1:757
31	Zajc	3,130	1:795
32	Knez	3,064	1:812
33	Medved	3,019	1:824
34	Zupanc	2,813	1:884
35	Petrič	2,805	1:887
36	Pirc	2,727	1:912
37	Hrovat	2,655	1:937
38	Lah	2,620	1:949
39	Pavlič	2,608	1:954
40	Kuhar	2,571	1:968
41	Zorko	2,533	1:982
42	Tomažič	2,510	1:991
42	Uršič	2,510	1:991
44	Babič	2,506	1:993
45	Erjavec	2,457	1:1,012
46	Jerman	2,446	1:1,017
47	Sever	2,444	1:1,018
48	Jereb	2,410	1:1,032
49	Kranjc	2,401	1:1,036
50	Majcen	2,385	1:1,043
51	Furlan	2,338	1:1,064
52	Pušnik	2,336	1:1,065
53	Rupnik	2,328	1:1,069
54	Breznik	2,316	1:1,074
55	Lesjak	2,309	1:1,077
56	Perko	2,287	1:1,088
57	Kovačević	2,280	1:1,091
58	Dolenc	2,274	1:1,094
59	Logar	2,255	1:1,103
60	Jenko	2,234	1:1,114
61	Močnik	2,231	1:1,115
62	Pečnik	2,225	1:1,118
63	Pavlin	2,217	1:1,122
64	Ribič	2,175	1:1,144
65	Žnidaršič	2,159	1:1,152
66	Vidic	2,137	1:1,164
67	Jelen	2,135	1:1,165
68	Tomšič	2,131	1:1,167
69	Petrović	2,124	1:1,171
70	Janežič	2,088	1:1,191
71	Marolt	2,082	1:1,195
72	Pintar	2,070	1:1,202
73	Gregorič	2,050	1:1,214
74	Maček	2,039	1:1,220
75	Zadravec	2,023	1:1,230
76	Dolinar	2,018	1:1,233
77	Černe	2,014	1:1,235
78	Fras	2,008	1:1,239
79	Hren	2,007	1:1,239
80	Leban	2,004	1:1,241
81	Kocjančič	2,002	1:1,243
81	Mihelič	2,002	1:1,243
83	Lešnik	1,995	1:1,247
84	Blatnik	1,992	1:1,249
85	Bezjak	1,990	1:1,250
86	Čeh	1,960	1:1,269
87	Kokalj	1,951	1:1,275
88	Cerar	1,946	1:1,278
89	Jug	1,942	1:1,281
90	Kobal	1,925	1:1,292
91	Rus	1,899	1:1,310
92	Vidovič	1,893	1:1,314
93	Bogataj	1,865	1:1,334
93	Primožič	1,865	1:1,334
95	Kolenc	1,847	1:1,347
96	Lazar	1,823	1:1,365
97	Nemec	1,818	1:1,368
98	Jovanović	1,807	1:1,377
99	Kolarič	1,803	1:1,380
100	Kosi	1,788	1:1,391
101	Hodžić	1,781	1:1,397
102	Mrak	1,780	1:1,398
103	Ivančič	1,777	1:1,400
104	Tavčar	1,775	1:1,402
105	Lavrič	1,767	1:1,408
106	Kodrič	1,751	1:1,421
107	Žižek	1,750	1:1,422
108	Marković	1,747	1:1,424
109	Debeljak	1,746	1:1,425
110	Krivec	1,739	1:1,431
111	Vodopivec	1,717	1:1,449
112	Zver	1,709	1:1,456
113	Likar	1,694	1:1,469
113	Miklavčič	1,694	1:1,469
115	Jarc	1,691	1:1,471
116	Kramberger	1,689	1:1,473
117	Toplak	1,688	1:1,474
118	Vovk	1,686	1:1,475
119	Skok	1,679	1:1,482
120	Ilić	1,665	1:1,494
121	Hribernik	1,661	1:1,498
122	Jazbec	1,654	1:1,504
123	Žibert	1,653	1:1,505
124	Leskovar	1,642	1:1,515
125	Sitar	1,633	1:1,523
126	Stopar	1,628	1:1,528
127	Meglič	1,618	1:1,538
128	Eržen	1,614	1:1,541
129	Petrovič	1,612	1:1,543
130	Gorenc	1,610	1:1,545
131	Nikolić	1,591	1:1,564
132	Simonič	1,588	1:1,567
133	Železnik	1,580	1:1,574
134	Demšar	1,579	1:1,575
135	Blažič	1,578	1:1,576
136	Popović	1,571	1:1,583
137	Šinkovec	1,555	1:1,600
138	Ramšak	1,538	1:1,617
139	Hozjan	1,531	1:1,625
140	Kočevar	1,516	1:1,641
141	Javornik	1,504	1:1,654
142	Čuk	1,503	1:1,655
143	Filipič	1,499	1:1,660
144	Jamnik	1,480	1:1,681
145	Gorjup	1,474	1:1,688
146	Volk	1,470	1:1,692
147	Rutar	1,447	1:1,719
148	Kramar	1,435	1:1,734
149	Podgoršek	1,434	1:1,735
150	Savić	1,432	1:1,737
151	Bukovec	1,430	1:1,740
152	Bregar	1,426	1:1,745
152	Kokol	1,426	1:1,745
152	Rajh	1,426	1:1,745
155	Pintarič	1,425	1:1,746
156	Koželj	1,418	1:1,754
157	Hafner	1,402	1:1,774
158	Gajšek	1,398	1:1,779
159	Mohorič	1,396	1:1,782
160	Godec	1,388	1:1,792
161	Lebar	1,386	1:1,795
162	Gashi	1,383	1:1,799
162	Sušnik	1,383	1:1,799
164	Gomboc	1,380	1:1,803
165	Mavrič	1,377	1:1,807
166	Kumer	1,375	1:1,809
167	Rožič	1,374	1:1,811
168	Šmid	1,373	1:1,812
169	Rožman	1,369	1:1,817
170	Pogačnik	1,368	1:1,818
171	Bergant	1,367	1:1,820
172	Cvetko	1,354	1:1,837
173	Pavlović	1,350	1:1,843
174	Zemljič	1,349	1:1,844
175	Mlinar	1,348	1:1,845
176	Krasniqi	1,345	1:1,850
177	Bajc	1,337	1:1,861
178	Kristan	1,330	1:1,870
179	Ambrožič	1,327	1:1,875
180	Resnik	1,325	1:1,877
181	Babić	1,324	1:1,879
181	Bevc	1,324	1:1,879
183	Povše	1,316	1:1,890
183	Tratnik	1,316	1:1,890
185	Zakrajšek	1,304	1:1,908
186	Kalan	1,296	1:1,920
187	Begić	1,293	1:1,924
188	Markovič	1,285	1:1,936
189	Humar	1,284	1:1,937
190	Zorman	1,282	1:1,940
191	Mlinarič	1,277	1:1,948
192	Hadžić	1,274	1:1,953
192	Kaučič	1,274	1:1,953
194	Zalar	1,273	1:1,954
195	Jerič	1,270	1:1,959
196	Rojc	1,266	1:1,965
197	Gruden	1,264	1:1,968
198	Stojanović	1,260	1:1,974
199	Založnik	1,259	1:1,976
200	Trček	1,256	1:1,981
201	Pogačar	1,255	1:1,982
202	Zalokar	1,254	1:1,984
203	Gorišek	1,234	1:2,016
204	Štrukelj	1,231	1:2,021
205	Pirnat	1,228	1:2,026
205	Šuligoj	1,228	1:2,026
207	Kranjec	1,220	1:2,039
208	Fekonja	1,213	1:2,051
209	Strnad	1,212	1:2,053
210	Smrekar	1,211	1:2,054
210	Škof	1,211	1:2,054
212	Zorec	1,206	1:2,063
213	Romih	1,200	1:2,073
213	Šuštar	1,200	1:2,073
215	Vesel	1,198	1:2,077
216	Muhič	1,187	1:2,096
217	Pahor	1,179	1:2,110
218	Bračko	1,178	1:2,112
219	Marinič	1,170	1:2,126
219	Miklič	1,170	1:2,126
219	Pevec	1,170	1:2,126
222	Šturm	1,168	1:2,130
223	Kukovec	1,166	1:2,134
224	Brglez	1,164	1:2,137
225	Simčič	1,163	1:2,139
226	Kocjan	1,161	1:2,143
227	Dolinšek	1,158	1:2,148
227	Kogovšek	1,158	1:2,148
229	Rudolf	1,146	1:2,171
230	Jančič	1,145	1:2,173
230	Križman	1,145	1:2,173
230	Podobnik	1,145	1:2,173
233	Arh	1,140	1:2,182
234	Krašovec	1,139	1:2,184
235	Bučar	1,137	1:2,188
236	Murko	1,135	1:2,192
237	Petrovčič	1,133	1:2,196
238	Papež	1,131	1:2,200
239	Mohar	1,130	1:2,201
240	Turnšek	1,123	1:2,215
241	Kosmač	1,118	1:2,225
242	Tomažin	1,115	1:2,231
243	Kosec	1,114	1:2,233
244	Juvan	1,113	1:2,235
245	Sluga	1,112	1:2,237
246	Mesarič	1,110	1:2,241
246	Starc	1,110	1:2,241
248	Vuković	1,109	1:2,243
249	Verbič	1,106	1:2,249
250	Jager	1,101	1:2,259
250	Vogrin	1,101	1:2,259
250	Vrhovnik	1,101	1:2,259
253	Planinc	1,100	1:2,262
254	Dizdarević	1,099	1:2,264
254	Kotar	1,099	1:2,264
256	Žnidarič	1,098	1:2,266
257	Ferk	1,087	1:2,289
258	Ravnikar	1,083	1:2,297
258	Vončina	1,083	1:2,297
260	Hrvatin	1,081	1:2,301
261	Robič	1,077	1:2,310
262	Lipovšek	1,074	1:2,316
263	Brajdič	1,065	1:2,336
263	Tomić	1,065	1:2,336
263	Vuk	1,065	1:2,336
266	Jančar	1,063	1:2,340
267	Peternel	1,060	1:2,347
268	Lončar	1,059	1:2,349
269	Praprotnik	1,056	1:2,356
270	Hojnik	1,054	1:2,360
270	Zidar	1,054	1:2,360
272	Kenda	1,051	1:2,367
273	Veber	1,046	1:2,378
274	Halilović	1,045	1:2,381
275	Grošelj	1,044	1:2,383
276	Šušteršič	1,041	1:2,390
277	Simončič	1,037	1:2,399
278	Skubic	1,035	1:2,404
278	Urh	1,035	1:2,404
280	Plut	1,027	1:2,422
281	Stanković	1,026	1:2,425
282	Habjan	1,025	1:2,427
282	Nagode	1,025	1:2,427
284	Klemenc	1,021	1:2,437
285	Balažic	1,019	1:2,441
285	Cimerman	1,019	1:2,441
287	Stare	1,014	1:2,453
288	Kern	1,011	1:2,461
289	Cafuta	1,006	1:2,473
289	Urbančič	1,006	1:2,473
291	Virant	1,003	1:2,480
292	Jeraj	1,001	1:2,485
293	Naglič	999	1:2,490
294	Mali	997	1:2,495
295	Oman	993	1:2,505
296	Bračič	992	1:2,508
297	Primc	991	1:2,510
297	Zajec	991	1:2,510
299	Grašič	990	1:2,513
300	Benko	986	1:2,523
300	Fabjan	986	1:2,523
302	Možina	984	1:2,528
302	Topolovec	984	1:2,528
302	Trstenjak	984	1:2,528
305	Hudorovac	983	1:2,531
305	Makovec	983	1:2,531
307	Kraševec	982	1:2,533
308	Lampret	979	1:2,541
308	Rojko	979	1:2,541
310	Peternelj	978	1:2,544
311	Hvala	977	1:2,546
312	Gantar	976	1:2,549
313	Gril	975	1:2,551
314	Fink	974	1:2,554
314	Rijavec	974	1:2,554
316	Bratina	972	1:2,559
316	Pečar	972	1:2,559
318	Grm	971	1:2,562
319	Lenarčič	968	1:2,570
319	Roškar	968	1:2,570
321	Repnik	967	1:2,573
322	Klopčič	966	1:2,575
323	Kladnik	965	1:2,578
324	Planinšek	964	1:2,581
324	Polak	964	1:2,581
326	Delić	961	1:2,589
327	Umek	958	1:2,597
328	Martinčič	957	1:2,599
328	Sedej	957	1:2,599
330	Gobec	955	1:2,605
331	Frelih	954	1:2,608
331	Simić	954	1:2,608
333	Jordan	953	1:2,610
334	Emeršič	952	1:2,613
334	Lukić	952	1:2,613
334	Rebernik	952	1:2,613
337	Kokot	948	1:2,624
338	Ornik	947	1:2,627
338	Šega	947	1:2,627
340	Babnik	946	1:2,630
341	Leskovšek	944	1:2,635
342	Drnovšek	942	1:2,641
342	Mastnak	942	1:2,641
344	Iskra	941	1:2,644
344	Kušar	941	1:2,644
344	Modic	941	1:2,644
347	Hrastnik	940	1:2,646
347	Pajk	940	1:2,646
349	Vogrinec	939	1:2,649
350	Udovič	934	1:2,663
351	Krapež	933	1:2,666
352	Praznik	931	1:2,672
353	Avsec	929	1:2,678
353	Gornik	929	1:2,678
353	Žnidar	929	1:2,678
356	Šabić	928	1:2,681
357	Cesar	927	1:2,684
358	Kocbek	926	1:2,686
359	Jović	925	1:2,689
360	Pečovnik	924	1:2,692
361	Drobnič	923	1:2,695
361	Rogelj	923	1:2,695
363	Hauptman	921	1:2,701
364	Gaber	918	1:2,710
364	Gros	918	1:2,710
366	Bele	916	1:2,716
366	Peterlin	916	1:2,716
368	Habjanič	914	1:2,722
368	Knežević	914	1:2,722
368	Senica	914	1:2,722
371	Valenčič	908	1:2,740
372	Frank	906	1:2,746
373	Matjašič	903	1:2,755
373	Šubic	903	1:2,755
375	Lorber	902	1:2,758
376	Leskovec	901	1:2,761
377	Križaj	900	1:2,764
378	Požar	899	1:2,767
379	Grah	898	1:2,770
379	Plohl	898	1:2,770
381	Mitrović	897	1:2,773
382	Kopač	896	1:2,776
383	Klančnik	893	1:2,786
384	Mušič	892	1:2,789
385	Šket	890	1:2,795
386	Beganović	887	1:2,805
386	Kržišnik	887	1:2,805
388	Gregorčič	885	1:2,811
388	Klančar	885	1:2,811
388	Štefančič	885	1:2,811
391	Dobnik	884	1:2,814
392	Ristić	883	1:2,817
393	Bajt	882	1:2,820
393	Okorn	882	1:2,820
393	Polanec	882	1:2,820
396	Dežman	881	1:2,824
396	Lazić	881	1:2,824
398	Debevec	878	1:2,833
399	Dedić	876	1:2,840
400	Kuzma	875	1:2,843
401	Podgornik	873	1:2,850
402	Avdić	871	1:2,856
403	Gradišnik	870	1:2,859
404	Plevnik	869	1:2,863
405	Drevenšek	868	1:2,866
406	Todorović	867	1:2,869
407	Ban	865	1:2,876
407	Berisha	865	1:2,876
407	Zore	865	1:2,876
410	Smole	864	1:2,879
410	Vaupotič	864	1:2,879
412	Gorše	856	1:2,906
413	Kurnik	855	1:2,910
414	Kozar	853	1:2,916
415	Sajovic	851	1:2,923
415	Smodiš	851	1:2,923
417	Ocvirk	850	1:2,927
418	Bernik	846	1:2,941
418	Bertoncelj	846	1:2,941
420	Florjančič	845	1:2,944
420	Matko	845	1:2,944
422	Fajfar	844	1:2,947
422	Ocepek	844	1:2,947
424	Hriberšek	841	1:2,958
424	Poljanšek	841	1:2,958
426	Prah	840	1:2,962
427	Marušič	839	1:2,965
427	Munda	839	1:2,965
429	Adamič	837	1:2,972
429	Slana	837	1:2,972
431	Malovrh	836	1:2,976
432	Gačnik	835	1:2,979
433	Selan	834	1:2,983
434	Ficko	833	1:2,986
434	Jelenc	833	1:2,986
434	Kmetec	833	1:2,986
434	Pipan	833	1:2,986
438	Bauman	830	1:2,997
438	Kolman	830	1:2,997
440	Jakopič	829	1:3,001
440	Rotar	829	1:3,001
440	Škulj	829	1:3,001
443	Divjak	828	1:3,004
444	Jaklič	825	1:3,015
445	Rupar	824	1:3,019
446	Stropnik	823	1:3,023
447	Marić	821	1:3,030
447	Podlesnik	821	1:3,030
447	Slak	821	1:3,030
450	Grilc	820	1:3,034
451	Vodušek	819	1:3,037
451	Vrečko	819	1:3,037
453	Bašić	817	1:3,045
453	Janžekovič	817	1:3,045
455	Kerin	813	1:3,060
456	Arnuš	807	1:3,083
456	Bytyqi	807	1:3,083
456	Tušek	807	1:3,083
459	Marič	806	1:3,086
459	Pišek	806	1:3,086
461	Štefanič	804	1:3,094
462	Duh	802	1:3,102
463	Ličen	801	1:3,106
463	Markič	801	1:3,106
465	Brečko	798	1:3,117
465	Čuček	798	1:3,117
467	Hajdinjak	796	1:3,125
467	Prosen	796	1:3,125
467	Zagorc	796	1:3,125
470	Klinc	795	1:3,129
470	Kostanjevec	795	1:3,129
472	Mulec	792	1:3,141
473	Laznik	790	1:3,149
473	Žitnik	790	1:3,149
475	Brus	789	1:3,153
475	Janković	789	1:3,153
477	Majer	787	1:3,161
478	Mihelčič	786	1:3,165
478	Ogrizek	786	1:3,165
480	Bajec	785	1:3,169
480	Pivk	785	1:3,169
482	Jurkovič	782	1:3,181
482	Kočar	782	1:3,181
484	Časar	779	1:3,193
485	Boštjančič	776	1:3,206
485	Oražem	776	1:3,206
487	Vučko	775	1:3,210
488	Murn	773	1:3,218
489	Goričan	771	1:3,227
490	Fortuna	769	1:3,235
490	Grobelnik	769	1:3,235
490	Grum	769	1:3,235
490	Kraner	769	1:3,235
494	Troha	768	1:3,239
495	Kmetič	767	1:3,243
496	Markelj	765	1:3,252
496	Sobočan	765	1:3,252
498	Tomše	762	1:3,265
499	Bratuša	761	1:3,269
499	Saje	761	1:3,269
501	Križan	758	1:3,282
502	Pavšič	757	1:3,286
503	Čaušević	756	1:3,291
504	Marinšek	755	1:3,295
504	Varga	755	1:3,295
504	Zupanič	755	1:3,295
507	Brumen	753	1:3,304
507	Gorjanc	753	1:3,304
507	Košak	753	1:3,304
507	Lovšin	753	1:3,304
507	Meško	753	1:3,304
512	Bobnar	752	1:3,308
512	Pučko	752	1:3,308
512	Sagadin	752	1:3,308
515	Benedičič	751	1:3,312
515	Lavrenčič	751	1:3,312
517	Jagodic	750	1:3,317
518	Jurič	749	1:3,321
518	Škufca	749	1:3,321
520	Oven	748	1:3,326
521	Dvoršak	744	1:3,344
521	Štern	744	1:3,344
523	Klobučar	742	1:3,353
523	Vrbnjak	742	1:3,353
525	Česnik	740	1:3,362
526	Bajrić	739	1:3,366
526	Koritnik	739	1:3,366
526	Lukman	739	1:3,366
529	Bevk	738	1:3,371
530	Čadež	737	1:3,375
531	Muratović	736	1:3,380
532	Mihalič	735	1:3,385
532	Tkalec	735	1:3,385
534	Ramić	734	1:3,389
534	Trobec	734	1:3,389
536	Jamšek	733	1:3,394
536	Klinar	733	1:3,394
538	Bohinc	732	1:3,398
538	Žerjav	732	1:3,398
540	Mohorko	731	1:3,403
540	Ploj	731	1:3,403
542	Hartman	730	1:3,408
543	Marn	729	1:3,412
543	Strašek	729	1:3,412
545	Robnik	728	1:3,417
545	Vrhovec	728	1:3,417
547	Leben	726	1:3,427
547	Stanič	726	1:3,427
549	Flis	725	1:3,431
550	Prezelj	724	1:3,436
550	Završnik	724	1:3,436
552	Debelak	722	1:3,446
553	Perme	721	1:3,450
553	Prelog	721	1:3,450
555	Korez	717	1:3,470
555	Prašnikar	717	1:3,470
557	Ambrož	716	1:3,474
558	Grmek	715	1:3,479
558	Petković	715	1:3,479
560	Burja	714	1:3,484
560	Ojsteršek	714	1:3,484
562	Velikonja	713	1:3,489
563	Gregorc	712	1:3,494
564	Pinter	711	1:3,499
564	Švigelj	711	1:3,499
566	Starič	710	1:3,504
567	Pirš	708	1:3,514
567	Potokar	708	1:3,514
569	Kogoj	707	1:3,519
570	Lorenčič	706	1:3,524
571	Marin	702	1:3,544
571	Mozetič	702	1:3,544
573	Drofenik	701	1:3,549
573	Duraković	701	1:3,549
573	Podpečan	701	1:3,549
576	Tušar	700	1:3,554
577	Sterle	699	1:3,559
578	Benedik	697	1:3,569
578	Božić	697	1:3,569
578	Fišer	697	1:3,569
578	Vidrih	697	1:3,569
582	Abram	696	1:3,574
582	Lužar	696	1:3,574
582	Pavlovič	696	1:3,574
582	Štravs	696	1:3,574
586	Jankovič	695	1:3,579
587	Benčina	693	1:3,590
588	Švab	692	1:3,595
589	Orel	691	1:3,600
590	Justin	690	1:3,605
591	Dornik	689	1:3,611
591	Kovačec	689	1:3,611
593	Šeruga	688	1:3,616
594	Đukić	687	1:3,621
595	Belšak	686	1:3,626
595	Urankar	686	1:3,626
597	Medvešek	685	1:3,632
597	Šolar	685	1:3,632
599	Brkić	683	1:3,642
600	Arko	681	1:3,653
600	Ažman	681	1:3,653
600	Baša	681	1:3,653
600	Kirbiš	681	1:3,653
604	Avbelj	680	1:3,658
604	Rejc	680	1:3,658
606	Prijatelj	677	1:3,675
607	Klun	676	1:3,680
607	Maučec	676	1:3,680
607	Senekovič	676	1:3,680
607	Črešnar	676	1:3,680
611	Herman	675	1:3,685
611	Lapajne	675	1:3,685
611	Pregelj	675	1:3,685
611	Rot	675	1:3,685
615	Lukač	673	1:3,696
616	Levstek	672	1:3,702
616	Škrlj	672	1:3,702
618	Grčar	671	1:3,707
618	Križnik	671	1:3,707
618	Šmigoc	671	1:3,707
621	Kožuh	670	1:3,713
621	Pucelj	670	1:3,713
621	Saksida	670	1:3,713
621	Vindiš	670	1:3,713
621	Žužek	670	1:3,713
626	Hostnik	669	1:3,718
626	Ogrin	669	1:3,718
628	Lenart	667	1:3,730
628	Prinčič	667	1:3,730
628	Velić	667	1:3,730
631	Bešić	666	1:3,735
631	Omahen	666	1:3,735
633	Ipavec	665	1:3,741
634	Klemen	664	1:3,746
634	Sirk	664	1:3,746
636	Fajdiga	663	1:3,752
637	Ferjančič	660	1:3,769
637	Jan	660	1:3,769
639	Belec	657	1:3,786
639	Marc	657	1:3,786
641	Satler	656	1:3,792
641	Škrinjar	656	1:3,792
643	Jazbinšek	655	1:3,798
643	Kavaš	655	1:3,798
643	Osredkar	655	1:3,798
643	Rak	655	1:3,798
643	Tomc	655	1:3,798
648	Kozjek	654	1:3,804
648	Kregar	654	1:3,804
648	Kresnik	654	1:3,804
651	Gajić	652	1:3,815
651	Podlogar	652	1:3,815
653	Baloh	651	1:3,821
653	Ivanović	651	1:3,821
653	Đurić	651	1:3,821
656	Kociper	650	1:3,827
656	Urbanc	650	1:3,827
658	Maksimović	649	1:3,833
658	Omerović	649	1:3,833
660	Juhart	648	1:3,839
661	Deželak	647	1:3,845
661	Pliberšek	647	1:3,845
661	Živković	647	1:3,845
664	Miklavc	646	1:3,851
664	Urbanija	646	1:3,851
666	Glavan	644	1:3,863
666	Kobe	644	1:3,863
666	Pirih	644	1:3,863
666	Rakovec	644	1:3,863
666	Žigon	644	1:3,863
671	Kac	643	1:3,869
671	Petkovšek	643	1:3,869
671	Sovič	643	1:3,869
674	Ljubijankić	642	1:3,875
674	Magdič	642	1:3,875
676	Brumec	641	1:3,881
677	Avguštin	640	1:3,887
677	Lotrič	640	1:3,887
677	Zavrl	640	1:3,887
680	Mušić	639	1:3,893
680	Torkar	639	1:3,893
682	Kravanja	638	1:3,899
682	Marinko	638	1:3,899
684	Borovnik	637	1:3,905
684	Keber	637	1:3,905
684	Lisjak	637	1:3,905
684	Porenta	637	1:3,905
688	Poljanec	636	1:3,911
689	Pšeničnik	635	1:3,918
689	Svenšek	635	1:3,918
691	Jež	634	1:3,924
691	Mikuž	634	1:3,924
693	Gračner	633	1:3,930
693	Petelin	633	1:3,930
695	Bitenc	632	1:3,936
695	Pugelj	632	1:3,936
695	Černigoj	632	1:3,936
698	Drolc	631	1:3,942
698	Mulej	631	1:3,942
698	Peterka	631	1:3,942
701	Flisar	630	1:3,949
701	Plahuta	630	1:3,949
703	Alič	629	1:3,955
703	Lampe	629	1:3,955
703	Ledinek	629	1:3,955
706	Furman	628	1:3,961
706	Slapnik	628	1:3,961
706	Stevanović	628	1:3,961
709	Šalamun	627	1:3,968
710	Jurca	625	1:3,980
710	Kramer	625	1:3,980
712	Jaušovec	624	1:3,987
713	Marjanović	623	1:3,993
713	Ponikvar	623	1:3,993
713	Rebolj	623	1:3,993
713	Salkić	623	1:3,993
713	Smolej	623	1:3,993
713	Volf	623	1:3,993
719	Hladnik	622	1:3,999
719	Milošević	622	1:3,999
721	Gabrovec	621	1:4,006
721	Svetina	621	1:4,006
723	Kovše	620	1:4,012
723	Nuhanović	620	1:4,012
723	Perc	620	1:4,012
723	Radić	620	1:4,012
723	Udovč	620	1:4,012
728	Zabukovec	619	1:4,019
729	Kerec	618	1:4,025
729	Zavec	618	1:4,025
731	Blagojević	617	1:4,032
731	Grabnar	617	1:4,032
733	Ivanuša	616	1:4,038
733	Šoštarič	616	1:4,038
735	Borko	615	1:4,045
735	Kadunc	615	1:4,045
735	Kunej	615	1:4,045
735	Veselič	615	1:4,045
739	Jošt	614	1:4,052
739	Lončarič	614	1:4,052
739	Mori	614	1:4,052
739	Trošt	614	1:4,052
743	Franko	613	1:4,058
743	Janc	613	1:4,058
743	Lukan	613	1:4,058
743	Štumberger	613	1:4,058
747	Kozole	610	1:4,078
747	Recek	610	1:4,078
747	Samec	610	1:4,078
747	Škrjanec	610	1:4,078
751	Fijavž	609	1:4,085
751	Kukovič	609	1:4,085
751	Peklar	609	1:4,085
754	Jelenko	608	1:4,092
754	Kvas	608	1:4,092
754	Maver	608	1:4,092
754	Pestotnik	608	1:4,092
754	Žakelj	608	1:4,092
759	Birsa	604	1:4,119
759	Jagodič	604	1:4,119
761	Luzar	603	1:4,125
761	Sukič	603	1:4,125
761	Sušec	603	1:4,125
764	Draksler	602	1:4,132
764	Mernik	602	1:4,132
766	Jesenko	600	1:4,146
767	Cankar	599	1:4,153
767	Mehle	599	1:4,153
767	Mikolič	599	1:4,153
767	Pretnar	599	1:4,153
771	Intihar	598	1:4,160
771	Kapun	598	1:4,160
771	Lubej	598	1:4,160
771	Pejić	598	1:4,160
771	Turšič	598	1:4,160
776	Pungartnik	597	1:4,167
776	Vidović	597	1:4,167
778	Strmšek	596	1:4,174
779	Dekleva	595	1:4,181
780	Bartol	594	1:4,188
780	Gale	594	1:4,188
782	Knavs	593	1:4,195
782	Koštomaj	593	1:4,195
782	Tovornik	593	1:4,195
785	Urbas	592	1:4,202
786	Vogrinčič	591	1:4,209
787	Lorbek	590	1:4,216
787	Rihter	590	1:4,216
789	Jelovčan	589	1:4,224
789	Kamenšek	589	1:4,224
789	Resman	589	1:4,224
789	Škafar	589	1:4,224
793	Kirn	587	1:4,238
793	Penko	587	1:4,238
795	Šegula	585	1:4,252
796	Koprivec	584	1:4,260
796	Obreza	584	1:4,260
796	Pivec	584	1:4,260
799	Bremec	583	1:4,267
799	Guček	583	1:4,267
799	Štuhec	583	1:4,267
802	Panić	580	1:4,289
802	Pelko	580	1:4,289
802	Petan	580	1:4,289
805	Milavec	579	1:4,297
806	Gričar	578	1:4,304
806	Istenič	578	1:4,304
806	Novaković	578	1:4,304
806	Osolnik	578	1:4,304
806	Rakuša	578	1:4,304
806	Strgar	578	1:4,304
812	Šuštaršič	577	1:4,311
813	Jakše	576	1:4,319
813	Kozel	576	1:4,319
815	Remic	575	1:4,326
816	Perić	574	1:4,334
817	Buh	573	1:4,341
818	Razboršek	572	1:4,349
819	Perčič	571	1:4,357
819	Sevšek	571	1:4,357
821	Amon	570	1:4,364
821	Brezovnik	570	1:4,364
821	Jezernik	570	1:4,364
821	Lipovec	570	1:4,364
825	Dobnikar	569	1:4,372
825	Rebec	569	1:4,372
825	Šauperl	569	1:4,372
828	Lindič	568	1:4,380
828	Valentinčič	568	1:4,380
830	Morina	567	1:4,387
831	Kožar	566	1:4,395
832	Arzenšek	565	1:4,403
832	Končan	565	1:4,403
834	Komac	564	1:4,411
835	Osojnik	563	1:4,419
835	Topić	563	1:4,419
837	Mehić	562	1:4,426
838	Koščak	561	1:4,434
839	Dremelj	560	1:4,442
839	Vičič	560	1:4,442
841	Majerič	559	1:4,450
841	Vrtačnik	559	1:4,450
843	Car	557	1:4,466
843	Mihevc	557	1:4,466
843	Sotlar	557	1:4,466
846	Krušič	556	1:4,474
846	Metelko	556	1:4,474
846	Švajger	556	1:4,474
849	Ravnjak	555	1:4,482
849	Rode	555	1:4,482
851	Dajčman	554	1:4,490
851	Kržič	554	1:4,490
853	Baranja	553	1:4,499
853	Jeseničnik	553	1:4,499
853	Podržaj	553	1:4,499
853	Poljšak	553	1:4,499
853	Selič	553	1:4,499
853	Verdnik	553	1:4,499
859	Krajnik	551	1:4,515
859	Mahne	551	1:4,515
859	Malnar	551	1:4,515
859	Puc	551	1:4,515
859	Zorc	551	1:4,515
864	Filipović	550	1:4,523
864	Kastelec	550	1:4,523
864	Marinčič	550	1:4,523
867	Kerčmar	549	1:4,531
867	Komel	549	1:4,531
869	Mujić	548	1:4,540
870	Škoberne	547	1:4,548
871	Ciglar	546	1:4,556
871	Husić	546	1:4,556
871	Selimović	546	1:4,556
874	Nemanič	545	1:4,565
875	Gašperšič	544	1:4,573
875	Pernat	544	1:4,573
877	Ravnik	543	1:4,581
877	Vatovec	543	1:4,581
879	Kragelj	542	1:4,590
879	Muršec	542	1:4,590
881	Lazarević	541	1:4,598
881	Šinko	541	1:4,598
883	Nose	539	1:4,615
883	Zamuda	539	1:4,615
885	Ceglar	538	1:4,624
885	Plestenjak	538	1:4,624
887	Hercog	537	1:4,633
888	Kužnik	536	1:4,641
888	Matić	536	1:4,641
888	Pogorevc	536	1:4,641
888	Strajnar	536	1:4,641
892	Ogrinc	535	1:4,650
893	Berce	534	1:4,659
893	Kumar	534	1:4,659
893	Mahnič	534	1:4,659
893	Režonja	534	1:4,659
893	Rošer	534	1:4,659
893	Vodeb	534	1:4,659
899	Sodja	533	1:4,667
900	Kondić	532	1:4,676
900	Mirt	532	1:4,676
900	Špes	532	1:4,676
903	Strle	531	1:4,685
903	Čepin	531	1:4,685
903	Šarkezi	531	1:4,685
906	Huskić	530	1:4,694
906	Ćosić	530	1:4,694
908	Lozar	529	1:4,703
908	Mavsar	529	1:4,703
908	Čas	529	1:4,703
908	Čop	529	1:4,703
912	Gradišar	528	1:4,712
912	Lesar	528	1:4,712
914	Stanonik	527	1:4,720
915	Antolin	526	1:4,729
915	Berginc	526	1:4,729
915	Čuš	526	1:4,729
915	Špacapan	526	1:4,729
919	Klobasa	525	1:4,738
919	Nahtigal	525	1:4,738
919	Ogorevc	525	1:4,738
919	Pezdirc	525	1:4,738
923	Hari	523	1:4,757
923	Križnar	523	1:4,757
923	Ovčar	523	1:4,757
923	Zaletel	523	1:4,757
927	Sladič	522	1:4,766
927	Škrlec	522	1:4,766
929	Bračun	521	1:4,775
929	Dolar	521	1:4,775
929	Palčič	521	1:4,775
932	Krmelj	520	1:4,784
932	Treven	520	1:4,784
934	Potrč	519	1:4,793
934	Seljak	519	1:4,793
934	Zaletelj	519	1:4,793
937	Štraus	518	1:4,802
938	Fujs	517	1:4,812
938	Galun	517	1:4,812
938	Gazvoda	517	1:4,812
938	Voglar	517	1:4,812
938	Štemberger	517	1:4,812
943	Bole	516	1:4,821
943	Džafić	516	1:4,821
945	Mijatović	515	1:4,830
946	Adam	514	1:4,840
946	Brdnik	514	1:4,840
946	Lovrec	514	1:4,840
949	Očko	513	1:4,849
949	Plavčak	513	1:4,849
951	Hodnik	512	1:4,859
951	Koprivc	512	1:4,859
951	Slabe	512	1:4,859
951	Žohar	512	1:4,859
955	Škorjanc	511	1:4,868
956	Bratkovič	510	1:4,878
957	Musić	509	1:4,887
957	Vehovec	509	1:4,887
959	Batič	508	1:4,897
959	Hudorovič	508	1:4,897
959	Zadnik	508	1:4,897
959	Štular	508	1:4,897
963	Curk	507	1:4,907
963	Glavač	507	1:4,907
963	Čermelj	507	1:4,907
966	Cvikl	506	1:4,916
966	Gabrovšek	506	1:4,916
968	Gartner	505	1:4,926
968	Tratnjek	505	1:4,926
968	Žunko	505	1:4,926
971	Golja	504	1:4,936
971	Golobič	504	1:4,936
971	Suhadolnik	504	1:4,936
971	Vrečar	504	1:4,936
971	Čretnik	504	1:4,936
976	Jerebic	503	1:4,946
976	Lužnik	503	1:4,946
978	Cener	502	1:4,956
979	Doberšek	501	1:4,965
979	Kejžar	501	1:4,965
979	Rant	501	1:4,965
979	Smajlović	501	1:4,965
979	Vodovnik	501	1:4,965
979	Vrabec	501	1:4,965
985	Mežnar	500	1:4,975
985	Zgonc	500	1:4,975
987	Zevnik	499	1:4,985
988	Polajnar	498	1:4,995
988	Senčar	498	1:4,995
988	Shala	498	1:4,995
988	Vasić	498	1:4,995
988	Čarman	498	1:4,995
993	Jurić	497	1:5,005
993	Marko	497	1:5,005
993	Tekavec	497	1:5,005
996	Dečman	496	1:5,015
996	Ozmec	496	1:5,015
998	Jusić	495	1:5,026
998	Lekše	495	1:5,026
1000	Iršič	494	1:5,036
1000	Mahmutović	494	1:5,036
