1	Richardson	4,409	1:8
2	Gumbs	2,373	1:15
3	Hodge	1,718	1:20
4	Williams	1,679	1:21
5	Lake	1,625	1:22
6	Arrindell	1,505	1:23
7	Joseph	1,501	1:23
8	Peterson	1,280	1:27
9	Carty	1,183	1:30
10	James	1,097	1:32
11	Brown	1,059	1:33
12	Thomas	1,047	1:34
13	Wilson	1,016	1:35
14	Brooks	962	1:37
15	Fleming	814	1:43
16	Charles	776	1:45
17	Smith	725	1:48
18	Jones	655	1:54
19	York	648	1:54
20	Pantophlet	620	1:57
21	Rogers	617	1:57
22	George	582	1:60
22	Henry	582	1:60
24	Pierre	578	1:61
25	Webster	520	1:68
26	Marlin	508	1:69
27	Jean	493	1:71
27	Rombley	493	1:71
29	Flanders	489	1:72
30	Davis	477	1:74
31	Halley	43	1:818
32	Bryson	31	1:1,134
32	de Weever	31	1:1,134
34	Cannegieter	27	1:1,302
34	Daniel	27	1:1,302
34	Hazel	27	1:1,302
37	Illidge	23	1:1,529