1	Smith	112	1:13	0.82%	1
2	Johnson	50	1:28	0.81%	19
2	Lee	50	1:28	0.79%	16
2	Williams	50	1:28	0.57%	2
5	Kalolo	37	1:38	46.84%	9,018
5	Miller	37	1:38	0.66%	36
5	Singh	37	1:38	0.54%	10
8	Campbell	25	1:56	0.45%	38