1	Charyeva	80,130	1:69
2	Charyev	77,796	1:71
3	Ataeva	74,683	1:73
4	Ataev	73,220	1:75
5	Kurbanova	66,772	1:82
6	Kurbanov	62,993	1:87
7	Saparova	58,546	1:94
8	Saparov	56,842	1:97
9	Amanova	54,822	1:100
10	Durdyeva	54,248	1:101
11	Durdyev	53,711	1:102
12	Amanov	53,229	1:103
13	Orazova	50,857	1:108
14	Ovezova	50,607	1:108
15	Ovezov	49,616	1:111
16	Orazov	49,375	1:111
17	Meredova	48,393	1:113
18	Meredov	47,448	1:116
19	Atayeva	39,695	1:138
20	Atayev	38,537	1:142
21	Saparow	34,683	1:158
22	Kerimova	34,479	1:159
23	Kerimov	33,479	1:164
24	Meredow	32,997	1:166
25	Gurbanova	32,840	1:167
26	Gurbanow	32,756	1:168
27	Gurbanov	32,515	1:169
28	Redzhepova	32,247	1:170
29	Dzhumaeva	31,941	1:172
30	Rejepow	31,793	1:173
31	Nuryeva	31,385	1:175
32	Dzhumaev	31,311	1:175
32	Redzhepov	31,311	1:175
34	Nuryev	31,070	1:177
35	Alieva	30,246	1:181
36	Berdiyew	30,107	1:182
37	Turkmen	29,866	1:184
38	Annaeva	29,190	1:188
39	Annaev	28,903	1:190
40	Aliev	28,532	1:192
41	Ashirova	27,541	1:199
42	Ashirov	26,735	1:205
43	Jumayew	25,531	1:215
44	Berdyeva	25,308	1:217
45	Rejepova	25,058	1:219
46	Berdyev	24,808	1:221
46	Rejepov	24,808	1:221
48	Bayramow	24,326	1:226
49	Rozyeva	24,085	1:228
50	Rozyev	23,845	1:230
51	Taganova	23,335	1:235
52	Esenova	23,076	1:238
53	Taganov	22,881	1:240
54	Ashyrova	22,826	1:240
55	Esenov	22,399	1:245
56	Dovletova	22,325	1:246
56	Kulieva	22,325	1:246
58	Ashyrov	22,159	1:248
59	Kurbanow	21,918	1:250
60	Dovletov	21,677	1:253
60	Kuliev	21,677	1:253
62	Berdiyeva	20,093	1:273
63	Nepesova	19,945	1:275
64	Nepesov	19,750	1:278
65	Babayew	19,509	1:281
65	Berdiyev	19,509	1:281
65	Nazarow	19,509	1:281
68	Amanow	19,268	1:285
69	Dzhoraeva	18,731	1:293
70	Charyyew	18,546	1:296
70	Dzhoraev	18,546	1:296
70	Myradow	18,546	1:296
73	Batyrova	18,425	1:298
74	Batyrov	18,064	1:304
74	Mamedova	18,064	1:304
76	Mammedova	17,267	1:318
77	Mammedov	17,101	1:321
77	Orazow	17,101	1:321
79	Mamedov	17,045	1:322
80	Klycheva	17,027	1:322
81	Annayew	16,860	1:326
81	Ashyrow	16,860	1:326
81	Klychev	16,860	1:326
84	Annamuradova	16,786	1:327
85	Annamuradov	16,619	1:330
86	Durdyyew	16,378	1:335
86	Owezow	16,378	1:335
88	Muradow	15,896	1:345
89	Mukhammedova	15,878	1:346
90	Mukhammedov	15,415	1:356
91	Agaeva	15,081	1:364
92	Agaev	14,933	1:368
93	Akhmedova	14,785	1:371
94	Geldyeva	14,738	1:372
95	Geldyev	14,451	1:380
96	Byashimova	14,349	1:383
97	Byashimov	14,210	1:386
98	Akhmedov	14,081	1:390
99	Guseynova	14,007	1:392
99	Karaeva	14,007	1:392
101	Muhammedow	13,970	1:393
102	Atadzhanova	13,868	1:396
103	Atadzhanov	13,729	1:400
103	Karaev	13,729	1:400
105	Geldiyew	13,488	1:407
106	Guseynov	13,340	1:411
107	Annayeva	13,266	1:414
108	Hudayberdiyew	13,247	1:414
109	Chariyeva	13,136	1:418
110	Charyyeva	13,025	1:421
111	Annayev	13,006	1:422
111	Chariyev	13,006	1:422
113	Charyyev	12,765	1:430
113	Mamedow	12,765	1:430
115	Mammedow	12,284	1:447
115	Rozyyew	12,284	1:447
117	Rozmetova	12,154	1:452
118	Grigoryants	12,043	1:456
119	Myradova	11,922	1:460
119	Saryeva	11,922	1:460
121	Myradov	11,802	1:465
121	Rozmetov	11,802	1:465
121	Saryev	11,802	1:465
124	Atamuradova	11,793	1:465
125	Rahmanova	11,663	1:471
126	Atamuradov	11,561	1:475
127	Geldiyeva	11,542	1:476
128	Geldiyev	11,320	1:485
128	Rahmanov	11,320	1:485
130	Khydyrova	11,190	1:491
131	Khallyeva	11,163	1:492
132	Khydyrov	11,079	1:495
133	Khallyev	10,838	1:506
134	Muhammedova	10,811	1:508
135	Bashimova	10,672	1:514
135	Soyunova	10,672	1:514
137	Muhammedov	10,598	1:518
138	Nazarova	10,496	1:523
139	Bashimov	10,357	1:530
139	Nuryyew	10,357	1:530
139	Soyunov	10,357	1:530
142	Nazarov	10,190	1:539
143	Charyew	10,116	1:543
143	Meredowa	10,116	1:543
145	Geldieva	9,977	1:550
146	Geldiev	9,875	1:556
147	Bazarow	9,634	1:570
148	Durdyyeva	9,579	1:573
149	Durdyyev	9,393	1:584
150	Gasanova	9,347	1:587
151	Akmuradova	9,338	1:588
152	Akmuradov	9,152	1:600
153	Gasanov	9,078	1:605
154	Allanazarova	9,004	1:610
154	Shamuradova	9,004	1:610
156	Dovranova	8,930	1:615
157	Allanazarov	8,912	1:616
157	Kurbanowa	8,912	1:616
157	Shamuradov	8,912	1:616
160	Cherkezova	8,680	1:632
160	Hojayeva	8,680	1:632
162	Abdullayew	8,671	1:633