1	Soares	82,704	1:15
2	Guterres	45,111	1:27
3	Pereira	44,610	1:27
4	da Costa	44,109	1:28
5	Ximenes	43,106	1:28
6	Amaral	35,087	1:35
6	Martins	35,087	1:35
8	Belo	34,585	1:35
9	Freitas	32,580	1:37
9	Pinto	32,580	1:37
11	Sántos	30,074	1:40
12	Alves	29,573	1:41
13	Fernandes	28,570	1:43
14	Sarmento	27,568	1:44
15	da Silva	26,566	1:46
16	Costa	25,062	1:49
17	Gusmao	23,057	1:53
18	Araújo	22,054	1:55
19	Lopes	21,553	1:56
20	Silva	20,049	1:61
21	Sousa	16,541	1:74
22	dos Santos	16,040	1:76
23	Gomes	15,538	1:78
24	Moniz	15,037	1:81
24	Ribeiro	15,037	1:81
26	de Jesus	14,035	1:87
27	Correia	13,533	1:90
28	Barreto	13,032	1:93
28	Tilman	13,032	1:93
30	Cardoso	12,531	1:97
30	da Cruz	12,531	1:97
32	Gonçalves	12,030	1:101
32	Oliveira	12,030	1:101
32	de Araújo	12,030	1:101
35	Boavida	11,528	1:105
36	Cruz	11,027	1:110
37	Maia	10,526	1:116
38	Magno	10,025	1:121
39	Marçal	9,523	1:128
39	Monteiro	9,523	1:128
41	Almeida	9,022	1:135
42	Barros	8,521	1:143
42	Mendonça	8,521	1:143
42	Reis	8,521	1:143
45	Borges	8,020	1:152