1	Latu	2,697	1:40
2	Fifita	2,312	1:46
3	Finau	2,102	1:51
4	Tupou	2,032	1:53
5	Mafi	1,997	1:54
6	Wang	1,716	1:63
7	Lin	1,681	1:64
8	Fonua	1,611	1:67
9	Chen	1,576	1:68
10	Moala	1,436	1:75
11	Havea	1,401	1:77
12	Manu	1,366	1:79
13	Taufa	1,331	1:81
14	Vea	1,261	1:85
15	Huang	1,191	1:90
16	Taumoepeau	1,086	1:99
17	Guo	1,051	1:102
17	Palu	1,051	1:102
19	Li	946	1:113
20	Tukuafu	876	1:123
21	Cocker	841	1:128
22	Nau	806	1:133
23	Yu	771	1:139
24	Langi	736	1:146
24	Sika	736	1:146
26	Faletau	701	1:153
26	Soakai	701	1:153
28	Smith	666	1:161
29	Vi	631	1:170
30	Edwards	596	1:180