1	Yılmaz	1,109,235	1:70
2	Kaya	790,743	1:98
3	Demir	751,428	1:104
4	Çelik	637,902	1:122
5	Şahin	636,235	1:122
6	Yıldız	622,287	1:125
7	Yıldırım	609,239	1:128
8	Öztürk	554,491	1:140
9	Aydın	552,074	1:141
10	Özdemir	515,332	1:151
11	Arslan	467,981	1:166
12	Doğan	446,602	1:174
13	Kılıç	401,026	1:194
14	Aslan	344,771	1:226
15	Çetin	321,248	1:242
16	Kara	265,333	1:293
17	Koç	263,643	1:295
18	Kurt	257,520	1:302
19	Özkan	237,450	1:328
20	Acar	232,579	1:335
21	Polat	231,720	1:336
22	Şimşek	231,173	1:337
23	Korkmaz	228,139	1:341
24	Özcan	227,593	1:342
25	Erdoğan	223,037	1:349
26	Çakir	221,764	1:351
27	Yavuz	217,109	1:358
28	Can	215,134	1:362
29	Şen	210,019	1:371
30	Yalçın	206,892	1:376
31	Güler	205,890	1:378
32	Aktaş	202,031	1:385
33	Güneş	196,113	1:397
34	Bozkurt	190,299	1:409
35	Bulut	189,411	1:411
36	Işık	187,734	1:415
37	Turan	183,506	1:424
38	Keskin	182,686	1:426
39	Avci	181,912	1:428
40	Ünal	181,022	1:430
41	Gül	179,096	1:435
42	Coşkun	178,418	1:436
43	Özer	177,174	1:439
44	Kaplan	172,777	1:450
45	Sari	170,360	1:457
46	Tekin	160,971	1:483
47	Taş	160,621	1:485
48	Yüksel	157,379	1:494
49	Köse	156,279	1:498
50	Ateş	154,977	1:502
51	Aksoy	151,685	1:513
52	Yiğit	151,680	1:513
53	Karataş	150,964	1:515
54	Uzun	149,162	1:522
55	Ceylan	144,289	1:539
56	Karaca	143,641	1:542
57	Çiftçi	143,047	1:544
58	Çiçek	141,569	1:550
59	Çoban	140,967	1:552
60	Çalişkan	140,161	1:555
61	Yaşar	137,919	1:564
62	Demirci	136,535	1:570
63	Bayram	133,718	1:582
64	Deniz	133,573	1:583
65	Çakmak	132,391	1:588
66	Güngör	130,128	1:598
67	Uçar	128,101	1:608
68	Erdem	126,952	1:613
69	Kahraman	124,318	1:626
70	Uysal	123,484	1:630
71	Genç	123,240	1:631
72	Çinar	123,229	1:632
73	Duman	122,602	1:635
74	Akın	122,024	1:638
75	Sönmez	120,727	1:645
76	Demirel	118,420	1:657
77	Ay	117,039	1:665
78	Kilinç	116,463	1:668
79	Koçak	116,032	1:671
80	Mutlu	115,528	1:674
81	Küçük	114,140	1:682
82	Çetinkaya	114,080	1:682
83	Yaman	113,501	1:686
84	Altun	111,596	1:697
85	Gündüz	111,090	1:701
86	Gümüş	110,961	1:701
87	Öz	104,900	1:742
88	Eren	103,389	1:753
89	Aydemir	103,288	1:753
90	Çolak	103,210	1:754
91	Tunç	103,115	1:755
92	Karakaya	103,093	1:755
93	Güven	103,027	1:755
94	Kartal	102,731	1:758
95	Gök	101,119	1:770
96	Karaman	100,315	1:776
97	Dönmez	100,194	1:777
98	Erol	98,187	1:793
99	Aksu	98,147	1:793
100	Alkan	97,222	1:800
101	Tosun	96,222	1:809
102	Özen	95,908	1:811
103	Türk	95,645	1:814
104	Balci	94,807	1:821
105	Sağlam	94,351	1:825
106	Karakuş	94,303	1:825
107	Cengiz	93,549	1:832
108	Çevik	93,455	1:833
109	Güzel	92,664	1:840
110	Karabulut	91,123	1:854
111	Akbaş	90,757	1:857
112	Keleş	90,330	1:862
113	Duran	90,210	1:863
114	Durmuş	90,128	1:863
115	Ince	89,838	1:866
116	Baş	87,925	1:885
117	Eroğlu	86,648	1:898
118	Akkaya	85,994	1:905
119	Akbulut	85,193	1:913
120	Demirtaş	85,159	1:914
121	Durmaz	84,962	1:916
122	Akgün	84,923	1:916
123	Yücel	84,395	1:922
124	Uslu	84,277	1:923
125	Dursun	83,903	1:928
126	Aydoğan	83,428	1:933
127	Yazici	83,224	1:935
128	Özçelik	81,538	1:954
129	Er	81,491	1:955
130	Çelebi	81,472	1:955
131	Koca	79,846	1:975
132	Karagöz	79,694	1:977
133	Ünlü	79,374	1:980
134	Ekinci	79,149	1:983
135	Karakaş	78,647	1:990
136	Gürbüz	78,607	1:990
137	Toprak	77,850	1:1,000
138	Akgül	77,304	1:1,007
139	Türkmen	77,013	1:1,010
140	Topal	76,904	1:1,012
141	Dinç	76,087	1:1,023
142	Gültekin	75,873	1:1,026
143	Dağ	75,761	1:1,027
144	Topçu	75,522	1:1,030
145	Sarıkaya	74,583	1:1,043
146	Şentürk	74,164	1:1,049
147	Vural	73,974	1:1,052
148	Zengin	73,021	1:1,066
149	Özmen	72,812	1:1,069
150	Ergün	72,279	1:1,077
151	Şeker	72,026	1:1,080
152	Gündoğdu	71,983	1:1,081
153	Bilgin	71,411	1:1,090
154	Ilhan	71,028	1:1,096
155	Bal	70,989	1:1,096
156	Gökçe	70,640	1:1,102
157	Fidan	70,588	1:1,102
158	Sezer	70,564	1:1,103
159	Güney	70,020	1:1,111
160	Albayrak	69,936	1:1,113
161	Güner	69,566	1:1,119
162	Bektaş	69,532	1:1,119
163	Akyol	69,373	1:1,122
164	Oğuz	68,495	1:1,136
165	Inan	67,803	1:1,148
166	Karadağ	67,508	1:1,153
167	Bayrak	67,468	1:1,153
168	Turgut	67,364	1:1,155
169	Orhan	66,999	1:1,162
170	Akar	66,955	1:1,162
171	Aydoğdu	66,591	1:1,169
172	Taşkın	66,341	1:1,173
173	Kalkan	65,811	1:1,182
174	Özel	65,336	1:1,191
175	Ak	65,190	1:1,194
176	Ercan	64,340	1:1,210
177	Akyüz	63,279	1:1,230
178	Ipek	62,944	1:1,236
179	Uğur	62,902	1:1,237
180	Esen	61,600	1:1,263
181	Akkuş	61,530	1:1,265
182	Günay	61,472	1:1,266
183	Bayraktar	61,303	1:1,269
184	Taşdemir	61,185	1:1,272
185	Budak	60,100	1:1,295
186	Akpınar	59,854	1:1,300
187	Açıkgöz	59,227	1:1,314
188	Aygün	59,026	1:1,318
189	Özbek	58,787	1:1,324
190	Öner	58,756	1:1,324
191	Temel	58,413	1:1,332
192	Ersoy	58,221	1:1,337
193	Ayhan	57,776	1:1,347
194	Efe	57,733	1:1,348
195	Çam	57,389	1:1,356
196	Ari	57,202	1:1,360
197	Şener	56,512	1:1,377
198	Sevinç	56,312	1:1,382
199	Çağlar	56,246	1:1,384
200	Ergin	56,085	1:1,388
201	Tuncer	56,061	1:1,388
202	Ertürk	55,043	1:1,414
203	Baran	54,443	1:1,429
204	Sert	54,249	1:1,435
205	Akdemir	53,772	1:1,447
206	Ayaz	53,746	1:1,448
207	Gür	53,607	1:1,452
208	Koyuncu	53,599	1:1,452
209	Akçay	53,480	1:1,455
210	Kaçar	53,431	1:1,456
211	Aras	53,363	1:1,458
212	Altıntaş	52,939	1:1,470
213	Akça	52,870	1:1,472
214	Başaran	52,751	1:1,475
215	Karakoç	52,720	1:1,476
216	Tan	52,410	1:1,485
217	Şengül	52,187	1:1,491
218	Gezer	51,943	1:1,498
219	Akdağ	51,917	1:1,499
220	Karadeniz	51,905	1:1,499
221	Atalay	51,822	1:1,502
222	Bakir	51,685	1:1,506
223	Altin	51,325	1:1,516
224	Çimen	51,190	1:1,520
225	Biçer	50,511	1:1,541
226	Karahan	50,401	1:1,544
227	Akman	50,370	1:1,545
228	Akdeniz	49,911	1:1,559
229	Turhan	49,824	1:1,562
230	Dündar	49,766	1:1,564
231	Gün	49,523	1:1,571
232	Oruç	49,510	1:1,572
233	Sezgin	49,394	1:1,576
234	Mert	49,294	1:1,579
235	Kandemir	49,164	1:1,583
236	Kuş	49,012	1:1,588
237	Bingöl	48,927	1:1,591
238	Usta	48,900	1:1,591
239	Bolat	48,675	1:1,599
240	Bülbül	48,420	1:1,607
241	Taşçi	48,320	1:1,611
242	Yüce	47,589	1:1,635
243	Pehlivan	47,462	1:1,640
244	Fırat	47,396	1:1,642
245	Tuna	47,369	1:1,643
246	Önal	47,327	1:1,644
247	Çakar	47,120	1:1,652
248	Metin	46,786	1:1,663
249	Dinçer	46,671	1:1,667
250	Yeşil	46,542	1:1,672
251	Savaş	46,391	1:1,678
252	Uyar	46,262	1:1,682
253	Altuntaş	46,223	1:1,684
254	Ekici	46,194	1:1,685
255	Arıkan	46,155	1:1,686
256	Atmaca	46,109	1:1,688
257	Akdoğan	46,034	1:1,691
258	Altay	45,956	1:1,693
259	Sevim	45,848	1:1,697
260	Erkan	45,792	1:1,699
261	Kutlu	45,259	1:1,719
262	Doğru	45,228	1:1,721
263	Yalçınkaya	45,150	1:1,724
264	Özkaya	45,032	1:1,728
265	Önder	44,590	1:1,745
266	Demirbaş	43,960	1:1,770
267	Öksüz	43,920	1:1,772
268	Ataş	43,888	1:1,773
269	Boz	43,501	1:1,789
270	Durak	43,396	1:1,793
271	Eser	43,318	1:1,797
272	Eker	43,213	1:1,801
273	Kuru	43,120	1:1,805
274	Oral	42,965	1:1,811
275	Varol	42,730	1:1,821
276	Demircan	42,273	1:1,841
277	Parlak	42,126	1:1,847
278	Ölmez	41,852	1:1,859
279	Gedik	41,365	1:1,881
280	Güçlü	41,344	1:1,882
281	Köksal	41,177	1:1,890
282	Akay	41,088	1:1,894
283	Adıgüzel	40,915	1:1,902
284	Türkoğlu	40,911	1:1,902
285	Göktaş	40,853	1:1,905
286	Soylu	40,762	1:1,909
287	Ertaş	40,706	1:1,912
288	Özden	40,664	1:1,914
289	Şenol	40,525	1:1,920
290	Şanli	40,299	1:1,931
291	Güleç	39,992	1:1,946
292	Ünsal	39,503	1:1,970
293	Uğurlu	39,480	1:1,971
294	Torun	39,315	1:1,979
295	Gürsoy	39,213	1:1,985
296	Bilgiç	38,785	1:2,006
297	Akinci	38,675	1:2,012
298	Ergül	38,515	1:2,021
299	Şahan	38,511	1:2,021
300	Köroğlu	38,344	1:2,030
301	Mercan	38,341	1:2,030
302	Türker	37,932	1:2,052
303	Ayyildiz	37,474	1:2,077
304	Engin	37,467	1:2,077
305	Alp	37,296	1:2,087
306	Tanriverdi	37,213	1:2,091
307	Solmaz	37,175	1:2,093
308	Dağli	37,155	1:2,095
309	Değirmenci	36,632	1:2,124
310	Saraç	36,399	1:2,138
311	Bağci	36,336	1:2,142
312	Yavaş	36,221	1:2,149
313	Avşar	36,206	1:2,149
314	Elmas	36,191	1:2,150
315	Alan	36,117	1:2,155
316	Keser	35,780	1:2,175
317	Dal	35,502	1:2,192
318	Memiş	35,301	1:2,205
319	Solak	35,208	1:2,210
320	Üstün	35,126	1:2,215
321	Deveci	35,106	1:2,217
322	Aktürk	35,080	1:2,218
323	Ocak	35,008	1:2,223
324	Kavak	34,961	1:2,226
325	Aytekin	34,867	1:2,232
326	Özsoy	34,797	1:2,236
327	Özgür	34,675	1:2,244
328	Bayar	34,387	1:2,263
329	Gülmez	34,377	1:2,264
330	Uygun	34,319	1:2,268
331	Karaduman	34,284	1:2,270
332	Baysal	34,126	1:2,280
333	Gökmen	34,038	1:2,286
334	Eryılmaz	33,494	1:2,323
335	Kocaman	33,429	1:2,328
336	Pala	33,342	1:2,334
337	Karaaslan	33,243	1:2,341
338	Özbay	33,225	1:2,342
339	Tetik	33,187	1:2,345
340	Erden	33,166	1:2,346
341	Yanik	32,932	1:2,363
342	Temiz	32,834	1:2,370
343	Selçuk	32,700	1:2,380
344	Inci	32,679	1:2,381
345	Günaydın	32,572	1:2,389
346	Okur	32,494	1:2,395
347	Ulusoy	32,482	1:2,396
348	Ceyhan	32,249	1:2,413
349	Atik	32,205	1:2,416
350	Arik	32,011	1:2,431
351	Uyanık	32,007	1:2,431
352	Gürel	32,000	1:2,432
353	Peker	31,978	1:2,434
354	Atay	31,876	1:2,441
355	Sayın	31,824	1:2,445
356	Karabacak	31,689	1:2,456
357	Öcal	31,499	1:2,471
358	Yeşilyurt	31,438	1:2,475
359	Köseoğlu	31,433	1:2,476
360	Şirin	31,408	1:2,478
361	Çağlayan	31,390	1:2,479
362	Sever	31,162	1:2,497
363	Taşkıran	31,045	1:2,507
364	Dede	30,856	1:2,522
365	Ayan	30,807	1:2,526
366	Yağci	30,763	1:2,530
367	Çavdar	30,483	1:2,553
368	Ok	30,355	1:2,564
369	Salman	30,275	1:2,570
370	Tezcan	30,154	1:2,581
371	Girgin	30,070	1:2,588
372	Akan	29,993	1:2,595
373	Koçyiğit	29,918	1:2,601
374	Kaçmaz	29,770	1:2,614
375	Gencer	29,709	1:2,619
376	Olgun	29,697	1:2,621
377	Akyildiz	29,638	1:2,626
377	Çalik	29,638	1:2,626
379	Tatar	29,411	1:2,646
380	Kuzu	29,387	1:2,648
381	Demirhan	29,380	1:2,649
382	Tok	29,378	1:2,649
383	Kızılkaya	29,360	1:2,651
384	Filiz	29,255	1:2,660
385	Oktay	29,102	1:2,674
386	Ülker	29,026	1:2,681
387	Kurnaz	28,902	1:2,693
388	Bilen	28,900	1:2,693
389	Candan	28,874	1:2,695
390	Tarhan	28,831	1:2,699
391	Inal	28,738	1:2,708
392	Arici	28,586	1:2,722
393	Akbaba	28,436	1:2,737
394	Başar	28,430	1:2,737
395	Taştan	28,345	1:2,746
396	Kalayci	28,333	1:2,747
397	Topuz	28,170	1:2,763
398	Özdoğan	28,149	1:2,765
399	Uludağ	27,839	1:2,795
400	Poyraz	27,694	1:2,810
401	Ünver	27,687	1:2,811
402	Okumuş	27,674	1:2,812
403	Karadaş	27,669	1:2,813
404	Kaymaz	27,607	1:2,819
405	Karademir	27,569	1:2,823
406	Şenel	27,430	1:2,837
407	Seven	27,322	1:2,848
408	Sağır	27,277	1:2,853
409	Tuncel	27,270	1:2,854
410	Zorlu	27,231	1:2,858
411	Teke	27,115	1:2,870
412	Çifçi	27,027	1:2,879
413	Korkut	26,952	1:2,887
414	Karakurt	26,931	1:2,890
415	Çavuş	26,874	1:2,896
416	Çil	26,786	1:2,905
417	Subaşi	26,747	1:2,910
418	Atli	26,711	1:2,913
419	Tiryaki	26,678	1:2,917
420	Zeybek	26,578	1:2,928
421	Tepe	26,445	1:2,943
422	Irmak	26,440	1:2,943
423	Akcan	26,415	1:2,946
424	Top	26,380	1:2,950
425	Yakut	26,138	1:2,977
426	Söylemez	26,105	1:2,981
427	Kocabaş	25,885	1:3,006
428	Kök	25,854	1:3,010
429	Altan	25,789	1:3,018
430	Bilir	25,646	1:3,034
431	Bozdağ	25,612	1:3,038
432	Berber	25,548	1:3,046
433	Düzgün	25,524	1:3,049
434	Ata	25,397	1:3,064
435	Özgül	25,385	1:3,066
436	Balta	25,381	1:3,066
437	Pınar	25,302	1:3,076
437	Ulu	25,302	1:3,076
439	Mete	25,187	1:3,090
440	Atak	25,148	1:3,095
441	Kizil	25,144	1:3,095
442	Karasu	25,074	1:3,104
443	Dikmen	25,043	1:3,108
444	Yayla	24,974	1:3,116
445	Tatli	24,898	1:3,126
446	Kaymak	24,887	1:3,127
447	Özalp	24,885	1:3,127
448	Terzi	24,858	1:3,131
449	Kaynak	24,822	1:3,135
450	Kır	24,783	1:3,140
451	Topaloğlu	24,669	1:3,155
452	Demirkol	24,610	1:3,162
453	Yorulmaz	24,545	1:3,171
454	Yolcu	24,529	1:3,173
455	Bostanci	24,424	1:3,186
456	Başer	24,314	1:3,201
457	Göksu	24,311	1:3,201
458	Göçer	24,297	1:3,203
459	Soysal	24,276	1:3,206
460	Çankaya	24,186	1:3,218
461	Çetiner	24,127	1:3,225
462	Ergen	24,078	1:3,232
463	Gündoğan	23,962	1:3,248
464	Erdal	23,950	1:3,249
465	Koyun	23,833	1:3,265
466	Apaydın	23,725	1:3,280
467	Yener	23,672	1:3,287
468	Dilek	23,652	1:3,290
469	Kayhan	23,640	1:3,292
470	Adıyaman	23,552	1:3,304
471	Özbey	23,413	1:3,324
472	Bilici	23,262	1:3,345
473	Yağmur	23,221	1:3,351
474	Öztaş	23,187	1:3,356
474	Şakar	23,187	1:3,356
476	Bodur	23,165	1:3,359
477	Akkurt	23,079	1:3,372
478	Meral	23,065	1:3,374
479	Aşık	23,059	1:3,375
480	Çay	23,028	1:3,379
481	Balaban	23,021	1:3,380
482	Vatansever	23,015	1:3,381
483	Kiran	22,997	1:3,384
484	Aldemir	22,966	1:3,389
485	Koçer	22,938	1:3,393
486	Kul	22,911	1:3,397
487	Barut	22,878	1:3,402
488	Bayir	22,861	1:3,404
489	Canpolat	22,813	1:3,411
490	Çakici	22,809	1:3,412
491	Kanat	22,502	1:3,458
492	Atasoy	22,410	1:3,473
493	Cesur	22,374	1:3,478
494	Cebeci	22,332	1:3,485
495	Sarıoğlu	22,311	1:3,488
496	Özyurt	22,258	1:3,496
497	Alagöz	22,255	1:3,497
498	Işler	22,074	1:3,525
498	Sümer	22,074	1:3,525
500	Serin	22,045	1:3,530
501	Erdemir	22,042	1:3,531
502	Kahveci	21,952	1:3,545
503	Atici	21,936	1:3,548
504	Karaoğlu	21,919	1:3,550
505	Akarsu	21,888	1:3,555
506	Gökdemir	21,886	1:3,556
507	Ekin	21,664	1:3,592
508	Tufan	21,544	1:3,612
509	Dağdelen	21,495	1:3,620
510	Kurtuluş	21,417	1:3,634
511	Dere	21,414	1:3,634
512	Yardimci	21,315	1:3,651
513	Akkoyun	21,307	1:3,652
514	Başak	21,286	1:3,656
515	Eken	21,271	1:3,659
516	Duru	21,262	1:3,660
517	Çaliş	21,211	1:3,669
518	Ertuğrul	21,176	1:3,675
519	Bedir	21,166	1:3,677
520	Eraslan	21,162	1:3,677
521	Ulaş	21,098	1:3,689
522	Baltaci	21,095	1:3,689
523	Alici	21,080	1:3,692
524	Sayar	21,026	1:3,701
525	Özgün	21,008	1:3,704
526	Saka	20,934	1:3,717
527	Baykal	20,850	1:3,732
528	Tuncay	20,799	1:3,742
529	Çabuk	20,797	1:3,742
530	Ulutaş	20,764	1:3,748
531	Gören	20,722	1:3,755
532	Balkan	20,591	1:3,779
533	Kiraz	20,585	1:3,780
534	Kuşçu	20,570	1:3,783
535	Satilmiş	20,567	1:3,784
536	Yörük	20,545	1:3,788
537	Bariş	20,544	1:3,788
538	Kale	20,520	1:3,792
539	Saritaş	20,507	1:3,795
540	Erten	20,493	1:3,797
541	Kasap	20,490	1:3,798
542	Gülen	20,262	1:3,841
543	Yazar	20,259	1:3,841
544	Bahadır	20,194	1:3,854
545	Bahar	20,150	1:3,862
546	Ekiz	20,118	1:3,868
547	Dereli	20,117	1:3,868
548	Bozdemir	20,109	1:3,870
549	Kar	20,050	1:3,881
550	Atar	19,938	1:3,903
551	Bozan	19,902	1:3,910
552	Seyhan	19,887	1:3,913
553	Bayındır	19,873	1:3,916
554	Güvenç	19,862	1:3,918
555	Yurdakul	19,848	1:3,921
556	Kurtoğlu	19,764	1:3,938
557	Tanrıkulu	19,735	1:3,943
558	Karacan	19,669	1:3,957
559	Yoldaş	19,618	1:3,967
560	Yapici	19,589	1:3,973
561	Erbaş	19,562	1:3,978
562	Meriç	19,557	1:3,979
563	Coşar	19,487	1:3,994
564	Asan	19,472	1:3,997
565	Coşgun	19,431	1:4,005
566	Gökalp	19,428	1:4,006
567	Al	19,382	1:4,015
568	Yağız	19,366	1:4,018
569	Çavuşoğlu	19,338	1:4,024
570	Çayir	19,321	1:4,028
571	Arabaci	19,319	1:4,028
572	Özgen	19,303	1:4,032
573	Eriş	19,282	1:4,036
574	Çobanoğlu	19,237	1:4,045
575	Aykut	19,213	1:4,050
575	Ural	19,213	1:4,050
577	Kabak	19,205	1:4,052
578	Şafak	19,138	1:4,066
579	Ersöz	19,122	1:4,070
579	Güllü	19,122	1:4,070
581	Han	19,059	1:4,083
582	San	19,031	1:4,089
582	Türkyılmaz	19,031	1:4,089
584	Boyraz	19,017	1:4,092
585	Temur	18,972	1:4,102
586	Tokgöz	18,881	1:4,122
587	Büyük	18,854	1:4,128
588	Cihan	18,847	1:4,129
589	Civelek	18,828	1:4,133
590	Gürkan	18,803	1:4,139
591	Bostan	18,764	1:4,147
592	Pamuk	18,763	1:4,148
593	Benli	18,737	1:4,153
594	Ardiç	18,650	1:4,173
595	Telli	18,626	1:4,178
596	Gürler	18,622	1:4,179
597	Görgülü	18,612	1:4,181
598	Akalın	18,580	1:4,188
599	Göçmen	18,573	1:4,190
600	Selvi	18,557	1:4,194
601	Öztekin	18,546	1:4,196
602	Ekşi	18,510	1:4,204
603	Onay	18,396	1:4,230
604	Şişman	18,383	1:4,233
605	Karaoğlan	18,381	1:4,234
606	Demirkiran	18,340	1:4,243
607	Tüfekçi	18,339	1:4,243
608	Ayvaz	18,279	1:4,257
609	Onur	18,275	1:4,258
610	Özkul	18,254	1:4,263
611	Kaynar	18,221	1:4,271
612	Uygur	18,167	1:4,284
613	Aşkın	18,154	1:4,287
614	Emre	18,096	1:4,300
615	Durgun	18,089	1:4,302
616	Kan	18,081	1:4,304
617	Ertan	18,047	1:4,312
618	Taşdelen	17,951	1:4,335
619	Örs	17,912	1:4,345
620	Beyaz	17,896	1:4,349
621	Kaba	17,876	1:4,353
622	Keklik	17,874	1:4,354
623	Berk	17,856	1:4,358
624	Gülşen	17,826	1:4,366
625	Kahya	17,818	1:4,368
626	Meşe	17,796	1:4,373
627	Uğuz	17,773	1:4,379
628	Öncel	17,750	1:4,384
629	Uçak	17,741	1:4,387
630	Bora	17,714	1:4,393
631	Cin	17,685	1:4,400
632	Sezen	17,680	1:4,402
633	Altaş	17,671	1:4,404
634	Kütük	17,660	1:4,407
635	Kılıçaslan	17,636	1:4,413
636	Dayan	17,605	1:4,420
637	Koşar	17,568	1:4,430
638	Cömert	17,544	1:4,436
639	Batur	17,532	1:4,439
640	Yanar	17,484	1:4,451
641	Derin	17,457	1:4,458
642	Geyik	17,455	1:4,458
643	Demiral	17,417	1:4,468
644	Atılgan	17,404	1:4,471
645	Toker	17,368	1:4,481
646	Araz	17,366	1:4,481
647	Karaarslan	17,318	1:4,494
648	Kayar	17,274	1:4,505
649	Yurt	17,227	1:4,517
650	Canli	17,224	1:4,518
651	Orak	17,212	1:4,521
652	Tokmak	17,203	1:4,524
653	Pektaş	17,174	1:4,531
654	Durgut	17,136	1:4,541
655	Dalgıç	17,132	1:4,542
656	Ertekin	17,126	1:4,544
657	Yerlikaya	17,000	1:4,578
658	Sarıgül	16,982	1:4,583
659	Yılmazer	16,979	1:4,583
660	Canbaz	16,930	1:4,597
660	Çirak	16,930	1:4,597
662	Tunca	16,898	1:4,605
663	Gönül	16,863	1:4,615
664	Kardaş	16,859	1:4,616
665	Üstündağ	16,817	1:4,628
666	Yüksek	16,804	1:4,631
667	Sarica	16,786	1:4,636
668	Türkan	16,752	1:4,646
669	Kazan	16,691	1:4,662
670	Nas	16,683	1:4,665
671	Öncü	16,682	1:4,665
672	Sungur	16,663	1:4,670
673	Söğüt	16,654	1:4,673
674	Ataman	16,643	1:4,676
675	Gökkaya	16,638	1:4,677
676	Demiray	16,630	1:4,680
677	Ermiş	16,627	1:4,680
678	Akkaş	16,592	1:4,690
679	Karabaş	16,576	1:4,695
680	Çelen	16,565	1:4,698
681	Doğanay	16,525	1:4,709
682	Uçan	16,493	1:4,718
683	Ören	16,460	1:4,728
684	Çakan	16,450	1:4,731
685	Karaağaç	16,376	1:4,752
686	Tek	16,374	1:4,753
687	Baştürk	16,354	1:4,759
688	Çakal	16,345	1:4,761
689	Yakar	16,327	1:4,766
690	Çekiç	16,245	1:4,790
691	Karabıyık	16,231	1:4,795
692	Çapar	16,165	1:4,814
693	Onat	16,142	1:4,821
694	Baydar	16,132	1:4,824
695	Dinler	16,128	1:4,825
696	Kaygısız	16,105	1:4,832
697	Sürücü	16,095	1:4,835
698	Akkoç	16,063	1:4,845
699	Dalkiliç	16,038	1:4,852
700	Maden	16,024	1:4,857
701	Değer	15,975	1:4,871
702	Emir	15,971	1:4,873
703	Özay	15,936	1:4,883
704	Döner	15,903	1:4,894
705	Elçi	15,880	1:4,901
706	Ağca	15,870	1:4,904
707	Erdoğdu	15,863	1:4,906
708	Biyik	15,850	1:4,910
709	Aktan	15,842	1:4,912
710	Bircan	15,813	1:4,921
711	Demircioğlu	15,782	1:4,931
712	Örnek	15,763	1:4,937
713	Erbay	15,760	1:4,938
714	Babacan	15,718	1:4,951
715	Ayar	15,677	1:4,964
716	Çakiroğlu	15,667	1:4,967
717	Sancar	15,630	1:4,979
718	Ece	15,629	1:4,979
719	Bekar	15,623	1:4,981
720	Gürses	15,619	1:4,982
721	Aksakal	15,569	1:4,998
722	Yurtseven	15,548	1:5,005
723	Balıkçı	15,515	1:5,016
724	Alpaslan	15,493	1:5,023
725	Evren	15,492	1:5,023
726	Narin	15,477	1:5,028
727	Kisa	15,453	1:5,036
728	Toy	15,447	1:5,038
729	Kaptan	15,444	1:5,039
730	Bay	15,407	1:5,051
731	Çatal	15,405	1:5,052
732	Avcu	15,399	1:5,054
733	Macit	15,375	1:5,062
734	Binici	15,371	1:5,063
735	Saygili	15,329	1:5,077
736	Bilge	15,318	1:5,080
737	Daş	15,308	1:5,084
738	Öğüt	15,281	1:5,093
739	Vardar	15,265	1:5,098
740	Çalişir	15,258	1:5,100
741	Alptekin	15,246	1:5,104
742	Özlü	15,240	1:5,106
743	Sayan	15,237	1:5,107
744	Kaygusuz	15,219	1:5,113
745	Soydan	15,189	1:5,124
746	Birinci	15,114	1:5,149
747	Çitak	15,105	1:5,152
748	Göl	15,096	1:5,155
749	Boran	15,071	1:5,164
750	Ileri	15,026	1:5,179
751	Kiraç	14,978	1:5,196
752	Odabaş	14,961	1:5,202
753	Murat	14,945	1:5,207
754	Teker	14,936	1:5,210
755	Uz	14,923	1:5,215
756	Akyürek	14,910	1:5,219
757	Ozan	14,783	1:5,264
758	Kayan	14,721	1:5,286
759	Aşçı	14,700	1:5,294
760	Bozdoğan	14,665	1:5,307
761	Fındık	14,650	1:5,312
762	Tanış	14,633	1:5,318
763	Bali	14,622	1:5,322
764	Durdu	14,603	1:5,329
765	Konuk	14,602	1:5,330
766	Kivrak	14,589	1:5,334
767	Kiziltaş	14,583	1:5,336
768	Sakarya	14,523	1:5,358
769	Kurşun	14,487	1:5,372
770	Aytaç	14,471	1:5,378
771	Sözen	14,461	1:5,381
772	Açık	14,417	1:5,398
773	Tüzün	14,408	1:5,401
774	Baykara	14,399	1:5,405
775	Yaşa	14,391	1:5,408
776	Kalender	14,382	1:5,411
777	Odabaşi	14,325	1:5,433
778	Özhan	14,315	1:5,436
779	Toraman	14,297	1:5,443
780	Damar	14,280	1:5,450
781	Altınok	14,278	1:5,450
782	Kahriman	14,273	1:5,452
783	Ibiş	14,228	1:5,470
784	Tutar	14,218	1:5,473
785	Yarar	14,214	1:5,475
786	Gökçen	14,197	1:5,482
787	Hatipoğlu	14,175	1:5,490
788	Kömürcü	14,170	1:5,492
789	Akbay	14,143	1:5,502
790	Demirkan	14,126	1:5,509
791	Kocaoğlu	14,083	1:5,526
792	Yeter	14,081	1:5,527
793	Bozkuş	14,060	1:5,535
794	Abay	14,050	1:5,539
795	Sucu	14,031	1:5,546
796	Alper	14,001	1:5,558
797	Serbest	13,994	1:5,561
798	Hacıoğlu	13,966	1:5,572
799	Gezgin	13,963	1:5,573
800	Gönen	13,958	1:5,575
801	Uzunoğlu	13,952	1:5,578
802	Kılıçarslan	13,914	1:5,593
803	Bilgi	13,875	1:5,609
804	Varli	13,853	1:5,618
805	Yetim	13,832	1:5,626
806	Kozan	13,826	1:5,629
807	Akdaş	13,818	1:5,632
808	Yazgan	13,793	1:5,642
809	Kirmizi	13,775	1:5,649
810	Kula	13,764	1:5,654
811	Seçkin	13,742	1:5,663
812	Demirkaya	13,741	1:5,663
813	Ülger	13,736	1:5,666
814	Sak	13,703	1:5,679
815	Altundağ	13,701	1:5,680
816	Bilgili	13,672	1:5,692
817	Sancak	13,637	1:5,707
817	Yetkin	13,637	1:5,707
819	Balli	13,636	1:5,707
820	Aydoğmuş	13,617	1:5,715
821	Nergiz	13,604	1:5,720
822	Karayel	13,599	1:5,723
823	Ekmekçi	13,598	1:5,723
824	Kiyak	13,559	1:5,739
825	Muslu	13,546	1:5,745
826	Okçu	13,529	1:5,752
827	Sargın	13,521	1:5,756
828	Dülger	13,509	1:5,761
829	Karapınar	13,504	1:5,763
830	Balık	13,503	1:5,763
831	Arda	13,500	1:5,765
831	Günal	13,500	1:5,765
833	Ertem	13,469	1:5,778
834	Ataç	13,436	1:5,792
835	Semiz	13,420	1:5,799
836	Kaçan	13,364	1:5,823
837	Daşdemir	13,307	1:5,848
838	Nazli	13,291	1:5,855
839	Tekeli	13,289	1:5,856
840	Aladağ	13,252	1:5,872
841	Aktepe	13,238	1:5,879
842	Çetintaş	13,194	1:5,898
843	Boztepe	13,184	1:5,903
844	Şaşmaz	13,176	1:5,906
845	Alparslan	13,154	1:5,916
846	Bayhan	13,145	1:5,920
847	Bakan	13,107	1:5,937
848	Özaydin	13,047	1:5,965
849	Kabakci	13,023	1:5,976
850	Oğur	12,996	1:5,988
850	Özkurt	12,996	1:5,988
852	Keçeci	12,961	1:6,004
853	Karatay	12,945	1:6,012
854	Esmer	12,929	1:6,019
855	Taşpınar	12,927	1:6,020
856	Kalay	12,920	1:6,023
857	Gezici	12,908	1:6,029
858	Sağdiç	12,866	1:6,049
859	Özkara	12,819	1:6,071
860	Bakirci	12,793	1:6,083
861	Çolakoğlu	12,785	1:6,087
862	Durna	12,767	1:6,096
863	Şahbaz	12,753	1:6,102
864	Kocabıyık	12,707	1:6,124
865	Nalbant	12,690	1:6,132
866	Çeçen	12,676	1:6,139
867	Bakar	12,670	1:6,142
868	Karatepe	12,648	1:6,153
869	Inanç	12,599	1:6,177
870	Gürcan	12,590	1:6,181
871	Kayali	12,575	1:6,189
872	Yaldiz	12,545	1:6,203
873	Dağdeviren	12,483	1:6,234
874	Batmaz	12,404	1:6,274
875	Arıcan	12,336	1:6,308
876	Ege	12,314	1:6,320
877	Demirer	12,305	1:6,324
878	Yaprak	12,298	1:6,328
879	Türe	12,276	1:6,339
880	Yurtsever	12,271	1:6,342
881	Şekerci	12,248	1:6,354
882	Sivri	12,241	1:6,357
883	Özdil	12,203	1:6,377
883	Şengün	12,203	1:6,377
885	Timur	12,200	1:6,379
886	Cantürk	12,191	1:6,384
887	Biyikli	12,184	1:6,387
888	Yeni	12,172	1:6,393
889	Toptaş	12,117	1:6,422
890	Yel	12,113	1:6,425
891	Altunbaş	12,110	1:6,426
892	Dikici	12,068	1:6,449
893	Zeren	12,040	1:6,464
894	Kalyoncu	12,022	1:6,473
895	Levent	12,011	1:6,479
896	Malkoç	12,005	1:6,482
897	Say	11,999	1:6,486
898	Taylan	11,995	1:6,488
899	Danaci	11,959	1:6,507
899	Orman	11,959	1:6,507
901	Günel	11,958	1:6,508
902	Karsli	11,945	1:6,515
903	Güleryüz	11,871	1:6,556
904	Başkaya	11,859	1:6,562
905	Alkiş	11,800	1:6,595
906	Koçoğlu	11,794	1:6,598
907	Altiparmak	11,789	1:6,601
908	Başkan	11,775	1:6,609
909	Kör	11,772	1:6,611
910	Nacar	11,769	1:6,612
911	Köylü	11,677	1:6,665
912	Pişkin	11,671	1:6,668
913	Doğu	11,655	1:6,677
914	Ersan	11,651	1:6,679
915	Şahiner	11,639	1:6,686
916	Erdinç	11,623	1:6,695
917	Talay	11,615	1:6,700
918	Kibar	11,607	1:6,705
919	Arpaci	11,599	1:6,709
920	Aka	11,598	1:6,710
921	Ilter	11,595	1:6,712
922	Özaslan	11,571	1:6,726
923	Aşar	11,567	1:6,728
924	Aykaç	11,550	1:6,738
925	Köken	11,546	1:6,740
926	Karanfil	11,543	1:6,742
927	Karakoyun	11,537	1:6,745
928	Sevimli	11,529	1:6,750
929	Bilgen	11,515	1:6,758
930	Armağan	11,490	1:6,773
931	Mermer	11,467	1:6,787
932	Saygi	11,466	1:6,787
933	Kotan	11,451	1:6,796
934	Sertkaya	11,449	1:6,797
935	Önen	11,405	1:6,823
936	Cingöz	11,399	1:6,827
937	Demiröz	11,394	1:6,830
937	Kesgin	11,394	1:6,830
939	Akbiyik	11,382	1:6,837
940	Menteş	11,374	1:6,842
941	Baki	11,352	1:6,855
942	Eski	11,347	1:6,858
943	Alaca	11,345	1:6,860
944	Yardım	11,337	1:6,864
945	Kayabaşi	11,328	1:6,870
946	Akbal	11,315	1:6,878
947	Algül	11,282	1:6,898
948	Caner	11,269	1:6,906
949	Canbolat	11,261	1:6,911
950	Tabak	11,248	1:6,919
951	Işcan	11,245	1:6,921
951	Üzüm	11,245	1:6,921
953	Tütüncü	11,236	1:6,926
954	Okan	11,228	1:6,931
955	Ayas	11,224	1:6,933
956	Sakalli	11,220	1:6,936
957	Laçin	11,214	1:6,940
958	Biçakçi	11,208	1:6,943
959	Saraçoğlu	11,202	1:6,947
960	Çopur	11,164	1:6,971
961	Arat	11,151	1:6,979
962	Bayazıt	11,141	1:6,985
963	Daniş	11,135	1:6,989
964	Göktürk	11,132	1:6,991
965	Dalkıran	11,124	1:6,996
966	Durukan	11,109	1:7,005
967	Kayikçi	11,106	1:7,007
968	Boğa	11,100	1:7,011
969	Çaylak	11,099	1:7,012
970	Taşar	11,075	1:7,027
971	Kocatürk	11,067	1:7,032
972	Aslantaş	11,026	1:7,058
973	Kazanci	10,981	1:7,087
974	Karci	10,977	1:7,089
975	Çulha	10,932	1:7,119
976	Sevindik	10,912	1:7,132
977	Kadıoğlu	10,909	1:7,134
978	Özdamar	10,908	1:7,134
979	Tezel	10,899	1:7,140
980	Üner	10,898	1:7,141
981	Altindağ	10,894	1:7,144
982	Alemdar	10,881	1:7,152
983	Akkan	10,872	1:7,158
984	Tamer	10,844	1:7,176
985	Gülcan	10,843	1:7,177
986	Boyaci	10,817	1:7,194
987	Güç	10,801	1:7,205
988	Eryiğit	10,793	1:7,210
989	Erkek	10,792	1:7,211
990	Hazar	10,777	1:7,221
991	Tümer	10,768	1:7,227
992	Şensoy	10,764	1:7,230
993	Başpınar	10,758	1:7,234
994	Okay	10,754	1:7,237
995	Erdoğmuş	10,753	1:7,237
995	Uzel	10,753	1:7,237
997	Başoğlu	10,723	1:7,257
998	Sökmen	10,706	1:7,269
999	Demiroğlu	10,684	1:7,284
1000	Ökten	10,671	1:7,293