1	Rodriguez	107,117	1:32
2	Gonzalez	75,347	1:46
3	Martinez	54,248	1:63
4	Fernandez	46,468	1:74
5	Perez	43,304	1:79
6	Garcia	40,688	1:84
7	Silva	34,927	1:98
8	Lopez	32,029	1:107
9	Pereira	27,392	1:125
10	Sosa	26,092	1:132
11	Diaz	26,060	1:132
12	Olivera	24,222	1:142
13	Hernandez	24,035	1:143
14	Cabrera	22,660	1:151
15	Gomez	22,275	1:154
16	Alvarez	21,258	1:161
17	Suarez	21,004	1:163
18	Ferreira	20,810	1:165
19	Acosta	19,214	1:179
20	Correa	16,693	1:206
21	Machado	15,503	1:221
22	Sanchez	15,274	1:225
23	Castro	15,207	1:226
24	Mendez	14,009	1:245
25	Moreira	13,786	1:249
26	Cardozo	12,924	1:266
27	Rivero	12,882	1:266
28	Nuñez	12,443	1:276
29	Morales	12,397	1:277
30	Pereyra	12,216	1:281
31	Silvera	11,656	1:294
32	Silveira	11,566	1:297
33	Viera	11,464	1:299
34	de Los Santos	11,201	1:306
35	de Leon	11,039	1:311
36	Romero	10,649	1:322
37	Gutierrez	10,630	1:323
38	Pintos	10,417	1:329
39	Ramos	10,274	1:334
40	Torres	9,659	1:355
41	Delgado	9,485	1:362
42	Duarte	8,885	1:386
43	Ramirez	8,612	1:398
44	Vazquez	8,596	1:399
45	Medina	8,375	1:410
46	Alvez	8,250	1:416
47	da Silva	8,156	1:421
48	Techera	7,878	1:436
49	Benitez	7,349	1:467
50	Perdomo	7,216	1:476
51	Larrosa	7,024	1:489
52	Costa	7,003	1:490
53	Marquez	6,949	1:494
54	Piriz	6,914	1:496
55	Curbelo	6,860	1:500
56	Barboza	6,720	1:511
57	Varela	6,632	1:517
58	Santos	6,589	1:521
59	Reyes	6,527	1:526
60	Gimenez	6,437	1:533
61	Rocha	6,334	1:542
62	Alonso	6,285	1:546
63	Barrios	6,203	1:553
64	Araujo	6,041	1:568
65	Blanco	5,987	1:573
66	Ruiz	5,913	1:580
67	Lima	5,783	1:593
68	Dominguez	5,637	1:609
69	Barreto	5,614	1:611
70	Bentancor	5,605	1:612
71	dos Santos	5,490	1:625
72	Caceres	5,321	1:645
73	Vidal	5,161	1:665
74	Flores	5,063	1:678
75	Moreno	4,997	1:687
76	Fagundez	4,953	1:693
77	Ortiz	4,887	1:702
78	Castillo	4,879	1:703
79	Velazquez	4,790	1:716
80	Soria	4,627	1:742
81	Molina	4,521	1:759
82	Borges	4,504	1:762
83	Umpierrez	4,458	1:770
84	Franco	4,341	1:791
85	Caballero	4,329	1:793
86	Santana	4,240	1:809
87	Lemos	4,234	1:811
88	Bonilla	4,141	1:829
89	Britos	4,074	1:842
90	Tejera	4,063	1:845
91	Rios	4,017	1:854
92	da Rosa	3,976	1:863
93	Antunez	3,830	1:896
94	Montero	3,801	1:903
95	Vera	3,743	1:917
96	Caraballo	3,691	1:930
97	Fleitas	3,686	1:931
98	Carballo	3,648	1:941
99	Aguirre	3,626	1:946
100	Peña	3,613	1:950
101	Guerra	3,604	1:952
102	Vega	3,585	1:957
103	Clavijo	3,565	1:963
104	Rosa	3,548	1:967
105	Almeida	3,541	1:969
106	Quintana	3,514	1:977
107	Cuello	3,455	1:993
108	Fuentes	3,439	1:998
109	Muniz	3,392	1:1,012
110	Miranda	3,391	1:1,012
111	Ferrari	3,385	1:1,014
112	Farias	3,374	1:1,017
113	Camejo	3,346	1:1,026
114	Cruz	3,340	1:1,027
115	Godoy	3,305	1:1,038
116	Sena	3,276	1:1,048
117	Corbo	3,218	1:1,066
118	Rey	3,202	1:1,072
119	Batista	3,201	1:1,072
120	Aguiar	3,181	1:1,079
121	Herrera	3,174	1:1,081
122	Peralta	3,160	1:1,086
123	Luzardo	3,153	1:1,088
124	Rosas	3,148	1:1,090
125	Vargas	3,112	1:1,103
126	Paz	3,028	1:1,133
127	Maciel	3,023	1:1,135
128	Rojas	2,984	1:1,150
129	Arias	2,964	1:1,158
130	Iglesias	2,962	1:1,159
131	Espinosa	2,958	1:1,160
132	Mesa	2,948	1:1,164
133	Bermudez	2,926	1:1,173
134	Camacho	2,910	1:1,179
135	Leal	2,867	1:1,197
136	Figueroa	2,842	1:1,208
137	Souza	2,819	1:1,217
138	Acuña	2,786	1:1,232
139	Leites	2,785	1:1,232
140	Acevedo	2,736	1:1,254
141	Bentancur	2,719	1:1,262
142	Duran	2,701	1:1,271
143	Falero	2,700	1:1,271
144	Davila	2,697	1:1,272
145	Furtado	2,693	1:1,274
146	Cedres	2,683	1:1,279
147	de Souza	2,674	1:1,283
148	Toledo	2,663	1:1,289
149	Colman	2,655	1:1,293
149	Villalba	2,655	1:1,293
151	Marrero	2,641	1:1,299
152	Muñoz	2,635	1:1,302
153	Bueno	2,626	1:1,307
153	Lorenzo	2,626	1:1,307
155	Machin	2,621	1:1,309
155	Pacheco	2,621	1:1,309
157	Aguilar	2,615	1:1,312
158	Estevez	2,606	1:1,317
159	Rivas	2,601	1:1,319
160	Rossi	2,588	1:1,326
161	Ibarra	2,577	1:1,332
162	Navarro	2,563	1:1,339
163	Fontes	2,551	1:1,345
164	Gallo	2,543	1:1,349
165	Alves	2,492	1:1,377
166	Conde	2,469	1:1,390
167	Pirez	2,438	1:1,408
168	Saravia	2,419	1:1,419
169	Abreu	2,396	1:1,432
170	Figueredo	2,395	1:1,433
171	Cabral	2,366	1:1,450
171	Valdez	2,366	1:1,450
173	Ojeda	2,364	1:1,452
174	Ribeiro	2,339	1:1,467
175	Ayala	2,335	1:1,470
175	Denis	2,335	1:1,470
177	Melo	2,330	1:1,473
178	Mello	2,326	1:1,475
179	Guerrero	2,295	1:1,495
180	Collazo	2,288	1:1,500
181	Mederos	2,286	1:1,501
182	Otero	2,278	1:1,506
183	Dutra	2,276	1:1,508
184	Ledesma	2,251	1:1,525
185	Nieves	2,248	1:1,527
186	Sellanes	2,234	1:1,536
187	Prieto	2,229	1:1,540
188	Sierra	2,221	1:1,545
189	Maldonado	2,203	1:1,558
190	Villar	2,202	1:1,558
191	Rosano	2,192	1:1,566
192	Burgos	2,183	1:1,572
193	Sequeira	2,170	1:1,581
194	Amaro	2,165	1:1,585
195	Mora	2,162	1:1,587
196	Amaral	2,158	1:1,590
197	da Costa	2,154	1:1,593
198	Deleon	2,139	1:1,604
199	Alfonso	2,132	1:1,610
200	Parodi	2,124	1:1,616
201	Mendoza	2,113	1:1,624
202	Carrasco	2,092	1:1,640
203	Barreiro	2,091	1:1,641
204	Camargo	2,086	1:1,645
205	Gil	2,082	1:1,648
206	Gadea	2,071	1:1,657
207	Almada	2,070	1:1,658
208	Moraes	2,043	1:1,680
209	Garrido	2,036	1:1,686
210	Soto	2,022	1:1,697
211	Maidana	2,017	1:1,701
212	Trinidad	2,009	1:1,708
213	de Armas	2,006	1:1,711
214	Campos	2,002	1:1,714
215	Quiroga	1,995	1:1,720
216	Cardoso	1,991	1:1,724
217	Baez	1,973	1:1,739
218	Ocampo	1,967	1:1,745
219	Brun	1,937	1:1,772
220	Vila	1,933	1:1,775
221	Aquino	1,932	1:1,776
222	Nunez	1,925	1:1,783
223	Menendez	1,908	1:1,799
224	Escobar	1,901	1:1,805
225	Lucas	1,883	1:1,822
225	Tabarez	1,883	1:1,822
227	Marichal	1,880	1:1,825
228	Montes de Oca	1,863	1:1,842
228	Noble	1,863	1:1,842
228	Sanguinetti	1,863	1:1,842
231	Robaina	1,826	1:1,879
232	Freitas	1,819	1:1,887
233	Carbajal	1,798	1:1,909
234	Gularte	1,795	1:1,912
235	Bravo	1,787	1:1,920
236	Vaz	1,777	1:1,931
237	Terra	1,774	1:1,934
238	Soca	1,736	1:1,977
239	Lema	1,735	1:1,978
240	Bianchi	1,721	1:1,994
241	Saavedra	1,720	1:1,995
242	Roman	1,704	1:2,014
243	Avila	1,697	1:2,022
244	Barcelo	1,683	1:2,039
245	Severo	1,682	1:2,040
246	Texeira	1,680	1:2,043
247	Alonzo	1,678	1:2,045
248	Carro	1,666	1:2,060
249	Segovia	1,663	1:2,064
250	Barrera	1,658	1:2,070
251	Fonseca	1,641	1:2,091
252	Nogueira	1,637	1:2,096
253	Villanueva	1,632	1:2,103
254	Centurion	1,618	1:2,121
255	Fraga	1,615	1:2,125
256	Trindade	1,611	1:2,130
257	Freire	1,591	1:2,157
258	Fajardo	1,589	1:2,160
259	San Martin	1,583	1:2,168
260	Andrade	1,572	1:2,183
261	Presa	1,571	1:2,184
262	Zeballos	1,557	1:2,204
263	Cal	1,554	1:2,208
264	Macedo	1,525	1:2,250
265	Casas	1,520	1:2,258
266	Chaves	1,516	1:2,264
267	Galvan	1,513	1:2,268
267	Guillen	1,513	1:2,268
269	Banchero	1,498	1:2,291
270	Pastorino	1,491	1:2,302
271	Lemes	1,490	1:2,303
272	Martin	1,480	1:2,319
273	Monzon	1,476	1:2,325
273	Pedrozo	1,476	1:2,325
275	Etcheverry	1,465	1:2,342
276	Albornoz	1,460	1:2,351
277	Sastre	1,454	1:2,360
278	Izquierdo	1,452	1:2,363
278	Roldan	1,452	1:2,363
280	Chagas	1,450	1:2,367
281	Paez	1,435	1:2,391
282	Ferreyra	1,434	1:2,393
283	Cuadrado	1,427	1:2,405
284	Echeverria	1,423	1:2,412
285	Zapata	1,419	1:2,418
286	Marin	1,413	1:2,429
287	Magallanes	1,394	1:2,462
288	Pena	1,389	1:2,471
289	Borba	1,388	1:2,472
290	Trujillo	1,386	1:2,476
291	Mattos	1,383	1:2,481
292	Meneses	1,382	1:2,483
293	Bruno	1,381	1:2,485
294	Piñeiro	1,374	1:2,498
295	Caetano	1,354	1:2,535
296	Pose	1,353	1:2,536
297	Peraza	1,352	1:2,538
298	Cuadro	1,347	1:2,548
299	Viana	1,341	1:2,559
300	Colombo	1,340	1:2,561
301	Guedes	1,337	1:2,567
302	Espino	1,326	1:2,588
303	Trias	1,324	1:2,592
304	Arevalo	1,319	1:2,602
305	Bello	1,318	1:2,604
306	Miraballes	1,309	1:2,622
307	Amorin	1,305	1:2,630
308	Pais	1,301	1:2,638
309	Cano	1,300	1:2,640
310	Barros	1,299	1:2,642
311	Motta	1,298	1:2,644
312	Bentos	1,285	1:2,671
313	Ortega	1,283	1:2,675
314	Berrutti	1,280	1:2,681
315	Padilla	1,276	1:2,689
316	Falcon	1,272	1:2,698
317	Rivera	1,260	1:2,724
318	Brum	1,257	1:2,730
319	Portillo	1,249	1:2,748
319	Velazco	1,249	1:2,748
321	Aranda	1,246	1:2,754
322	Nieto	1,243	1:2,761
323	Pino	1,236	1:2,777
324	Juarez	1,234	1:2,781
325	Beltran	1,230	1:2,790
326	Paredes	1,227	1:2,797
327	Ferraro	1,223	1:2,806
328	Paiva	1,220	1:2,813
329	Alfaro	1,219	1:2,815
330	Altez	1,217	1:2,820
330	Andrada	1,217	1:2,820
332	Montiel	1,213	1:2,829
333	Piñeyro	1,209	1:2,839
334	Graña	1,193	1:2,877
335	Coronel	1,191	1:2,881
335	Delossantos	1,191	1:2,881
335	Luna	1,191	1:2,881
338	Jorge	1,189	1:2,886
339	Zunino	1,183	1:2,901
340	Ruiz Diaz	1,182	1:2,903
341	Artigas	1,177	1:2,916
342	Cancela	1,176	1:2,918
343	Aguilera	1,175	1:2,921
343	Souto	1,175	1:2,921
345	Risso	1,167	1:2,941
346	de Mello	1,165	1:2,946
347	Garay	1,164	1:2,948
347	Perera	1,164	1:2,948
349	Calvo	1,157	1:2,966
350	Tabeira	1,155	1:2,971
351	Arbelo	1,153	1:2,976
351	Lago	1,153	1:2,976
353	Aparicio	1,149	1:2,987
354	Giordano	1,146	1:2,995
355	Fierro	1,140	1:3,010
356	Ferrer	1,135	1:3,024
357	Oviedo	1,133	1:3,029
358	Melgarejo	1,132	1:3,032
359	Latorre	1,130	1:3,037
360	Ribero	1,127	1:3,045
361	Galeano	1,122	1:3,059
361	Hornos	1,122	1:3,059
363	Mena	1,121	1:3,061
363	Perrone	1,121	1:3,061
365	Berriel	1,117	1:3,072
366	Ponce	1,112	1:3,086
366	Porto	1,112	1:3,086
368	Veiga	1,111	1:3,089
369	Casanova	1,109	1:3,094
370	Alegre	1,107	1:3,100
370	Martirena	1,107	1:3,100
372	Corrales	1,104	1:3,108
373	Bustamante	1,096	1:3,131
374	Montes	1,095	1:3,134
374	Prado	1,095	1:3,134
376	Vergara	1,093	1:3,140
377	Pombo	1,091	1:3,146
378	da Luz	1,086	1:3,160
379	Quintero	1,085	1:3,163
380	Francia	1,080	1:3,178
380	Rebollo	1,080	1:3,178
382	Peluffo	1,079	1:3,180
383	Gamarra	1,078	1:3,183
384	Romano	1,076	1:3,189
385	Tellechea	1,072	1:3,201
386	Geymonat	1,066	1:3,219
387	Jara	1,060	1:3,238
388	Urrutia	1,056	1:3,250
389	Guadalupe	1,052	1:3,262
390	Madruga	1,040	1:3,300
391	Dasilva	1,038	1:3,306
392	Portela	1,033	1:3,322
393	Torena	1,032	1:3,325
394	Osorio	1,030	1:3,332
395	Ferraz	1,019	1:3,368
396	Ibañez	1,018	1:3,371
396	Pintado	1,018	1:3,371
398	Russo	1,013	1:3,388
399	Mieres	1,010	1:3,398
400	Bica	1,008	1:3,405
401	Mendieta	1,007	1:3,408
402	Coitinho	1,004	1:3,418
403	Arce	999	1:3,435
404	da Cunha	998	1:3,439
405	Calero	995	1:3,449
406	Baptista	992	1:3,459
406	Vallejo	992	1:3,459
408	Repetto	991	1:3,463
409	Iriarte	990	1:3,466
410	Cordero	988	1:3,473
411	Echevarria	985	1:3,484
412	Corujo	983	1:3,491
413	Arriola	977	1:3,513
414	Quinteros	970	1:3,538
415	Espindola	969	1:3,542
416	Chavez	968	1:3,545
417	Leiva	964	1:3,560
418	Melgar	961	1:3,571
419	Arbiza	960	1:3,575
419	Irigoyen	960	1:3,575
421	Medeiros	957	1:3,586
421	Sotelo	957	1:3,586
423	Rondan	955	1:3,593
424	Amarillo	951	1:3,609
424	Recoba	951	1:3,609
426	Tort	947	1:3,624
427	Mansilla	944	1:3,635
428	Lozano	939	1:3,655
428	Medero	939	1:3,655
430	Plada	931	1:3,686
431	Almiron	929	1:3,694
431	Lacuesta	929	1:3,694
431	Maneiro	929	1:3,694
434	Leon	927	1:3,702
435	Pons	922	1:3,722
436	Tejeira	921	1:3,726
437	Bandera	919	1:3,734
437	Moyano	919	1:3,734
439	Esteves	912	1:3,763
440	Colina	911	1:3,767
441	Moran	908	1:3,779
442	Casco	906	1:3,788
442	Martins	906	1:3,788
444	Torterolo	905	1:3,792
445	Lara	903	1:3,800
446	Barragan	901	1:3,809
447	Porley	900	1:3,813
448	Echenique	891	1:3,852
449	del Pino	888	1:3,865
449	Olmedo	888	1:3,865
449	Rijo	888	1:3,865
452	Brito	886	1:3,873
452	Carneiro	886	1:3,873
454	Beron	884	1:3,882
455	Braga	882	1:3,891
455	Leivas	882	1:3,891
457	Laborde	878	1:3,909
458	Videla	877	1:3,913
459	Pinto	876	1:3,918
460	Llanes	874	1:3,926
461	Miguez	872	1:3,936
461	Solari	872	1:3,936
463	Bentancour	866	1:3,963
463	Patron	866	1:3,963
465	Molinari	865	1:3,967
466	Pazos	862	1:3,981
467	Palacios	861	1:3,986
468	Vicente	857	1:4,004
469	Recalde	855	1:4,014
470	Laguna	854	1:4,018
471	Quevedo	853	1:4,023
472	Fontana	852	1:4,028
473	Milan	844	1:4,066
474	Coitiño	841	1:4,081
475	Bauza	837	1:4,100
476	Larrea	832	1:4,125
476	Villagran	832	1:4,125
478	Aguerre	830	1:4,135
479	Lombardo	829	1:4,140
480	Vico	828	1:4,145
481	Canepa	827	1:4,150
482	Albano	826	1:4,155
483	Aleman	825	1:4,160
483	Rosso	825	1:4,160
485	Zabala	824	1:4,165
486	Montenegro	822	1:4,175
486	Vignolo	822	1:4,175
488	Alanis	821	1:4,180
489	del Puerto	818	1:4,195
489	Ifran	818	1:4,195
491	Galli	817	1:4,200
492	Madera	815	1:4,211
493	Carrera	811	1:4,232
494	Pesce	809	1:4,242
494	Rocca	809	1:4,242
496	Casella	804	1:4,268
496	Valiente	804	1:4,268
498	Gallardo	794	1:4,322
499	Firpo	790	1:4,344
500	Couto	788	1:4,355
501	Palacio	783	1:4,383
501	Panizza	783	1:4,383
503	Arismendi	779	1:4,405
504	Abella	778	1:4,411
505	Carrion	777	1:4,417
505	Pimienta	777	1:4,417
507	Berrueta	773	1:4,440
508	Chocho	772	1:4,445
508	Fros	772	1:4,445
510	Inzaurralde	771	1:4,451
511	Arellano	770	1:4,457
512	Baccino	769	1:4,463
513	Garin	768	1:4,468
514	Mario	767	1:4,474
514	Palermo	767	1:4,474
514	Verde	767	1:4,474
517	Becerra	761	1:4,510
518	Posse	760	1:4,515
519	Techeira	755	1:4,545
520	Lescano	754	1:4,551
521	Amado	752	1:4,564
521	Arocena	752	1:4,564
523	Chaparro	751	1:4,570
523	Cor	751	1:4,570
523	Rodríguez	751	1:4,570
526	Rosales	749	1:4,582
527	Martino	747	1:4,594
528	Lagos	746	1:4,600
529	Fabra	744	1:4,613
529	Menoni	744	1:4,613
531	Izaguirre	740	1:4,638
532	Custodio	737	1:4,656
533	Coelho	735	1:4,669
534	Oliva	733	1:4,682
535	Cejas	732	1:4,688
535	Sanabria	732	1:4,688
537	Valenzuela	730	1:4,701
538	Ferron	728	1:4,714
538	Rizzo	728	1:4,714
540	Pedreira	726	1:4,727
541	Figueira	723	1:4,747
542	Lazo	721	1:4,760
543	Salazar	717	1:4,786
544	Batalla	716	1:4,793
545	Bonino	715	1:4,800
546	Conti	712	1:4,820
547	Birriel	711	1:4,827
548	Lucero	710	1:4,833
548	Taborda	710	1:4,833
550	Casal	709	1:4,840
550	Puig	709	1:4,840
552	Bautista	708	1:4,847
553	Santurio	706	1:4,861
554	Azambuya	705	1:4,868
555	Cortes	704	1:4,875
555	Guzman	704	1:4,875
557	Serra	702	1:4,889
558	Alaniz	701	1:4,896
559	Serron	700	1:4,903
560	Felix	698	1:4,917
560	Leguisamo	698	1:4,917
560	Vignoli	698	1:4,917
563	Callero	696	1:4,931
564	Pelaez	695	1:4,938
565	Mas	694	1:4,945
566	Botta	693	1:4,952
566	Burgueño	693	1:4,952
568	Salinas	692	1:4,959
569	Cespedes	690	1:4,974
570	Ferrando	688	1:4,988
570	Lamas	688	1:4,988
570	Vique	688	1:4,988
573	Bentancourt	685	1:5,010
574	Teliz	681	1:5,039
575	Long	679	1:5,054
575	Travieso	679	1:5,054
575	Ubal	679	1:5,054
578	Elizalde	678	1:5,062
579	da Silveira	677	1:5,069
580	Cua	675	1:5,084
580	Noguera	675	1:5,084
582	Carvallo	674	1:5,092
583	Huelmo	673	1:5,099
583	Villarreal	673	1:5,099
585	Negrin	672	1:5,107
585	Neves	672	1:5,107
587	Parada	670	1:5,122
588	Crosa	669	1:5,130
588	Noya	669	1:5,130
590	Mateos	668	1:5,137
591	Pardo	666	1:5,153
592	Arrua	665	1:5,161
592	Segredo	665	1:5,161
594	Dotta	663	1:5,176
594	Gerez	663	1:5,176
596	Escudero	657	1:5,223
597	Irrazabal	656	1:5,231
597	Massa	656	1:5,231
599	Siri	655	1:5,239
600	Pizzorno	653	1:5,255
600	Posada	653	1:5,255
602	Mato	651	1:5,272
603	Aguero	650	1:5,280
603	Bordon	650	1:5,280
603	Nievas	650	1:5,280
606	Revetria	643	1:5,337
607	Goncalvez	642	1:5,345
607	Valerio	642	1:5,345
609	Castelli	638	1:5,379
610	Nalerio	637	1:5,387
610	Quijano	637	1:5,387
612	Salaberry	636	1:5,396
613	Alpuin	633	1:5,421
614	Bonjour	630	1:5,447
615	Cotelo	629	1:5,456
615	Dossantos	629	1:5,456
617	Ceballos	628	1:5,465
618	Montesdeoca	627	1:5,473
619	Villa	626	1:5,482
620	Lapaz	624	1:5,500
621	Grasso	623	1:5,508
621	Malan	623	1:5,508
621	Saldivia	623	1:5,508
621	Villegas	623	1:5,508
625	Alberti	622	1:5,517
625	Olmos	622	1:5,517
625	Russi	622	1:5,517
628	Castellanos	621	1:5,526
629	Pastorini	619	1:5,544
630	Calcagno	618	1:5,553
631	Palleiro	617	1:5,562
632	Guevara	616	1:5,571
633	Fernández	615	1:5,580
633	Rovira	615	1:5,580
635	Leguizamon	612	1:5,607
636	Oliveri	611	1:5,617
637	Pellejero	609	1:5,635
638	Larrañaga	605	1:5,672
639	Balbuena	602	1:5,701
639	Mautone	602	1:5,701
641	Carreras	600	1:5,720
641	Grassi	600	1:5,720
643	Mier	599	1:5,729
644	Belen	597	1:5,748
644	González	597	1:5,748
646	Vieira	595	1:5,768
647	Seijas	594	1:5,777
648	Alarcon	593	1:5,787
649	Muller	591	1:5,807
650	Genta	590	1:5,817
651	Regueira	589	1:5,826
652	Albin	588	1:5,836
653	Banega	585	1:5,866
653	Dalmao	585	1:5,866
653	del Rio	585	1:5,866
653	Rial	585	1:5,866
657	Balbi	584	1:5,876
658	Montelongo	583	1:5,886
659	Tapia	582	1:5,896
660	Casuriaga	581	1:5,907
661	Arrieta	580	1:5,917
661	Gandini	580	1:5,917
661	Ravera	580	1:5,917
664	Carabajal	575	1:5,968
664	Falco	575	1:5,968
664	Salgado	575	1:5,968
667	Soler	574	1:5,979
668	de Paula	571	1:6,010
669	Delfino	570	1:6,021
670	Novo	569	1:6,031
671	Cantera	568	1:6,042
672	Charquero	567	1:6,052
673	Ferreiro	566	1:6,063
673	Taroco	566	1:6,063
675	Zamora	564	1:6,085
676	Marino	563	1:6,095
677	Abelenda	562	1:6,106
677	Saracho	562	1:6,106
679	de Lima	561	1:6,117
679	Oxley	561	1:6,117
679	Rama	561	1:6,117
682	Mujica	560	1:6,128
682	Vilar	560	1:6,128
684	García	556	1:6,172
685	Hermida	554	1:6,195
685	Leyes	554	1:6,195
685	Pisano	554	1:6,195
688	Prestes	553	1:6,206
689	Valverde	552	1:6,217
690	Lujan	548	1:6,262
691	Spinelli	547	1:6,274
692	Ripoll	546	1:6,285
692	Tomas	546	1:6,285
692	Volpi	546	1:6,285
695	Salvo	545	1:6,297
696	Ferro	544	1:6,308
696	Guigou	544	1:6,308
698	Bruzzone	543	1:6,320
698	Jaime	543	1:6,320
698	Menchaca	543	1:6,320
701	Seoane	541	1:6,343
702	Ricca	540	1:6,355
703	Diez	539	1:6,367
703	Oliver	539	1:6,367
705	Gamboa	537	1:6,391
705	Padron	537	1:6,391
705	Riera	537	1:6,391
708	Carbone	536	1:6,403
708	Iguini	536	1:6,403
708	Otegui	536	1:6,403
711	Saralegui	535	1:6,415
712	Cunha	534	1:6,427
712	Ferre	534	1:6,427
712	Minetti	534	1:6,427
712	Pérez	534	1:6,427
716	Facal	532	1:6,451
717	Lugo	531	1:6,463
717	Reina	531	1:6,463
719	Palomeque	529	1:6,487
720	de Freitas	528	1:6,500
720	Olveira	528	1:6,500
720	Rostan	528	1:6,500
723	Bagnasco	527	1:6,512
723	Goncalves	527	1:6,512
725	Basso	526	1:6,524
726	Bone	525	1:6,537
726	Burguez	525	1:6,537
728	Michelena	524	1:6,549
729	Porro	523	1:6,562
730	Choca	522	1:6,574
731	Bastos	521	1:6,587
732	Capurro	520	1:6,600
733	Guichon	519	1:6,612
734	Ancheta	518	1:6,625
734	Javier	518	1:6,625
736	Sandes	517	1:6,638
737	Feijo	516	1:6,651
738	Gatti	515	1:6,664
739	Aramburu	514	1:6,677
739	Duque	514	1:6,677
741	Lecuna	511	1:6,716
741	Troche	511	1:6,716
743	Maya	509	1:6,742
743	Perdigon	509	1:6,742
743	Pereda	509	1:6,742
746	Barrientos	507	1:6,769
746	Fumero	507	1:6,769
746	Meyer	507	1:6,769
749	Dure	506	1:6,782
749	Viola	506	1:6,782
749	Xavier	506	1:6,782
752	Frachia	505	1:6,796
752	Netto	505	1:6,796
754	Antelo	504	1:6,809
754	Decuadro	504	1:6,809
754	German	504	1:6,809
757	Cesar	503	1:6,823
757	Coppola	503	1:6,823
759	Real	502	1:6,836
760	Heredia	498	1:6,891
761	Calleros	497	1:6,905
762	Chiesa	496	1:6,919
762	Revello	496	1:6,919
764	Echeveste	495	1:6,933
764	Lencina	495	1:6,933
766	Cuenca	494	1:6,947
766	Guimaraens	494	1:6,947
766	Scarone	494	1:6,947
769	Crespo	493	1:6,961
770	Bazzano	492	1:6,975
770	Orona	492	1:6,975
770	Tourn	492	1:6,975
773	Eguren	489	1:7,018
773	Guillermo	489	1:7,018
775	Dorrego	488	1:7,032
776	Cantero	487	1:7,047
777	Gonnet	486	1:7,061
777	Peirano	486	1:7,061
777	Uriarte	486	1:7,061
777	Vecino	486	1:7,061
781	Noria	485	1:7,076
781	Rodao	485	1:7,076
781	Zabaleta	485	1:7,076
784	Martínez	483	1:7,105
784	Pastor	483	1:7,105
784	Urioste	483	1:7,105
787	Chamorro	482	1:7,120
787	Jauregui	482	1:7,120
787	Mazza	482	1:7,120
787	Rivoir	482	1:7,120
787	Sandoval	482	1:7,120
792	Bertinat	481	1:7,135
792	Lavega	481	1:7,135
794	Laureiro	480	1:7,149
794	Vespa	480	1:7,149
796	Pagani	478	1:7,179
797	Arenas	477	1:7,194
797	Martinelli	477	1:7,194
797	Miller	477	1:7,194
797	Telis	477	1:7,194
801	Testa	475	1:7,225
802	Teixeira	474	1:7,240
803	Alba	473	1:7,255
803	Baz	473	1:7,255
803	Modernell	473	1:7,255
803	Puentes	473	1:7,255
807	Fagian	470	1:7,302
807	Guarino	470	1:7,302
807	Rolando	470	1:7,302
810	Castaño	468	1:7,333
810	Gasco	468	1:7,333
810	Mila	468	1:7,333
810	Piedrabuena	468	1:7,333
814	Grecco	467	1:7,349
814	Irigaray	467	1:7,349
814	Modernel	467	1:7,349
814	Ottonello	467	1:7,349
814	Vigo	467	1:7,349
819	Muñiz	466	1:7,364
820	Olid	465	1:7,380
820	Sencion	465	1:7,380
822	Carrizo	464	1:7,396
822	Etchart	464	1:7,396
824	Lauz	463	1:7,412
824	Rotela	463	1:7,412
826	Cisneros	462	1:7,428
826	de Castro	462	1:7,428
826	do Canto	462	1:7,428
826	Luz	462	1:7,428
830	Ceriani	461	1:7,444
830	Garcia da Rosa	461	1:7,444
832	Millan	460	1:7,460
833	Cayetano	459	1:7,477
833	de Cuadro	459	1:7,477
835	Barbosa	458	1:7,493
835	Demarco	458	1:7,493
837	Alfonzo	457	1:7,509
837	Clavero	457	1:7,509
837	Cordoba	457	1:7,509
837	Mendizabal	457	1:7,509
837	Segui	457	1:7,509
842	Estefan	455	1:7,542
842	Osores	455	1:7,542
844	Rubio	454	1:7,559
845	Alcoba	453	1:7,576
845	Linares	453	1:7,576
845	Morena	453	1:7,576
848	Robledo	452	1:7,592
849	de Avila	451	1:7,609
849	del Castillo	451	1:7,609
849	Teran	451	1:7,609
852	Bobadilla	450	1:7,626
852	Cosentino	450	1:7,626
852	Porcal	450	1:7,626
852	Tolosa	450	1:7,626
856	Castiglioni	449	1:7,643
856	Contrera	449	1:7,643
856	Pimentel	449	1:7,643
859	Crossa	448	1:7,660
859	Perazza	448	1:7,660
859	Placeres	448	1:7,660
862	Darosa	447	1:7,677
862	Rovetta	447	1:7,677
864	Alzugaray	446	1:7,695
864	Odriozola	446	1:7,695
866	D'Angelo	444	1:7,729
867	Puglia	443	1:7,747
867	Quesada	443	1:7,747
869	Betancor	442	1:7,764
869	Nova	442	1:7,764
871	Elhordoy	441	1:7,782
871	Pirotto	441	1:7,782
873	Ottonelli	440	1:7,799
874	Chacon	439	1:7,817
874	Juncal	439	1:7,817
874	Yanes	439	1:7,817
877	Alayon	438	1:7,835
877	Castellano	438	1:7,835
879	Corrêa	437	1:7,853
879	Gorgoroso	437	1:7,853
879	Picardo	437	1:7,853
879	Soba	437	1:7,853
883	Ferrero	436	1:7,871
883	Merlo	436	1:7,871
885	Berretta	435	1:7,889
885	Cuevas	435	1:7,889
885	Escobal	435	1:7,889
885	Fripp	435	1:7,889
889	Bidegain	433	1:7,926
889	Carreño	433	1:7,926
889	Cartagena	433	1:7,926
889	Dearmas	433	1:7,926
889	López	433	1:7,926
889	Oliveira	433	1:7,926
895	Damiano	432	1:7,944
896	Cardona	431	1:7,962
896	Lerena	431	1:7,962
898	Bergara	429	1:7,999
898	Cuneo	429	1:7,999
898	Riva	429	1:7,999
901	Henderson	428	1:8,018
901	Lombardi	428	1:8,018
903	Alza	427	1:8,037
903	Sanz	427	1:8,037
905	Echague	426	1:8,056
906	Armand Ugon	424	1:8,094
906	Artola	424	1:8,094
906	Islas	424	1:8,094
906	Volpe	424	1:8,094
910	Calderon	423	1:8,113
910	Elias	423	1:8,113
910	Esquivel	423	1:8,113
910	Navas	423	1:8,113
914	Cedrez	422	1:8,132
914	Manrique	422	1:8,132
914	Ponce de Leon	422	1:8,132
914	Salvatierra	422	1:8,132
918	Ramallo	421	1:8,151
919	Sobrera	420	1:8,171
920	Larrama	418	1:8,210
920	Zinola	418	1:8,210
922	Bordenave	417	1:8,230
922	Porciuncula	417	1:8,230
924	Contreras	416	1:8,249
924	Santa Cruz	416	1:8,249
926	Benavidez	415	1:8,269
926	Buela	415	1:8,269
926	Feo	415	1:8,269
926	Garrone	415	1:8,269
926	Gentile	415	1:8,269
931	Telechea	414	1:8,289
932	Clara	413	1:8,309
932	Fontoura	413	1:8,309
932	Novas	413	1:8,309
932	Porta	413	1:8,309
936	Beltrame	412	1:8,330
936	Maccio	412	1:8,330
936	Mareco	412	1:8,330
936	Milano	412	1:8,330
940	de Vargas	410	1:8,370
940	Pera	410	1:8,370
942	Busto	409	1:8,391
942	Meirelles	409	1:8,391
944	Andino	407	1:8,432
944	Arballo	407	1:8,432
944	Balsamo	407	1:8,432
947	Casavieja	406	1:8,453
948	Ricci	405	1:8,473
949	Gambetta	404	1:8,494
949	Queirolo	404	1:8,494
949	Viña	404	1:8,494
952	Dorta	402	1:8,537
953	Amestoy	401	1:8,558
953	de Oliveira	401	1:8,558
953	Franca	401	1:8,558
953	Montaño	401	1:8,558
953	Vasconcellos	401	1:8,558
958	Coimbra	400	1:8,579
958	Santoro	400	1:8,579
958	Vidart	400	1:8,579
961	Acuna	399	1:8,601
961	Alvariza	399	1:8,601
961	Jaureguy	399	1:8,601
961	Pascual	399	1:8,601
961	Poggio	399	1:8,601
966	Brazeiro	398	1:8,623
966	Cortazzo	398	1:8,623
966	Frugoni	398	1:8,623
969	Beledo	397	1:8,644
969	Giacosa	397	1:8,644
969	Migues	397	1:8,644
969	Vidarte	397	1:8,644
973	Colo	396	1:8,666
973	Fariña	396	1:8,666
973	Gaitan	396	1:8,666
976	Capote	395	1:8,688
976	Pedraja	395	1:8,688
978	Berrondo	394	1:8,710
978	Bracco	394	1:8,710
978	Goñi	394	1:8,710
981	Fabre	393	1:8,732
981	Gabrielli	393	1:8,732
981	Roca	393	1:8,732
984	Melian	392	1:8,754
984	Sire	392	1:8,754
984	Vallarino	392	1:8,754
987	Bustos	391	1:8,777
987	Gordillo	391	1:8,777
987	Pagola	391	1:8,777
987	Saldaña	391	1:8,777
991	Lista	390	1:8,799
991	Mezquita	390	1:8,799
993	Cuadra	389	1:8,822
994	Castroman	388	1:8,845
994	Faccio	388	1:8,845
994	Rodas	388	1:8,845
997	Rodales	387	1:8,868
998	Mallada	386	1:8,891
998	Orrego	386	1:8,891
998	Recuero	386	1:8,891