1	Bachmann	4	1:29
1	Graf	4	1:29
3	Merga	3	1:39
4	Abril	1	1:117
4	Amann	1	1:117
4	Andreas	1	1:117
4	Anrig	1	1:117
4	Antonioli	1	1:117
4	Arber	1	1:117
4	Beaud	1	1:117
4	Becciu	1	1:117
4	Bergoglio	1	1:117
4	Bertello	1	1:117
4	Bertone	1	1:117
4	Biner	1	1:117
4	Bircher	1	1:117
4	Brogi	1	1:117
4	Bruguès	1	1:117
4	Calcagno	1	1:117
4	Cameroni	1	1:117
4	Carrasco	1	1:117
4	Castella	1	1:117
4	Celata	1	1:117
4	Celli	1	1:117
4	Cerutti	1	1:117
4	Christian	1	1:117
4	Cintia	1	1:117
4	Claudio	1	1:117
4	Clemens	1	1:117
4	Comastri	1	1:117
4	Daniel	1	1:117
4	Dominik	1	1:117
4	Fasolin	1	1:117
4	Ferrer	1	1:117
4	Gauzzi	1	1:117
4	Giani	1	1:117
4	Giulietti	1	1:117
4	Glaus	1	1:117
4	Gottofrey	1	1:117
4	Guillaume	1	1:117
4	Gänswein	1	1:117
4	Harvey	1	1:117
4	Hobi	1	1:117
4	Hon	1	1:117
4	Iannone	1	1:117
4	Kalathiparambil	1	1:117
4	Kladis	1	1:117
4	Krajewski	1	1:117
4	Leuzzi	1	1:117
4	Mamberti	1	1:117
4	Manser	1	1:117
4	Marcel	1	1:117
4	Marciante	1	1:117
4	Mariotti	1	1:117
4	Marx	1	1:117
4	Mathies	1	1:117
4	Mayoraz	1	1:117
4	Meinrad	1	1:117
4	Mistò	1	1:117
4	Montanari	1	1:117
4	Moresco	1	1:117
4	Muzzin	1	1:117
4	Napier	1	1:117
4	Ouellet	1	1:117
4	Pagano	1	1:117
4	Parolin	1	1:117
4	Pell	1	1:117
4	Polisca	1	1:117
4	Pozzo	1	1:117
4	Previtali	1	1:117
4	Reding	1	1:117
4	Reichmuth	1	1:117
4	Ricard	1	1:117
4	Riedi	1	1:117
4	Rivera	1	1:117
4	Rodríguez	1	1:117
4	Rodé	1	1:117
4	Roth	1	1:117
4	Ryłko	1	1:117
4	Schiavon	1	1:117
4	Selvadagi	1	1:117
4	Sodano	1	1:117
4	Studer	1	1:117
4	Suriani	1	1:117
4	Sutter	1	1:117
4	Table Hauser	1	1:117
4	Thorne	1	1:117
4	Tricarico	1	1:117
4	Trombetta	1	1:117
4	Vallin	1	1:117
4	Vallini	1	1:117
4	Vegliò	1	1:117
4	Vergain	1	1:117
4	Vetturini	1	1:117
4	Viganó	1	1:117
4	Vérgez	1	1:117
4	Weather	1	1:117
4	Weingartner	1	1:117
4	Wolińska-Riedi	1	1:117
4	Zehnder	1	1:117
4	Zimmerli	1	1:117
4	Zuppi	1	1:117
4	dal Covolo	1	1:117
4	de Castro	1	1:117
4	de Horatis	1	1:117
4	de Raemy	1	1:117
4	di Nardo	1	1:117
4	di Noia	1	1:117
4	di Tora	1	1:117
