1	Williams	1,495	1:74
2	Smith	1,171	1:94
3	Thomas	1,151	1:96
4	Joseph	996	1:111
5	Francis	868	1:127
6	George	785	1:141
7	Hodge	739	1:149
8	James	721	1:153
9	Charles	572	1:193
10	Richards	570	1:194
11	Benjamin	528	1:209
12	Bryan	513	1:215
13	Brown	510	1:216
14	Richardson	483	1:229
15	Lewis	466	1:237
16	Henry	434	1:254
17	Gumbs	417	1:265
18	Davis	416	1:265
19	Rivera	396	1:279
20	Christian	394	1:280
21	Johnson	389	1:284
22	Jackson	386	1:286
23	Petersen	384	1:287
24	Martin	371	1:298
25	Samuel	370	1:298
26	Daniel	354	1:312
27	Jones	353	1:313
28	Browne	352	1:314
29	Edwards	328	1:337
30	Roberts	326	1:339
31	Rogers	325	1:340
32	Callwood	313	1:353
33	Turnbull	300	1:368
34	King	292	1:378
35	Todman	287	1:385
36	Berry	279	1:396
37	Harrigan	268	1:412
38	Clarke	259	1:426
39	Garcia	256	1:431
40	Miller	252	1:438
41	Thompson	250	1:442
42	Matthew	242	1:456
43	Jacobs	228	1:484
44	Phillip	225	1:491
45	Liburd	221	1:499
45	Vanterpool	221	1:499
47	Harris	218	1:506
48	Adams	216	1:511
48	John	216	1:511
50	Fleming	212	1:521
51	Hendricks	211	1:523
52	Donovan	209	1:528
53	Blyden	206	1:536
53	Simmonds	206	1:536
55	Carty	204	1:541
56	Penn	202	1:546
57	Frett	198	1:557
57	Lettsome	198	1:557
59	Allen	194	1:569
60	Felix	193	1:572
60	Lake	193	1:572
62	Freeman	191	1:578
62	Phillips	191	1:578
62	Simon	191	1:578
65	David	188	1:587
66	Cruz	187	1:590
67	Rhymer	184	1:600
67	Walters	184	1:600
69	Webster	183	1:603
70	Brooks	182	1:606
70	Greaux	182	1:606
70	Rodriguez	182	1:606
73	Gordon	178	1:620
73	Lee	178	1:620
75	Alexander	177	1:624
75	Parris	177	1:624
77	Torres	176	1:627
78	Christopher	173	1:638
78	Peters	173	1:638
80	Lawrence	172	1:642
80	Maynard	172	1:642
82	Connor	169	1:653
83	Taylor	166	1:665
84	Fahie	165	1:669
84	Mills	165	1:669
86	Leonard	163	1:677
86	White	163	1:677
88	Martinez	162	1:681
89	Hughes	160	1:690
89	Powell	160	1:690
91	Robinson	159	1:694
91	Wilson	159	1:694
93	Bailey	157	1:703
94	Baptiste	155	1:712
94	Grant	155	1:712
94	Monsanto	155	1:712
97	Magras	153	1:721
98	Querrard	149	1:741
99	Brathwaite	148	1:746
100	Anderson	146	1:756
100	Green	146	1:756
100	Lynch	146	1:756
100	Warner	146	1:756
104	Isaac	145	1:761
104	Knight	145	1:761
106	Abraham	143	1:772
107	Forbes	142	1:777
107	Moore	142	1:777
109	Mitchell	141	1:783
109	Perez	141	1:783
111	Encarnacion	139	1:794
111	Laplace	139	1:794
111	Nicholas	139	1:794
111	Prince	139	1:794
115	Jarvis	138	1:800
116	Stevens	137	1:806
117	Andrews	133	1:830
117	Ayala	133	1:830
117	Hendrickson	133	1:830
120	Soto	132	1:836
121	Armstrong	128	1:862
121	Ortiz	128	1:862
123	Anthony	127	1:869
123	Henderson	127	1:869
125	Jeffers	126	1:876
125	McIntosh	126	1:876
127	Wallace	125	1:883
128	Morales	124	1:890
128	Wheatley	124	1:890
130	Evans	122	1:905
131	Gonzalez	120	1:920
131	Malone	120	1:920
133	Hamilton	119	1:928
133	Nelson	119	1:928
133	Paul	119	1:928
136	Moorehead	118	1:935
136	Quetel	118	1:935
136	Rawlins	118	1:935
136	Sprauve	118	1:935
140	Emanuel	117	1:943
141	Farrell	115	1:960
141	Morton	115	1:960
143	Fredericks	114	1:968
143	Morris	114	1:968
145	Graham	111	1:994
146	Figueroa	110	1:1,003
146	Gomez	110	1:1,003
146	Pemberton	110	1:1,003
149	Hector	109	1:1,013
149	Herbert	109	1:1,013
151	Payne	108	1:1,022
151	Pickering	108	1:1,022
153	Maduro	107	1:1,032
153	Niles	107	1:1,032
155	Boschulte	106	1:1,041
155	Hanley	106	1:1,041
157	Chinnery	105	1:1,051
158	Georges	104	1:1,061
158	Ramos	104	1:1,061
158	Santiago	104	1:1,061
161	Aubain	103	1:1,072
161	Canton	103	1:1,072
161	Cornelius	103	1:1,072
161	Douglas	103	1:1,072
161	Ottley	103	1:1,072
166	Hill	102	1:1,082
166	Sealey	102	1:1,082
168	Mason	101	1:1,093
169	Lang	100	1:1,104
169	Potter	100	1:1,104
171	Dawson	99	1:1,115
171	Ledee	99	1:1,115
171	Meyers	99	1:1,115
174	Huggins	98	1:1,126
175	Claxton	97	1:1,138
175	Creque	97	1:1,138
175	Hansen	97	1:1,138
175	Nieves	97	1:1,138
179	Blake	96	1:1,150
179	Frederick	96	1:1,150
179	Stapleton	96	1:1,150
182	Stanley	95	1:1,162
183	Foy	94	1:1,174
183	Ryan	94	1:1,174
183	Sewer	94	1:1,174
186	Brin	93	1:1,187
186	Ross	93	1:1,187
188	Krigger	92	1:1,200
188	Melendez	92	1:1,200
188	Saldana	92	1:1,200
188	Tyson	92	1:1,200
192	Camacho	91	1:1,213
193	Baker	90	1:1,226
193	Lopez	90	1:1,226
195	Hall	89	1:1,240
195	Marsh	89	1:1,240
195	Schuster	89	1:1,240
198	Belardo	88	1:1,254
198	Carr	88	1:1,254
198	Rey	88	1:1,254
201	Augustin	87	1:1,269
201	Clendinen	87	1:1,269
201	Griffith	87	1:1,269
201	Henley	87	1:1,269
201	Steele	87	1:1,269
206	Brady	86	1:1,283
206	Diaz	86	1:1,283
206	Moses	86	1:1,283
209	Campbell	85	1:1,299
209	Heyliger	85	1:1,299
211	Barry	84	1:1,314
211	Bradshaw	84	1:1,314
211	Marshall	84	1:1,314
214	Caines	83	1:1,330
214	Carter	83	1:1,330
214	Etienne	83	1:1,330
214	Lloyd	83	1:1,330
214	Newton	83	1:1,330
219	Lima	82	1:1,346
219	Scatliffe	82	1:1,346
221	Gilbert	81	1:1,363
221	Nibbs	81	1:1,363
223	Andrew	80	1:1,380
223	Jennings	80	1:1,380
223	Rabsatt	80	1:1,380
223	Sutton	80	1:1,380
227	Stout	79	1:1,397
228	Greenaway	78	1:1,415
228	Rodriquez	78	1:1,415
228	Venzen	78	1:1,415
228	Walker	78	1:1,415
228	Young	78	1:1,415
233	Greene	77	1:1,433
233	Griffin	77	1:1,433
233	Matthias	77	1:1,433
236	Acosta	76	1:1,452
236	Harley	76	1:1,452
236	Romney	76	1:1,452
236	Scott	76	1:1,452
236	Ventura	76	1:1,452
241	Burke	75	1:1,472
241	Clark	75	1:1,472
241	Faulkner	75	1:1,472
241	Larsen	75	1:1,472
241	Plaskett	75	1:1,472
241	Walcott	75	1:1,472
247	Francois	72	1:1,533
247	O'Reilly	72	1:1,533
247	Ward	72	1:1,533
250	Bermudez	71	1:1,555
250	Danet	71	1:1,555
250	Emmanuel	71	1:1,555
250	Murray	71	1:1,555
250	Osborne	71	1:1,555
250	Sanes	71	1:1,555
256	Herman	70	1:1,577
256	Olive	70	1:1,577
256	Peterson	70	1:1,577
256	Questel	70	1:1,577
260	Burton	69	1:1,600
260	Industrious	69	1:1,600
260	McBean	69	1:1,600
260	Robles	69	1:1,600
260	Roebuck	69	1:1,600
260	Spencer	69	1:1,600
260	Wilkinson	69	1:1,600
267	Bell	68	1:1,623
267	Duncan	68	1:1,623
267	Farrington	68	1:1,623
267	Lockhart	68	1:1,623
267	Santos	68	1:1,623
267	Saunders	68	1:1,623
273	Colon	67	1:1,647
273	Pierre	67	1:1,647
273	Pinney	67	1:1,647
276	Fraser	66	1:1,672
276	Matthews	66	1:1,672
276	Mohammed	66	1:1,672
276	Moolenaar	66	1:1,672
276	Parrilla	66	1:1,672
281	Abbott	65	1:1,698
281	Frazer	65	1:1,698
281	Nesbitt	65	1:1,698
281	Tonge	65	1:1,698
281	Weeks	65	1:1,698
281	Wells	65	1:1,698
287	Edney	63	1:1,752
287	Moorhead	63	1:1,752
287	Navarro	63	1:1,752
287	Parker	63	1:1,752
287	Peter	63	1:1,752
287	Tuitt	63	1:1,752
293	Cintron	62	1:1,780
293	Gibbs	62	1:1,780
293	Hunt	62	1:1,780
293	Michael	62	1:1,780
297	Cole	61	1:1,809
297	Hobson	61	1:1,809
297	McClean	61	1:1,809
297	Scotland	61	1:1,809
297	Simmons	61	1:1,809
302	Collins	60	1:1,840
302	Harvey	60	1:1,840
302	Lambert	60	1:1,840
302	Reyes	60	1:1,840
302	Stephens	60	1:1,840
302	Weekes	60	1:1,840
308	Daley	59	1:1,871
308	Durand	59	1:1,871
308	Elliott	59	1:1,871
308	Ford	59	1:1,871
308	Maldonado	59	1:1,871
308	Webbe	59	1:1,871
308	Woodley	59	1:1,871
315	Antoine	58	1:1,903
315	Archibald	58	1:1,903
315	Baron	58	1:1,903
315	Dore	58	1:1,903
315	Louis	58	1:1,903
315	Solomon	58	1:1,903
315	Stewart	58	1:1,903
315	Trotman	58	1:1,903
323	Battiste	57	1:1,936
323	Charleswell	57	1:1,936
323	Dewindt	57	1:1,936
323	Foster	57	1:1,936
323	Gonzales	57	1:1,936
323	Hewitt	57	1:1,936
323	Kelly	57	1:1,936
323	Ritter	57	1:1,936
323	Singh	57	1:1,936
323	Victor	57	1:1,936
333	Boynes	56	1:1,971
333	Gerard	56	1:1,971
333	Phipps	56	1:1,971
333	Toussaint	56	1:1,971
337	Chapman	55	1:2,007
337	Cooper	55	1:2,007
337	Durant	55	1:2,007
337	Ferdinand	55	1:2,007
337	Johannes	55	1:2,007
337	Prentice	55	1:2,007
337	Rosa	55	1:2,007
337	Royer	55	1:2,007
337	Springer	55	1:2,007
337	Swan	55	1:2,007
347	Butler	54	1:2,044
347	Horsford	54	1:2,044
347	Millin	54	1:2,044
347	Petty	54	1:2,044
347	Watson	54	1:2,044
347	Wright	54	1:2,044
353	Haynes	53	1:2,083
353	Howard	53	1:2,083
353	Meade	53	1:2,083
353	Mohanani	53	1:2,083
353	Nicholson	53	1:2,083
353	Peets	53	1:2,083
353	Ruan	53	1:2,083
353	Turner	53	1:2,083
361	Bernier	52	1:2,123
361	Bertrand	52	1:2,123
361	Edward	52	1:2,123
361	Hart	52	1:2,123
361	Jean-Baptiste	52	1:2,123
361	Lindquist	52	1:2,123
361	Mathurin	52	1:2,123
361	Milligan	52	1:2,123
361	Oliver	52	1:2,123
361	Proctor	52	1:2,123
361	Reynolds	52	1:2,123
361	Sackey	52	1:2,123
361	Serrano	52	1:2,123
361	Smalls	52	1:2,123
361	Testamark	52	1:2,123
361	Willock	52	1:2,123
377	Abramson	51	1:2,164
377	Barnes	51	1:2,164
377	Cuffy	51	1:2,164
377	Fabio	51	1:2,164
377	Gittens	51	1:2,164
377	Hedrington	51	1:2,164
377	Howell	51	1:2,164
377	Jensen	51	1:2,164
377	Mercer	51	1:2,164
377	Russell	51	1:2,164
377	Sibilly	51	1:2,164
388	Arnold	50	1:2,208
388	Blackman	50	1:2,208
388	Estrill	50	1:2,208
388	Forde	50	1:2,208
388	Gabriel	50	1:2,208
388	Nelthropp	50	1:2,208
388	Woods	50	1:2,208
395	Belle	49	1:2,253
395	Bennett	49	1:2,253
395	Turbe	49	1:2,253
398	Kuntz	48	1:2,299
398	Lanclos	48	1:2,299
398	Morgan	48	1:2,299
398	Quinones	48	1:2,299
398	Raymond	48	1:2,299
398	Registe	48	1:2,299
398	Romero	48	1:2,299
405	Fenton	47	1:2,348
405	Finch	47	1:2,348
405	Galiber	47	1:2,348
405	Hazel	47	1:2,348
405	Parsons	47	1:2,348
405	Small	47	1:2,348
405	Wiltshire	47	1:2,348
412	Bonelli	46	1:2,399
412	Ellis	46	1:2,399
412	Hernandez	46	1:2,399
412	Joshua	46	1:2,399
412	Ruiz	46	1:2,399
417	Ambrose	45	1:2,453
417	Bishop	45	1:2,453
417	Greenidge	45	1:2,453
417	Holder	45	1:2,453
417	Laurent	45	1:2,453
417	Petrus	45	1:2,453
417	Rodgers	45	1:2,453
417	Rodney	45	1:2,453
417	Sanchez	45	1:2,453
417	Schneider	45	1:2,453
417	Velez	45	1:2,453
417	Wade	45	1:2,453
429	Acevedo	44	1:2,509
429	Bramble	44	1:2,509
429	Brookes	44	1:2,509
429	Cannonier	44	1:2,509
429	Dyer	44	1:2,509
429	Garvey	44	1:2,509
429	Mahoney	44	1:2,509
429	Murphy	44	1:2,509
429	Robertson	44	1:2,509
429	Sullivan	44	1:2,509
429	Swanston	44	1:2,509
429	Tutein	44	1:2,509
429	Vialet	44	1:2,509
442	Bastian	43	1:2,567
442	Bough	43	1:2,567
442	Drew	43	1:2,567
442	Esprit	43	1:2,567
442	Guadalupe	43	1:2,567
442	Jules	43	1:2,567
442	La Place	43	1:2,567
442	Luke	43	1:2,567
442	McFarlane	43	1:2,567
442	Ramirez	43	1:2,567
442	Stridiron	43	1:2,567
442	Velasquez	43	1:2,567
454	Albert	42	1:2,628
454	Bess	42	1:2,628
454	Esannason	42	1:2,628
454	Franklin	42	1:2,628
454	Goodwin	42	1:2,628
454	Parson	42	1:2,628
460	Ali	41	1:2,692
460	Bannis	41	1:2,692
460	Cook	41	1:2,692
460	Kean	41	1:2,692
460	Monell	41	1:2,692
460	Nielsen	41	1:2,692
460	Nisbett	41	1:2,692
460	Reed	41	1:2,692
460	Reid	41	1:2,692
460	Sylvester	41	1:2,692
470	Boyce	40	1:2,759
470	Brow	40	1:2,759
470	Challenger	40	1:2,759
470	Dennis	40	1:2,759
470	Eugene	40	1:2,759
470	McDonald	40	1:2,759
470	Mercado	40	1:2,759
470	O'Neal	40	1:2,759
470	Roach	40	1:2,759
470	St Rose	40	1:2,759
470	Suarez	40	1:2,759
470	Velazquez	40	1:2,759
482	Bass	39	1:2,830
482	Bellot	39	1:2,830
482	Berkeley	39	1:2,830
482	Farrelly	39	1:2,830
482	John-Baptiste	39	1:2,830
482	Modeste	39	1:2,830
482	Santana	39	1:2,830
482	Schmidt	39	1:2,830
482	Shaw	39	1:2,830
482	Sweeney	39	1:2,830
482	Varlack	39	1:2,830
482	Walwyn	39	1:2,830
482	Xavier	39	1:2,830
495	Chesterfield	38	1:2,905
495	Dowling	38	1:2,905
495	Eddy	38	1:2,905
495	Ferris	38	1:2,905
495	Hilaire	38	1:2,905
495	Mack	38	1:2,905
495	Mark	38	1:2,905
495	Percival	38	1:2,905
495	Perkins	38	1:2,905
495	Riley	38	1:2,905
495	Rose	38	1:2,905
495	Rosenberg	38	1:2,905
495	Rouse	38	1:2,905
508	Auguste	37	1:2,983
508	Carroll	37	1:2,983
508	Concepcion	37	1:2,983
508	Daswani	37	1:2,983
508	Ferguson	37	1:2,983
508	Flemming	37	1:2,983
508	McKenzie	37	1:2,983
508	Morrison	37	1:2,983
508	Parrott	37	1:2,983
508	Ramsey	37	1:2,983
508	Walter	37	1:2,983
508	Willie	37	1:2,983
520	Aaron	36	1:3,066
520	Alfred	36	1:3,066
520	Bedminster	36	1:3,066
520	Casimir	36	1:3,066
520	Castro	36	1:3,066
520	Gibson	36	1:3,066
520	Massicott	36	1:3,066
520	Rosario	36	1:3,066
520	Schjang	36	1:3,066
520	Thurland	36	1:3,066
520	William	36	1:3,066
520	Wood	36	1:3,066
532	Alleyne	35	1:3,154
532	Carrillo	35	1:3,154
532	Christensen	35	1:3,154
532	Danielson	35	1:3,154
532	Donastorg	35	1:3,154
532	Gardner	35	1:3,154
532	Gore	35	1:3,154
532	Jagrup	35	1:3,154
532	Javois	35	1:3,154
532	Pilgrim	35	1:3,154
532	Selkridge	35	1:3,154
532	Simpson	35	1:3,154
532	Spenceley	35	1:3,154
545	Anduze	34	1:3,246
545	Arthurton	34	1:3,246
545	Audain	34	1:3,246
545	Halliday	34	1:3,246
545	Hazell	34	1:3,246
545	Julien	34	1:3,246
545	Pascal	34	1:3,246
545	Rios	34	1:3,246
545	Riviere	34	1:3,246
545	Roper	34	1:3,246
545	Sebastien	34	1:3,246
545	Stephen	34	1:3,246
545	Watts	34	1:3,246
545	Webb	34	1:3,246
545	Wesselhoft	34	1:3,246
560	Allick	33	1:3,345
560	Austin	33	1:3,345
560	Brannigan	33	1:3,345
560	Daly	33	1:3,345
560	Dixon	33	1:3,345
560	Espinosa	33	1:3,345
560	Fergus	33	1:3,345
560	Glasgow	33	1:3,345
560	Manning	33	1:3,345
560	Prosper	33	1:3,345
570	Acoy	32	1:3,449
570	Bartley	32	1:3,449
570	Bernard	32	1:3,449
570	Bridgewater	32	1:3,449
570	Brodhurst	32	1:3,449
570	Bruney	32	1:3,449
570	Cameron	32	1:3,449
570	Canegata	32	1:3,449
570	Crawford	32	1:3,449
570	Galloway	32	1:3,449
570	Hunte	32	1:3,449
570	Iles	32	1:3,449
570	Lugo	32	1:3,449
570	Milliner	32	1:3,449
570	Otto	32	1:3,449
570	Rene	32	1:3,449
570	Shulterbrandt	32	1:3,449
570	Skelton	32	1:3,449
588	Blanchard	31	1:3,560
588	Brunn	31	1:3,560
588	Bruno	31	1:3,560
588	Carrington	31	1:3,560
588	Celestine	31	1:3,560
588	Cerge	31	1:3,560
588	Correa	31	1:3,560
588	Dennery	31	1:3,560
588	Doward	31	1:3,560
588	Gomes	31	1:3,560
588	Gottlieb	31	1:3,560
588	Leon	31	1:3,560
588	Raimer	31	1:3,560
588	Rojas	31	1:3,560
588	Rollins	31	1:3,560
588	Salem	31	1:3,560
588	Sheridan	31	1:3,560
588	Springette	31	1:3,560
588	Vidal	31	1:3,560
588	Vigilant	31	1:3,560
588	West	31	1:3,560
609	Boyd	30	1:3,679
609	Cohen	30	1:3,679
609	Cotto	30	1:3,679
609	Daniels	30	1:3,679
609	Delgado	30	1:3,679
609	Dickerson	30	1:3,679
609	Fontaine	30	1:3,679
609	Gifft	30	1:3,679
609	Gregory	30	1:3,679
609	Guzman	30	1:3,679
609	Harry	30	1:3,679
609	Heywood	30	1:3,679
609	Ible	30	1:3,679
609	Jordan	30	1:3,679
609	Laurencin	30	1:3,679
609	Myers	30	1:3,679
609	Romain	30	1:3,679
609	Vasquez	30	1:3,679
627	Andre	29	1:3,806
627	Bartlett	29	1:3,806
627	Carpenter	29	1:3,806
627	Denis	29	1:3,806
627	Dorsett	29	1:3,806
627	Lebron	29	1:3,806
627	McCoy	29	1:3,806
627	McGregor	29	1:3,806
627	Noel	29	1:3,806
627	Schulterbrandt	29	1:3,806
627	Wattley	29	1:3,806
627	Wilkins	29	1:3,806
639	Barton	28	1:3,942
639	Blackwood	28	1:3,942
639	Caraballo	28	1:3,942
639	Carino	28	1:3,942
639	Carrion	28	1:3,942
639	Cepeda	28	1:3,942
639	Dalmida	28	1:3,942
639	Donawa	28	1:3,942
639	Edwin	28	1:3,942
639	Humphrey	28	1:3,942
639	John Baptiste	28	1:3,942
639	Kelley	28	1:3,942
639	Merchant	28	1:3,942
639	Motta	28	1:3,942
639	O'Bryan	28	1:3,942
639	Oneal	28	1:3,942
639	Patrick	28	1:3,942
639	Stuart	28	1:3,942
639	Theodore	28	1:3,942
658	Baly	27	1:4,088
658	Bennerson	27	1:4,088
658	Blaize	27	1:4,088
658	Brumant	27	1:4,088
658	Carey	27	1:4,088
658	Casey	27	1:4,088
658	Clifford	27	1:4,088
658	de Windt	27	1:4,088
658	Elizee	27	1:4,088
658	Eloi	27	1:4,088
658	Garfield	27	1:4,088
658	Guishard	27	1:4,088
658	Jonas	27	1:4,088
658	Leslie	27	1:4,088
658	Lindo	27	1:4,088
658	Palmer	27	1:4,088
658	Patterson	27	1:4,088
658	Poleon	27	1:4,088
658	Ralph	27	1:4,088
658	van Beverhoudt	27	1:4,088
658	Yearwood	27	1:4,088
679	Abdallah	26	1:4,245
679	Bryant	26	1:4,245
679	Castor	26	1:4,245
679	Charlery	26	1:4,245
679	Estrada	26	1:4,245
679	Jeremiah	26	1:4,245
679	Lett	26	1:4,245
679	Maxwell	26	1:4,245
679	Molloy	26	1:4,245
679	Mustafa	26	1:4,245
679	Padilla	26	1:4,245
679	Rosado	26	1:4,245
679	Sargeant	26	1:4,245
679	Seales	26	1:4,245
679	Smithen	26	1:4,245
679	Tate	26	1:4,245
679	Totwani	26	1:4,245
679	Vanbeverhoudt	26	1:4,245
679	Winston	26	1:4,245
679	Yusuf	26	1:4,245
699	Augustus	25	1:4,415
699	Baltimore	25	1:4,415
699	Berg	25	1:4,415
699	Bowry	25	1:4,415
699	Brewley	25	1:4,415
699	Chandler	25	1:4,415
699	Cox	25	1:4,415
699	Donadelle	25	1:4,415
699	Dudley	25	1:4,415
699	Felicien	25	1:4,415
699	Ferrol	25	1:4,415
699	Frorup	25	1:4,415
699	Gaskin	25	1:4,415
699	Gaston	25	1:4,415
699	Golden	25	1:4,415
699	Harrison	25	1:4,415
699	Howe	25	1:4,415
699	Hull	25	1:4,415
699	Khan	25	1:4,415
699	MacKay	25	1:4,415
699	Messer	25	1:4,415
699	Rougier	25	1:4,415
699	Southwell	25	1:4,415
699	Watley	25	1:4,415
723	Amaro	24	1:4,599
723	Arroyo	24	1:4,599
723	Arthur	24	1:4,599
723	Barber	24	1:4,599
723	Bartlette	24	1:4,599
723	Byron	24	1:4,599
723	Carmona	24	1:4,599
723	Carrasquillo	24	1:4,599
723	Cummings	24	1:4,599
723	Dominique	24	1:4,599
723	Floyd	24	1:4,599
723	Gray	24	1:4,599
723	Holmes	24	1:4,599
723	Husband	24	1:4,599
723	Irish	24	1:4,599
723	Jurgen	24	1:4,599
723	Kendall	24	1:4,599
723	Moron	24	1:4,599
723	Nichols	24	1:4,599
723	Norris	24	1:4,599
723	Philip	24	1:4,599
723	Porter	24	1:4,599
723	Ravariere	24	1:4,599
723	Reese	24	1:4,599
723	Schrader	24	1:4,599
723	Viera	24	1:4,599
723	Walsh	24	1:4,599
723	Warren	24	1:4,599
723	Weiss	24	1:4,599
723	Whyte	24	1:4,599
753	Aloyo	23	1:4,799
753	Bassue	23	1:4,799
753	Brandt	23	1:4,799
753	Chitolie	23	1:4,799
753	Coleman	23	1:4,799
753	Corcino	23	1:4,799
753	Driscoll	23	1:4,799
753	Fagan	23	1:4,799
753	Hermon	23	1:4,799
753	Hopkins	23	1:4,799
753	Leerdam	23	1:4,799
753	Parilla	23	1:4,799
753	Penha	23	1:4,799
753	Rivers	23	1:4,799
753	Sampson	23	1:4,799
753	Sinclair	23	1:4,799
753	Tavernier	23	1:4,799
770	Alexis	22	1:5,017
770	Almestica	22	1:5,017
770	Alvarez	22	1:5,017
770	Bates	22	1:5,017
770	Boland	22	1:5,017
770	Brunt	22	1:5,017
770	Calistro	22	1:5,017
770	Chase	22	1:5,017
770	Comissiong	22	1:5,017
770	Connell	22	1:5,017
770	Davila	22	1:5,017
770	Deterville	22	1:5,017
770	Dowe	22	1:5,017
770	Dujon	22	1:5,017
770	Fisher	22	1:5,017
770	Hayes	22	1:5,017
770	Hicks	22	1:5,017
770	Hoffman	22	1:5,017
770	Hosein	22	1:5,017
770	Hurst	22	1:5,017
770	Jean	22	1:5,017
770	Knowles	22	1:5,017
770	Leblanc	22	1:5,017
770	Mirchandani	22	1:5,017
770	Mirpuri	22	1:5,017
770	Montanez	22	1:5,017
770	Nanton	22	1:5,017
770	Paiewonsky	22	1:5,017
770	Pearson	22	1:5,017
770	Roldan	22	1:5,017
770	Semper	22	1:5,017
770	Sergent	22	1:5,017
770	Serrant	22	1:5,017
770	Sharp	22	1:5,017
770	Shoy	22	1:5,017
770	Skov	22	1:5,017
770	Titus	22	1:5,017
770	Wheeler	22	1:5,017
808	Barker	21	1:5,256
808	Benoit	21	1:5,256
808	Buncome	21	1:5,256
808	Charlemagne	21	1:5,256
808	Clement	21	1:5,256
808	Colbourne	21	1:5,256
808	de Castro	21	1:5,256
808	Dickenson	21	1:5,256
808	Feliciano	21	1:5,256
808	Frank	21	1:5,256
808	Gardine	21	1:5,256
808	Greaves	21	1:5,256
808	Hawley	21	1:5,256
808	Henneman	21	1:5,256
808	Hypolite	21	1:5,256
808	Josiah	21	1:5,256
808	Laudat	21	1:5,256
808	Lezama	21	1:5,256
808	Maharaj	21	1:5,256
808	Mardenborough	21	1:5,256
808	Marks	21	1:5,256
808	Massiah	21	1:5,256
808	Medina	21	1:5,256
808	Norman	21	1:5,256
808	Phaire	21	1:5,256
808	Prescott	21	1:5,256
808	Pryce	21	1:5,256
808	Purcell	21	1:5,256
808	Sheppard	21	1:5,256
808	Skeete	21	1:5,256
808	St John	21	1:5,256
808	Stanton	21	1:5,256
808	Sterling	21	1:5,256
808	Swanson	21	1:5,256
808	Vincent	21	1:5,256
808	Warden	21	1:5,256
844	Alphonse	20	1:5,519
844	Amedee	20	1:5,519
844	Baird	20	1:5,519
844	Bambini	20	1:5,519
844	Barnard	20	1:5,519
844	Bruce	20	1:5,519
844	Burns	20	1:5,519
844	Burt	20	1:5,519
844	Castillo	20	1:5,519
844	Chalwell	20	1:5,519
844	Chandiramani	20	1:5,519
844	Coates	20	1:5,519
844	Cobb	20	1:5,519
844	Creighton	20	1:5,519
844	Crowe	20	1:5,519
844	Dadlani	20	1:5,519
844	Downing	20	1:5,519
844	Enrique	20	1:5,519
844	Fletcher	20	1:5,519
844	Gautier	20	1:5,519
844	Grey	20	1:5,519
844	Harper	20	1:5,519
844	Heath	20	1:5,519
844	Hewlett	20	1:5,519
844	Hosier	20	1:5,519
844	Inniss	20	1:5,519
844	Jowers	20	1:5,519
844	Khiani	20	1:5,519
844	Kilpatrick	20	1:5,519
844	Lans	20	1:5,519
844	Leonce	20	1:5,519
844	Lindesay	20	1:5,519
844	Marchena	20	1:5,519
844	Marrero	20	1:5,519
844	Montes	20	1:5,519
844	Murraine	20	1:5,519
844	O'Garro	20	1:5,519
844	Osorio	20	1:5,519
844	Pedersen	20	1:5,519
844	Pedro	20	1:5,519
844	Punjabi	20	1:5,519
844	Quinn	20	1:5,519
844	Randolph	20	1:5,519
844	Sakhrani	20	1:5,519
844	Silcott	20	1:5,519
844	Somersall	20	1:5,519
844	St Clair	20	1:5,519
844	Titre	20	1:5,519
844	Tyler	20	1:5,519
844	Wenner	20	1:5,519
844	Willis	20	1:5,519
844	Wynter	20	1:5,519
896	Archer	19	1:5,809
896	Berrios	19	1:5,809
896	Bethelmie	19	1:5,809
896	Bornn	19	1:5,809
896	Burner	19	1:5,809
896	Byrd	19	1:5,809
896	Day	19	1:5,809
896	de Jesus	19	1:5,809
896	Finley	19	1:5,809
896	Flores	19	1:5,809
896	Fowler	19	1:5,809
896	Granger	19	1:5,809
896	Hamm	19	1:5,809
896	Holland	19	1:5,809
896	Horton	19	1:5,809
896	Hurley	19	1:5,809
896	Hurtault	19	1:5,809
896	Idheileh	19	1:5,809
896	Lambertis	19	1:5,809
896	Letang	19	1:5,809
896	MacEdon	19	1:5,809
896	Meyer	19	1:5,809
896	Miles	19	1:5,809
896	Miranda	19	1:5,809
896	Molina	19	1:5,809
896	Molyneaux	19	1:5,809
896	Pacquette	19	1:5,809
896	Pierce	19	1:5,809
896	Price	19	1:5,809
896	Rice	19	1:5,809
896	Richmond	19	1:5,809
896	Schierloh	19	1:5,809
896	St Brice	19	1:5,809
896	St Luce	19	1:5,809
896	Torrens	19	1:5,809
931	Alcendor	18	1:6,132
931	Alwani	18	1:6,132
931	Bachelor	18	1:6,132
931	Beazer	18	1:6,132
931	Bedminister	18	1:6,132
931	Bubb	18	1:6,132
931	Buchanan	18	1:6,132
931	Buckley	18	1:6,132
931	Burnett	18	1:6,132
931	Butcher	18	1:6,132
931	Cline	18	1:6,132
931	Cochran	18	1:6,132
931	Cornwall	18	1:6,132
931	Cruse	18	1:6,132
931	de Lugo	18	1:6,132
931	Dean	18	1:6,132
931	Defreitas	18	1:6,132
931	Dejongh	18	1:6,132
931	Delemos	18	1:6,132
931	Desouza	18	1:6,132
931	Dimopoulos	18	1:6,132
931	Doumeng	18	1:6,132
931	Dunn	18	1:6,132
931	Fox	18	1:6,132
931	French	18	1:6,132
931	Greer	18	1:6,132
931	Hutchinson	18	1:6,132
931	Jack	18	1:6,132
931	Jacob	18	1:6,132
931	Jeppesen	18	1:6,132
931	Johansen	18	1:6,132
931	Keller	18	1:6,132
931	Kim	18	1:6,132
931	Leo	18	1:6,132
931	Marsham	18	1:6,132
931	Montoute	18	1:6,132
931	Nicholls	18	1:6,132
931	Norford	18	1:6,132
931	O'Neil	18	1:6,132
931	Olivacce	18	1:6,132
931	Panjabi	18	1:6,132
931	Pena	18	1:6,132
931	Percell	18	1:6,132
931	Pereira	18	1:6,132
931	Philbert	18	1:6,132
931	Ramsingh	18	1:6,132
931	Richard	18	1:6,132
931	Sasso	18	1:6,132
931	Savage	18	1:6,132
931	Ved	18	1:6,132
931	Vessup	18	1:6,132
931	Wadhwani	18	1:6,132
931	Wall	18	1:6,132
931	Waters	18	1:6,132
931	Weaver	18	1:6,132
931	Zephir	18	1:6,132
987	Allahar	17	1:6,493
987	Aponte	17	1:6,493
987	Asad	17	1:6,493
987	Ashe	17	1:6,493
987	Ballentine	17	1:6,493
987	Benitez	17	1:6,493
987	Black	17	1:6,493
987	Bodley	17	1:6,493
987	Boston	17	1:6,493
987	Bush	17	1:6,493
987	Christie	17	1:6,493
987	Clairmont	17	1:6,493
987	Cromwell	17	1:6,493
987	Curtis	17	1:6,493
987	Dechabert	17	1:6,493
987	Deller	17	1:6,493
987	Dover	17	1:6,493
987	Drigo	17	1:6,493
987	Dublin	17	1:6,493
987	Ebbesen	17	1:6,493
987	England	17	1:6,493
987	Ephraim	17	1:6,493
987	Estridge	17	1:6,493
987	Evelyn	17	1:6,493
987	Ferreras	17	1:6,493
987	Flynn	17	1:6,493
987	Gill	17	1:6,493
987	Hammond	17	1:6,493
987	Hassell	17	1:6,493
987	Hebert	17	1:6,493
987	Herrera	17	1:6,493
987	Hogan	17	1:6,493
987	Hoover	17	1:6,493
987	Isidore	17	1:6,493
987	Johnston	17	1:6,493
987	Levine	17	1:6,493
987	Llanos	17	1:6,493
987	Marcellin	17	1:6,493
987	Massicot	17	1:6,493
987	Muhammad	17	1:6,493
987	Parks	17	1:6,493
987	Peltier	17	1:6,493
987	Piper	17	1:6,493
987	Polydore	17	1:6,493
987	Prevost	17	1:6,493
987	Sam	17	1:6,493
987	Sharpe	17	1:6,493
987	Shillingford	17	1:6,493
987	Silverman	17	1:6,493
987	Sims	17	1:6,493
987	Snyder	17	1:6,493
987	Vazquez	17	1:6,493
987	Victorine	17	1:6,493
987	Werner	17	1:6,493
987	Weston	17	1:6,493
987	Wyatt	17	1:6,493
