1	Tari	4,013	1:66
2	Garae	3,305	1:80
3	John	2,636	1:100
4	Bule	2,518	1:105
5	Aru	2,360	1:112
6	David	2,242	1:117
6	Jimmy	2,242	1:117
8	Tabi	2,203	1:120
9	Bani	2,046	1:129
10	George	1,967	1:134
10	Kalo	1,967	1:134
12	Obed	1,810	1:145
13	Jack	1,770	1:149
14	Boe	1,692	1:156
14	Toa	1,692	1:156
16	Kalsakau	1,652	1:159
17	Robert	1,534	1:172
18	Joseph	1,495	1:176
18	Sam	1,495	1:176
18	Smith	1,495	1:176
21	James	1,416	1:186
21	Pakoa	1,416	1:186
21	Vira	1,416	1:186
24	Daniel	1,377	1:191
24	Johnson	1,377	1:191
24	Tom	1,377	1:191
27	Dick	1,338	1:197
28	Peter	1,259	1:209
28	Willle	1,259	1:209
30	Simon	1,220	1:216
30	Thomas	1,220	1:216
30	Wilson	1,220	1:216
33	Tamata	1,180	1:223
34	Paul	1,141	1:231
34	Samuel	1,141	1:231
36	Ben	1,062	1:248
36	Willie	1,062	1:248
38	Bong	1,023	1:257
38	Harry	1,023	1:257
40	Joe	983	1:268
41	Abel	944	1:279
42	Malas	905	1:291
43	Kalmet	865	1:304
